600.2.1 = {
	liege = d_datach
}

600.2.2 = {
	holder = 1028652
}

600.4.1 = {
	holding_dynasty = 9117
}

651.2.1 = {
	holder = 1029906
}

652.2.1 = {
	holder = 1032784
}

661.2.1 = {
	holder = 1032913
}

666.2.1 = {
	holder = 1029906
}

667.2.1 = {
	holder = 1032843
}

668.2.1 = {
	holder = 1033821
}

672.2.1 = {
	holder = 1032324
}

672.2.2 = {
	holder = 1034089
}

723.2.1 = {
	holder = 1034694
}

733.2.1 = {
	holder = 1038077
}

761.2.1 = {
	holder = 1038298
}

785.2.1 = {
	holder = 1040145
}

808.2.1 = {
	holder = 1041781
}

818.2.1 = {
	holder = 1043626
}

872.2.1 = {
	holder = 1044377
}

897.2.1 = {
	holder = 1047119
}

