815.2.1 = {
	liege = d_alamulla
}

815.2.2 = {
	holder = 1040706
}

815.4.1 = {
	holding_dynasty = 21078
}

828.2.1 = {
	holder = 1043506
}

835.2.1 = {
	holder = 1044536
}

855.2.1 = {
	holder = 1045624
}

