807.2.1 = {
	liege = d_ryoukben
}

807.2.2 = {
	holder = 1042595
}

807.4.1 = {
	holding_dynasty = 22012
}

851.2.1 = {
	holder = 1043635
}

856.2.1 = {
	holder = 1046098
}

880.2.1 = {
	holder = 1046269
}

894.2.1 = {
	holder = 1048108
}

