200.2.1 = {
	holder = 1000034
	law = succ_elective_gavelkind
	law = cognatic_succession
}

200.2.2 = {
	liege = d_ezcaria
}

200.2.3 = {
	liege = d_ezcaria
}

200.2.4 = {
	holder = 1001778
	law = succ_primogeniture
	law = cognatic_succession
}

200.2.5 = {
	holder = 1002034
}

236.2.1 = {
	holder = 1003151
}

259.2.1 = {
	holder = 1005501
}

293.2.1 = {
	holder = 1003929
}

295.2.1 = {
	holder = 1009374
}

312.2.1 = {
	holder = 1009574
}

345.2.1 = {
	holder = 1011551
}

360.2.1 = {
	holder = 1011092
}

368.2.1 = {
	holder = 1014281
}

406.2.1 = {
	holder = 1014409
}

430.2.1 = {
	holder = 1017125
}

458.2.1 = {
	holder = 1018935
}

479.2.1 = {
	holder = 1020573
}

505.2.1 = {
	holder = 1022096
}

521.2.1 = {
	holder = 1023635
}

526.2.1 = {
	holder = 1024668
}

535.2.1 = {
	holder = 1022636
}

536.2.1 = {
	holder = 1023939
}

537.2.1 = {
	holder = 1025384
}

573.2.1 = {
	holder = 1026525
}

594.2.1 = {
	holder = 1027725
}

595.2.1 = {
	holder = 1026986
}

599.2.1 = {
	holder = 1029193
}

613.2.1 = {
	holder = 1029823
}

632.2.1 = {
	holder = 1030157
}

646.2.1 = {
	holder = 1031698
}

647.2.1 = {
	holder = 1032511
}

686.2.1 = {
	holder = 1033071
}

693.2.1 = {
	holder = 1035506
}

713.2.1 = {
	holder = 1036491
}

782.2.1 = {
	holder = 1039073
}

807.2.1 = {
	holder = 1040606
}

808.2.1 = {
	holder = 1042959
}

825.2.1 = {
	holder = 1043172
}

864.2.1 = {
	holder = 1045074
}

