200.2.1 = {
	holder = 1000005
	law = succ_tanistry
	law = cognatic_succession
}

200.2.2 = {
	holder = 1000486
	law = succ_tanistry
	law = cognatic_succession
}

200.2.3 = {
	liege = d_tanavid
}

200.2.4 = {
	holder = 1000482
	law = succ_tanistry
	law = cognatic_succession
}

215.2.1 = {
	holder = 1002000
}

215.2.2 = {
	holder = 1000545
}

249.2.1 = {
	holder = 1002796
}

270.2.1 = {
	holder = 1005245
}

281.2.1 = {
	holder = 1007431
}

294.2.1 = {
	holder = 1009306
}

329.2.1 = {
	holder = 1008603
}

330.2.1 = {
	holder = 1011838
}

353.2.1 = {
	holder = 1012091
}

361.2.1 = {
	holder = 1011904
}

365.2.1 = {
	holder = 1013827
}

366.2.1 = {
	holder = 1014144
}

378.2.1 = {
	holder = 1014253
}

382.2.1 = {
	holder = 1014374
}

382.2.2 = {
	holder = 1015201
}

402.2.1 = {
	holder = 1012664
}

406.2.1 = {
	holder = 1016682
}

467.2.1 = {
	holder = 1019520
}

484.2.1 = {
	holder = 1020984
}

485.2.1 = {
	holder = 1022034
}

490.2.1 = {
	holder = 1021602
}

500.2.1 = {
	holder = 1022985
}

505.2.1 = {
	holder = 1023308
}

546.2.1 = {
	holder = 1024862
}

562.2.1 = {
	holder = 1026007
}

573.2.1 = {
	holder = 1027018
}

604.2.1 = {
	holder = 1028851
}

660.2.1 = {
	holder = 1030126
}

668.2.1 = {
	holder = 1032889
}

668.2.2 = {
	holder = 1033875
}

669.2.1 = {
	holder = 1032889
}

669.2.2 = {
	holder = 1033942
}

699.2.1 = {
	holder = 1034144
}

724.2.1 = {
	holder = 1036178
}

760.2.1 = {
	holder = 1037664
}

768.2.1 = {
	holder = 1039938
}

794.2.1 = {
	holder = 1041030
}

817.2.1 = {
	holder = 1043597
}

842.2.1 = {
	holder = 1043751
}

873.2.1 = {
	holder = 1045226
}

898.2.1 = {
	holder = 1047170
}

