1.1.1 = {
	holder = 1043564
	law = succ_primogeniture
	law = cognatic_succession
}

101.5.30 = {
	holder = 1043564
}

634.9.15 = {
	holder = 1043564
}

640.9.15 = {
	holder = 1043564
}

812.9.15 = {
	holder = 1043564
}

961.9.15 = {
	holder = 1043564
}

1066.9.15 = {
	holder = 1043564
}


