200.2.1 = {
	holder = 1000033
	law = succ_tanistry
	law = cognatic_succession
}

200.2.2 = {
	holder = 1000034
	law = succ_elective_gavelkind
	law = agnatic_succession
}

200.2.3 = {
	holder = 1001723
	law = succ_elective_gavelkind
	law = cognatic_succession
}

200.2.4 = {
	liege = d_nigaic
}

200.2.5 = {
	holder = 1001721
	law = succ_elective_gavelkind
	law = cognatic_succession
}

244.2.1 = {
	holder = 1002873
}

252.2.1 = {
	holder = 1002903
}

259.2.1 = {
	holder = 1006911
}

280.2.1 = {
	holder = 1004847
}

281.2.1 = {
	holder = 1008423
}

288.2.1 = {
	holder = 1007680
}

327.2.1 = {
	holder = 1008953
}

351.2.1 = {
	holder = 1012017
}

369.2.1 = {
	holder = 1013910
}

374.2.1 = {
	holder = 1014690
}

405.2.1 = {
	holder = 1014755
}

406.2.1 = {
	holder = 1016815
}

420.2.1 = {
	holder = 1017077
}

430.2.1 = {
	holder = 1015650
}

430.2.2 = {
	holder = 1018463
}

600.2.1 = {
	holder = 1027724
}

625.2.1 = {
	holder = 1029258
}

653.2.1 = {
	holder = 1031174
}

680.2.1 = {
	holder = 1033482
}

724.2.1 = {
	holder = 1035495
}

748.2.1 = {
	holder = 1038040
}

786.2.1 = {
	holder = 1039182
}

809.2.1 = {
	holder = 1042179
}

820.2.1 = {
	holder = 1043520
}

847.2.1 = {
	holder = 1044621
}

