200.2.1 = {
	holder = 1000046
	law = succ_open_elective
	law = agnatic_succession
}

200.2.2 = {
	holder = 1000047
	law = succ_elective_gavelkind
	law = agnatic_succession
}

200.2.3 = {
	holder = 1001954
	law = succ_open_elective
	law = agnatic_succession
}

200.2.4 = {
	liege = d_tisofan
}

200.2.5 = {
	holder = 1001953
	law = succ_open_elective
	law = agnatic_succession
}

237.2.1 = {
	holder = 1002745
}

263.2.1 = {
	holder = 1005502
}

293.2.1 = {
	holder = 1007626
}

303.2.1 = {
	holder = 1009376
}

331.2.1 = {
	holder = 1011447
}

342.2.1 = {
	holder = 1012550
}

395.2.1 = {
	holder = 1014217
}

409.2.1 = {
	holder = 1016143
}

429.2.1 = {
	holder = 1017352
}

461.2.1 = {
	holder = 1016258
}

461.2.2 = {
	holder = 1020525
}

462.2.1 = {
	holder = 1020591
}

471.2.1 = {
	holder = 1020526
}

487.2.1 = {
	holder = 1020899
}

493.2.1 = {
	holder = 1022240
}

499.2.1 = {
	holder = 1020783
}

499.2.2 = {
	holder = 1022891
}

503.2.1 = {
	holder = 1020783
}

503.2.2 = {
	holder = 1023209
}

505.2.1 = {
	holder = 1020783
}

509.2.1 = {
	holder = 1021838
}

524.2.1 = {
	holder = 1023831
}

528.2.1 = {
	holder = 1023753
}

529.2.1 = {
	holder = 1024912
}

568.2.1 = {
	holder = 1025043
}

569.2.1 = {
	holder = 1024989
}

569.2.2 = {
	holder = 1025406
}

590.2.1 = {
	holder = 1027522
}

601.2.1 = {
	holder = 1028345
}

622.2.1 = {
	holder = 1029910
}

625.2.1 = {
	holder = 1031073
}

642.2.1 = {
	holder = 1031182
}

668.2.1 = {
	holder = 1032242
}

677.2.1 = {
	holder = 1034005
}

729.2.1 = {
	holder = 1035024
}

747.2.1 = {
	holder = 1037997
}

766.2.1 = {
	holder = 1039446
}

781.2.1 = {
	holder = 1040666
}

843.2.1 = {
	holder = 1042889
}

868.2.1 = {
	holder = 1046809
}

