200.2.1 = {
	holder = 1000007
	law = succ_gavelkind
	law = agnatic_succession
}

200.2.2 = {
	holder = 1000344
	law = succ_gavelkind
	law = agnatic_succession
}

200.2.3 = {
	liege = d_kutojan
}

200.2.4 = {
	holder = 1000341
	law = succ_gavelkind
	law = agnatic_succession
}

227.2.1 = {
	holder = 1001486
}

242.2.1 = {
	holder = 1003608
}

272.2.1 = {
	holder = 1003598
}

273.2.1 = {
	holder = 1005464
}

400.2.1 = {
	holder = 1009736
}

417.2.1 = {
	holder = 1010755
}

456.2.1 = {
	holder = 1013313
}

500.2.1 = {
	holder = 1015410
}

501.2.1 = {
	holder = 1016501
}

528.2.1 = {
	holder = 1017448
}

529.2.1 = {
	holder = 1017844
}

700.2.1 = {
	holder = 1023559
}

713.2.1 = {
	holder = 1025411
}

733.2.1 = {
	holder = 1026979
}

759.2.1 = {
	holder = 1025452
}

759.2.2 = {
	holder = 1026979
}

760.2.1 = {
	holder = 1028927
}

808.2.1 = {
	holder = 1029245
}

839.2.1 = {
	holder = 1030979
}

840.2.1 = {
	holder = 1032857
}

846.2.1 = {
	holder = 1032652
}

862.2.1 = {
	holder = 1033465
}

912.2.1 = {
	holder = 1035526
}

913.2.1 = {
	holder = 1036239
}

1000.2.1 = {
	holder = 1038498
}

1000.2.2 = {
	holder = 1038646
}

1027.2.1 = {
	holder = 1040823
}

1062.2.1 = {
	holder = 1041998
}

