200.2.1 = {
	holder = 1000011
	law = succ_primogeniture
	law = agnatic_succession
}

200.2.2 = {
	holder = 1000810
	law = succ_primogeniture
	law = agnatic_succession
}

200.2.3 = {
	liege = d_damav
}

200.2.4 = {
	holder = 1000811
	law = succ_elective_gavelkind
	law = agnatic_succession
}

200.2.5 = {
	holder = 1000808
	law = succ_primogeniture
	law = agnatic_succession
}

247.2.1 = {
	holder = 1002811
}

255.2.1 = {
	holder = 1006582
}

266.2.1 = {
	holder = 1004939
}

268.2.1 = {
	holder = 1006825
}

270.2.1 = {
	holder = 1007691
}

308.2.1 = {
	holder = 1008759
}

319.2.1 = {
	holder = 1010356
}

329.2.1 = {
	holder = 1011753
}

366.2.1 = {
	holder = 1011843
}

367.2.1 = {
	holder = 1009338
}

371.2.1 = {
	holder = 1012345
}

406.2.1 = {
	holder = 1014397
}

407.2.1 = {
	holder = 1014847
}

417.2.1 = {
	holder = 1015146
}

418.2.1 = {
	holder = 1017636
}

426.2.1 = {
	holder = 1017797
}

431.2.1 = {
	holder = 1018537
}

454.2.1 = {
	holder = 1018912
}

460.2.1 = {
	holder = 1017677
}

460.2.2 = {
	holder = 1020425
}

461.2.1 = {
	holder = 1017797
}

461.2.2 = {
	holder = 1020517
}

488.2.1 = {
	holder = 1019501
}

488.2.2 = {
	holder = 1022249
}

494.2.1 = {
	holder = 1021093
}

506.2.1 = {
	holder = 1022582
}

513.2.1 = {
	holder = 1023646
}

519.2.1 = {
	holder = 1024189
}

526.2.1 = {
	holder = 1024687
}

545.2.1 = {
	holder = 1025236
}

563.2.1 = {
	holder = 1026424
}

605.2.1 = {
	holder = 1028175
}

644.2.1 = {
	holder = 1030133
}

672.2.1 = {
	holder = 1032734
}

703.2.1 = {
	holder = 1034996
}

722.2.1 = {
	holder = 1037464
}

763.2.1 = {
	holder = 1038510
}

765.2.1 = {
	holder = 1039723
}

807.2.1 = {
	holder = 1040961
}

831.2.1 = {
	holder = 1043405
}

862.2.1 = {
	holder = 1044910
}

868.2.1 = {
	holder = 1043304
}

869.2.1 = {
	holder = 1045470
}

895.2.1 = {
	holder = 1047411
}

