200.2.1 = {
	holder = 1000015
	law = succ_seniority
	law = cognatic_succession
}

200.2.2 = {
	holder = 1000016
	law = succ_primogeniture
	law = cognatic_succession
}

200.2.3 = {
	holder = 1000531
	law = succ_tanistry
	law = agnatic_succession
}

200.2.4 = {
	liege = d_dahim
}

200.2.5 = {
	holder = 1000530
	law = succ_tanistry
	law = agnatic_succession
}

236.2.1 = {
	holder = 1002322
}

238.2.1 = {
	holder = 1003422
}

239.2.1 = {
	holder = 1003868
}

291.2.1 = {
	holder = 1006318
}

310.2.1 = {
	holder = 1007261
}

322.2.1 = {
	holder = 1007279
}

374.2.1 = {
	holder = 1008206
}

393.2.1 = {
	holder = 1010411
}

394.2.1 = {
	holder = 1010212
}

395.2.1 = {
	holder = 1011373
}

434.2.1 = {
	holder = 1013039
}

440.2.1 = {
	holder = 1010354
}

445.2.1 = {
	holder = 1012369
}

462.2.1 = {
	holder = 1014322
}

465.2.1 = {
	holder = 1012593
}

465.2.2 = {
	holder = 1014724
}

466.2.1 = {
	holder = 1012593
}

467.2.1 = {
	holder = 1014806
}

512.2.1 = {
	holder = 1015323
}

521.2.1 = {
	holder = 1017466
}

575.2.1 = {
	holder = 1019397
}

586.2.1 = {
	holder = 1020660
}

623.2.1 = {
	holder = 1021782
}

630.2.1 = {
	holder = 1020191
}

631.2.1 = {
	holder = 1022751
}

643.2.1 = {
	holder = 1022817
}

669.2.1 = {
	holder = 1023767
}

690.2.1 = {
	holder = 1024610
}

711.2.1 = {
	holder = 1025861
}

733.2.1 = {
	holder = 1026949
}

759.2.1 = {
	holder = 1028157
}

780.2.1 = {
	holder = 1029448
}

830.2.1 = {
	holder = 1030743
}

831.2.1 = {
	holder = 1031988
}

832.2.1 = {
	holder = 1032484
}

842.2.1 = {
	holder = 1030551
}

842.2.2 = {
	holder = 1033014
}

868.2.1 = {
	holder = 1033862
}

915.2.1 = {
	holder = 1035226
}

932.2.1 = {
	holder = 1036732
}

977.2.1 = {
	holder = 1037815
}

1011.2.1 = {
	holder = 1039413
}

1012.2.1 = {
	holder = 1041003
}

1044.2.1 = {
	holder = 1041466
}

1056.2.1 = {
	holder = 1042869
}

