200.2.1 = {
	holder = 1000003
	law = succ_tanistry
	law = cognatic_succession
}

200.2.2 = {
	holder = 1000374
	law = succ_tanistry
	law = cognatic_succession
}

200.2.3 = {
	liege = d_bistos
}

200.2.4 = {
	holder = 1000375
	law = succ_elective_gavelkind
	law = agnatic_succession
}

200.2.5 = {
	holder = 1000372
	law = succ_tanistry
	law = cognatic_succession
}

236.2.1 = {
	holder = 1002119
}

241.2.1 = {
	holder = 1004294
}

255.2.1 = {
	holder = 1006646
}

265.2.1 = {
	holder = 1006997
}

276.2.1 = {
	holder = 1005423
}

276.2.2 = {
	holder = 1008107
}

300.2.1 = {
	holder = 1008130
}

302.2.1 = {
	holder = 1007857
}

315.2.1 = {
	holder = 1010813
}

340.2.1 = {
	holder = 1011386
}

356.2.1 = {
	holder = 1012743
}

407.2.1 = {
	holder = 1013785
}

412.2.1 = {
	holder = 1016975
}

450.2.1 = {
	holder = 1018617
}

451.2.1 = {
	holder = 1017210
}

451.2.2 = {
	holder = 1019884
}

487.2.1 = {
	holder = 1020154
}

520.2.1 = {
	holder = 1022195
}

541.2.1 = {
	holder = 1024477
}

580.2.1 = {
	holder = 1025681
}

595.2.1 = {
	holder = 1028237
}

601.2.1 = {
	holder = 1028401
}

601.2.2 = {
	holder = 1029514
}

651.2.1 = {
	holder = 1029784
}

667.2.1 = {
	holder = 1033385
}

669.2.1 = {
	holder = 1030383
}

673.2.1 = {
	holder = 1032337
}

707.2.1 = {
	holder = 1034275
}

728.2.1 = {
	holder = 1037295
}

732.2.1 = {
	holder = 1034254
}

732.2.2 = {
	holder = 1035107
}

743.2.1 = {
	holder = 1038142
}

779.2.1 = {
	holder = 1039148
}

801.2.1 = {
	holder = 1041536
}

805.2.1 = {
	holder = 1042686
}

851.2.1 = {
	holder = 1044915
}

879.2.1 = {
	holder = 1046192
}

