200.2.1 = {
	holder = 1000000
	law = succ_primogeniture
	law = cognatic_succession
}

200.2.2 = {
	holder = 1000051
	law = succ_primogeniture
	law = cognatic_succession
}

200.2.3 = {
	liege = d_tatsawa
}

200.2.4 = {
	liege = d_tatsawa
}

200.2.5 = {
	holder = 1000048
	law = succ_primogeniture
	law = cognatic_succession
}

223.2.1 = {
	holder = 1000052
}

223.2.2 = {
	holder = 1003105
}

400.2.1 = {
	holder = 1009736
}

400.2.2 = {
	holder = 1011617
}

500.2.1 = {
	holder = 1013313
}

500.2.2 = {
	holder = 1016428
}

600.2.1 = {
	holder = 1020962
}

600.2.2 = {
	holder = 1021265
}

700.2.1 = {
	holder = 1024048
}

700.2.2 = {
	holder = 1026029
}

800.2.1 = {
	holder = 1028247
}

805.2.1 = {
	holder = 1029956
}

816.2.1 = {
	holder = 1030132
}

816.2.2 = {
	holder = 1031746
}

824.2.1 = {
	holder = 1032025
}

845.2.1 = {
	holder = 1032816
}

902.2.1 = {
	holder = 1034029
}

932.2.1 = {
	holder = 1035862
}

937.2.1 = {
	holder = 1037228
}

989.2.1 = {
	holder = 1037971
}

1009.2.1 = {
	holder = 1040082
}

1065.2.1 = {
	holder = 1041172
}

1065.2.2 = {
	holder = 1043520
}

