200.2.1 = {
	holder = 1000004
	law = succ_elective_gavelkind
	law = agnatic_succession
}

200.2.2 = {
	holder = 1000209
	law = succ_elective_gavelkind
	law = agnatic_succession
}

200.2.3 = {
	liege = d_danrkigcata
}

200.2.4 = {
	holder = 1000208
	law = succ_elective_gavelkind
	law = agnatic_succession
}

200.2.5 = {
	holder = 1001381
}

200.2.6 = {
	holder = 1000199
}

247.2.1 = {
	holder = 1002071
}

259.2.1 = {
	holder = 1004707
}

261.2.1 = {
	holder = 1004672
}

265.2.1 = {
	holder = 1004856
}

283.2.1 = {
	holder = 1005937
}

355.2.1 = {
	holder = 1007071
}

363.2.1 = {
	holder = 1009484
}

367.2.1 = {
	holder = 1010005
}

379.2.1 = {
	holder = 1007772
}

380.2.1 = {
	holder = 1010643
}

431.2.1 = {
	holder = 1011104
}

442.2.1 = {
	holder = 1013181
}

443.2.1 = {
	holder = 1013077
}

443.2.2 = {
	holder = 1010553
}

500.2.1 = {
	holder = 1015414
}

526.2.1 = {
	holder = 1016422
}

553.2.1 = {
	holder = 1018171
}

581.2.1 = {
	holder = 1019748
}

587.2.1 = {
	holder = 1020679
}

616.2.1 = {
	holder = 1021879
}

643.2.1 = {
	holder = 1022697
}

682.2.1 = {
	holder = 1023597
}

703.2.1 = {
	holder = 1024547
}

704.2.1 = {
	holder = 1024050
}

800.2.1 = {
	holder = 1029438
}

838.2.1 = {
	holder = 1030465
}

839.2.1 = {
	holder = 1032477
}

839.2.2 = {
	holder = 1032821
}

871.2.1 = {
	holder = 1033271
}

913.2.1 = {
	holder = 1034616
}

942.2.1 = {
	holder = 1036349
}

963.2.1 = {
	holder = 1038219
}

976.2.1 = {
	holder = 1036672
}

976.2.2 = {
	holder = 1039222
}

1066.2.1 = {
	holder = 1043125
}

