200.2.1 = {
	holder = 1000001
	law = succ_elective_gavelkind
	law = cognatic_succession
}

200.2.2 = {
	liege = d_rodelia
}

200.2.3 = {
	liege = d_tanorut
}

200.2.4 = {
	holder = 1000060
	law = succ_elective_gavelkind
	law = cognatic_succession
}

212.2.1 = {
	holder = 1001913
}

233.2.1 = {
	holder = 1003430
}

247.2.1 = {
	holder = 1001414
}

248.2.1 = {
	holder = 1004282
}

400.2.1 = {
	holder = 1004284
}

400.2.2 = {
	holder = 1004946
}

408.2.1 = {
	holder = 1011047
}

418.2.1 = {
	holder = 1012043
}

424.2.1 = {
	holder = 1012143
}

435.2.1 = {
	holder = 1012666
}

468.2.1 = {
	holder = 1013853
}

469.2.1 = {
	holder = 1014887
}

600.2.1 = {
	holder = 1020515
}

615.2.1 = {
	holder = 1021419
}

616.2.1 = {
	holder = 1021377
}

616.2.2 = {
	holder = 1022031
}

800.2.1 = {
	holder = 1029681
}

810.2.1 = {
	holder = 1030299
}

828.2.1 = {
	holder = 1031471
}

861.2.1 = {
	holder = 1032334
}

870.2.1 = {
	holder = 1033547
}

870.2.2 = {
	holder = 1034263
}

892.2.1 = {
	holder = 1034392
}

906.2.1 = {
	holder = 1035634
}

952.2.1 = {
	holder = 1036615
}

959.2.1 = {
	holder = 1038257
}

964.2.1 = {
	holder = 1038631
}

1010.2.1 = {
	holder = 1040046
}

1052.2.1 = {
	holder = 1042901
}

