200.2.1 = {
	holder = 1000017
	law = succ_primogeniture
	law = agnatic_succession
}

200.2.2 = {
	holder = 1001142
	law = succ_primogeniture
	law = agnatic_succession
}

200.2.3 = {
	liege = d_dawozar
}

200.2.4 = {
	liege = d_dawozar
}

200.2.5 = {
	holder = 1001138
	law = succ_primogeniture
	law = agnatic_succession
}

200.2.6 = {
	holder = 1002018
}

225.2.1 = {
	holder = 1002759
}

226.2.1 = {
	holder = 1004675
}

400.2.1 = {
	holder = 1014720
}

405.2.1 = {
	holder = 1016734
}

431.2.1 = {
	holder = 1016123
}

464.2.1 = {
	holder = 1018287
}

509.2.1 = {
	holder = 1020748
}

522.2.1 = {
	holder = 1022153
}

522.2.2 = {
	holder = 1024366
}

543.2.1 = {
	holder = 1024946
}

570.2.1 = {
	holder = 1026385
}

591.2.1 = {
	holder = 1026931
}

605.2.1 = {
	holder = 1026974
}

621.2.1 = {
	holder = 1027778
}

621.2.2 = {
	holder = 1030792
}

633.2.1 = {
	holder = 1030796
}

653.2.1 = {
	holder = 1031883
}

663.2.1 = {
	holder = 1033090
}

691.2.1 = {
	holder = 1033713
}

692.2.1 = {
	holder = 1035439
}

716.2.1 = {
	holder = 1035544
}

769.2.1 = {
	holder = 1037914
}

784.2.1 = {
	holder = 1041161
}

785.2.1 = {
	holder = 1037807
}

790.2.1 = {
	holder = 1037983
}

791.2.1 = {
	holder = 1041805
}

792.2.1 = {
	holder = 1041222
}

833.2.1 = {
	holder = 1043871
}

844.2.1 = {
	holder = 1042323
}

844.2.2 = {
	holder = 1045324
}

872.2.1 = {
	holder = 1043903
}

872.2.2 = {
	holder = 1047098
}

883.2.1 = {
	holder = 1047782
}

