200.2.1 = {
	holder = 1000039
	law = succ_feudal_elective
	law = cognatic_succession
}

200.2.2 = {
	holder = 1001304
	law = succ_feudal_elective
	law = cognatic_succession
}

200.2.3 = {
	liege = d_torict
}

200.2.4 = {
	holder = 1001305
	law = succ_primogeniture
	law = cognatic_succession
}

200.2.5 = {
	holder = 1001302
	law = succ_feudal_elective
	law = cognatic_succession
}

219.2.1 = {
	holder = 1002587
}

247.2.1 = {
	holder = 1002963
}

247.2.2 = {
	holder = 1004272
}

264.2.1 = {
	holder = 1003375
}

265.2.1 = {
	holder = 1004840
}

318.2.1 = {
	holder = 1007668
}

323.2.1 = {
	holder = 1007755
}

357.2.1 = {
	holder = 1009517
}

424.2.1 = {
	holder = 1010884
}

429.2.1 = {
	holder = 1012970
}

470.2.1 = {
	holder = 1013949
}

475.2.1 = {
	holder = 1013013
}

475.2.2 = {
	holder = 1015251
}

498.2.1 = {
	holder = 1015494
}

519.2.1 = {
	holder = 1017398
}

553.2.1 = {
	holder = 1018211
}

588.2.1 = {
	holder = 1019307
}

599.2.1 = {
	holder = 1021253
}

649.2.1 = {
	holder = 1021487
}

669.2.1 = {
	holder = 1023668
}

749.2.1 = {
	holder = 1024681
}

755.2.1 = {
	holder = 1028511
}

802.2.1 = {
	holder = 1029728
}

838.2.1 = {
	holder = 1031185
}

864.2.1 = {
	holder = 1033695
}

865.2.1 = {
	holder = 1034069
}

914.2.1 = {
	holder = 1034174
}

929.2.1 = {
	holder = 1037016
}

936.2.1 = {
	holder = 1037211
}

936.2.2 = {
	holder = 1037371
}

955.2.1 = {
	holder = 1037626
}

1000.2.1 = {
	holder = 1040171
}

1027.2.1 = {
	holder = 1041716
}

1036.2.1 = {
	holder = 1041848
}

1041.2.1 = {
	holder = 1041849
}

1041.2.2 = {
	holder = 1042438
}

1059.2.1 = {
	holder = 1040715
}

1064.2.1 = {
	holder = 1042472
}

