200.2.1 = {
	holder = 1000019
	law = succ_primogeniture
	law = agnatic_succession
}

200.2.2 = {
	holder = 1000644
	law = succ_primogeniture
	law = agnatic_succession
}

200.2.3 = {
	liege = d_qanampa
}

200.2.4 = {
	holder = 1000643
	law = succ_primogeniture
	law = agnatic_succession
}

226.2.1 = {
	holder = 1002557
}

269.2.1 = {
	holder = 1003446
}

270.2.1 = {
	holder = 1004907
}

279.2.1 = {
	holder = 1005125
}

300.2.1 = {
	holder = 1006755
}

400.2.1 = {
	holder = 1009973
}

407.2.1 = {
	holder = 1011402
}

417.2.1 = {
	holder = 1012543
}

448.2.1 = {
	holder = 1013070
}

461.2.1 = {
	holder = 1013981
}

474.2.1 = {
	holder = 1014708
}

516.2.1 = {
	holder = 1015561
}

536.2.1 = {
	holder = 1017715
}

544.2.1 = {
	holder = 1018235
}

546.2.1 = {
	holder = 1016662
}

567.2.1 = {
	holder = 1018384
}

569.2.1 = {
	holder = 1018801
}

589.2.1 = {
	holder = 1018926
}

615.2.1 = {
	holder = 1020940
}

618.2.1 = {
	holder = 1021944
}

658.2.1 = {
	holder = 1022733
}

672.2.1 = {
	holder = 1024199
}

674.2.1 = {
	holder = 1020587
}

675.2.1 = {
	holder = 1022316
}

685.2.1 = {
	holder = 1024349
}

700.2.1 = {
	holder = 1025451
}

743.2.1 = {
	holder = 1026520
}

764.2.1 = {
	holder = 1028235
}

777.2.1 = {
	holder = 1029383
}

798.2.1 = {
	holder = 1030645
}

809.2.1 = {
	holder = 1028902
}

810.2.1 = {
	holder = 1031437
}

900.2.1 = {
	holder = 1033867
}

917.2.1 = {
	holder = 1035626
}

940.2.1 = {
	holder = 1035968
}

952.2.1 = {
	holder = 1036096
}

984.2.1 = {
	holder = 1038708
}

995.2.1 = {
	holder = 1040122
}

