200.2.1 = {
	holder = 1000033
	law = succ_tanistry
	law = cognatic_succession
}

200.2.2 = {
	holder = 1001632
	law = succ_tanistry
	law = cognatic_succession
}

200.2.3 = {
	liege = d_esularn
}

200.2.4 = {
	liege = d_kerasa
}

200.2.5 = {
	holder = 1001697
	law = succ_tanistry
	law = cognatic_succession
}

201.2.1 = {
	holder = 1001658
}

202.2.1 = {
	holder = 1002865
}

217.2.1 = {
	holder = 1002867
}

218.2.1 = {
	holder = 1004150
}

240.2.1 = {
	holder = 1004847
}

241.2.1 = {
	holder = 1005622
}

295.2.1 = {
	holder = 1006631
}

300.2.1 = {
	holder = 1009723
}

323.2.1 = {
	holder = 1009724
}

333.2.1 = {
	holder = 1011825
}

378.2.1 = {
	holder = 1014923
}

414.2.1 = {
	holder = 1015388
}

433.2.1 = {
	holder = 1017490
}

472.2.1 = {
	holder = 1018785
}

495.2.1 = {
	holder = 1021818
}

545.2.1 = {
	holder = 1022169
}

552.2.1 = {
	holder = 1025256
}

582.2.1 = {
	holder = 1026444
}

700.2.1 = {
	holder = 1033015
}

701.2.1 = {
	holder = 1036078
}

707.2.1 = {
	holder = 1034364
}

721.2.1 = {
	holder = 1037199
}

723.2.1 = {
	holder = 1037513
}

730.2.1 = {
	holder = 1037640
}

786.2.1 = {
	holder = 1038709
}

797.2.1 = {
	holder = 1041641
}

841.2.1 = {
	holder = 1043455
}

870.2.1 = {
	holder = 1045766
}

874.2.1 = {
	holder = 1046739
}

875.2.1 = {
	holder = 1047264
}

