200.2.1 = {
	holder = 1000003
	law = succ_gavelkind
	law = cognatic_succession
}

200.2.2 = {
	liege = d_qandefa
}

200.2.3 = {
	liege = d_qandefa
}

200.2.4 = {
	holder = 1000182
	law = succ_elective_gavelkind
	law = agnatic_succession
}

217.2.1 = {
	holder = 1002305
}

229.2.1 = {
	holder = 1000199
}

229.2.2 = {
	holder = 1003420
}

247.2.1 = {
	holder = 1002071
}

259.2.1 = {
	holder = 1004707
}

261.2.1 = {
	holder = 1004672
}

265.2.1 = {
	holder = 1004856
}

266.2.1 = {
	holder = 1005192
}

278.2.1 = {
	holder = 1005379
}

287.2.1 = {
	holder = 1006127
}

288.2.1 = {
	holder = 1005018
}

289.2.1 = {
	holder = 1006205
}

307.2.1 = {
	holder = 1006463
}

367.2.1 = {
	holder = 1007772
}

387.2.1 = {
	holder = 1009151
}

403.2.1 = {
	holder = 1010749
}

407.2.1 = {
	holder = 1009834
}

408.2.1 = {
	holder = 1012085
}

413.2.1 = {
	holder = 1010120
}

413.2.2 = {
	holder = 1012346
}

454.2.1 = {
	holder = 1012588
}

458.2.1 = {
	holder = 1014316
}

518.2.1 = {
	holder = 1015371
}

546.2.1 = {
	holder = 1017755
}

560.2.1 = {
	holder = 1019002
}

627.2.1 = {
	holder = 1022036
}

628.2.1 = {
	holder = 1022630
}

663.2.1 = {
	holder = 1022800
}

693.2.1 = {
	holder = 1024547
}

721.2.1 = {
	holder = 1025935
}

767.2.1 = {
	holder = 1027187
}

773.2.1 = {
	holder = 1029189
}

774.2.1 = {
	holder = 1029634
}

811.2.1 = {
	holder = 1030086
}

828.2.1 = {
	holder = 1031805
}

868.2.1 = {
	holder = 1032973
}

899.2.1 = {
	holder = 1034678
}

900.2.1 = {
	holder = 1035636
}

1000.2.1 = {
	holder = 1038638
}

1002.2.1 = {
	holder = 1040241
}

1007.2.1 = {
	holder = 1040181
}

1007.2.2 = {
	holder = 1040725
}

1010.2.1 = {
	holder = 1040181
}

1010.2.2 = {
	holder = 1040867
}

1017.2.1 = {
	holder = 1038546
}

1017.2.2 = {
	holder = 1041226
}

