200.2.1 = {
	holder = 1000038
	law = succ_tanistry
	law = cognatic_succession
}

200.2.2 = {
	holder = 1000039
	law = succ_primogeniture
	law = cognatic_succession
}

200.2.3 = {
	holder = 1001271
	law = succ_feudal_elective
	law = cognatic_succession
}

200.2.4 = {
	liege = d_watija
}

200.2.5 = {
	holder = 1001270
	law = succ_feudal_elective
	law = cognatic_succession
}

214.2.1 = {
	holder = 1001723
}

252.2.1 = {
	holder = 1002947
}

272.2.1 = {
	holder = 1004623
}

279.2.1 = {
	holder = 1001995
}

280.2.1 = {
	holder = 1005820
}

293.2.1 = {
	holder = 1004842
}

294.2.1 = {
	holder = 1006499
}

295.2.1 = {
	holder = 1005829
}

310.2.1 = {
	holder = 1005978
}

316.2.1 = {
	holder = 1007500
}

321.2.1 = {
	holder = 1006170
}

321.2.2 = {
	holder = 1006106
}

329.2.1 = {
	holder = 1008023
}

334.2.1 = {
	holder = 1006170
}

360.2.1 = {
	holder = 1007617
}

373.2.1 = {
	holder = 1010012
}

374.2.1 = {
	holder = 1010344
}

389.2.1 = {
	holder = 1010051
}

390.2.1 = {
	holder = 1011149
}

407.2.1 = {
	holder = 1011356
}

449.2.1 = {
	holder = 1012184
}

468.2.1 = {
	holder = 1014109
}

495.2.1 = {
	holder = 1015142
}

512.2.1 = {
	holder = 1016468
}

540.2.1 = {
	holder = 1015885
}

541.2.1 = {
	holder = 1018144
}

571.2.1 = {
	holder = 1019934
}

597.2.1 = {
	holder = 1020030
}

625.2.1 = {
	holder = 1021215
}

638.2.1 = {
	holder = 1020897
}

651.2.1 = {
	holder = 1023700
}

676.2.1 = {
	holder = 1023934
}

718.2.1 = {
	holder = 1024927
}

781.2.1 = {
	holder = 1028008
}

787.2.1 = {
	holder = 1030283
}

808.2.1 = {
	holder = 1030288
}

813.2.1 = {
	holder = 1031517
}

849.2.1 = {
	holder = 1032801
}

884.2.1 = {
	holder = 1034294
}

907.2.1 = {
	holder = 1035052
}

933.2.1 = {
	holder = 1036517
}

935.2.1 = {
	holder = 1037267
}

983.2.1 = {
	holder = 1038097
}

1010.2.1 = {
	holder = 1040110
}

1035.2.1 = {
	holder = 1041155
}

1057.2.1 = {
	holder = 1042520
}

