200.2.1 = {
	holder = 1000018
	law = succ_feudal_elective
	law = agnatic_succession
}

200.2.2 = {
	holder = 1000581
	law = succ_feudal_elective
	law = agnatic_succession
}

200.2.3 = {
	liege = d_edama
}

200.2.4 = {
	holder = 1000580
	law = succ_feudal_elective
	law = agnatic_succession
}

200.2.5 = {
	holder = 1000620
}

237.2.1 = {
	holder = 1002113
}

251.2.1 = {
	holder = 1002590
}

251.2.2 = {
	holder = 1004490
}

400.2.1 = {
	holder = 1010648
}

400.2.2 = {
	holder = 1011678
}

500.2.1 = {
	holder = 1014913
}

515.2.1 = {
	holder = 1015325
}

520.2.1 = {
	holder = 1017442
}

578.2.1 = {
	holder = 1019621
}

580.2.1 = {
	holder = 1018320
}

580.2.2 = {
	holder = 1020363
}

581.2.1 = {
	holder = 1018320
}

598.2.1 = {
	holder = 1021225
}

609.2.1 = {
	holder = 1021646
}

617.2.1 = {
	holder = 1020380
}

638.2.1 = {
	holder = 1021284
}

644.2.1 = {
	holder = 1022504
}

644.2.2 = {
	holder = 1023424
}

667.2.1 = {
	holder = 1022504
}

667.2.2 = {
	holder = 1024452
}

683.2.1 = {
	holder = 1024045
}

688.2.1 = {
	holder = 1025496
}

700.2.1 = {
	holder = 1025945
}

757.2.1 = {
	holder = 1027045
}

772.2.1 = {
	holder = 1029067
}

776.2.1 = {
	holder = 1028734
}

776.2.2 = {
	holder = 1029802
}

813.2.1 = {
	holder = 1029914
}

840.2.1 = {
	holder = 1032242
}

847.2.1 = {
	holder = 1033051
}

871.2.1 = {
	holder = 1034136
}

896.2.1 = {
	holder = 1035475
}

897.2.1 = {
	holder = 1032662
}

908.2.1 = {
	holder = 1035736
}

934.2.1 = {
	holder = 1036263
}

934.2.2 = {
	holder = 1037249
}

1066.2.1 = {
	holder = 1042442
}

