200.2.1 = {
	holder = 1000022
	law = succ_tanistry
	law = agnatic_succession
}

200.2.2 = {
	holder = 1001362
	law = succ_tanistry
	law = agnatic_succession
}

200.2.3 = {
	liege = d_lelij
}

200.2.4 = {
	holder = 1001361
	law = succ_tanistry
	law = agnatic_succession
}

241.2.1 = {
	holder = 1002845
}

253.2.1 = {
	holder = 1005748
}

258.2.1 = {
	holder = 1005404
}

258.2.2 = {
	holder = 1006842
}

400.2.1 = {
	holder = 1015888
}

439.2.1 = {
	holder = 1016149
}

481.2.1 = {
	holder = 1021171
}

485.2.1 = {
	holder = 1021169
}

516.2.1 = {
	holder = 1021753
}

557.2.1 = {
	holder = 1024164
}

564.2.1 = {
	holder = 1026709
}

579.2.1 = {
	holder = 1027142
}

584.2.1 = {
	holder = 1028383
}

594.2.1 = {
	holder = 1028635
}

604.2.1 = {
	holder = 1028382
}

653.2.1 = {
	holder = 1028577
}

654.2.1 = {
	holder = 1032937
}

800.2.1 = {
	holder = 1039064
}

802.2.1 = {
	holder = 1042535
}

807.2.1 = {
	holder = 1042734
}

828.2.1 = {
	holder = 1043952
}

872.2.1 = {
	holder = 1045423
}

892.2.1 = {
	holder = 1047313
}

893.2.1 = {
	holder = 1048456
}

