200.2.1 = {
	holder = 1000017
	law = succ_primogeniture
	law = agnatic_succession
}

200.2.2 = {
	holder = 1001164
	law = succ_primogeniture
	law = agnatic_succession
}

200.2.3 = {
	liege = d_sawmiarawkalaramsa
}

200.2.4 = {
	holder = 1001165
	law = succ_elective_gavelkind
	law = agnatic_succession
}

200.2.5 = {
	holder = 1001162
	law = succ_primogeniture
	law = agnatic_succession
}

202.2.1 = {
	holder = 1002018
}

206.2.1 = {
	holder = 1003348
}

243.2.1 = {
	holder = 1003564
}

261.2.1 = {
	holder = 1006949
}

266.2.1 = {
	holder = 1005086
}

266.2.2 = {
	holder = 1007418
}

303.2.1 = {
	holder = 1007666
}

319.2.1 = {
	holder = 1010020
}

346.2.1 = {
	holder = 1011069
}

352.2.1 = {
	holder = 1013231
}

361.2.1 = {
	holder = 1012682
}

375.2.1 = {
	holder = 1014720
}

405.2.1 = {
	holder = 1016735
}

411.2.1 = {
	holder = 1014720
}

411.2.2 = {
	holder = 1017142
}

418.2.1 = {
	holder = 1017402
}

436.2.1 = {
	holder = 1016123
}

437.2.1 = {
	holder = 1016188
}

441.2.1 = {
	holder = 1018919
}

466.2.1 = {
	holder = 1020174
}

472.2.1 = {
	holder = 1019599
}

508.2.1 = {
	holder = 1022153
}

522.2.1 = {
	holder = 1024365
}

530.2.1 = {
	holder = 1021672
}

538.2.1 = {
	holder = 1023142
}

557.2.1 = {
	holder = 1026184
}

582.2.1 = {
	holder = 1028271
}

586.2.1 = {
	holder = 1025371
}

594.2.1 = {
	holder = 1028631
}

621.2.1 = {
	holder = 1029681
}

654.2.1 = {
	holder = 1031108
}

691.2.1 = {
	holder = 1033713
}

702.2.1 = {
	holder = 1036156
}

728.2.1 = {
	holder = 1037840
}

738.2.1 = {
	holder = 1037915
}

793.2.1 = {
	holder = 1039009
}

803.2.1 = {
	holder = 1042532
}

863.2.1 = {
	holder = 1043818
}

882.2.1 = {
	holder = 1047098
}

900.2.1 = {
	holder = 1047503
}

