200.2.1 = {
	holder = 1000043
	law = succ_ultimogeniture
	law = agnatic_succession
}

200.2.2 = {
	holder = 1001845
	law = succ_ultimogeniture
	law = agnatic_succession
}

200.2.3 = {
	liege = d_roniltet
}

200.2.4 = {
	holder = 1001846
	law = succ_elective_gavelkind
	law = agnatic_succession
}

200.2.5 = {
	holder = 1001843
	law = succ_ultimogeniture
	law = agnatic_succession
}

224.2.1 = {
	holder = 1003731
}

262.2.1 = {
	holder = 1004735
}

280.2.1 = {
	holder = 1007919
}

281.2.1 = {
	holder = 1005896
}

282.2.1 = {
	holder = 1008482
}

400.2.1 = {
	holder = 1016136
}

451.2.1 = {
	holder = 1018179
}

458.2.1 = {
	holder = 1020005
}

492.2.1 = {
	holder = 1021157
}

515.2.1 = {
	holder = 1023195
}

543.2.1 = {
	holder = 1024973
}

589.2.1 = {
	holder = 1027050
}

610.2.1 = {
	holder = 1029895
}

626.2.1 = {
	holder = 1030488
}

626.2.2 = {
	holder = 1031119
}

635.2.1 = {
	holder = 1031245
}

645.2.1 = {
	holder = 1027464
}

650.2.1 = {
	holder = 1032445
}

681.2.1 = {
	holder = 1034375
}

707.2.1 = {
	holder = 1035293
}

708.2.1 = {
	holder = 1036560
}

800.2.1 = {
	holder = 1036561
}

800.2.2 = {
	holder = 1040415
}

811.2.1 = {
	holder = 1041242
}

818.2.1 = {
	holder = 1043397
}

878.2.1 = {
	holder = 1044691
}

895.2.1 = {
	holder = 1047522
}

898.2.1 = {
	holder = 1046240
}

898.2.2 = {
	holder = 1048785
}

