200.2.1 = {
	holder = 1000014
	law = succ_elective_gavelkind
	law = agnatic_succession
}

200.2.2 = {
	holder = 1000941
	law = succ_elective_gavelkind
	law = agnatic_succession
}

200.2.3 = {
	liege = d_kelonatru
}

200.2.4 = {
	liege = d_sanamba
}

200.2.5 = {
	holder = 1000945
	law = succ_elective_gavelkind
	law = agnatic_succession
}

236.2.1 = {
	holder = 1003198
}

241.2.1 = {
	holder = 1000923
}

242.2.1 = {
	holder = 1005674
}

244.2.1 = {
	holder = 1005850
}

260.2.1 = {
	holder = 1005460
}

261.2.1 = {
	holder = 1007011
}

310.2.1 = {
	holder = 1009404
}

351.2.1 = {
	holder = 1010540
}

376.2.1 = {
	holder = 1013292
}

414.2.1 = {
	holder = 1015105
}

445.2.1 = {
	holder = 1017680
}

474.2.1 = {
	holder = 1020104
}

486.2.1 = {
	holder = 1022004
}

505.2.1 = {
	holder = 1023103
}

531.2.1 = {
	holder = 1024094
}

552.2.1 = {
	holder = 1025639
}

564.2.1 = {
	holder = 1027030
}

574.2.1 = {
	holder = 1027200
}

580.2.1 = {
	holder = 1025564
}

581.2.1 = {
	holder = 1028180
}

631.2.1 = {
	holder = 1029546
}

632.2.1 = {
	holder = 1030257
}

633.2.1 = {
	holder = 1031551
}

644.2.1 = {
	holder = 1032063
}

652.2.1 = {
	holder = 1030257
}

658.2.1 = {
	holder = 1031744
}

658.2.2 = {
	holder = 1033176
}

694.2.1 = {
	holder = 1035538
}

730.2.1 = {
	holder = 1035942
}

739.2.1 = {
	holder = 1037369
}

763.2.1 = {
	holder = 1040024
}

791.2.1 = {
	holder = 1040449
}

818.2.1 = {
	holder = 1042592
}

822.2.1 = {
	holder = 1040302
}

829.2.1 = {
	holder = 1043153
}

830.2.1 = {
	holder = 1044430
}

833.2.1 = {
	holder = 1043153
}

833.2.2 = {
	holder = 1044638
}

861.2.1 = {
	holder = 1045046
}

