200.2.1 = {
	holder = 1000034
	law = succ_elective_gavelkind
	law = cognatic_succession
}

200.2.2 = {
	holder = 1001705
	law = succ_elective_gavelkind
	law = cognatic_succession
}

200.2.3 = {
	liege = d_rogern
}

200.2.4 = {
	liege = d_rogern
}

200.2.5 = {
	holder = 1001701
	law = succ_elective_gavelkind
	law = cognatic_succession
}

245.2.1 = {
	holder = 1003927
}

259.2.1 = {
	holder = 1002903
}

259.2.2 = {
	holder = 1006913
}

400.2.1 = {
	holder = 1006914
}

409.2.1 = {
	holder = 1016816
}

420.2.1 = {
	holder = 1017077
}

430.2.1 = {
	holder = 1015650
}

430.2.2 = {
	holder = 1018461
}

600.2.1 = {
	holder = 1018513
}

600.2.2 = {
	holder = 1020506
}

702.2.1 = {
	holder = 1036080
}

800.2.1 = {
	holder = 1039438
}

800.2.2 = {
	holder = 1042395
}

900.2.1 = {
	holder = 1048187
}

