200.2.1 = {
	holder = 1000003
	law = succ_tanistry
	law = cognatic_succession
}

200.2.2 = {
	holder = 1000377
	law = succ_tanistry
	law = cognatic_succession
}

200.2.3 = {
	liege = d_kaimetihl
}

200.2.4 = {
	holder = 1000376
	law = succ_tanistry
	law = cognatic_succession
}

200.2.5 = {
	holder = 1001993
}

208.2.1 = {
	holder = 1003137
}

220.2.1 = {
	holder = 1004294
}

274.2.1 = {
	holder = 1005423
}

289.2.1 = {
	holder = 1008054
}

299.2.1 = {
	holder = 1007857
}

302.2.1 = {
	holder = 1009909
}

332.2.1 = {
	holder = 1011045
}

360.2.1 = {
	holder = 1012226
}

394.2.1 = {
	holder = 1013989
}

415.2.1 = {
	holder = 1016300
}

427.2.1 = {
	holder = 1017529
}

482.2.1 = {
	holder = 1019195
}

492.2.1 = {
	holder = 1022132
}

517.2.1 = {
	holder = 1023216
}

537.2.1 = {
	holder = 1024477
}

580.2.1 = {
	holder = 1025681
}

595.2.1 = {
	holder = 1028237
}

601.2.1 = {
	holder = 1028401
}

601.2.2 = {
	holder = 1026686
}

607.2.1 = {
	holder = 1028401
}

607.2.2 = {
	holder = 1029904
}

610.2.1 = {
	holder = 1028401
}

610.2.2 = {
	holder = 1030096
}

642.2.1 = {
	holder = 1030383
}

673.2.1 = {
	holder = 1032337
}

707.2.1 = {
	holder = 1034275
}

728.2.1 = {
	holder = 1037295
}

732.2.1 = {
	holder = 1034254
}

735.2.1 = {
	holder = 1035635
}

745.2.1 = {
	holder = 1038337
}

790.2.1 = {
	holder = 1039314
}

804.2.1 = {
	holder = 1042686
}

851.2.1 = {
	holder = 1044915
}

879.2.1 = {
	holder = 1046192
}

900.2.1 = {
	holder = 1048940
}

