200.2.1 = {
	holder = 1000037
	law = succ_primogeniture
	law = cognatic_succession
}

200.2.2 = {
	holder = 1000038
	law = succ_primogeniture
	law = cognatic_succession
}

200.2.3 = {
	holder = 1001197
	law = succ_tanistry
	law = cognatic_succession
}

200.2.4 = {
	liege = d_ratern
}

200.2.5 = {
	holder = 1001196
	law = succ_tanistry
	law = cognatic_succession
}

236.2.1 = {
	holder = 1002137
}

272.2.1 = {
	holder = 1003894
}

277.2.1 = {
	holder = 1005609
}

300.2.1 = {
	holder = 1006642
}

331.2.1 = {
	holder = 1007901
}

332.2.1 = {
	holder = 1008377
}

500.2.1 = {
	holder = 1015088
}

514.2.1 = {
	holder = 1016350
}

557.2.1 = {
	holder = 1017427
}

579.2.1 = {
	holder = 1019722
}

619.2.1 = {
	holder = 1021171
}

655.2.1 = {
	holder = 1022618
}

676.2.1 = {
	holder = 1024487
}

685.2.1 = {
	holder = 1024082
}

700.2.1 = {
	holder = 1025623
}

701.2.1 = {
	holder = 1026129
}

800.2.1 = {
	holder = 1029724
}

821.2.1 = {
	holder = 1031512
}

855.2.1 = {
	holder = 1032314
}

860.2.1 = {
	holder = 1033736
}

896.2.1 = {
	holder = 1035457
}

940.2.1 = {
	holder = 1035935
}

964.2.1 = {
	holder = 1037796
}

998.2.1 = {
	holder = 1038826
}

1008.2.1 = {
	holder = 1040307
}

1051.2.1 = {
	holder = 1041206
}

