200.2.1 = {
	holder = 1000001
	law = succ_tanistry
	law = agnatic_succession
}

200.2.2 = {
	holder = 1000164
	law = succ_tanistry
	law = agnatic_succession
}

200.2.3 = {
	liege = d_kerord
}

200.2.4 = {
	holder = 1000165
	law = succ_elective_gavelkind
	law = agnatic_succession
}

200.2.5 = {
	holder = 1000162
	law = succ_tanistry
	law = agnatic_succession
}

251.2.1 = {
	holder = 1002777
}

261.2.1 = {
	holder = 1006440
}

310.2.1 = {
	holder = 1007779
}

321.2.1 = {
	holder = 1010513
}

362.2.1 = {
	holder = 1012274
}

391.2.1 = {
	holder = 1014381
}

419.2.1 = {
	holder = 1016550
}

446.2.1 = {
	holder = 1017903
}

446.2.2 = {
	holder = 1019560
}

481.2.1 = {
	holder = 1019711
}

485.2.1 = {
	holder = 1021848
}

513.2.1 = {
	holder = 1021494
}

540.2.1 = {
	holder = 1025171
}

541.2.1 = {
	holder = 1022123
}

549.2.1 = {
	holder = 1023443
}

555.2.1 = {
	holder = 1026256
}

556.2.1 = {
	holder = 1024050
}

556.2.2 = {
	holder = 1026540
}

559.2.1 = {
	holder = 1025607
}

571.2.1 = {
	holder = 1026310
}

572.2.1 = {
	holder = 1027546
}

598.2.1 = {
	holder = 1027897
}

646.2.1 = {
	holder = 1029544
}

653.2.1 = {
	holder = 1028842
}

654.2.1 = {
	holder = 1028972
}

667.2.1 = {
	holder = 1032972
}

689.2.1 = {
	holder = 1034808
}

690.2.1 = {
	holder = 1032184
}

690.2.2 = {
	holder = 1035227
}

726.2.1 = {
	holder = 1035383
}

743.2.1 = {
	holder = 1037723
}

765.2.1 = {
	holder = 1039328
}

778.2.1 = {
	holder = 1038191
}

778.2.2 = {
	holder = 1040986
}

823.2.1 = {
	holder = 1041134
}

836.2.1 = {
	holder = 1044504
}

863.2.1 = {
	holder = 1045524
}

881.2.1 = {
	holder = 1045983
}

881.2.2 = {
	holder = 1047629
}

884.2.1 = {
	holder = 1045983
}

887.2.1 = {
	holder = 1048028
}

