200.2.1 = {
	holder = 1000046
	law = succ_open_elective
	law = agnatic_succession
}

200.2.2 = {
	liege = d_wirifon
}

200.2.3 = {
	liege = d_bamofan
}

200.2.4 = {
	holder = 1001895
	law = succ_open_elective
	law = agnatic_succession
}

210.2.1 = {
	holder = 1002741
}

246.2.1 = {
	holder = 1004356
}

277.2.1 = {
	holder = 1006057
}

297.2.1 = {
	holder = 1008632
}

349.2.1 = {
	holder = 1009976
}

384.2.1 = {
	holder = 1013186
}

415.2.1 = {
	holder = 1015392
}

419.2.1 = {
	holder = 1017632
}

428.2.1 = {
	holder = 1015650
}

428.2.2 = {
	holder = 1018326
}

463.2.1 = {
	holder = 1020657
}

500.2.1 = {
	holder = 1020775
}

524.2.1 = {
	holder = 1023261
}

561.2.1 = {
	holder = 1024974
}

570.2.1 = {
	holder = 1027467
}

571.2.1 = {
	holder = 1025532
}

571.2.2 = {
	holder = 1027533
}

572.2.1 = {
	holder = 1025037
}

573.2.1 = {
	holder = 1027674
}

624.2.1 = {
	holder = 1028209
}

641.2.1 = {
	holder = 1028946
}

643.2.1 = {
	holder = 1031580
}

670.2.1 = {
	holder = 1030499
}

680.2.1 = {
	holder = 1031964
}

683.2.1 = {
	holder = 1034848
}

685.2.1 = {
	holder = 1034912
}

709.2.1 = {
	holder = 1034371
}

724.2.1 = {
	holder = 1035497
}

757.2.1 = {
	holder = 1039250
}

758.2.1 = {
	holder = 1039706
}

779.2.1 = {
	holder = 1039837
}

822.2.1 = {
	holder = 1041244
}

833.2.1 = {
	holder = 1044301
}

842.2.1 = {
	holder = 1044244
}

842.2.2 = {
	holder = 1045188
}

850.2.1 = {
	holder = 1042740
}

851.2.1 = {
	holder = 1045769
}

