200.2.1 = {
	holder = 1000017
	law = succ_tanistry
	law = cognatic_succession
}

200.2.2 = {
	liege = d_kureni
}

200.2.3 = {
	holder = 1000534
	law = succ_tanistry
	law = cognatic_succession
}

221.2.1 = {
	holder = 1002960
}

272.2.1 = {
	holder = 1003047
}

275.2.1 = {
	holder = 1005507
}

315.2.1 = {
	holder = 1007429
}

323.2.1 = {
	holder = 1007869
}

360.2.1 = {
	holder = 1007972
}

381.2.1 = {
	holder = 1010690
}

419.2.1 = {
	holder = 1010792
}

434.2.1 = {
	holder = 1012758
}

483.2.1 = {
	holder = 1015363
}

520.2.1 = {
	holder = 1016123
}

535.2.1 = {
	holder = 1017637
}

546.2.1 = {
	holder = 1017363
}

556.2.1 = {
	holder = 1018337
}

558.2.1 = {
	holder = 1017361
}

580.2.1 = {
	holder = 1018819
}

599.2.1 = {
	holder = 1021256
}

642.2.1 = {
	holder = 1022202
}

666.2.1 = {
	holder = 1023468
}

669.2.1 = {
	holder = 1024450
}

707.2.1 = {
	holder = 1025594
}

718.2.1 = {
	holder = 1024044
}

718.2.2 = {
	holder = 1025215
}

721.2.1 = {
	holder = 1026977
}

729.2.1 = {
	holder = 1027135
}

755.2.1 = {
	holder = 1028141
}

758.2.1 = {
	holder = 1027044
}

766.2.1 = {
	holder = 1029228
}

778.2.1 = {
	holder = 1029901
}

785.2.1 = {
	holder = 1030081
}

792.2.1 = {
	holder = 1028736
}

795.2.1 = {
	holder = 1029038
}

813.2.1 = {
	holder = 1031361
}

818.2.1 = {
	holder = 1030620
}

825.2.1 = {
	holder = 1030995
}

843.2.1 = {
	holder = 1032241
}

846.2.1 = {
	holder = 1032545
}

856.2.1 = {
	holder = 1033369
}

893.2.1 = {
	holder = 1034608
}

929.2.1 = {
	holder = 1035425
}

947.2.1 = {
	holder = 1037215
}

996.2.1 = {
	holder = 1038103
}

999.2.1 = {
	holder = 1039134
}

1008.2.1 = {
	holder = 1039935
}

1030.2.1 = {
	holder = 1041354
}

1041.2.1 = {
	holder = 1042165
}

1058.2.1 = {
	holder = 1042999
}

