200.2.1 = {
	holder = 1000020
	law = succ_open_elective
	law = cognatic_succession
}

200.2.2 = {
	liege = d_liva
}

200.2.3 = {
	liege = d_liva
}

200.2.4 = {
	holder = 1001307
	law = succ_open_elective
	law = cognatic_succession
}

200.2.5 = {
	holder = 1002025
}

205.2.1 = {
	holder = 1002762
}

230.2.1 = {
	holder = 1004094
}

253.2.1 = {
	holder = 1005090
}

290.2.1 = {
	holder = 1006657
}

314.2.1 = {
	holder = 1010232
}

336.2.1 = {
	holder = 1011953
}

381.2.1 = {
	holder = 1013134
}

386.2.1 = {
	holder = 1015451
}

393.2.1 = {
	holder = 1015887
}

410.2.1 = {
	holder = 1015451
}

410.2.2 = {
	holder = 1017074
}

450.2.1 = {
	holder = 1017605
}

456.2.1 = {
	holder = 1020050
}

501.2.1 = {
	holder = 1021211
}

507.2.1 = {
	holder = 1023238
}

515.2.1 = {
	holder = 1023433
}

564.2.1 = {
	holder = 1024847
}

579.2.1 = {
	holder = 1028078
}

589.2.1 = {
	holder = 1028474
}

608.2.1 = {
	holder = 1029970
}

658.2.1 = {
	holder = 1030074
}

680.2.1 = {
	holder = 1032248
}

680.2.2 = {
	holder = 1034669
}

685.2.1 = {
	holder = 1034710
}

693.2.1 = {
	holder = 1034925
}

693.2.2 = {
	holder = 1035503
}

706.2.1 = {
	holder = 1035549
}

756.2.1 = {
	holder = 1036755
}

789.2.1 = {
	holder = 1041565
}

794.2.1 = {
	holder = 1041229
}

796.2.1 = {
	holder = 1041101
}

796.2.2 = {
	holder = 1042138
}

807.2.1 = {
	holder = 1042299
}

851.2.1 = {
	holder = 1043645
}

869.2.1 = {
	holder = 1046224
}

875.2.1 = {
	holder = 1047278
}

