200.2.1 = {
	holder = 1000004
	law = succ_seniority
	law = cognatic_succession
}

200.2.2 = {
	holder = 1000408
	law = succ_seniority
	law = cognatic_succession
}

200.2.3 = {
	liege = d_tioreda
}

200.2.4 = {
	holder = 1000404
	law = succ_seniority
	law = cognatic_succession
}

200.2.5 = {
	holder = 1001997
}

203.2.1 = {
	holder = 1000409
}

248.2.1 = {
	holder = 1003526
}

269.2.1 = {
	holder = 1006298
}

307.2.1 = {
	holder = 1008577
}

318.2.1 = {
	holder = 1010577
}

328.2.1 = {
	holder = 1011682
}

356.2.1 = {
	holder = 1011779
}

396.2.1 = {
	holder = 1013643
}

411.2.1 = {
	holder = 1016831
}

427.2.1 = {
	holder = 1015674
}

427.2.2 = {
	holder = 1018208
}

484.2.1 = {
	holder = 1018266
}

491.2.1 = {
	holder = 1021994
}

550.2.1 = {
	holder = 1023020
}

565.2.1 = {
	holder = 1026316
}

605.2.1 = {
	holder = 1027886
}

627.2.1 = {
	holder = 1029861
}

658.2.1 = {
	holder = 1031447
}

668.2.1 = {
	holder = 1033645
}

687.2.1 = {
	holder = 1033809
}

687.2.2 = {
	holder = 1035049
}

725.2.1 = {
	holder = 1035388
}

750.2.1 = {
	holder = 1037661
}

761.2.1 = {
	holder = 1039402
}

806.2.1 = {
	holder = 1040682
}

831.2.1 = {
	holder = 1043692
}

889.2.1 = {
	holder = 1044916
}

900.2.1 = {
	holder = 1048095
}

