200.2.1 = {
	holder = 1000003
	law = succ_gavelkind
	law = cognatic_succession
}

200.2.2 = {
	holder = 1000162
	law = succ_gavelkind
	law = cognatic_succession
}

200.2.3 = {
	liege = d_kebernire
}

200.2.4 = {
	holder = 1000160
	law = succ_gavelkind
	law = cognatic_succession
}

211.2.1 = {
	holder = 1001440
}

246.2.1 = {
	holder = 1003302
}

290.2.1 = {
	holder = 1004716
}

292.2.1 = {
	holder = 1005018
}

294.2.1 = {
	holder = 1006207
}

302.2.1 = {
	holder = 1006844
}

328.2.1 = {
	holder = 1007036
}

365.2.1 = {
	holder = 1008296
}

426.2.1 = {
	holder = 1009960
}

429.2.1 = {
	holder = 1012086
}

442.2.1 = {
	holder = 1013077
}

442.2.2 = {
	holder = 1013651
}

483.2.1 = {
	holder = 1014795
}

511.2.1 = {
	holder = 1015671
}

526.2.1 = {
	holder = 1017114
}

540.2.1 = {
	holder = 1017117
}

559.2.1 = {
	holder = 1018655
}

571.2.1 = {
	holder = 1019894
}

609.2.1 = {
	holder = 1021103
}

621.2.1 = {
	holder = 1022036
}

636.2.1 = {
	holder = 1021730
}

649.2.1 = {
	holder = 1022490
}

689.2.1 = {
	holder = 1024688
}

737.2.1 = {
	holder = 1025737
}

758.2.1 = {
	holder = 1028139
}

763.2.1 = {
	holder = 1029087
}

789.2.1 = {
	holder = 1030222
}

832.2.1 = {
	holder = 1031402
}

843.2.1 = {
	holder = 1032567
}

896.2.1 = {
	holder = 1034221
}

928.2.1 = {
	holder = 1035515
}

957.2.1 = {
	holder = 1037432
}

999.2.1 = {
	holder = 1038495
}

1000.2.1 = {
	holder = 1040398
}

1019.2.1 = {
	holder = 1040421
}

1025.2.1 = {
	holder = 1040631
}

1040.2.1 = {
	holder = 1041810
}

1043.2.1 = {
	holder = 1041330
}

1044.2.1 = {
	holder = 1042539
}

