200.2.1 = {
	holder = 1000029
	law = succ_gavelkind
	law = cognatic_succession
}

200.2.2 = {
	holder = 1001546
	law = succ_gavelkind
	law = cognatic_succession
}

200.2.3 = {
	liege = d_nieniel
}

200.2.4 = {
	holder = 1001545
	law = succ_gavelkind
	law = cognatic_succession
}

231.2.1 = {
	holder = 1003325
}

262.2.1 = {
	holder = 1005128
}

277.2.1 = {
	holder = 1007171
}

295.2.1 = {
	holder = 1008741
}

332.2.1 = {
	holder = 1010720
}

384.2.1 = {
	holder = 1012114
}

389.2.1 = {
	holder = 1015501
}

390.2.1 = {
	holder = 1015685
}

432.2.1 = {
	holder = 1016644
}

446.2.1 = {
	holder = 1018930
}

447.2.1 = {
	holder = 1016506
}

448.2.1 = {
	holder = 1017076
}

480.2.1 = {
	holder = 1020249
}

495.2.1 = {
	holder = 1020908
}

496.2.1 = {
	holder = 1022688
}

504.2.1 = {
	holder = 1022689
}

505.2.1 = {
	holder = 1023296
}

506.2.1 = {
	holder = 1023354
}

519.2.1 = {
	holder = 1020782
}

522.2.1 = {
	holder = 1024392
}

576.2.1 = {
	holder = 1026290
}

603.2.1 = {
	holder = 1028124
}

633.2.1 = {
	holder = 1029691
}

673.2.1 = {
	holder = 1034207
}

721.2.1 = {
	holder = 1035740
}

737.2.1 = {
	holder = 1037506
}

738.2.1 = {
	holder = 1038487
}

793.2.1 = {
	holder = 1039067
}

794.2.1 = {
	holder = 1041438
}

795.2.1 = {
	holder = 1042056
}

821.2.1 = {
	holder = 1042173
}

861.2.1 = {
	holder = 1044749
}

875.2.1 = {
	holder = 1046494
}

