200.2.1 = {
	holder = 1000014
	law = succ_elective_gavelkind
	law = agnatic_succession
}

200.2.2 = {
	holder = 1000015
	law = succ_elective_gavelkind
	law = agnatic_succession
}

200.2.3 = {
	holder = 1001050
	law = succ_tanistry
	law = agnatic_succession
}

200.2.4 = {
	liege = d_bansea
}

200.2.5 = {
	holder = 1001049
	law = succ_tanistry
	law = agnatic_succession
}

246.2.1 = {
	holder = 1003826
}

265.2.1 = {
	holder = 1004908
}

266.2.1 = {
	holder = 1007194
}

308.2.1 = {
	holder = 1009172
}

332.2.1 = {
	holder = 1010497
}

333.2.1 = {
	holder = 1010230
}

334.2.1 = {
	holder = 1012069
}

343.2.1 = {
	holder = 1012104
}

380.2.1 = {
	holder = 1013165
}

411.2.1 = {
	holder = 1015183
}

430.2.1 = {
	holder = 1017469
}

433.2.1 = {
	holder = 1016920
}

463.2.1 = {
	holder = 1018002
}

490.2.1 = {
	holder = 1020938
}

512.2.1 = {
	holder = 1023543
}

518.2.1 = {
	holder = 1022583
}

518.2.2 = {
	holder = 1024123
}

534.2.1 = {
	holder = 1022849
}

545.2.1 = {
	holder = 1025009
}

551.2.1 = {
	holder = 1026089
}

561.2.1 = {
	holder = 1024845
}

561.2.2 = {
	holder = 1026894
}

611.2.1 = {
	holder = 1027331
}

622.2.1 = {
	holder = 1027443
}

623.2.1 = {
	holder = 1030932
}

658.2.1 = {
	holder = 1031035
}

694.2.1 = {
	holder = 1033266
}

705.2.1 = {
	holder = 1035091
}

709.2.1 = {
	holder = 1034836
}

710.2.1 = {
	holder = 1036705
}

712.2.1 = {
	holder = 1036706
}

713.2.1 = {
	holder = 1036824
}

764.2.1 = {
	holder = 1038978
}

787.2.1 = {
	holder = 1040332
}

797.2.1 = {
	holder = 1041766
}

847.2.1 = {
	holder = 1042724
}

848.2.1 = {
	holder = 1045576
}

858.2.1 = {
	holder = 1044020
}

858.2.2 = {
	holder = 1046247
}

862.2.1 = {
	holder = 1044021
}

865.2.1 = {
	holder = 1046538
}

