200.2.1 = {
	holder = 1000008
	law = succ_gavelkind
	law = agnatic_succession
}

200.2.2 = {
	holder = 1000010
	law = succ_elective_gavelkind
	law = agnatic_succession
}

200.2.3 = {
	holder = 1000774
	law = succ_elective_gavelkind
	law = agnatic_succession
}

200.2.4 = {
	liege = d_koviami
}

200.2.5 = {
	holder = 1000771
	law = succ_elective_gavelkind
	law = agnatic_succession
}

200.2.6 = {
	holder = 1001996
}

213.2.1 = {
	holder = 1003846
}

243.2.1 = {
	holder = 1000698
}

249.2.1 = {
	holder = 1002806
}

253.2.1 = {
	holder = 1005592
}

254.2.1 = {
	holder = 1006579
}

293.2.1 = {
	holder = 1007712
}

314.2.1 = {
	holder = 1009271
}

341.2.1 = {
	holder = 1010784
}

344.2.1 = {
	holder = 1012610
}

364.2.1 = {
	holder = 1012373
}

370.2.1 = {
	holder = 1014421
}

415.2.1 = {
	holder = 1014710
}

416.2.1 = {
	holder = 1015704
}

416.2.2 = {
	holder = 1017506
}

429.2.1 = {
	holder = 1016689
}

430.2.1 = {
	holder = 1018408
}

454.2.1 = {
	holder = 1020075
}

455.2.1 = {
	holder = 1020074
}

491.2.1 = {
	holder = 1020734
}

507.2.1 = {
	holder = 1023026
}

525.2.1 = {
	holder = 1022204
}

525.2.2 = {
	holder = 1024560
}

538.2.1 = {
	holder = 1024792
}

543.2.1 = {
	holder = 1025746
}

571.2.1 = {
	holder = 1026626
}

602.2.1 = {
	holder = 1029585
}

621.2.1 = {
	holder = 1029871
}

638.2.1 = {
	holder = 1031907
}

657.2.1 = {
	holder = 1032058
}

671.2.1 = {
	holder = 1031098
}

671.2.2 = {
	holder = 1034066
}

691.2.1 = {
	holder = 1034627
}

694.2.1 = {
	holder = 1032858
}

695.2.1 = {
	holder = 1035586
}

734.2.1 = {
	holder = 1036252
}

755.2.1 = {
	holder = 1038235
}

782.2.1 = {
	holder = 1039680
}

791.2.1 = {
	holder = 1041546
}

795.2.1 = {
	holder = 1039102
}

796.2.1 = {
	holder = 1042099
}

802.2.1 = {
	holder = 1041337
}

803.2.1 = {
	holder = 1042581
}

837.2.1 = {
	holder = 1044869
}

881.2.1 = {
	holder = 1046473
}

888.2.1 = {
	holder = 1045940
}

890.2.1 = {
	holder = 1047565
}

891.2.1 = {
	holder = 1048285
}

