200.2.1 = {
	holder = 1000032
	law = succ_feudal_elective
	law = cognatic_succession
}

200.2.2 = {
	holder = 1000033
	law = succ_elective_gavelkind
	law = agnatic_succession
}

200.2.3 = {
	holder = 1001646
	law = succ_tanistry
	law = cognatic_succession
}

200.2.4 = {
	liege = d_bilesi
}

200.2.5 = {
	holder = 1001647
	law = succ_elective_gavelkind
	law = agnatic_succession
}

200.2.6 = {
	liege = d_bilesi
}

200.2.7 = {
	holder = 1001642
	law = succ_tanistry
	law = cognatic_succession
}

223.2.1 = {
	holder = 1003890
}

243.2.1 = {
	holder = 1005076
}

249.2.1 = {
	holder = 1004747
}

250.2.1 = {
	holder = 1006281
}

253.2.1 = {
	holder = 1005544
}

254.2.1 = {
	holder = 1006563
}

276.2.1 = {
	holder = 1006630
}

286.2.1 = {
	holder = 1008418
}

292.2.1 = {
	holder = 1008684
}

315.2.1 = {
	holder = 1010276
}

365.2.1 = {
	holder = 1013471
}

366.2.1 = {
	holder = 1012692
}

367.2.1 = {
	holder = 1014207
}

406.2.1 = {
	holder = 1014736
}

415.2.1 = {
	holder = 1016934
}

424.2.1 = {
	holder = 1017118
}

427.2.1 = {
	holder = 1018230
}

431.2.1 = {
	holder = 1018310
}

453.2.1 = {
	holder = 1019551
}

457.2.1 = {
	holder = 1017061
}

469.2.1 = {
	holder = 1018808
}

481.2.1 = {
	holder = 1020444
}

500.2.1 = {
	holder = 1021836
}

535.2.1 = {
	holder = 1023071
}

537.2.1 = {
	holder = 1025339
}

583.2.1 = {
	holder = 1026603
}

618.2.1 = {
	holder = 1028604
}

649.2.1 = {
	holder = 1030821
}

677.2.1 = {
	holder = 1032782
}

689.2.1 = {
	holder = 1035035
}

690.2.1 = {
	holder = 1033851
}

721.2.1 = {
	holder = 1034357
}

736.2.1 = {
	holder = 1037714
}

758.2.1 = {
	holder = 1038981
}

787.2.1 = {
	holder = 1040057
}

824.2.1 = {
	holder = 1041656
}

848.2.1 = {
	holder = 1044362
}

893.2.1 = {
	holder = 1045658
}

900.2.1 = {
	holder = 1048795
}

