200.2.1 = {
	holder = 1000019
	law = succ_primogeniture
	law = agnatic_succession
}

200.2.2 = {
	holder = 1000699
	law = succ_primogeniture
	law = agnatic_succession
}

200.2.3 = {
	liege = d_eludilas
}

200.2.4 = {
	holder = 1000698
	law = succ_primogeniture
	law = agnatic_succession
}

200.2.5 = {
	holder = 1001399
}

210.2.1 = {
	holder = 1002529
}

248.2.1 = {
	holder = 1003318
}

265.2.1 = {
	holder = 1005010
}

270.2.1 = {
	holder = 1004519
}

286.2.1 = {
	holder = 1003128
}

298.2.1 = {
	holder = 1006323
}

307.2.1 = {
	holder = 1005833
}

307.2.2 = {
	holder = 1007098
}

400.2.1 = {
	holder = 1010392
}

405.2.1 = {
	holder = 1010417
}

424.2.1 = {
	holder = 1012848
}

428.2.1 = {
	holder = 1012984
}

455.2.1 = {
	holder = 1013750
}

474.2.1 = {
	holder = 1014520
}

486.2.1 = {
	holder = 1015305
}

489.2.1 = {
	holder = 1015949
}

492.2.1 = {
	holder = 1015969
}

508.2.1 = {
	holder = 1015126
}

508.2.2 = {
	holder = 1016864
}

543.2.1 = {
	holder = 1016956
}

552.2.1 = {
	holder = 1018625
}

578.2.1 = {
	holder = 1019913
}

584.2.1 = {
	holder = 1018880
}

584.2.2 = {
	holder = 1020569
}

628.2.1 = {
	holder = 1020972
}

633.2.1 = {
	holder = 1022119
}

633.2.2 = {
	holder = 1022918
}

653.2.1 = {
	holder = 1023086
}

659.2.1 = {
	holder = 1022119
}

659.2.2 = {
	holder = 1024096
}

661.2.1 = {
	holder = 1022119
}

661.2.2 = {
	holder = 1024201
}

676.2.1 = {
	holder = 1022094
}

687.2.1 = {
	holder = 1025258
}

691.2.1 = {
	holder = 1025633
}

695.2.1 = {
	holder = 1023620
}

695.2.2 = {
	holder = 1025822
}

696.2.1 = {
	holder = 1024935
}

713.2.1 = {
	holder = 1026681
}

750.2.1 = {
	holder = 1027291
}

757.2.1 = {
	holder = 1028663
}

772.2.1 = {
	holder = 1029114
}

772.2.2 = {
	holder = 1029564
}

803.2.1 = {
	holder = 1029826
}

834.2.1 = {
	holder = 1031106
}

836.2.1 = {
	holder = 1032665
}

840.2.1 = {
	holder = 1032906
}

862.2.1 = {
	holder = 1032992
}

898.2.1 = {
	holder = 1034242
}

899.2.1 = {
	holder = 1034006
}

899.2.2 = {
	holder = 1035323
}

900.2.1 = {
	holder = 1035675
}

1000.2.1 = {
	holder = 1038767
}

1005.2.1 = {
	holder = 1040560
}

1018.2.1 = {
	holder = 1040274
}

1063.2.1 = {
	holder = 1041490
}

1064.2.1 = {
	holder = 1043505
}

