200.2.1 = {
	holder = 1000015
	law = succ_tanistry
	law = agnatic_succession
}

200.2.2 = {
	holder = 1001055
	law = succ_tanistry
	law = agnatic_succession
}

200.2.3 = {
	liege = d_lalyed
}

200.2.4 = {
	holder = 1001056
	law = succ_elective_gavelkind
	law = agnatic_succession
}

200.2.5 = {
	holder = 1001053
	law = succ_tanistry
	law = agnatic_succession
}

226.2.1 = {
	holder = 1002899
}

226.2.2 = {
	holder = 1004673
}

230.2.1 = {
	holder = 1000955
}

233.2.1 = {
	holder = 1002257
}

236.2.1 = {
	holder = 1004796
}

240.2.1 = {
	holder = 1004826
}

298.2.1 = {
	holder = 1006390
}

317.2.1 = {
	holder = 1010016
}

340.2.1 = {
	holder = 1011720
}

359.2.1 = {
	holder = 1013662
}

392.2.1 = {
	holder = 1013935
}

428.2.1 = {
	holder = 1016235
}

471.2.1 = {
	holder = 1019931
}

472.2.1 = {
	holder = 1021203
}

507.2.1 = {
	holder = 1021205
}

530.2.1 = {
	holder = 1023616
}

549.2.1 = {
	holder = 1024726
}

550.2.1 = {
	holder = 1026210
}

590.2.1 = {
	holder = 1026825
}

631.2.1 = {
	holder = 1028861
}

654.2.1 = {
	holder = 1031801
}

705.2.1 = {
	holder = 1033466
}

731.2.1 = {
	holder = 1036828
}

759.2.1 = {
	holder = 1038027
}

793.2.1 = {
	holder = 1040739
}

810.2.1 = {
	holder = 1042240
}

821.2.1 = {
	holder = 1040699
}

822.2.1 = {
	holder = 1043868
}

