200.2.1 = {
	holder = 1000020
	law = succ_primogeniture
	law = cognatic_succession
}

200.2.2 = {
	holder = 1000738
	law = succ_primogeniture
	law = cognatic_succession
}

200.2.3 = {
	liege = d_tatand
}

200.2.4 = {
	holder = 1000737
	law = succ_primogeniture
	law = cognatic_succession
}

200.2.5 = {
	holder = 1001396
}

205.2.1 = {
	holder = 1000764
}

212.2.1 = {
	holder = 1002630
}

232.2.1 = {
	holder = 1002776
}

287.2.1 = {
	holder = 1004252
}

292.2.1 = {
	holder = 1006302
}

295.2.1 = {
	holder = 1006198
}

321.2.1 = {
	holder = 1007815
}

358.2.1 = {
	holder = 1008149
}

366.2.1 = {
	holder = 1009949
}

387.2.1 = {
	holder = 1010474
}

403.2.1 = {
	holder = 1011810
}

424.2.1 = {
	holder = 1011232
}

425.2.1 = {
	holder = 1012861
}

463.2.1 = {
	holder = 1013663
}

471.2.1 = {
	holder = 1014055
}

472.2.1 = {
	holder = 1013318
}

496.2.1 = {
	holder = 1015425
}

508.2.1 = {
	holder = 1016662
}

547.2.1 = {
	holder = 1018801
}

570.2.1 = {
	holder = 1016238
}

572.2.1 = {
	holder = 1018495
}

572.2.2 = {
	holder = 1019957
}

599.2.1 = {
	holder = 1020532
}

629.2.1 = {
	holder = 1022233
}

637.2.1 = {
	holder = 1023087
}

672.2.1 = {
	holder = 1020587
}

675.2.1 = {
	holder = 1022316
}

685.2.1 = {
	holder = 1024349
}

686.2.1 = {
	holder = 1025405
}

800.2.1 = {
	holder = 1029563
}

815.2.1 = {
	holder = 1030373
}

870.2.1 = {
	holder = 1032039
}

881.2.1 = {
	holder = 1034458
}

911.2.1 = {
	holder = 1035496
}

936.2.1 = {
	holder = 1036407
}

954.2.1 = {
	holder = 1037466
}

991.2.1 = {
	holder = 1039539
}

992.2.1 = {
	holder = 1039975
}

1041.2.1 = {
	holder = 1040254
}

1050.2.1 = {
	holder = 1042462
}

1064.2.1 = {
	holder = 1043233
}

1066.2.1 = {
	holder = 1042442
}

