200.2.1 = {
	holder = 1000009
	law = succ_open_elective
	law = agnatic_succession
}

200.2.2 = {
	holder = 1000010
	law = succ_elective_gavelkind
	law = agnatic_succession
}

200.2.3 = {
	holder = 1000776
	law = succ_elective_gavelkind
	law = agnatic_succession
}

200.2.4 = {
	liege = d_qes
}

200.2.5 = {
	holder = 1000775
	law = succ_elective_gavelkind
	law = agnatic_succession
}

200.2.6 = {
	holder = 1001991
}

239.2.1 = {
	holder = 1003341
}

254.2.1 = {
	holder = 1005629
}

309.2.1 = {
	holder = 1009224
}

316.2.1 = {
	holder = 1010812
}

320.2.1 = {
	holder = 1011173
}

360.2.1 = {
	holder = 1011209
}

368.2.1 = {
	holder = 1014188
}

371.2.1 = {
	holder = 1014493
}

398.2.1 = {
	holder = 1014775
}

427.2.1 = {
	holder = 1017795
}

431.2.1 = {
	holder = 1014188
}

431.2.2 = {
	holder = 1017288
}

455.2.1 = {
	holder = 1020131
}

480.2.1 = {
	holder = 1021475
}

488.2.1 = {
	holder = 1022245
}

518.2.1 = {
	holder = 1024118
}

537.2.1 = {
	holder = 1024843
}

564.2.1 = {
	holder = 1024904
}

582.2.1 = {
	holder = 1026405
}

582.2.2 = {
	holder = 1028269
}

610.2.1 = {
	holder = 1030095
}

643.2.1 = {
	holder = 1030191
}

644.2.1 = {
	holder = 1031184
}

644.2.2 = {
	holder = 1029361
}

648.2.1 = {
	holder = 1031184
}

659.2.1 = {
	holder = 1031773
}

696.2.1 = {
	holder = 1031872
}

701.2.1 = {
	holder = 1035895
}

705.2.1 = {
	holder = 1033328
}

722.2.1 = {
	holder = 1036597
}

770.2.1 = {
	holder = 1037801
}

780.2.1 = {
	holder = 1040016
}

780.2.2 = {
	holder = 1041036
}

796.2.1 = {
	holder = 1038784
}

804.2.1 = {
	holder = 1040546
}

824.2.1 = {
	holder = 1043400
}

865.2.1 = {
	holder = 1046681
}

881.2.1 = {
	holder = 1047665
}

901.2.1 = {
	holder = 1046843
}

