200.2.1 = {
	holder = 1000011
	law = succ_primogeniture
	law = agnatic_succession
}

200.2.2 = {
	holder = 1000836
	law = succ_primogeniture
	law = agnatic_succession
}

200.2.3 = {
	liege = d_nutuzan
}

200.2.4 = {
	holder = 1000835
	law = succ_primogeniture
	law = agnatic_succession
}

209.2.1 = {
	holder = 1002226
}

267.2.1 = {
	holder = 1004036
}

282.2.1 = {
	holder = 1007518
}

332.2.1 = {
	holder = 1008929
}

359.2.1 = {
	holder = 1012345
}

406.2.1 = {
	holder = 1014397
}

407.2.1 = {
	holder = 1014847
}

407.2.2 = {
	holder = 1016844
}

442.2.1 = {
	holder = 1017733
}

469.2.1 = {
	holder = 1020615
}

480.2.1 = {
	holder = 1019501
}

491.2.1 = {
	holder = 1021093
}

506.2.1 = {
	holder = 1022582
}

513.2.1 = {
	holder = 1023646
}

519.2.1 = {
	holder = 1024189
}

536.2.1 = {
	holder = 1024769
}

537.2.1 = {
	holder = 1021477
}

538.2.1 = {
	holder = 1020997
}

543.2.1 = {
	holder = 1025004
}

580.2.1 = {
	holder = 1026302
}

604.2.1 = {
	holder = 1028336
}

636.2.1 = {
	holder = 1029840
}

650.2.1 = {
	holder = 1031911
}

657.2.1 = {
	holder = 1029999
}

677.2.1 = {
	holder = 1031544
}

694.2.1 = {
	holder = 1032802
}

715.2.1 = {
	holder = 1035638
}

721.2.1 = {
	holder = 1034996
}

754.2.1 = {
	holder = 1036395
}

761.2.1 = {
	holder = 1039723
}

807.2.1 = {
	holder = 1040961
}

831.2.1 = {
	holder = 1043405
}

862.2.1 = {
	holder = 1044910
}

868.2.1 = {
	holder = 1043304
}

869.2.1 = {
	holder = 1045470
}

895.2.1 = {
	holder = 1047411
}

