200.2.1 = {
	holder = 1000014
	law = succ_elective_gavelkind
	law = agnatic_succession
}

200.2.2 = {
	holder = 1000870
	law = succ_elective_gavelkind
	law = agnatic_succession
}

200.2.3 = {
	liege = d_nukatru
}

200.2.4 = {
	holder = 1000868
	law = succ_elective_gavelkind
	law = agnatic_succession
}

200.2.5 = {
	holder = 1002012
}

209.2.1 = {
	holder = 1002754
}

253.2.1 = {
	holder = 1006498
}

307.2.1 = {
	holder = 1006760
}

330.2.1 = {
	holder = 1007956
}

337.2.1 = {
	holder = 1009613
}

349.2.1 = {
	holder = 1012294
}

371.2.1 = {
	holder = 1014464
}

384.2.1 = {
	holder = 1011531
}

404.2.1 = {
	holder = 1013225
}

412.2.1 = {
	holder = 1016849
}

416.2.1 = {
	holder = 1013086
}

416.2.2 = {
	holder = 1017466
}

451.2.1 = {
	holder = 1017542
}

479.2.1 = {
	holder = 1020551
}

497.2.1 = {
	holder = 1022003
}

556.2.1 = {
	holder = 1024015
}

574.2.1 = {
	holder = 1026326
}

575.2.1 = {
	holder = 1027806
}

579.2.1 = {
	holder = 1024795
}

579.2.2 = {
	holder = 1025011
}

584.2.1 = {
	holder = 1026821
}

589.2.1 = {
	holder = 1028436
}

619.2.1 = {
	holder = 1029547
}

633.2.1 = {
	holder = 1031556
}

636.2.1 = {
	holder = 1029547
}

659.2.1 = {
	holder = 1031227
}

660.2.1 = {
	holder = 1033331
}

704.2.1 = {
	holder = 1034830
}

720.2.1 = {
	holder = 1034336
}

729.2.1 = {
	holder = 1037838
}

734.2.1 = {
	holder = 1037005
}

743.2.1 = {
	holder = 1038787
}

765.2.1 = {
	holder = 1040154
}

785.2.1 = {
	holder = 1039423
}

805.2.1 = {
	holder = 1041744
}

812.2.1 = {
	holder = 1043006
}

877.2.1 = {
	holder = 1044674
}

887.2.1 = {
	holder = 1047437
}

891.2.1 = {
	holder = 1048300
}

894.2.1 = {
	holder = 1048294
}

896.2.1 = {
	holder = 1048631
}

