200.2.1 = {
	holder = 1000046
	law = succ_open_elective
	law = agnatic_succession
}

200.2.2 = {
	holder = 1001883
	law = succ_open_elective
	law = agnatic_succession
}

200.2.3 = {
	liege = d_sofara
}

200.2.4 = {
	holder = 1001882
	law = succ_open_elective
	law = agnatic_succession
}

207.2.1 = {
	holder = 1002036
}

207.2.2 = {
	holder = 1003439
}

300.2.1 = {
	holder = 1008986
}

322.2.1 = {
	holder = 1010963
}

334.2.1 = {
	holder = 1012077
}

344.2.1 = {
	holder = 1011835
}

344.2.2 = {
	holder = 1012706
}

500.2.1 = {
	holder = 1020511
}

526.2.1 = {
	holder = 1022574
}

556.2.1 = {
	holder = 1024675
}

563.2.1 = {
	holder = 1026589
}

595.2.1 = {
	holder = 1028071
}

618.2.1 = {
	holder = 1028888
}

619.2.1 = {
	holder = 1030689
}

658.2.1 = {
	holder = 1030873
}

668.2.1 = {
	holder = 1033868
}

717.2.1 = {
	holder = 1034062
}

736.2.1 = {
	holder = 1038046
}

741.2.1 = {
	holder = 1037105
}

756.2.1 = {
	holder = 1037699
}

787.2.1 = {
	holder = 1039980
}

832.2.1 = {
	holder = 1042971
}

839.2.1 = {
	holder = 1044762
}

846.2.1 = {
	holder = 1045439
}

892.2.1 = {
	holder = 1045568
}

