200.2.1 = {
	holder = 1000002
	law = succ_seniority
	law = cognatic_succession
}

200.2.2 = {
	holder = 1000262
	law = succ_seniority
	law = cognatic_succession
}

200.2.3 = {
	liege = d_ekahugr
}

200.2.4 = {
	holder = 1000261
	law = succ_seniority
	law = cognatic_succession
}

234.2.1 = {
	holder = 1005100
}

246.2.1 = {
	holder = 1005729
}

279.2.1 = {
	holder = 1006417
}

279.2.2 = {
	holder = 1008278
}

287.2.1 = {
	holder = 1008705
}

308.2.1 = {
	holder = 1006929
}

308.2.2 = {
	holder = 1010249
}

400.2.1 = {
	holder = 1013070
}

408.2.1 = {
	holder = 1014094
}

418.2.1 = {
	holder = 1017025
}

479.2.1 = {
	holder = 1018337
}

503.2.1 = {
	holder = 1021926
}

512.2.1 = {
	holder = 1023385
}

539.2.1 = {
	holder = 1024200
}

572.2.1 = {
	holder = 1025611
}

595.2.1 = {
	holder = 1027746
}

605.2.1 = {
	holder = 1025487
}

621.2.1 = {
	holder = 1028664
}

636.2.1 = {
	holder = 1030968
}

689.2.1 = {
	holder = 1034813
}

713.2.1 = {
	holder = 1036875
}

737.2.1 = {
	holder = 1037119
}

771.2.1 = {
	holder = 1038929
}

788.2.1 = {
	holder = 1040629
}

809.2.1 = {
	holder = 1041671
}

849.2.1 = {
	holder = 1043347
}

858.2.1 = {
	holder = 1042921
}

858.2.2 = {
	holder = 1046189
}

899.2.1 = {
	holder = 1047617
}

