200.2.1 = {
	holder = 1000020
	law = succ_open_elective
	law = cognatic_succession
}

200.2.2 = {
	holder = 1000021
	law = succ_elective_gavelkind
	law = agnatic_succession
}

200.2.3 = {
	holder = 1001340
	law = succ_open_elective
	law = agnatic_succession
}

200.2.4 = {
	liege = d_kakhha
}

200.2.5 = {
	holder = 1001339
	law = succ_open_elective
	law = agnatic_succession
}

241.2.1 = {
	holder = 1003104
}

265.2.1 = {
	holder = 1005894
}

311.2.1 = {
	holder = 1008617
}

326.2.1 = {
	holder = 1010640
}

350.2.1 = {
	holder = 1012110
}

350.2.2 = {
	holder = 1008414
}

400.2.1 = {
	holder = 1015886
}

438.2.1 = {
	holder = 1016240
}

466.2.1 = {
	holder = 1019814
}

466.2.2 = {
	holder = 1020842
}

600.2.1 = {
	holder = 1026103
}

605.2.1 = {
	holder = 1028634
}

613.2.1 = {
	holder = 1028474
}

613.2.2 = {
	holder = 1030300
}

633.2.1 = {
	holder = 1030741
}

639.2.1 = {
	holder = 1031810
}

643.2.1 = {
	holder = 1030359
}

643.2.2 = {
	holder = 1032214
}

800.2.1 = {
	holder = 1042137
}

838.2.1 = {
	holder = 1043090
}

876.2.1 = {
	holder = 1045125
}

887.2.1 = {
	holder = 1047280
}

887.2.2 = {
	holder = 1048074
}

