200.2.1 = {
	holder = 1000025
	law = succ_elective_gavelkind
	law = agnatic_succession
}

200.2.2 = {
	holder = 1001436
	law = succ_elective_gavelkind
	law = agnatic_succession
}

200.2.3 = {
	liege = d_ebuloga
}

200.2.4 = {
	holder = 1001435
	law = succ_elective_gavelkind
	law = agnatic_succession
}

200.2.5 = {
	holder = 1002029
}

220.2.1 = {
	holder = 1004305
}

234.2.1 = {
	holder = 1005127
}

249.2.1 = {
	holder = 1006225
}

299.2.1 = {
	holder = 1007389
}

302.2.1 = {
	holder = 1009832
}

327.2.1 = {
	holder = 1007390
}

329.2.1 = {
	holder = 1008810
}

329.2.2 = {
	holder = 1011730
}

331.2.1 = {
	holder = 1009626
}

331.2.2 = {
	holder = 1007694
}

337.2.1 = {
	holder = 1011939
}

360.2.1 = {
	holder = 1013358
}

379.2.1 = {
	holder = 1015014
}

409.2.1 = {
	holder = 1015054
}

410.2.1 = {
	holder = 1014351
}

410.2.2 = {
	holder = 1017059
}

500.2.1 = {
	holder = 1021216
}

530.2.1 = {
	holder = 1022158
}

530.2.2 = {
	holder = 1024954
}

549.2.1 = {
	holder = 1026185
}

569.2.1 = {
	holder = 1026649
}

574.2.1 = {
	holder = 1027735
}

588.2.1 = {
	holder = 1027917
}

608.2.1 = {
	holder = 1029558
}

611.2.1 = {
	holder = 1027782
}

618.2.1 = {
	holder = 1030609
}

624.2.1 = {
	holder = 1027217
}

624.2.2 = {
	holder = 1030999
}

634.2.1 = {
	holder = 1031111
}

638.2.1 = {
	holder = 1030270
}

638.2.2 = {
	holder = 1031894
}

642.2.1 = {
	holder = 1032172
}

646.2.1 = {
	holder = 1030270
}

670.2.1 = {
	holder = 1032753
}

672.2.1 = {
	holder = 1034115
}

723.2.1 = {
	holder = 1035263
}

728.2.1 = {
	holder = 1034581
}

728.2.2 = {
	holder = 1037824
}

900.2.1 = {
	holder = 1048240
}

