200.2.1 = {
	holder = 1000019
	law = succ_primogeniture
	law = agnatic_succession
}

200.2.2 = {
	holder = 1000670
	law = succ_primogeniture
	law = agnatic_succession
}

200.2.3 = {
	liege = d_syasalk
}

200.2.4 = {
	holder = 1000669
	law = succ_primogeniture
	law = agnatic_succession
}

220.2.1 = {
	holder = 1001945
}

247.2.1 = {
	holder = 1003344
}

251.2.1 = {
	holder = 1001839
}

251.2.2 = {
	holder = 1004461
}

252.2.1 = {
	holder = 1002177
}

252.2.2 = {
	holder = 1004518
}

279.2.1 = {
	holder = 1004971
}

313.2.1 = {
	holder = 1006528
}

321.2.1 = {
	holder = 1007435
}

357.2.1 = {
	holder = 1008534
}

359.2.1 = {
	holder = 1007638
}

377.2.1 = {
	holder = 1010026
}

389.2.1 = {
	holder = 1011065
}

409.2.1 = {
	holder = 1011528
}

423.2.1 = {
	holder = 1012777
}

438.2.1 = {
	holder = 1012863
}

444.2.1 = {
	holder = 1012832
}

453.2.1 = {
	holder = 1014058
}

472.2.1 = {
	holder = 1013167
}

473.2.1 = {
	holder = 1015151
}

509.2.1 = {
	holder = 1015423
}

531.2.1 = {
	holder = 1016904
}

533.2.1 = {
	holder = 1018104
}

571.2.1 = {
	holder = 1018490
}

590.2.1 = {
	holder = 1020531
}

636.2.1 = {
	holder = 1021288
}

648.2.1 = {
	holder = 1023443
}

659.2.1 = {
	holder = 1022505
}

676.2.1 = {
	holder = 1022604
}

676.2.2 = {
	holder = 1024860
}

689.2.1 = {
	holder = 1025172
}

716.2.1 = {
	holder = 1026677
}

744.2.1 = {
	holder = 1027383
}

744.2.2 = {
	holder = 1028162
}

789.2.1 = {
	holder = 1030267
}

790.2.1 = {
	holder = 1030417
}

812.2.1 = {
	holder = 1030626
}

850.2.1 = {
	holder = 1031771
}

892.2.1 = {
	holder = 1034368
}

935.2.1 = {
	holder = 1035405
}

937.2.1 = {
	holder = 1034858
}

951.2.1 = {
	holder = 1036047
}

968.2.1 = {
	holder = 1038850
}

972.2.1 = {
	holder = 1038851
}

980.2.1 = {
	holder = 1038938
}

982.2.1 = {
	holder = 1038127
}

987.2.1 = {
	holder = 1039484
}

996.2.1 = {
	holder = 1037821
}

996.2.2 = {
	holder = 1040155
}

1005.2.1 = {
	holder = 1039534
}

1008.2.1 = {
	holder = 1040785
}

1055.2.1 = {
	holder = 1041971
}

1064.2.1 = {
	holder = 1043470
}

