200.2.1 = {
	holder = 1000010
	law = succ_ultimogeniture
	law = agnatic_succession
}

200.2.2 = {
	holder = 1000357
	law = succ_ultimogeniture
	law = agnatic_succession
}

200.2.3 = {
	liege = d_agodar
}

200.2.4 = {
	holder = 1000355
	law = succ_ultimogeniture
	law = agnatic_succession
}

235.2.1 = {
	holder = 1002766
}

258.2.1 = {
	holder = 1003967
}

293.2.1 = {
	holder = 1005426
}

324.2.1 = {
	holder = 1007083
}

372.2.1 = {
	holder = 1008094
}

390.2.1 = {
	holder = 1011111
}

430.2.1 = {
	holder = 1011467
}

450.2.1 = {
	holder = 1013186
}

463.2.1 = {
	holder = 1014227
}

506.2.1 = {
	holder = 1014960
}

513.2.1 = {
	holder = 1017078
}

523.2.1 = {
	holder = 1017218
}

547.2.1 = {
	holder = 1018118
}

552.2.1 = {
	holder = 1019012
}

553.2.1 = {
	holder = 1019053
}

556.2.1 = {
	holder = 1019199
}

565.2.1 = {
	holder = 1019616
}

580.2.1 = {
	holder = 1020052
}

590.2.1 = {
	holder = 1020823
}

613.2.1 = {
	holder = 1021145
}

631.2.1 = {
	holder = 1022170
}

658.2.1 = {
	holder = 1023259
}

682.2.1 = {
	holder = 1025165
}

684.2.1 = {
	holder = 1025244
}

694.2.1 = {
	holder = 1025357
}

729.2.1 = {
	holder = 1026214
}

740.2.1 = {
	holder = 1027638
}

749.2.1 = {
	holder = 1028394
}

770.2.1 = {
	holder = 1028936
}

776.2.1 = {
	holder = 1029758
}

826.2.1 = {
	holder = 1029906
}

854.2.1 = {
	holder = 1032440
}

858.2.1 = {
	holder = 1033606
}

891.2.1 = {
	holder = 1035220
}

919.2.1 = {
	holder = 1036538
}

966.2.1 = {
	holder = 1037554
}

994.2.1 = {
	holder = 1038929
}

1026.2.1 = {
	holder = 1040773
}

