200.2.1 = {
	holder = 1000018
	law = succ_elective_gavelkind
	law = agnatic_succession
}

200.2.2 = {
	holder = 1001223
	law = succ_open_elective
	law = cognatic_succession
}

200.2.3 = {
	liege = d_aney
}

200.2.4 = {
	holder = 1001222
	law = succ_open_elective
	law = cognatic_succession
}

213.2.1 = {
	holder = 1002836
}

220.2.1 = {
	holder = 1002583
}

243.2.1 = {
	holder = 1004543
}

244.2.1 = {
	holder = 1005853
}

309.2.1 = {
	holder = 1007562
}

319.2.1 = {
	holder = 1010582
}

322.2.1 = {
	holder = 1011318
}

371.2.1 = {
	holder = 1011372
}

378.2.1 = {
	holder = 1014941
}

419.2.1 = {
	holder = 1015011
}

422.2.1 = {
	holder = 1017911
}

426.2.1 = {
	holder = 1018192
}

465.2.1 = {
	holder = 1018253
}

478.2.1 = {
	holder = 1020839
}

522.2.1 = {
	holder = 1021830
}

533.2.1 = {
	holder = 1025163
}

577.2.1 = {
	holder = 1025273
}

586.2.1 = {
	holder = 1028014
}

613.2.1 = {
	holder = 1029318
}

668.2.1 = {
	holder = 1030515
}

674.2.1 = {
	holder = 1031562
}

696.2.1 = {
	holder = 1033717
}

722.2.1 = {
	holder = 1036102
}

729.2.1 = {
	holder = 1037887
}

735.2.1 = {
	holder = 1038122
}

736.2.1 = {
	holder = 1036417
}

770.2.1 = {
	holder = 1039985
}

828.2.1 = {
	holder = 1044252
}

