200.2.1 = {
	holder = 1000017
	law = succ_primogeniture
	law = agnatic_succession
}

200.2.2 = {
	holder = 1001179
	law = succ_primogeniture
	law = agnatic_succession
}

200.2.3 = {
	liege = d_tinozar
}

200.2.4 = {
	holder = 1001180
	law = succ_elective_gavelkind
	law = agnatic_succession
}

200.2.5 = {
	holder = 1001177
	law = succ_primogeniture
	law = agnatic_succession
}

236.2.1 = {
	holder = 1003493
}

260.2.1 = {
	holder = 1005818
}

287.2.1 = {
	holder = 1008733
}

300.2.1 = {
	holder = 1007012
}

318.2.1 = {
	holder = 1009618
}

326.2.1 = {
	holder = 1010662
}

326.2.2 = {
	holder = 1011541
}

363.2.1 = {
	holder = 1012047
}

385.2.1 = {
	holder = 1015116
}

415.2.1 = {
	holder = 1016238
}

440.2.1 = {
	holder = 1017944
}

454.2.1 = {
	holder = 1019859
}

514.2.1 = {
	holder = 1021132
}

526.2.1 = {
	holder = 1024580
}

557.2.1 = {
	holder = 1026435
}

565.2.1 = {
	holder = 1026184
}

565.2.2 = {
	holder = 1027160
}

578.2.1 = {
	holder = 1027400
}

628.2.1 = {
	holder = 1030671
}

681.2.1 = {
	holder = 1032209
}

708.2.1 = {
	holder = 1034840
}

727.2.1 = {
	holder = 1036677
}

734.2.1 = {
	holder = 1035544
}

735.2.1 = {
	holder = 1038251
}

787.2.1 = {
	holder = 1038579
}

805.2.1 = {
	holder = 1041696
}

825.2.1 = {
	holder = 1043088
}

862.2.1 = {
	holder = 1045053
}

881.2.1 = {
	holder = 1046966
}

