200.2.1 = {
	holder = 1000011
	law = succ_elective_gavelkind
	law = agnatic_succession
}

200.2.2 = {
	holder = 1000840
	law = succ_primogeniture
	law = agnatic_succession
}

200.2.3 = {
	liege = d_qaruzan
}

200.2.4 = {
	holder = 1000839
	law = succ_primogeniture
	law = agnatic_succession
}

227.2.1 = {
	holder = 1002666
}

243.2.1 = {
	holder = 1004939
}

268.2.1 = {
	holder = 1006825
}

270.2.1 = {
	holder = 1007691
}

308.2.1 = {
	holder = 1008759
}

319.2.1 = {
	holder = 1010356
}

329.2.1 = {
	holder = 1011753
}

366.2.1 = {
	holder = 1011843
}

394.2.1 = {
	holder = 1015146
}

430.2.1 = {
	holder = 1017797
}

469.2.1 = {
	holder = 1019501
}

480.2.1 = {
	holder = 1021731
}

521.2.1 = {
	holder = 1020265
}

526.2.1 = {
	holder = 1024189
}

536.2.1 = {
	holder = 1024769
}

537.2.1 = {
	holder = 1021477
}

538.2.1 = {
	holder = 1025469
}

562.2.1 = {
	holder = 1026207
}

586.2.1 = {
	holder = 1027323
}

586.2.2 = {
	holder = 1025501
}

588.2.1 = {
	holder = 1028625
}

606.2.1 = {
	holder = 1028730
}

653.2.1 = {
	holder = 1029999
}

677.2.1 = {
	holder = 1031544
}

679.2.1 = {
	holder = 1034599
}

693.2.1 = {
	holder = 1034996
}

722.2.1 = {
	holder = 1037466
}

729.2.1 = {
	holder = 1037552
}

753.2.1 = {
	holder = 1039354
}

754.2.1 = {
	holder = 1034996
}

754.2.2 = {
	holder = 1039455
}

791.2.1 = {
	holder = 1039483
}

818.2.1 = {
	holder = 1042102
}

833.2.1 = {
	holder = 1044016
}

857.2.1 = {
	holder = 1045541
}

883.2.1 = {
	holder = 1046589
}

