200.2.1 = {
	holder = 1000008
	law = succ_gavelkind
	law = agnatic_succession
}

200.2.2 = {
	holder = 1000638
	law = succ_gavelkind
	law = agnatic_succession
}

200.2.3 = {
	liege = d_teluiba
}

200.2.4 = {
	holder = 1000639
	law = succ_elective_gavelkind
	law = agnatic_succession
}

200.2.5 = {
	holder = 1000636
	law = succ_gavelkind
	law = agnatic_succession
}

217.2.1 = {
	holder = 1004080
}

235.2.1 = {
	holder = 1004120
}

264.2.1 = {
	holder = 1007227
}

286.2.1 = {
	holder = 1007309
}

294.2.1 = {
	holder = 1009303
}

324.2.1 = {
	holder = 1009332
}

355.2.1 = {
	holder = 1011580
}

378.2.1 = {
	holder = 1013860
}

414.2.1 = {
	holder = 1015029
}

441.2.1 = {
	holder = 1017537
}

450.2.1 = {
	holder = 1019275
}

458.2.1 = {
	holder = 1017711
}

458.2.2 = {
	holder = 1020330
}

503.2.1 = {
	holder = 1020733
}

512.2.1 = {
	holder = 1023533
}

541.2.1 = {
	holder = 1025625
}

547.2.1 = {
	holder = 1025743
}

581.2.1 = {
	holder = 1026962
}

629.2.1 = {
	holder = 1028246
}

630.2.1 = {
	holder = 1030715
}

640.2.1 = {
	holder = 1031394
}

663.2.1 = {
	holder = 1031722
}

700.2.1 = {
	holder = 1035921
}

800.2.1 = {
	holder = 1039524
}

809.2.1 = {
	holder = 1041079
}

810.2.1 = {
	holder = 1043065
}

900.2.1 = {
	holder = 1048859
}

