200.2.1 = {
	holder = 1000036
	law = succ_feudal_elective
	law = cognatic_succession
}

200.2.2 = {
	holder = 1001787
	law = succ_feudal_elective
	law = cognatic_succession
}

200.2.3 = {
	liege = d_lulma
}

200.2.4 = {
	holder = 1001785
	law = succ_feudal_elective
	law = cognatic_succession
}

228.2.1 = {
	holder = 1002473
}

254.2.1 = {
	holder = 1005624
}

292.2.1 = {
	holder = 1007121
}

292.2.2 = {
	holder = 1009179
}

295.2.1 = {
	holder = 1006803
}

300.2.1 = {
	holder = 1006859
}

301.2.1 = {
	holder = 1009817
}

400.2.1 = {
	holder = 1014307
}

405.2.1 = {
	holder = 1015002
}

460.2.1 = {
	holder = 1016941
}

480.2.1 = {
	holder = 1020953
}

506.2.1 = {
	holder = 1022097
}

509.2.1 = {
	holder = 1022096
}

510.2.1 = {
	holder = 1023634
}

529.2.1 = {
	holder = 1024069
}

569.2.1 = {
	holder = 1026232
}

579.2.1 = {
	holder = 1027852
}

597.2.1 = {
	holder = 1026986
}

599.2.1 = {
	holder = 1029193
}

606.2.1 = {
	holder = 1029821
}

623.2.1 = {
	holder = 1030370
}

672.2.1 = {
	holder = 1031369
}

681.2.1 = {
	holder = 1034188
}

732.2.1 = {
	holder = 1037518
}

765.2.1 = {
	holder = 1037993
}

792.2.1 = {
	holder = 1041515
}

793.2.1 = {
	holder = 1039771
}

793.2.2 = {
	holder = 1041943
}

841.2.1 = {
	holder = 1042401
}

854.2.1 = {
	holder = 1045370
}

