200.2.1 = {
	holder = 1000029
	law = succ_gavelkind
	law = cognatic_succession
}

200.2.2 = {
	holder = 1001552
	law = succ_gavelkind
	law = cognatic_succession
}

200.2.3 = {
	liege = d_tegiana
}

200.2.4 = {
	holder = 1001550
	law = succ_gavelkind
	law = cognatic_succession
}

213.2.1 = {
	holder = 1002993
}

268.2.1 = {
	holder = 1007538
}

291.2.1 = {
	holder = 1007093
}

302.2.1 = {
	holder = 1008877
}

305.2.1 = {
	holder = 1010075
}

317.2.1 = {
	holder = 1009518
}

317.2.2 = {
	holder = 1010958
}

500.2.1 = {
	holder = 1020060
}

505.2.1 = {
	holder = 1022630
}

518.2.1 = {
	holder = 1024106
}

522.2.1 = {
	holder = 1020782
}

522.2.2 = {
	holder = 1024393
}

532.2.1 = {
	holder = 1024392
}

576.2.1 = {
	holder = 1026290
}

603.2.1 = {
	holder = 1028124
}

618.2.1 = {
	holder = 1030616
}

630.2.1 = {
	holder = 1030941
}

664.2.1 = {
	holder = 1031956
}

691.2.1 = {
	holder = 1033919
}

721.2.1 = {
	holder = 1036485
}

767.2.1 = {
	holder = 1038179
}

789.2.1 = {
	holder = 1040655
}

819.2.1 = {
	holder = 1042306
}

854.2.1 = {
	holder = 1044545
}

860.2.1 = {
	holder = 1046032
}

