200.2.1 = {
	holder = 1000033
	law = succ_tanistry
	law = cognatic_succession
}

200.2.2 = {
	holder = 1001639
	law = succ_tanistry
	law = cognatic_succession
}

200.2.3 = {
	liege = d_bisamur
}

200.2.4 = {
	holder = 1001637
	law = succ_tanistry
	law = cognatic_succession
}

236.2.1 = {
	holder = 1003889
}

281.2.1 = {
	holder = 1005828
}

305.2.1 = {
	holder = 1006895
}

305.2.2 = {
	holder = 1010089
}

400.2.1 = {
	holder = 1010090
}

400.2.2 = {
	holder = 1014357
}

400.2.3 = {
	holder = 1016347
}

500.2.1 = {
	holder = 1021885
}

518.2.1 = {
	holder = 1022456
}

530.2.1 = {
	holder = 1024826
}

532.2.1 = {
	holder = 1023191
}

532.2.2 = {
	holder = 1022169
}

552.2.1 = {
	holder = 1025256
}

580.2.1 = {
	holder = 1028145
}

600.2.1 = {
	holder = 1029187
}

632.2.1 = {
	holder = 1030498
}

661.2.1 = {
	holder = 1031304
}

661.2.2 = {
	holder = 1033422
}

667.2.1 = {
	holder = 1031174
}

667.2.2 = {
	holder = 1033796
}

800.2.1 = {
	holder = 1039127
}

900.2.1 = {
	holder = 1047083
}

900.2.2 = {
	holder = 1045908
}

900.2.3 = {
	holder = 1046357
}

