200.2.1 = {
	holder = 1000010
	law = succ_elective_gavelkind
	law = agnatic_succession
}

200.2.2 = {
	holder = 1000767
	law = succ_elective_gavelkind
	law = agnatic_succession
}

200.2.3 = {
	liege = d_abudolun
}

200.2.4 = {
	holder = 1000763
	law = succ_elective_gavelkind
	law = agnatic_succession
}

232.2.1 = {
	holder = 1003388
}

260.2.1 = {
	holder = 1005453
}

262.2.1 = {
	holder = 1005724
}

276.2.1 = {
	holder = 1007982
}

277.2.1 = {
	holder = 1008121
}

312.2.1 = {
	holder = 1008286
}

345.2.1 = {
	holder = 1012609
}

381.2.1 = {
	holder = 1014261
}

399.2.1 = {
	holder = 1016175
}

469.2.1 = {
	holder = 1017936
}

475.2.1 = {
	holder = 1020023
}

476.2.1 = {
	holder = 1021429
}

497.2.1 = {
	holder = 1021082
}

497.2.2 = {
	holder = 1022769
}

532.2.1 = {
	holder = 1022649
}

533.2.1 = {
	holder = 1025158
}

553.2.1 = {
	holder = 1026152
}

554.2.1 = {
	holder = 1026458
}

590.2.1 = {
	holder = 1026513
}

599.2.1 = {
	holder = 1028832
}

643.2.1 = {
	holder = 1030570
}

680.2.1 = {
	holder = 1032773
}

685.2.1 = {
	holder = 1034917
}

693.2.1 = {
	holder = 1032184
}

700.2.1 = {
	holder = 1035998
}

708.2.1 = {
	holder = 1034991
}

709.2.1 = {
	holder = 1036631
}

713.2.1 = {
	holder = 1036241
}

754.2.1 = {
	holder = 1037367
}

756.2.1 = {
	holder = 1039539
}

775.2.1 = {
	holder = 1040150
}

822.2.1 = {
	holder = 1041150
}

850.2.1 = {
	holder = 1044143
}

860.2.1 = {
	holder = 1046086
}

874.2.1 = {
	holder = 1044727
}

875.2.1 = {
	holder = 1047218
}

881.2.1 = {
	holder = 1045983
}

884.2.1 = {
	holder = 1047821
}

