200.2.1 = {
	holder = 1000033
	law = succ_tanistry
	law = cognatic_succession
}

200.2.2 = {
	liege = d_kipiran
}

200.2.3 = {
	holder = 1001670
	law = succ_tanistry
	law = cognatic_succession
}

230.2.1 = {
	holder = 1004282
}

244.2.1 = {
	holder = 1005337
}

272.2.1 = {
	holder = 1006482
}

283.2.1 = {
	holder = 1007909
}

307.2.1 = {
	holder = 1008955
}

323.2.1 = {
	holder = 1010342
}

340.2.1 = {
	holder = 1011488
}

390.2.1 = {
	holder = 1014690
}

405.2.1 = {
	holder = 1014755
}

412.2.1 = {
	holder = 1017219
}

459.2.1 = {
	holder = 1017620
}

460.2.1 = {
	holder = 1016936
}

473.2.1 = {
	holder = 1019158
}

481.2.1 = {
	holder = 1017960
}

482.2.1 = {
	holder = 1021812
}

483.2.1 = {
	holder = 1020950
}

483.2.2 = {
	holder = 1021895
}

493.2.1 = {
	holder = 1021961
}

545.2.1 = {
	holder = 1023359
}

551.2.1 = {
	holder = 1025095
}

552.2.1 = {
	holder = 1026343
}

554.2.1 = {
	holder = 1025256
}

555.2.1 = {
	holder = 1026501
}

593.2.1 = {
	holder = 1027224
}

616.2.1 = {
	holder = 1029890
}

624.2.1 = {
	holder = 1027460
}

625.2.1 = {
	holder = 1031051
}

651.2.1 = {
	holder = 1031304
}

669.2.1 = {
	holder = 1032827
}

703.2.1 = {
	holder = 1034247
}

737.2.1 = {
	holder = 1036427
}

765.2.1 = {
	holder = 1038900
}

792.2.1 = {
	holder = 1040826
}

830.2.1 = {
	holder = 1041998
}

835.2.1 = {
	holder = 1044755
}

836.2.1 = {
	holder = 1044823
}

868.2.1 = {
	holder = 1044891
}

900.2.1 = {
	holder = 1044621
}

900.2.2 = {
	holder = 1046806
}

