200.2.1 = {
	holder = 1000027
	law = succ_ultimogeniture
	law = agnatic_succession
}

200.2.2 = {
	holder = 1000826
	law = succ_ultimogeniture
	law = agnatic_succession
}

200.2.3 = {
	liege = d_rilins
}

200.2.4 = {
	holder = 1000827
	law = succ_primogeniture
	law = cognatic_succession
}

200.2.5 = {
	holder = 1000824
	law = succ_ultimogeniture
	law = agnatic_succession
}

211.2.1 = {
	holder = 1001851
}

216.2.1 = {
	holder = 1002777
}

253.2.1 = {
	holder = 1002887
}

279.2.1 = {
	holder = 1004863
}

305.2.1 = {
	holder = 1005918
}

330.2.1 = {
	holder = 1007235
}

353.2.1 = {
	holder = 1009330
}

399.2.1 = {
	holder = 1009503
}

407.2.1 = {
	holder = 1011638
}

415.2.1 = {
	holder = 1012423
}

439.2.1 = {
	holder = 1013134
}

465.2.1 = {
	holder = 1014374
}

472.2.1 = {
	holder = 1015075
}

473.2.1 = {
	holder = 1011433
}

474.2.1 = {
	holder = 1015182
}

508.2.1 = {
	holder = 1016337
}

544.2.1 = {
	holder = 1017273
}

550.2.1 = {
	holder = 1018928
}

593.2.1 = {
	holder = 1019020
}

601.2.1 = {
	holder = 1021161
}

657.2.1 = {
	holder = 1022139
}

672.2.1 = {
	holder = 1024475
}

692.2.1 = {
	holder = 1025263
}

708.2.1 = {
	holder = 1026286
}

720.2.1 = {
	holder = 1027050
}

725.2.1 = {
	holder = 1027255
}

750.2.1 = {
	holder = 1028463
}

764.2.1 = {
	holder = 1028553
}

775.2.1 = {
	holder = 1029711
}

790.2.1 = {
	holder = 1028667
}

817.2.1 = {
	holder = 1031665
}

831.2.1 = {
	holder = 1032451
}

856.2.1 = {
	holder = 1032668
}

868.2.1 = {
	holder = 1034207
}

907.2.1 = {
	holder = 1034246
}

932.2.1 = {
	holder = 1036462
}

971.2.1 = {
	holder = 1037258
}

987.2.1 = {
	holder = 1039142
}

1025.2.1 = {
	holder = 1039982
}

1035.2.1 = {
	holder = 1042073
}

