200.2.1 = {
	holder = 1000024
	law = succ_primogeniture
	law = agnatic_succession
}

200.2.2 = {
	holder = 1000792
	law = succ_primogeniture
	law = agnatic_succession
}

200.2.3 = {
	liege = d_talora
}

200.2.4 = {
	liege = d_sicaru
}

200.2.5 = {
	holder = 1000781
	law = succ_primogeniture
	law = agnatic_succession
}

234.2.1 = {
	holder = 1002568
}

268.2.1 = {
	holder = 1005223
}

307.2.1 = {
	holder = 1005964
}

339.2.1 = {
	holder = 1007332
}

341.2.1 = {
	holder = 1008709
}

392.2.1 = {
	holder = 1009750
}

426.2.1 = {
	holder = 1012323
}

485.2.1 = {
	holder = 1013133
}

500.2.1 = {
	holder = 1016018
}

552.2.1 = {
	holder = 1017955
}

576.2.1 = {
	holder = 1019207
}

618.2.1 = {
	holder = 1020694
}

632.2.1 = {
	holder = 1022707
}

664.2.1 = {
	holder = 1023491
}

679.2.1 = {
	holder = 1024392
}

688.2.1 = {
	holder = 1025314
}

691.2.1 = {
	holder = 1024177
}

692.2.1 = {
	holder = 1025654
}

723.2.1 = {
	holder = 1025016
}

730.2.1 = {
	holder = 1026638
}

731.2.1 = {
	holder = 1027561
}

758.2.1 = {
	holder = 1027608
}

769.2.1 = {
	holder = 1029363
}

814.2.1 = {
	holder = 1031604
}

817.2.1 = {
	holder = 1031662
}

819.2.1 = {
	holder = 1031606
}

840.2.1 = {
	holder = 1031822
}

843.2.1 = {
	holder = 1032931
}

880.2.1 = {
	holder = 1033068
}

889.2.1 = {
	holder = 1034858
}

900.2.1 = {
	holder = 1035669
}

937.2.1 = {
	holder = 1037410
}

980.2.1 = {
	holder = 1037605
}

1002.2.1 = {
	holder = 1039541
}

1046.2.1 = {
	holder = 1040658
}

1064.2.1 = {
	holder = 1042729
}

