200.2.1 = {
	holder = 1000008
	law = succ_gavelkind
	law = agnatic_succession
}

200.2.2 = {
	holder = 1000664
	law = succ_gavelkind
	law = agnatic_succession
}

200.2.3 = {
	liege = d_boriuge
}

200.2.4 = {
	holder = 1000665
	law = succ_elective_gavelkind
	law = agnatic_succession
}

200.2.5 = {
	holder = 1000660
	law = succ_gavelkind
	law = agnatic_succession
}

235.2.1 = {
	holder = 1002648
}

241.2.1 = {
	holder = 1000698
}

249.2.1 = {
	holder = 1002806
}

253.2.1 = {
	holder = 1005592
}

262.2.1 = {
	holder = 1007110
}

267.2.1 = {
	holder = 1007228
}

309.2.1 = {
	holder = 1008918
}

313.2.1 = {
	holder = 1010654
}

358.2.1 = {
	holder = 1010692
}

378.2.1 = {
	holder = 1014105
}

387.2.1 = {
	holder = 1014421
}

387.2.2 = {
	holder = 1010849
}

388.2.1 = {
	holder = 1012521
}

388.2.2 = {
	holder = 1015546
}

390.2.1 = {
	holder = 1015611
}

425.2.1 = {
	holder = 1016689
}

457.2.1 = {
	holder = 1018828
}

459.2.1 = {
	holder = 1020396
}

504.2.1 = {
	holder = 1021670
}

526.2.1 = {
	holder = 1024558
}

527.2.1 = {
	holder = 1024766
}

572.2.1 = {
	holder = 1025422
}

600.2.1 = {
	holder = 1027618
}

617.2.1 = {
	holder = 1029931
}

623.2.1 = {
	holder = 1029871
}

633.2.1 = {
	holder = 1031541
}

635.2.1 = {
	holder = 1029871
}

635.2.2 = {
	holder = 1027697
}

700.2.1 = {
	holder = 1030918
}

800.2.1 = {
	holder = 1039807
}

832.2.1 = {
	holder = 1042227
}

836.2.1 = {
	holder = 1040192
}

836.2.2 = {
	holder = 1042891
}

861.2.1 = {
	holder = 1045649
}

