200.2.1 = {
	holder = 1000005
	law = succ_tanistry
	law = cognatic_succession
}

200.2.2 = {
	holder = 1000539
	law = succ_tanistry
	law = cognatic_succession
}

200.2.3 = {
	liege = d_reyxade
}

200.2.4 = {
	holder = 1000538
	law = succ_tanistry
	law = cognatic_succession
}

212.2.1 = {
	holder = 1000469
}

215.2.1 = {
	holder = 1002141
}

232.2.1 = {
	holder = 1004564
}

277.2.1 = {
	holder = 1005872
}

309.2.1 = {
	holder = 1008338
}

315.2.1 = {
	holder = 1008318
}

340.2.1 = {
	holder = 1009125
}

344.2.1 = {
	holder = 1011132
}

357.2.1 = {
	holder = 1012663
}

367.2.1 = {
	holder = 1013925
}

367.2.2 = {
	holder = 1014170
}

401.2.1 = {
	holder = 1014450
}

402.2.1 = {
	holder = 1012716
}

412.2.1 = {
	holder = 1016528
}

413.2.1 = {
	holder = 1017290
}

422.2.1 = {
	holder = 1017316
}

466.2.1 = {
	holder = 1018403
}

486.2.1 = {
	holder = 1018532
}

493.2.1 = {
	holder = 1022300
}

542.2.1 = {
	holder = 1023758
}

585.2.1 = {
	holder = 1025990
}

592.2.1 = {
	holder = 1028652
}

651.2.1 = {
	holder = 1029906
}

666.2.1 = {
	holder = 1032843
}

682.2.1 = {
	holder = 1034791
}

683.2.1 = {
	holder = 1033705
}

687.2.1 = {
	holder = 1032194
}

696.2.1 = {
	holder = 1034817
}

738.2.1 = {
	holder = 1036095
}

757.2.1 = {
	holder = 1038544
}

802.2.1 = {
	holder = 1039782
}

819.2.1 = {
	holder = 1040075
}

820.2.1 = {
	holder = 1043783
}

856.2.1 = {
	holder = 1043851
}

884.2.1 = {
	holder = 1046580
}

