200.2.1 = {
	holder = 1000034
	law = succ_elective_gavelkind
	law = cognatic_succession
}

200.2.2 = {
	holder = 1001719
	law = succ_elective_gavelkind
	law = cognatic_succession
}

200.2.3 = {
	liege = d_notomas
}

200.2.4 = {
	holder = 1001720
	law = succ_elective_gavelkind
	law = agnatic_succession
}

200.2.5 = {
	liege = d_syasay
}

200.2.6 = {
	holder = 1001658
	law = succ_tanistry
	law = cognatic_succession
}

217.2.1 = {
	holder = 1002867
}

240.2.1 = {
	holder = 1004847
}

295.2.1 = {
	holder = 1006631
}

323.2.1 = {
	holder = 1009724
}

333.2.1 = {
	holder = 1011825
}

382.2.1 = {
	holder = 1014357
}

423.2.1 = {
	holder = 1016198
}

430.2.1 = {
	holder = 1018023
}

495.2.1 = {
	holder = 1019731
}

502.2.1 = {
	holder = 1022751
}

560.2.1 = {
	holder = 1023869
}

565.2.1 = {
	holder = 1026915
}

591.2.1 = {
	holder = 1027985
}

594.2.1 = {
	holder = 1028145
}

595.2.1 = {
	holder = 1029073
}

602.2.1 = {
	holder = 1029299
}

671.2.1 = {
	holder = 1030411
}

695.2.1 = {
	holder = 1034589
}

719.2.1 = {
	holder = 1035979
}

763.2.1 = {
	holder = 1039503
}

768.2.1 = {
	holder = 1039563
}

769.2.1 = {
	holder = 1040467
}

900.2.1 = {
	holder = 1044754
}

