200.2.1 = {
	holder = 1000015
	law = succ_tanistry
	law = agnatic_succession
}

200.2.2 = {
	holder = 1000016
	law = succ_elective_gavelkind
	law = agnatic_succession
}

200.2.3 = {
	holder = 1001087
	law = succ_elective_gavelkind
	law = agnatic_succession
}

200.2.4 = {
	liege = d_kouzone
}

200.2.5 = {
	holder = 1001086
	law = succ_elective_gavelkind
	law = agnatic_succession
}

204.2.1 = {
	holder = 1001098
}

204.2.2 = {
	holder = 1003091
}

300.2.1 = {
	holder = 1007881
}

308.2.1 = {
	holder = 1009751
}

349.2.1 = {
	holder = 1011179
}

377.2.1 = {
	holder = 1013488
}

378.2.1 = {
	holder = 1013091
}

401.2.1 = {
	holder = 1015107
}

405.2.1 = {
	holder = 1016702
}

440.2.1 = {
	holder = 1017570
}

481.2.1 = {
	holder = 1020081
}

508.2.1 = {
	holder = 1021827
}

551.2.1 = {
	holder = 1024016
}

559.2.1 = {
	holder = 1023544
}

564.2.1 = {
	holder = 1026433
}

572.2.1 = {
	holder = 1025504
}

602.2.1 = {
	holder = 1028012
}

630.2.1 = {
	holder = 1031378
}

666.2.1 = {
	holder = 1031497
}

673.2.1 = {
	holder = 1034071
}

718.2.1 = {
	holder = 1034532
}

738.2.1 = {
	holder = 1037839
}

782.2.1 = {
	holder = 1039261
}

799.2.1 = {
	holder = 1041833
}

831.2.1 = {
	holder = 1043119
}

873.2.1 = {
	holder = 1044774
}

884.2.1 = {
	holder = 1047210
}

