200.2.1 = {
	holder = 1000002
	law = succ_seniority
	law = cognatic_succession
}

200.2.2 = {
	holder = 1000003
	law = succ_elective_gavelkind
	law = agnatic_succession
}

200.2.3 = {
	holder = 1000359
	law = succ_tanistry
	law = cognatic_succession
}

200.2.4 = {
	liege = d_letihosta
}

200.2.5 = {
	holder = 1000358
	law = succ_tanistry
	law = cognatic_succession
}

200.2.6 = {
	holder = 1001992
}

235.2.1 = {
	holder = 1005215
}

252.2.1 = {
	holder = 1006417
}

307.2.1 = {
	holder = 1006929
}

322.2.1 = {
	holder = 1010522
}

338.2.1 = {
	holder = 1011777
}

342.2.1 = {
	holder = 1010883
}

342.2.2 = {
	holder = 1012560
}

500.2.1 = {
	holder = 1022892
}

600.2.1 = {
	holder = 1025487
}

621.2.1 = {
	holder = 1028664
}

636.2.1 = {
	holder = 1030968
}

689.2.1 = {
	holder = 1034813
}

737.2.1 = {
	holder = 1037122
}

768.2.1 = {
	holder = 1038617
}

777.2.1 = {
	holder = 1040497
}

803.2.1 = {
	holder = 1041607
}

810.2.1 = {
	holder = 1043068
}

824.2.1 = {
	holder = 1042763
}

824.2.2 = {
	holder = 1044047
}

849.2.1 = {
	holder = 1044374
}

850.2.1 = {
	holder = 1042921
}

860.2.1 = {
	holder = 1044373
}

870.2.1 = {
	holder = 1046636
}

874.2.1 = {
	holder = 1044061
}

875.2.1 = {
	holder = 1047223
}

879.2.1 = {
	holder = 1044061
}

880.2.1 = {
	holder = 1045389
}

