200.2.1 = {
	holder = 1000001
	law = succ_tanistry
	law = agnatic_succession
}

200.2.2 = {
	holder = 1000119
	law = succ_tanistry
	law = agnatic_succession
}

200.2.3 = {
	liege = d_dolio
}

200.2.4 = {
	holder = 1000120
	law = succ_elective_gavelkind
	law = agnatic_succession
}

200.2.5 = {
	holder = 1000117
	law = succ_tanistry
	law = agnatic_succession
}

210.2.1 = {
	holder = 1002773
}

219.2.1 = {
	holder = 1000159
}

219.2.2 = {
	holder = 1004176
}

240.2.1 = {
	holder = 1005559
}

243.2.1 = {
	holder = 1002064
}

248.2.1 = {
	holder = 1006083
}

274.2.1 = {
	holder = 1007615
}

282.2.1 = {
	holder = 1007982
}

293.2.1 = {
	holder = 1008383
}

314.2.1 = {
	holder = 1008448
}

335.2.1 = {
	holder = 1011324
}

344.2.1 = {
	holder = 1012655
}

367.2.1 = {
	holder = 1012011
}

367.2.2 = {
	holder = 1011206
}

381.2.1 = {
	holder = 1012022
}

393.2.1 = {
	holder = 1015834
}

399.2.1 = {
	holder = 1016161
}

439.2.1 = {
	holder = 1017441
}

442.2.1 = {
	holder = 1017903
}

442.2.2 = {
	holder = 1019312
}

452.2.1 = {
	holder = 1019820
}

478.2.1 = {
	holder = 1021102
}

503.2.1 = {
	holder = 1022123
}

549.2.1 = {
	holder = 1023443
}

555.2.1 = {
	holder = 1026256
}

556.2.1 = {
	holder = 1024050
}

559.2.1 = {
	holder = 1021984
}

561.2.1 = {
	holder = 1023730
}

561.2.2 = {
	holder = 1026884
}

596.2.1 = {
	holder = 1027186
}

605.2.1 = {
	holder = 1028916
}

627.2.1 = {
	holder = 1030915
}

658.2.1 = {
	holder = 1033170
}

680.2.1 = {
	holder = 1034210
}

682.2.1 = {
	holder = 1033975
}

685.2.1 = {
	holder = 1034615
}

690.2.1 = {
	holder = 1035225
}

734.2.1 = {
	holder = 1037168
}

749.2.1 = {
	holder = 1038347
}

799.2.1 = {
	holder = 1039520
}

812.2.1 = {
	holder = 1043201
}

821.2.1 = {
	holder = 1043416
}

866.2.1 = {
	holder = 1044782
}

883.2.1 = {
	holder = 1047546
}

886.2.1 = {
	holder = 1047884
}

887.2.1 = {
	holder = 1045983
}

887.2.2 = {
	holder = 1048027
}

893.2.1 = {
	holder = 1047793
}

893.2.2 = {
	holder = 1048430
}

