200.2.1 = {
	holder = 1000015
	law = succ_seniority
	law = cognatic_succession
}

200.2.2 = {
	holder = 1000421
	law = succ_seniority
	law = cognatic_succession
}

200.2.3 = {
	liege = d_lorold
}

200.2.4 = {
	holder = 1000420
	law = succ_seniority
	law = cognatic_succession
}

244.2.1 = {
	holder = 1002920
}

285.2.1 = {
	holder = 1004298
}

310.2.1 = {
	holder = 1007228
}

320.2.1 = {
	holder = 1006316
}

320.2.2 = {
	holder = 1006135
}

321.2.1 = {
	holder = 1006316
}

348.2.1 = {
	holder = 1007133
}

349.2.1 = {
	holder = 1009108
}

386.2.1 = {
	holder = 1009863
}

399.2.1 = {
	holder = 1011116
}

410.2.1 = {
	holder = 1010354
}

416.2.1 = {
	holder = 1012456
}

435.2.1 = {
	holder = 1012510
}

443.2.1 = {
	holder = 1009436
}

443.2.2 = {
	holder = 1013712
}

497.2.1 = {
	holder = 1013814
}

517.2.1 = {
	holder = 1017221
}

550.2.1 = {
	holder = 1018919
}

552.2.1 = {
	holder = 1016886
}

562.2.1 = {
	holder = 1019397
}

575.2.1 = {
	holder = 1020126
}

610.2.1 = {
	holder = 1020523
}

645.2.1 = {
	holder = 1022498
}

693.2.1 = {
	holder = 1023527
}

710.2.1 = {
	holder = 1025767
}

720.2.1 = {
	holder = 1026731
}

727.2.1 = {
	holder = 1026434
}

727.2.2 = {
	holder = 1027411
}

762.2.1 = {
	holder = 1027512
}

792.2.1 = {
	holder = 1029192
}

822.2.1 = {
	holder = 1030613
}

862.2.1 = {
	holder = 1032132
}

887.2.1 = {
	holder = 1033939
}

893.2.1 = {
	holder = 1035274
}

945.2.1 = {
	holder = 1036307
}

977.2.1 = {
	holder = 1038977
}

981.2.1 = {
	holder = 1038360
}

992.2.1 = {
	holder = 1040003
}

1005.2.1 = {
	holder = 1040186
}

1036.2.1 = {
	holder = 1041175
}

1038.2.1 = {
	holder = 1042270
}

