200.2.1 = {
	holder = 1000032
	law = succ_feudal_elective
	law = cognatic_succession
}

200.2.2 = {
	holder = 1000033
	law = succ_elective_gavelkind
	law = agnatic_succession
}

200.2.3 = {
	holder = 1001692
	law = succ_tanistry
	law = cognatic_succession
}

200.2.4 = {
	liege = d_weutay
}

200.2.5 = {
	holder = 1001691
	law = succ_tanistry
	law = cognatic_succession
}

242.2.1 = {
	holder = 1003121
}

282.2.1 = {
	holder = 1005973
}

300.2.1 = {
	holder = 1009081
}

301.2.1 = {
	holder = 1006782
}

332.2.1 = {
	holder = 1009813
}

365.2.1 = {
	holder = 1012904
}

395.2.1 = {
	holder = 1015191
}

442.2.1 = {
	holder = 1016800
}

453.2.1 = {
	holder = 1019491
}

468.2.1 = {
	holder = 1020571
}

481.2.1 = {
	holder = 1017753
}

483.2.1 = {
	holder = 1021881
}

503.2.1 = {
	holder = 1022024
}

518.2.1 = {
	holder = 1023301
}

525.2.1 = {
	holder = 1024595
}

526.2.1 = {
	holder = 1021334
}

527.2.1 = {
	holder = 1024744
}

579.2.1 = {
	holder = 1024894
}

591.2.1 = {
	holder = 1028207
}

630.2.1 = {
	holder = 1029498
}

661.2.1 = {
	holder = 1033423
}

670.2.1 = {
	holder = 1033734
}

729.2.1 = {
	holder = 1035275
}

735.2.1 = {
	holder = 1038266
}

750.2.1 = {
	holder = 1035743
}

751.2.1 = {
	holder = 1039247
}

