200.2.1 = {
	holder = 1000019
	law = succ_primogeniture
	law = agnatic_succession
}

200.2.2 = {
	holder = 1000663
	law = succ_primogeniture
	law = agnatic_succession
}

200.2.3 = {
	liege = d_sodicco
}

200.2.4 = {
	holder = 1000662
	law = succ_primogeniture
	law = agnatic_succession
}

234.2.1 = {
	holder = 1001839
}

266.2.1 = {
	holder = 1003703
}

301.2.1 = {
	holder = 1005214
}

319.2.1 = {
	holder = 1007176
}

369.2.1 = {
	holder = 1008105
}

394.2.1 = {
	holder = 1010176
}

417.2.1 = {
	holder = 1011474
}

430.2.1 = {
	holder = 1012827
}

447.2.1 = {
	holder = 1013821
}

456.2.1 = {
	holder = 1013659
}

494.2.1 = {
	holder = 1013820
}

498.2.1 = {
	holder = 1014283
}

498.2.2 = {
	holder = 1016326
}

522.2.1 = {
	holder = 1016329
}

542.2.1 = {
	holder = 1017397
}

571.2.1 = {
	holder = 1017775
}

571.2.2 = {
	holder = 1019917
}

619.2.1 = {
	holder = 1020095
}

641.2.1 = {
	holder = 1022274
}

659.2.1 = {
	holder = 1023869
}

662.2.1 = {
	holder = 1023898
}

665.2.1 = {
	holder = 1024346
}

699.2.1 = {
	holder = 1024469
}

712.2.1 = {
	holder = 1026317
}

766.2.1 = {
	holder = 1027470
}

781.2.1 = {
	holder = 1029560
}

791.2.1 = {
	holder = 1030370
}

813.2.1 = {
	holder = 1029313
}

813.2.2 = {
	holder = 1028605
}

815.2.1 = {
	holder = 1030705
}

839.2.1 = {
	holder = 1032830
}

878.2.1 = {
	holder = 1033150
}

892.2.1 = {
	holder = 1034816
}

914.2.1 = {
	holder = 1035593
}

935.2.1 = {
	holder = 1036734
}

963.2.1 = {
	holder = 1037600
}

998.2.1 = {
	holder = 1038940
}

1011.2.1 = {
	holder = 1039037
}

1024.2.1 = {
	holder = 1039841
}

1044.2.1 = {
	holder = 1041833
}

