200.2.1 = {
	holder = 1000019
	law = succ_primogeniture
	law = agnatic_succession
}

200.2.2 = {
	holder = 1000641
	law = succ_primogeniture
	law = agnatic_succession
}

200.2.3 = {
	liege = d_nadogalk
}

200.2.4 = {
	holder = 1000642
	law = succ_primogeniture
	law = cognatic_succession
}

200.2.5 = {
	holder = 1000639
	law = succ_primogeniture
	law = agnatic_succession
}

202.2.1 = {
	holder = 1000585
}

264.2.1 = {
	holder = 1003124
}

273.2.1 = {
	holder = 1005123
}

309.2.1 = {
	holder = 1006013
}

330.2.1 = {
	holder = 1007430
}

330.2.2 = {
	holder = 1008257
}

500.2.1 = {
	holder = 1016012
}

550.2.1 = {
	holder = 1017473
}

550.2.2 = {
	holder = 1018925
}

582.2.1 = {
	holder = 1018801
}

589.2.1 = {
	holder = 1018926
}

590.2.1 = {
	holder = 1020864
}

700.2.1 = {
	holder = 1025013
}

708.2.1 = {
	holder = 1025993
}

723.2.1 = {
	holder = 1026086
}

738.2.1 = {
	holder = 1026363
}

739.2.1 = {
	holder = 1027909
}

900.2.1 = {
	holder = 1033867
}

916.2.1 = {
	holder = 1034817
}

933.2.1 = {
	holder = 1036406
}

934.2.1 = {
	holder = 1036387
}

977.2.1 = {
	holder = 1038104
}

994.2.1 = {
	holder = 1038708
}

999.2.1 = {
	holder = 1040324
}

1018.2.1 = {
	holder = 1040557
}

1059.2.1 = {
	holder = 1041764
}

1066.2.1 = {
	holder = 1040860
}

