200.2.1 = {
	holder = 1000037
	law = succ_primogeniture
	law = cognatic_succession
}

200.2.2 = {
	holder = 1001139
	law = succ_primogeniture
	law = cognatic_succession
}

200.2.3 = {
	liege = d_qabara
}

200.2.4 = {
	liege = d_kurad
}

200.2.5 = {
	holder = 1001352
	law = succ_seniority
	law = cognatic_succession
}

218.2.1 = {
	holder = 1001252
}

218.2.2 = {
	holder = 1002906
}

219.2.1 = {
	holder = 1002963
}

264.2.1 = {
	holder = 1003375
}

265.2.1 = {
	holder = 1005136
}

291.2.1 = {
	holder = 1005369
}

328.2.1 = {
	holder = 1006504
}

342.2.1 = {
	holder = 1008821
}

366.2.1 = {
	holder = 1008825
}

369.2.1 = {
	holder = 1010055
}

381.2.1 = {
	holder = 1009684
}

391.2.1 = {
	holder = 1010936
}

406.2.1 = {
	holder = 1011022
}

409.2.1 = {
	holder = 1012151
}

436.2.1 = {
	holder = 1012189
}

450.2.1 = {
	holder = 1013789
}

457.2.1 = {
	holder = 1012972
}

478.2.1 = {
	holder = 1014208
}

500.2.1 = {
	holder = 1016474
}

502.2.1 = {
	holder = 1015707
}

503.2.1 = {
	holder = 1016638
}

532.2.1 = {
	holder = 1018030
}

540.2.1 = {
	holder = 1018211
}

588.2.1 = {
	holder = 1019307
}

614.2.1 = {
	holder = 1020901
}

644.2.1 = {
	holder = 1022299
}

667.2.1 = {
	holder = 1023793
}

677.2.1 = {
	holder = 1023668
}

678.2.1 = {
	holder = 1024977
}

716.2.1 = {
	holder = 1025629
}

741.2.1 = {
	holder = 1027303
}

749.2.1 = {
	holder = 1026927
}

749.2.2 = {
	holder = 1028426
}

757.2.1 = {
	holder = 1028069
}

769.2.1 = {
	holder = 1027024
}

807.2.1 = {
	holder = 1029332
}

810.2.1 = {
	holder = 1030971
}

834.2.1 = {
	holder = 1032601
}

881.2.1 = {
	holder = 1033590
}

899.2.1 = {
	holder = 1035004
}

901.2.1 = {
	holder = 1035202
}

902.2.1 = {
	holder = 1035803
}

912.2.1 = {
	holder = 1035812
}

942.2.1 = {
	holder = 1037073
}

968.2.1 = {
	holder = 1037914
}

1000.2.1 = {
	holder = 1038915
}

1015.2.1 = {
	holder = 1040719
}

1033.2.1 = {
	holder = 1042043
}

