200.2.1 = {
	holder = 1000008
	law = succ_gavelkind
	law = agnatic_succession
}

200.2.2 = {
	holder = 1000648
	law = succ_gavelkind
	law = agnatic_succession
}

200.2.3 = {
	liege = d_qeliuge
}

200.2.4 = {
	holder = 1000647
	law = succ_gavelkind
	law = agnatic_succession
}

208.2.1 = {
	holder = 1000660
}

208.2.2 = {
	holder = 1003474
}

300.2.1 = {
	holder = 1005247
}

400.2.1 = {
	holder = 1012527
}

500.2.1 = {
	holder = 1020734
}

507.2.1 = {
	holder = 1023026
}

525.2.1 = {
	holder = 1022204
}

525.2.2 = {
	holder = 1024558
}

589.2.1 = {
	holder = 1025872
}

601.2.1 = {
	holder = 1026626
}

608.2.1 = {
	holder = 1027760
}

631.2.1 = {
	holder = 1031186
}

637.2.1 = {
	holder = 1029871
}

668.2.1 = {
	holder = 1031098
}

671.2.1 = {
	holder = 1034067
}

673.2.1 = {
	holder = 1033047
}

676.2.1 = {
	holder = 1034150
}

686.2.1 = {
	holder = 1032858
}

687.2.1 = {
	holder = 1035064
}

730.2.1 = {
	holder = 1034225
}

737.2.1 = {
	holder = 1037232
}

738.2.1 = {
	holder = 1038475
}

900.2.1 = {
	holder = 1047565
}

