200.2.1 = {
	holder = 1000001
	law = succ_tanistry
	law = agnatic_succession
}

200.2.2 = {
	holder = 1000002
	law = succ_elective_gavelkind
	law = agnatic_succession
}

200.2.3 = {
	holder = 1000222
	law = succ_seniority
	law = cognatic_succession
}

200.2.4 = {
	liege = d_tahani
}

200.2.5 = {
	holder = 1000223
	law = succ_elective_gavelkind
	law = agnatic_succession
}

200.2.6 = {
	liege = d_tahani
}

200.2.7 = {
	holder = 1000218
	law = succ_seniority
	law = cognatic_succession
}

243.2.1 = {
	holder = 1004181
}

262.2.1 = {
	holder = 1006157
}

273.2.1 = {
	holder = 1007426
}

287.2.1 = {
	holder = 1005285
}

288.2.1 = {
	holder = 1008848
}

400.2.1 = {
	holder = 1016279
}

500.2.1 = {
	holder = 1020597
}

500.2.2 = {
	holder = 1019263
}

600.2.1 = {
	holder = 1027680
}

600.2.2 = {
	holder = 1029330
}

700.2.1 = {
	holder = 1033696
}

705.2.1 = {
	holder = 1034321
}

732.2.1 = {
	holder = 1036451
}

767.2.1 = {
	holder = 1038139
}

786.2.1 = {
	holder = 1040974
}

806.2.1 = {
	holder = 1042565
}

814.2.1 = {
	holder = 1042759
}

843.2.1 = {
	holder = 1040137
}

843.2.2 = {
	holder = 1043613
}

865.2.1 = {
	holder = 1045022
}

881.2.1 = {
	holder = 1047607
}

883.2.1 = {
	holder = 1045022
}

884.2.1 = {
	holder = 1047790
}

