200.2.1 = {
	holder = 1000031
	law = succ_ultimogeniture
	law = agnatic_succession
}

200.2.2 = {
	holder = 1000879
	law = succ_ultimogeniture
	law = agnatic_succession
}

200.2.3 = {
	liege = d_tudida
}

200.2.4 = {
	holder = 1000880
	law = succ_primogeniture
	law = cognatic_succession
}

200.2.5 = {
	holder = 1000877
	law = succ_ultimogeniture
	law = agnatic_succession
}

225.2.1 = {
	holder = 1000851
}

226.2.1 = {
	holder = 1003276
}

400.2.1 = {
	holder = 1009546
}

414.2.1 = {
	holder = 1010625
}

425.2.1 = {
	holder = 1012687
}

452.2.1 = {
	holder = 1013466
}

471.2.1 = {
	holder = 1014499
}

487.2.1 = {
	holder = 1015838
}

549.2.1 = {
	holder = 1016066
}

550.2.1 = {
	holder = 1018932
}

609.2.1 = {
	holder = 1019077
}

616.2.1 = {
	holder = 1021765
}

616.2.2 = {
	holder = 1022052
}

629.2.1 = {
	holder = 1022237
}

677.2.1 = {
	holder = 1023267
}

692.2.1 = {
	holder = 1025023
}

700.2.1 = {
	holder = 1025952
}

714.2.1 = {
	holder = 1024937
}

724.2.1 = {
	holder = 1025739
}

760.2.1 = {
	holder = 1027044
}

760.2.2 = {
	holder = 1025215
}

800.2.1 = {
	holder = 1029492
}

804.2.1 = {
	holder = 1029614
}

844.2.1 = {
	holder = 1031502
}

862.2.1 = {
	holder = 1033908
}

893.2.1 = {
	holder = 1034698
}

913.2.1 = {
	holder = 1036272
}

963.2.1 = {
	holder = 1036364
}

972.2.1 = {
	holder = 1038815
}

1019.2.1 = {
	holder = 1039592
}

1026.2.1 = {
	holder = 1041385
}

