200.2.1 = {
	holder = 1000006
	law = succ_elective_gavelkind
	law = agnatic_succession
}

200.2.2 = {
	holder = 1000564
	law = succ_primogeniture
	law = agnatic_succession
}

200.2.3 = {
	liege = d_kibipac
}

200.2.4 = {
	holder = 1000565
	law = succ_elective_gavelkind
	law = agnatic_succession
}

200.2.5 = {
	holder = 1000562
	law = succ_primogeniture
	law = agnatic_succession
}

281.2.1 = {
	holder = 1002798
}

287.2.1 = {
	holder = 1008787
}

291.2.1 = {
	holder = 1007347
}

291.2.2 = {
	holder = 1009098
}

293.2.1 = {
	holder = 1008436
}

294.2.1 = {
	holder = 1005848
}

310.2.1 = {
	holder = 1010103
}

311.2.1 = {
	holder = 1006796
}

323.2.1 = {
	holder = 1009097
}

324.2.1 = {
	holder = 1011441
}

333.2.1 = {
	holder = 1011333
}

343.2.1 = {
	holder = 1012643
}

386.2.1 = {
	holder = 1012669
}

393.2.1 = {
	holder = 1015725
}

464.2.1 = {
	holder = 1017380
}

470.2.1 = {
	holder = 1020133
}

470.2.2 = {
	holder = 1021089
}

531.2.1 = {
	holder = 1021378
}

534.2.1 = {
	holder = 1025049
}

534.2.2 = {
	holder = 1025205
}

582.2.1 = {
	holder = 1027159
}

586.2.1 = {
	holder = 1028472
}

588.2.1 = {
	holder = 1028653
}

608.2.1 = {
	holder = 1029965
}

650.2.1 = {
	holder = 1031028
}

683.2.1 = {
	holder = 1033166
}

693.2.1 = {
	holder = 1035462
}

731.2.1 = {
	holder = 1037666
}

737.2.1 = {
	holder = 1034011
}

744.2.1 = {
	holder = 1037209
}

756.2.1 = {
	holder = 1039260
}

757.2.1 = {
	holder = 1035322
}

766.2.1 = {
	holder = 1039747
}

777.2.1 = {
	holder = 1040801
}

780.2.1 = {
	holder = 1041087
}

809.2.1 = {
	holder = 1039848
}

809.2.2 = {
	holder = 1041649
}

841.2.1 = {
	holder = 1043266
}

855.2.1 = {
	holder = 1044521
}

856.2.1 = {
	holder = 1043923
}

