200.2.1 = {
	holder = 1000033
	law = succ_tanistry
	law = cognatic_succession
}

200.2.2 = {
	liege = d_qalasa
}

200.2.3 = {
	holder = 1001633
	law = succ_tanistry
	law = cognatic_succession
}

216.2.1 = {
	holder = 1001691
}

242.2.1 = {
	holder = 1003121
}

282.2.1 = {
	holder = 1005973
}

300.2.1 = {
	holder = 1009081
}

301.2.1 = {
	holder = 1009808
}

350.2.1 = {
	holder = 1010473
}

374.2.1 = {
	holder = 1013248
}

379.2.1 = {
	holder = 1014801
}

394.2.1 = {
	holder = 1015872
}

458.2.1 = {
	holder = 1017692
}

459.2.1 = {
	holder = 1020187
}

479.2.1 = {
	holder = 1020444
}

482.2.1 = {
	holder = 1021833
}

502.2.1 = {
	holder = 1020388
}

503.2.1 = {
	holder = 1023179
}

548.2.1 = {
	holder = 1024662
}

583.2.1 = {
	holder = 1026224
}

587.2.1 = {
	holder = 1028395
}

593.2.1 = {
	holder = 1028317
}

609.2.1 = {
	holder = 1030014
}

616.2.1 = {
	holder = 1030497
}

632.2.1 = {
	holder = 1028317
}

633.2.1 = {
	holder = 1031573
}

655.2.1 = {
	holder = 1031817
}

657.2.1 = {
	holder = 1028823
}

658.2.1 = {
	holder = 1033199
}

681.2.1 = {
	holder = 1033925
}

721.2.1 = {
	holder = 1035492
}

723.2.1 = {
	holder = 1036301
}

733.2.1 = {
	holder = 1038111
}

752.2.1 = {
	holder = 1038708
}

805.2.1 = {
	holder = 1039769
}

807.2.1 = {
	holder = 1042866
}

844.2.1 = {
	holder = 1042954
}

858.2.1 = {
	holder = 1044480
}

873.2.1 = {
	holder = 1046355
}

894.2.1 = {
	holder = 1047657
}

900.2.1 = {
	holder = 1048916
}

