200.2.1 = {
	holder = 1000014
	law = succ_seniority
	law = cognatic_succession
}

200.2.2 = {
	holder = 1000409
	law = succ_seniority
	law = cognatic_succession
}

200.2.3 = {
	liege = d_ronira
}

200.2.4 = {
	holder = 1000410
	law = succ_primogeniture
	law = cognatic_succession
}

200.2.5 = {
	liege = d_ronira
}

200.2.6 = {
	holder = 1000406
	law = succ_seniority
	law = cognatic_succession
}

229.2.1 = {
	holder = 1002153
}

229.2.2 = {
	holder = 1003423
}

400.2.1 = {
	holder = 1009523
}

426.2.1 = {
	holder = 1010839
}

440.2.1 = {
	holder = 1013024
}

444.2.1 = {
	holder = 1013714
}

445.2.1 = {
	holder = 1011320
}

448.2.1 = {
	holder = 1010905
}

448.2.2 = {
	holder = 1013966
}

490.2.1 = {
	holder = 1014231
}

515.2.1 = {
	holder = 1016432
}

544.2.1 = {
	holder = 1017614
}

563.2.1 = {
	holder = 1018965
}

591.2.1 = {
	holder = 1020152
}

608.2.1 = {
	holder = 1021507
}

651.2.1 = {
	holder = 1022268
}

681.2.1 = {
	holder = 1023910
}

717.2.1 = {
	holder = 1025302
}

757.2.1 = {
	holder = 1026988
}

771.2.1 = {
	holder = 1028940
}

780.2.1 = {
	holder = 1029861
}

790.2.1 = {
	holder = 1029600
}

832.2.1 = {
	holder = 1030551
}

833.2.1 = {
	holder = 1032568
}

1000.2.1 = {
	holder = 1038226
}

1019.2.1 = {
	holder = 1039064
}

1023.2.1 = {
	holder = 1041422
}

