200.2.1 = {
	holder = 1000002
	law = succ_seniority
	law = cognatic_succession
}

200.2.2 = {
	holder = 1000291
	law = succ_seniority
	law = cognatic_succession
}

200.2.3 = {
	liege = d_nolun
}

200.2.4 = {
	holder = 1000292
	law = succ_elective_gavelkind
	law = agnatic_succession
}

200.2.5 = {
	holder = 1000289
	law = succ_seniority
	law = cognatic_succession
}

200.2.6 = {
	holder = 1001992
}

237.2.1 = {
	holder = 1003937
}

239.2.1 = {
	holder = 1002105
}

240.2.1 = {
	holder = 1005562
}

276.2.1 = {
	holder = 1006158
}

307.2.1 = {
	holder = 1008275
}

311.2.1 = {
	holder = 1009436
}

332.2.1 = {
	holder = 1010834
}

343.2.1 = {
	holder = 1012589
}

348.2.1 = {
	holder = 1009735
}

359.2.1 = {
	holder = 1012737
}

370.2.1 = {
	holder = 1014041
}

380.2.1 = {
	holder = 1013764
}

380.2.2 = {
	holder = 1011570
}

387.2.1 = {
	holder = 1015161
}

425.2.1 = {
	holder = 1016298
}

452.2.1 = {
	holder = 1018128
}

459.2.1 = {
	holder = 1020091
}

487.2.1 = {
	holder = 1021236
}

491.2.1 = {
	holder = 1021503
}

497.2.1 = {
	holder = 1022542
}

549.2.1 = {
	holder = 1023718
}

568.2.1 = {
	holder = 1026313
}

575.2.1 = {
	holder = 1027748
}

577.2.1 = {
	holder = 1024905
}

577.2.2 = {
	holder = 1027933
}

619.2.1 = {
	holder = 1029722
}

625.2.1 = {
	holder = 1030903
}

635.2.1 = {
	holder = 1029717
}

635.2.2 = {
	holder = 1031654
}

657.2.1 = {
	holder = 1031853
}

701.2.1 = {
	holder = 1032262
}

701.2.2 = {
	holder = 1036038
}

710.2.1 = {
	holder = 1036584
}

727.2.1 = {
	holder = 1034813
}

737.2.1 = {
	holder = 1037122
}

756.2.1 = {
	holder = 1039528
}

793.2.1 = {
	holder = 1039607
}

823.2.1 = {
	holder = 1042764
}

866.2.1 = {
	holder = 1043996
}

875.2.1 = {
	holder = 1043685
}

