200.2.1 = {
	holder = 1000014
	law = succ_elective_gavelkind
	law = agnatic_succession
}

200.2.2 = {
	holder = 1000873
	law = succ_elective_gavelkind
	law = agnatic_succession
}

200.2.3 = {
	liege = d_esavatru
}

200.2.4 = {
	holder = 1000871
	law = succ_elective_gavelkind
	law = agnatic_succession
}

207.2.1 = {
	holder = 1002816
}

209.2.1 = {
	holder = 1001046
}

217.2.1 = {
	holder = 1000908
}

218.2.1 = {
	holder = 1004124
}

253.2.1 = {
	holder = 1004764
}

258.2.1 = {
	holder = 1006607
}

276.2.1 = {
	holder = 1006609
}

280.2.1 = {
	holder = 1006829
}

319.2.1 = {
	holder = 1010856
}

361.2.1 = {
	holder = 1012865
}

362.2.1 = {
	holder = 1013870
}

408.2.1 = {
	holder = 1014339
}

419.2.1 = {
	holder = 1017044
}

449.2.1 = {
	holder = 1018499
}

490.2.1 = {
	holder = 1017098
}

490.2.2 = {
	holder = 1022332
}

600.2.1 = {
	holder = 1024879
}

600.2.2 = {
	holder = 1029371
}

700.2.1 = {
	holder = 1034161
}

710.2.1 = {
	holder = 1033403
}

718.2.1 = {
	holder = 1035940
}

731.2.1 = {
	holder = 1037908
}

734.2.1 = {
	holder = 1035125
}

740.2.1 = {
	holder = 1037812
}

744.2.1 = {
	holder = 1037979
}

745.2.1 = {
	holder = 1038882
}

749.2.1 = {
	holder = 1037753
}

765.2.1 = {
	holder = 1038762
}

804.2.1 = {
	holder = 1040700
}

811.2.1 = {
	holder = 1043006
}

812.2.1 = {
	holder = 1043221
}

813.2.1 = {
	holder = 1043006
}

813.2.2 = {
	holder = 1043307
}

838.2.1 = {
	holder = 1044017
}

873.2.1 = {
	holder = 1046398
}

