200.2.1 = {
	holder = 1000014
	law = succ_elective_gavelkind
	law = agnatic_succession
}

200.2.2 = {
	holder = 1000944
	law = succ_elective_gavelkind
	law = agnatic_succession
}

200.2.3 = {
	liege = d_nalan
}

200.2.4 = {
	holder = 1000942
	law = succ_elective_gavelkind
	law = agnatic_succession
}

227.2.1 = {
	holder = 1004706
}

251.2.1 = {
	holder = 1004820
}

301.2.1 = {
	holder = 1006539
}

305.2.1 = {
	holder = 1009828
}

305.2.2 = {
	holder = 1010105
}

316.2.1 = {
	holder = 1010200
}

319.2.1 = {
	holder = 1009828
}

319.2.2 = {
	holder = 1011107
}

360.2.1 = {
	holder = 1013622
}

383.2.1 = {
	holder = 1013800
}

413.2.1 = {
	holder = 1015617
}

421.2.1 = {
	holder = 1017016
}

428.2.1 = {
	holder = 1018189
}

434.2.1 = {
	holder = 1017821
}

435.2.1 = {
	holder = 1018799
}

470.2.1 = {
	holder = 1020811
}

530.2.1 = {
	holder = 1022615
}

537.2.1 = {
	holder = 1021542
}

537.2.2 = {
	holder = 1025398
}

558.2.1 = {
	holder = 1025753
}

595.2.1 = {
	holder = 1027905
}

630.2.1 = {
	holder = 1030929
}

679.2.1 = {
	holder = 1031675
}

679.2.2 = {
	holder = 1034600
}

699.2.1 = {
	holder = 1034765
}

745.2.1 = {
	holder = 1038885
}

775.2.1 = {
	holder = 1038915
}

776.2.1 = {
	holder = 1040900
}

778.2.1 = {
	holder = 1040962
}

779.2.1 = {
	holder = 1041066
}

816.2.1 = {
	holder = 1041154
}

842.2.1 = {
	holder = 1043407
}

863.2.1 = {
	holder = 1044843
}

879.2.1 = {
	holder = 1046871
}

