200.2.1 = {
	holder = 1000017
	law = succ_primogeniture
	law = agnatic_succession
}

200.2.2 = {
	holder = 1001202
	law = succ_primogeniture
	law = agnatic_succession
}

200.2.3 = {
	liege = d_bonmiawmiakifmia
}

200.2.4 = {
	holder = 1001200
	law = succ_primogeniture
	law = agnatic_succession
}

243.2.1 = {
	holder = 1002691
}

251.2.1 = {
	holder = 1006040
}

299.2.1 = {
	holder = 1007249
}

328.2.1 = {
	holder = 1010069
}

370.2.1 = {
	holder = 1012239
}

411.2.1 = {
	holder = 1017144
}

437.2.1 = {
	holder = 1017336
}

439.2.1 = {
	holder = 1017744
}

439.2.2 = {
	holder = 1015561
}

440.2.1 = {
	holder = 1017428
}

441.2.1 = {
	holder = 1019216
}

471.2.1 = {
	holder = 1020376
}

487.2.1 = {
	holder = 1021706
}

533.2.1 = {
	holder = 1023144
}

545.2.1 = {
	holder = 1025936
}

547.2.1 = {
	holder = 1025076
}

589.2.1 = {
	holder = 1026277
}

624.2.1 = {
	holder = 1029520
}

636.2.1 = {
	holder = 1031779
}

685.2.1 = {
	holder = 1031940
}

689.2.1 = {
	holder = 1035182
}

699.2.1 = {
	holder = 1030347
}

699.2.2 = {
	holder = 1032601
}

704.2.1 = {
	holder = 1036023
}

708.2.1 = {
	holder = 1035901
}

709.2.1 = {
	holder = 1033598
}

719.2.1 = {
	holder = 1036060
}

720.2.1 = {
	holder = 1037316
}

765.2.1 = {
	holder = 1040203
}

796.2.1 = {
	holder = 1040379
}

821.2.1 = {
	holder = 1042789
}

842.2.1 = {
	holder = 1044992
}

861.2.1 = {
	holder = 1046024
}

866.2.1 = {
	holder = 1043569
}

868.2.1 = {
	holder = 1046019
}

873.2.1 = {
	holder = 1046759
}

873.2.2 = {
	holder = 1044094
}

881.2.1 = {
	holder = 1047183
}

893.2.1 = {
	holder = 1048302
}

