200.2.1 = {
	holder = 1000022
	law = succ_elective_gavelkind
	law = agnatic_succession
}

200.2.2 = {
	holder = 1000043
	law = succ_elective_gavelkind
	law = agnatic_succession
}

200.2.3 = {
	holder = 1001841
	law = succ_ultimogeniture
	law = agnatic_succession
}

200.2.4 = {
	liege = d_agorern
}

200.2.5 = {
	holder = 1001842
	law = succ_elective_gavelkind
	law = agnatic_succession
}

200.2.6 = {
	holder = 1001839
	law = succ_ultimogeniture
	law = agnatic_succession
}

202.2.1 = {
	holder = 1001396
}

233.2.1 = {
	holder = 1003711
}

240.2.1 = {
	holder = 1005263
}

284.2.1 = {
	holder = 1008619
}

325.2.1 = {
	holder = 1008628
}

345.2.1 = {
	holder = 1012130
}

386.2.1 = {
	holder = 1013821
}

394.2.1 = {
	holder = 1013757
}

394.2.2 = {
	holder = 1015941
}

440.2.1 = {
	holder = 1018029
}

441.2.1 = {
	holder = 1019239
}

459.2.1 = {
	holder = 1019963
}

471.2.1 = {
	holder = 1021156
}

477.2.1 = {
	holder = 1019386
}

483.2.1 = {
	holder = 1019801
}

488.2.1 = {
	holder = 1022168
}

552.2.1 = {
	holder = 1024080
}

570.2.1 = {
	holder = 1026790
}

572.2.1 = {
	holder = 1025793
}

575.2.1 = {
	holder = 1026175
}

608.2.1 = {
	holder = 1027874
}

620.2.1 = {
	holder = 1030034
}

673.2.1 = {
	holder = 1031192
}

678.2.1 = {
	holder = 1034262
}

689.2.1 = {
	holder = 1033604
}

730.2.1 = {
	holder = 1035832
}

754.2.1 = {
	holder = 1039263
}

767.2.1 = {
	holder = 1038698
}

782.2.1 = {
	holder = 1040842
}

837.2.1 = {
	holder = 1041836
}

846.2.1 = {
	holder = 1045084
}

851.2.1 = {
	holder = 1045436
}

