200.2.1 = {
	holder = 1000042
	law = succ_feudal_elective
	law = cognatic_succession
}

200.2.2 = {
	liege = d_teorohn
}

200.2.3 = {
	liege = d_teorohn
}

200.2.4 = {
	holder = 1001821
	law = succ_feudal_elective
	law = cognatic_succession
}

203.2.1 = {
	holder = 1001847
}

203.2.2 = {
	holder = 1003006
}

222.2.1 = {
	holder = 1002739
}

259.2.1 = {
	holder = 1004668
}

281.2.1 = {
	holder = 1007106
}

300.2.1 = {
	holder = 1009728
}

317.2.1 = {
	holder = 1008688
}

338.2.1 = {
	holder = 1011362
}

348.2.1 = {
	holder = 1012632
}

364.2.1 = {
	holder = 1013757
}

400.2.1 = {
	holder = 1016358
}

415.2.1 = {
	holder = 1011226
}

415.2.2 = {
	holder = 1017429
}

429.2.1 = {
	holder = 1018029
}

443.2.1 = {
	holder = 1019092
}

443.2.2 = {
	holder = 1019384
}

493.2.1 = {
	holder = 1019554
}

507.2.1 = {
	holder = 1023416
}

523.2.1 = {
	holder = 1023751
}

524.2.1 = {
	holder = 1022168
}

524.2.2 = {
	holder = 1024532
}

558.2.1 = {
	holder = 1024972
}

604.2.1 = {
	holder = 1027231
}

608.2.1 = {
	holder = 1028807
}

616.2.1 = {
	holder = 1030489
}

625.2.1 = {
	holder = 1030563
}

631.2.1 = {
	holder = 1030034
}

631.2.2 = {
	holder = 1031441
}

676.2.1 = {
	holder = 1031192
}

676.2.2 = {
	holder = 1034382
}

712.2.1 = {
	holder = 1033604
}

712.2.2 = {
	holder = 1034043
}

729.2.1 = {
	holder = 1037331
}

753.2.1 = {
	holder = 1038536
}

796.2.1 = {
	holder = 1039571
}

806.2.1 = {
	holder = 1039774
}

806.2.2 = {
	holder = 1042806
}

829.2.1 = {
	holder = 1043108
}

863.2.1 = {
	holder = 1045433
}

881.2.1 = {
	holder = 1046748
}

893.2.1 = {
	holder = 1047868
}

