200.2.1 = {
	holder = 1000021
	law = succ_open_elective
	law = agnatic_succession
}

200.2.2 = {
	holder = 1001359
	law = succ_open_elective
	law = agnatic_succession
}

200.2.3 = {
	liege = d_aledina
}

200.2.4 = {
	holder = 1001360
	law = succ_elective_gavelkind
	law = agnatic_succession
}

200.2.5 = {
	holder = 1001357
	law = succ_open_elective
	law = agnatic_succession
}

233.2.1 = {
	holder = 1003144
}

233.2.2 = {
	holder = 1005083
}

234.2.1 = {
	holder = 1005124
}

254.2.1 = {
	holder = 1006580
}

289.2.1 = {
	holder = 1006735
}

313.2.1 = {
	holder = 1009510
}

366.2.1 = {
	holder = 1010747
}

372.2.1 = {
	holder = 1014569
}

392.2.1 = {
	holder = 1014685
}

398.2.1 = {
	holder = 1015946
}

405.2.1 = {
	holder = 1016731
}

419.2.1 = {
	holder = 1017712
}

440.2.1 = {
	holder = 1017908
}

451.2.1 = {
	holder = 1019885
}

489.2.1 = {
	holder = 1019999
}

501.2.1 = {
	holder = 1019629
}

501.2.2 = {
	holder = 1023062
}

510.2.1 = {
	holder = 1023060
}

531.2.1 = {
	holder = 1023239
}

570.2.1 = {
	holder = 1025190
}

595.2.1 = {
	holder = 1027513
}

601.2.1 = {
	holder = 1029517
}

607.2.1 = {
	holder = 1029884
}

608.2.1 = {
	holder = 1029963
}

643.2.1 = {
	holder = 1030486
}

669.2.1 = {
	holder = 1033194
}

694.2.1 = {
	holder = 1034711
}

700.2.1 = {
	holder = 1033628
}

700.2.2 = {
	holder = 1036012
}

740.2.1 = {
	holder = 1036340
}

754.2.1 = {
	holder = 1039170
}

772.2.1 = {
	holder = 1040671
}

797.2.1 = {
	holder = 1042196
}

900.2.1 = {
	holder = 1048307
}

