200.2.1 = {
	holder = 1000046
	law = succ_open_elective
	law = agnatic_succession
}

200.2.2 = {
	holder = 1001914
	law = succ_open_elective
	law = agnatic_succession
}

200.2.3 = {
	liege = d_kahena
}

200.2.4 = {
	holder = 1001912
	law = succ_open_elective
	law = agnatic_succession
}

212.2.1 = {
	holder = 1002511
}

255.2.1 = {
	holder = 1004289
}

281.2.1 = {
	holder = 1008430
}

286.2.1 = {
	holder = 1005977
}

286.2.2 = {
	holder = 1008764
}

342.2.1 = {
	holder = 1008966
}

344.2.1 = {
	holder = 1010645
}

375.2.1 = {
	holder = 1012365
}

394.2.1 = {
	holder = 1014874
}

400.2.1 = {
	holder = 1016354
}

416.2.1 = {
	holder = 1015650
}

430.2.1 = {
	holder = 1018462
}

485.2.1 = {
	holder = 1018733
}

500.2.1 = {
	holder = 1022762
}

560.2.1 = {
	holder = 1024074
}

561.2.1 = {
	holder = 1024974
}

562.2.1 = {
	holder = 1026990
}

591.2.1 = {
	holder = 1027152
}

602.2.1 = {
	holder = 1029017
}

609.2.1 = {
	holder = 1027795
}

610.2.1 = {
	holder = 1030085
}

656.2.1 = {
	holder = 1030232
}

667.2.1 = {
	holder = 1033141
}

701.2.1 = {
	holder = 1035561
}

710.2.1 = {
	holder = 1035282
}

711.2.1 = {
	holder = 1036776
}

737.2.1 = {
	holder = 1036352
}

738.2.1 = {
	holder = 1038464
}

745.2.1 = {
	holder = 1038466
}

812.2.1 = {
	holder = 1043198
}

851.2.1 = {
	holder = 1043667
}

860.2.1 = {
	holder = 1044895
}

861.2.1 = {
	holder = 1046425
}

868.2.1 = {
	holder = 1046438
}

