200.2.1 = {
	holder = 1000046
	law = succ_open_elective
	law = agnatic_succession
}

200.2.2 = {
	holder = 1001904
	law = succ_open_elective
	law = agnatic_succession
}

200.2.3 = {
	liege = d_rasena
}

200.2.4 = {
	holder = 1001903
	law = succ_open_elective
	law = agnatic_succession
}

200.2.5 = {
	holder = 1002037
}

217.2.1 = {
	holder = 1002602
}

236.2.1 = {
	holder = 1001953
}

237.2.1 = {
	holder = 1002745
}

263.2.1 = {
	holder = 1005502
}

293.2.1 = {
	holder = 1007626
}

303.2.1 = {
	holder = 1009376
}

306.2.1 = {
	holder = 1010170
}

331.2.1 = {
	holder = 1010652
}

375.2.1 = {
	holder = 1012856
}

391.2.1 = {
	holder = 1015138
}

433.2.1 = {
	holder = 1016258
}

461.2.1 = {
	holder = 1020526
}

487.2.1 = {
	holder = 1020899
}

493.2.1 = {
	holder = 1022240
}

499.2.1 = {
	holder = 1020783
}

499.2.2 = {
	holder = 1022890
}

515.2.1 = {
	holder = 1023753
}

566.2.1 = {
	holder = 1024989
}

567.2.1 = {
	holder = 1027293
}

700.2.1 = {
	holder = 1033561
}

723.2.1 = {
	holder = 1036162
}

753.2.1 = {
	holder = 1037890
}

767.2.1 = {
	holder = 1040277
}

769.2.1 = {
	holder = 1040489
}

817.2.1 = {
	holder = 1041127
}

842.2.1 = {
	holder = 1044434
}

882.2.1 = {
	holder = 1047674
}

895.2.1 = {
	holder = 1048603
}

