200.2.1 = {
	holder = 1000010
	law = succ_elective_gavelkind
	law = agnatic_succession
}

200.2.2 = {
	holder = 1000730
	law = succ_elective_gavelkind
	law = agnatic_succession
}

200.2.3 = {
	liege = d_esander
}

200.2.4 = {
	holder = 1000731
	law = succ_elective_gavelkind
	law = agnatic_succession
}

200.2.5 = {
	liege = d_tandart
}

200.2.6 = {
	holder = 1000784
	law = succ_elective_gavelkind
	law = agnatic_succession
}

215.2.1 = {
	holder = 1003693
}

234.2.1 = {
	holder = 1004761
}

277.2.1 = {
	holder = 1005813
}

300.2.1 = {
	holder = 1008224
}

314.2.1 = {
	holder = 1008383
}

314.2.2 = {
	holder = 1010740
}

315.2.1 = {
	holder = 1010808
}

320.2.1 = {
	holder = 1009546
}

327.2.1 = {
	holder = 1010851
}

333.2.1 = {
	holder = 1010616
}

333.2.2 = {
	holder = 1012010
}

335.2.1 = {
	holder = 1011913
}

356.2.1 = {
	holder = 1012011
}

356.2.2 = {
	holder = 1013456
}

379.2.1 = {
	holder = 1013653
}

409.2.1 = {
	holder = 1015176
}

447.2.1 = {
	holder = 1017672
}

463.2.1 = {
	holder = 1020037
}

494.2.1 = {
	holder = 1021515
}

530.2.1 = {
	holder = 1022798
}

546.2.1 = {
	holder = 1025128
}

603.2.1 = {
	holder = 1029623
}

644.2.1 = {
	holder = 1030192
}

650.2.1 = {
	holder = 1032653
}

657.2.1 = {
	holder = 1030915
}

658.2.1 = {
	holder = 1033171
}

678.2.1 = {
	holder = 1034485
}

703.2.1 = {
	holder = 1034701
}

719.2.1 = {
	holder = 1036467
}

728.2.1 = {
	holder = 1037672
}

760.2.1 = {
	holder = 1038756
}

797.2.1 = {
	holder = 1040085
}

824.2.1 = {
	holder = 1042652
}

845.2.1 = {
	holder = 1043416
}

866.2.1 = {
	holder = 1044782
}

881.2.1 = {
	holder = 1047612
}

891.2.1 = {
	holder = 1047746
}

