200.2.1 = {
	holder = 1000002
	law = succ_primogeniture
	law = agnatic_succession
}

200.2.2 = {
	holder = 1000105
	law = succ_primogeniture
	law = agnatic_succession
}

200.2.3 = {
	liege = d_kiratta
}

200.2.4 = {
	holder = 1000106
	law = succ_primogeniture
	law = cognatic_succession
}

200.2.5 = {
	liege = d_kiratta
}

200.2.6 = {
	holder = 1000101
	law = succ_primogeniture
	law = agnatic_succession
}

215.2.1 = {
	holder = 1001428
}

230.2.1 = {
	holder = 1002820
}

248.2.1 = {
	holder = 1003687
}

263.2.1 = {
	holder = 1004540
}

309.2.1 = {
	holder = 1005740
}

328.2.1 = {
	holder = 1007216
}

335.2.1 = {
	holder = 1007034
}

335.2.2 = {
	holder = 1008507
}

380.2.1 = {
	holder = 1010066
}

381.2.1 = {
	holder = 1009053
}

396.2.1 = {
	holder = 1011100
}

399.2.1 = {
	holder = 1011397
}

401.2.1 = {
	holder = 1010401
}

420.2.1 = {
	holder = 1011271
}

460.2.1 = {
	holder = 1012988
}

490.2.1 = {
	holder = 1014569
}

492.2.1 = {
	holder = 1016002
}

500.2.1 = {
	holder = 1016417
}

506.2.1 = {
	holder = 1014674
}

506.2.2 = {
	holder = 1016738
}

555.2.1 = {
	holder = 1017042
}

568.2.1 = {
	holder = 1017753
}

569.2.1 = {
	holder = 1016222
}

579.2.1 = {
	holder = 1018754
}

600.2.1 = {
	holder = 1021267
}

610.2.1 = {
	holder = 1020610
}

610.2.2 = {
	holder = 1021724
}

625.2.1 = {
	holder = 1021827
}

651.2.1 = {
	holder = 1023069
}

700.2.1 = {
	holder = 1026020
}

701.2.1 = {
	holder = 1023758
}

704.2.1 = {
	holder = 1026257
}

750.2.1 = {
	holder = 1027354
}

765.2.1 = {
	holder = 1029222
}

804.2.1 = {
	holder = 1029388
}

815.2.1 = {
	holder = 1031699
}

845.2.1 = {
	holder = 1031749
}

848.2.1 = {
	holder = 1030979
}

849.2.1 = {
	holder = 1033264
}

1000.2.1 = {
	holder = 1039259
}

1039.2.1 = {
	holder = 1042141
}

1039.2.2 = {
	holder = 1042352
}

