200.2.1 = {
	holder = 1000027
	law = succ_ultimogeniture
	law = agnatic_succession
}

200.2.2 = {
	holder = 1000816
	law = succ_ultimogeniture
	law = agnatic_succession
}

200.2.3 = {
	liege = d_bajissa
}

200.2.4 = {
	holder = 1000815
	law = succ_ultimogeniture
	law = agnatic_succession
}

205.2.1 = {
	holder = 1002189
}

214.2.1 = {
	holder = 1002401
}

272.2.1 = {
	holder = 1003273
}

279.2.1 = {
	holder = 1005653
}

294.2.1 = {
	holder = 1006477
}

298.2.1 = {
	holder = 1006587
}

348.2.1 = {
	holder = 1007438
}

360.2.1 = {
	holder = 1009229
}

431.2.1 = {
	holder = 1009978
}

433.2.1 = {
	holder = 1013236
}

437.2.1 = {
	holder = 1013414
}

482.2.1 = {
	holder = 1013930
}

483.2.1 = {
	holder = 1015641
}

488.2.1 = {
	holder = 1015872
}

492.2.1 = {
	holder = 1016064
}

506.2.1 = {
	holder = 1016108
}

557.2.1 = {
	holder = 1017716
}

560.2.1 = {
	holder = 1019375
}

579.2.1 = {
	holder = 1019630
}

627.2.1 = {
	holder = 1020631
}

654.2.1 = {
	holder = 1022823
}

703.2.1 = {
	holder = 1026223
}

732.2.1 = {
	holder = 1026494
}

776.2.1 = {
	holder = 1027726
}

787.2.1 = {
	holder = 1029926
}

808.2.1 = {
	holder = 1031328
}

858.2.1 = {
	holder = 1031552
}

874.2.1 = {
	holder = 1033869
}

922.2.1 = {
	holder = 1035554
}

940.2.1 = {
	holder = 1036736
}

977.2.1 = {
	holder = 1037824
}

1003.2.1 = {
	holder = 1039886
}

1016.2.1 = {
	holder = 1041196
}

1041.2.1 = {
	holder = 1041341
}

1057.2.1 = {
	holder = 1042509
}

1064.2.1 = {
	holder = 1043422
}

