200.2.1 = {
	holder = 1000001
	law = succ_tanistry
	law = agnatic_succession
}

200.2.2 = {
	holder = 1000002
	law = succ_elective_gavelkind
	law = agnatic_succession
}

200.2.3 = {
	holder = 1000234
	law = succ_seniority
	law = cognatic_succession
}

200.2.4 = {
	liege = d_nahilla
}

200.2.5 = {
	holder = 1000232
	law = succ_seniority
	law = cognatic_succession
}

208.2.1 = {
	holder = 1002619
}

238.2.1 = {
	holder = 1004182
}

272.2.1 = {
	holder = 1006312
}

316.2.1 = {
	holder = 1008009
}

337.2.1 = {
	holder = 1011122
}

342.2.1 = {
	holder = 1012557
}

374.2.1 = {
	holder = 1012584
}

381.2.1 = {
	holder = 1015022
}

395.2.1 = {
	holder = 1015535
}

408.2.1 = {
	holder = 1015652
}

409.2.1 = {
	holder = 1014695
}

409.2.2 = {
	holder = 1015652
}

410.2.1 = {
	holder = 1017021
}

454.2.1 = {
	holder = 1017985
}

474.2.1 = {
	holder = 1020216
}

522.2.1 = {
	holder = 1021364
}

540.2.1 = {
	holder = 1022718
}

541.2.1 = {
	holder = 1025605
}

700.2.1 = {
	holder = 1035775
}

706.2.1 = {
	holder = 1035846
}

751.2.1 = {
	holder = 1036992
}

762.2.1 = {
	holder = 1039931
}

782.2.1 = {
	holder = 1040293
}

803.2.1 = {
	holder = 1042566
}

853.2.1 = {
	holder = 1043745
}

859.2.1 = {
	holder = 1044113
}

859.2.2 = {
	holder = 1046297
}

866.2.1 = {
	holder = 1046385
}

881.2.1 = {
	holder = 1045022
}

