200.2.1 = {
	holder = 1000037
	law = succ_primogeniture
	law = cognatic_succession
}

200.2.2 = {
	holder = 1001148
	law = succ_primogeniture
	law = cognatic_succession
}

200.2.3 = {
	liege = d_wanaal
}

200.2.4 = {
	holder = 1001146
	law = succ_primogeniture
	law = cognatic_succession
}

213.2.1 = {
	holder = 1002621
}

275.2.1 = {
	holder = 1004799
}

310.2.1 = {
	holder = 1005607
}

338.2.1 = {
	holder = 1007706
}

352.2.1 = {
	holder = 1008812
}

397.2.1 = {
	holder = 1009768
}

413.2.1 = {
	holder = 1011967
}

471.2.1 = {
	holder = 1015007
}

525.2.1 = {
	holder = 1017639
}

555.2.1 = {
	holder = 1019155
}

561.2.1 = {
	holder = 1019266
}

592.2.1 = {
	holder = 1020205
}

595.2.1 = {
	holder = 1020989
}

656.2.1 = {
	holder = 1022575
}

680.2.1 = {
	holder = 1025049
}

720.2.1 = {
	holder = 1025524
}

733.2.1 = {
	holder = 1027219
}

748.2.1 = {
	holder = 1028064
}

793.2.1 = {
	holder = 1029668
}

793.2.2 = {
	holder = 1028237
}

797.2.1 = {
	holder = 1030583
}

831.2.1 = {
	holder = 1031454
}

855.2.1 = {
	holder = 1032507
}

907.2.1 = {
	holder = 1033626
}

917.2.1 = {
	holder = 1035416
}

938.2.1 = {
	holder = 1037438
}

941.2.1 = {
	holder = 1037533
}

951.2.1 = {
	holder = 1038049
}

988.2.1 = {
	holder = 1038243
}

1013.2.1 = {
	holder = 1039949
}

1028.2.1 = {
	holder = 1041152
}

1042.2.1 = {
	holder = 1041978
}

