200.2.1 = {
	holder = 1000005
	law = succ_open_elective
	law = cognatic_succession
}

200.2.2 = {
	holder = 1000260
	law = succ_open_elective
	law = cognatic_succession
}

200.2.3 = {
	liege = d_renadeth
}

200.2.4 = {
	holder = 1000258
	law = succ_open_elective
	law = cognatic_succession
}

200.2.5 = {
	holder = 1001382
}

225.2.1 = {
	holder = 1001987
}

231.2.1 = {
	holder = 1003514
}

276.2.1 = {
	holder = 1004184
}

300.2.1 = {
	holder = 1005680
}

329.2.1 = {
	holder = 1007027
}

343.2.1 = {
	holder = 1008867
}

344.2.1 = {
	holder = 1008901
}

368.2.1 = {
	holder = 1009431
}

396.2.1 = {
	holder = 1009780
}

396.2.2 = {
	holder = 1011451
}

416.2.1 = {
	holder = 1012452
}

419.2.1 = {
	holder = 1010195
}

419.2.2 = {
	holder = 1009575
}

500.2.1 = {
	holder = 1015147
}

500.2.2 = {
	holder = 1016481
}

600.2.1 = {
	holder = 1019897
}

625.2.1 = {
	holder = 1020965
}

661.2.1 = {
	holder = 1022592
}

670.2.1 = {
	holder = 1024589
}

800.2.1 = {
	holder = 1029694
}

802.2.1 = {
	holder = 1030649
}

808.2.1 = {
	holder = 1029589
}

808.2.2 = {
	holder = 1031355
}

851.2.1 = {
	holder = 1031593
}

862.2.1 = {
	holder = 1033605
}

909.2.1 = {
	holder = 1034529
}

918.2.1 = {
	holder = 1034181
}

918.2.2 = {
	holder = 1036524
}

1066.2.1 = {
	holder = 1038057
}

