200.2.1 = {
	holder = 1000008
	law = succ_gavelkind
	law = agnatic_succession
}

200.2.2 = {
	holder = 1000009
	law = succ_elective_gavelkind
	law = agnatic_succession
}

200.2.3 = {
	holder = 1000681
	law = succ_open_elective
	law = agnatic_succession
}

200.2.4 = {
	liege = d_sanand
}

200.2.5 = {
	holder = 1000682
	law = succ_elective_gavelkind
	law = agnatic_succession
}

200.2.6 = {
	holder = 1000679
	law = succ_open_elective
	law = agnatic_succession
}

250.2.1 = {
	holder = 1003190
}

259.2.1 = {
	holder = 1006876
}

302.2.1 = {
	holder = 1008341
}

336.2.1 = {
	holder = 1010126
}

367.2.1 = {
	holder = 1012521
}

404.2.1 = {
	holder = 1014903
}

440.2.1 = {
	holder = 1017383
}

468.2.1 = {
	holder = 1019526
}

473.2.1 = {
	holder = 1020994
}

523.2.1 = {
	holder = 1022204
}

531.2.1 = {
	holder = 1024785
}

591.2.1 = {
	holder = 1027562
}

615.2.1 = {
	holder = 1029280
}

630.2.1 = {
	holder = 1030535
}

633.2.1 = {
	holder = 1029871
}

633.2.2 = {
	holder = 1031543
}

800.2.1 = {
	holder = 1042151
}

812.2.1 = {
	holder = 1039807
}

813.2.1 = {
	holder = 1043301
}

839.2.1 = {
	holder = 1044075
}

856.2.1 = {
	holder = 1045150
}

857.2.1 = {
	holder = 1045532
}

860.2.1 = {
	holder = 1046327
}

