200.2.1 = {
	holder = 1000005
	law = succ_tanistry
	law = cognatic_succession
}

200.2.2 = {
	holder = 1000528
	law = succ_tanistry
	law = cognatic_succession
}

200.2.3 = {
	liege = d_relina
}

200.2.4 = {
	holder = 1000527
	law = succ_tanistry
	law = cognatic_succession
}

227.2.1 = {
	holder = 1002155
}

238.2.1 = {
	holder = 1005299
}

248.2.1 = {
	holder = 1006138
}

284.2.1 = {
	holder = 1006525
}

290.2.1 = {
	holder = 1006526
}

290.2.2 = {
	holder = 1008998
}

400.2.1 = {
	holder = 1012603
}

404.2.1 = {
	holder = 1014769
}

416.2.1 = {
	holder = 1017451
}

451.2.1 = {
	holder = 1018271
}

462.2.1 = {
	holder = 1020227
}

514.2.1 = {
	holder = 1021377
}

525.2.1 = {
	holder = 1024341
}

526.2.1 = {
	holder = 1024626
}

700.2.1 = {
	holder = 1033165
}

711.2.1 = {
	holder = 1036180
}

737.2.1 = {
	holder = 1037125
}

738.2.1 = {
	holder = 1038429
}

757.2.1 = {
	holder = 1039284
}

824.2.1 = {
	holder = 1042996
}

827.2.1 = {
	holder = 1041029
}

828.2.1 = {
	holder = 1044267
}

845.2.1 = {
	holder = 1044796
}

860.2.1 = {
	holder = 1046135
}

883.2.1 = {
	holder = 1044589
}

884.2.1 = {
	holder = 1047806
}

