200.2.1 = {
	holder = 1000025
	law = succ_elective_gavelkind
	law = agnatic_succession
}

200.2.2 = {
	holder = 1001441
	law = succ_elective_gavelkind
	law = agnatic_succession
}

200.2.3 = {
	liege = d_rekifon
}

200.2.4 = {
	holder = 1001442
	law = succ_elective_gavelkind
	law = agnatic_succession
}

200.2.5 = {
	holder = 1001439
	law = succ_elective_gavelkind
	law = agnatic_succession
}

215.2.1 = {
	holder = 1002374
}

220.2.1 = {
	holder = 1002029
}

238.2.1 = {
	holder = 1003149
}

240.2.1 = {
	holder = 1005569
}

400.2.1 = {
	holder = 1015014
}

400.2.2 = {
	holder = 1016339
}

500.2.1 = {
	holder = 1021139
}

517.2.1 = {
	holder = 1023690
}

535.2.1 = {
	holder = 1025084
}

565.2.1 = {
	holder = 1026164
}

573.2.1 = {
	holder = 1026392
}

573.2.2 = {
	holder = 1027639
}

590.2.1 = {
	holder = 1027781
}

597.2.1 = {
	holder = 1028809
}

610.2.1 = {
	holder = 1026339
}

617.2.1 = {
	holder = 1028936
}

618.2.1 = {
	holder = 1027782
}

618.2.2 = {
	holder = 1030610
}

621.2.1 = {
	holder = 1027782
}

621.2.2 = {
	holder = 1030802
}

633.2.1 = {
	holder = 1030864
}

666.2.1 = {
	holder = 1030998
}

672.2.1 = {
	holder = 1032753
}

690.2.1 = {
	holder = 1034581
}

728.2.1 = {
	holder = 1037823
}

776.2.1 = {
	holder = 1037924
}

778.2.1 = {
	holder = 1038106
}

783.2.1 = {
	holder = 1040177
}

800.2.1 = {
	holder = 1040312
}

900.2.1 = {
	holder = 1047653
}

