200.2.1 = {
	holder = 1000033
	law = succ_tanistry
	law = cognatic_succession
}

200.2.2 = {
	holder = 1001667
	law = succ_tanistry
	law = cognatic_succession
}

200.2.3 = {
	liege = d_datamur
}

200.2.4 = {
	holder = 1001666
	law = succ_tanistry
	law = cognatic_succession
}

210.2.1 = {
	holder = 1003508
}

220.2.1 = {
	holder = 1003436
}

236.2.1 = {
	holder = 1003985
}

251.2.1 = {
	holder = 1006345
}

286.2.1 = {
	holder = 1006894
}

295.2.1 = {
	holder = 1008822
}

327.2.1 = {
	holder = 1011357
}

339.2.1 = {
	holder = 1011669
}

344.2.1 = {
	holder = 1008882
}

348.2.1 = {
	holder = 1011088
}

371.2.1 = {
	holder = 1014481
}

415.2.1 = {
	holder = 1014552
}

436.2.1 = {
	holder = 1017695
}

440.2.1 = {
	holder = 1017118
}

441.2.1 = {
	holder = 1017272
}

443.2.1 = {
	holder = 1018017
}

444.2.1 = {
	holder = 1019425
}

462.2.1 = {
	holder = 1019488
}

484.2.1 = {
	holder = 1020890
}

502.2.1 = {
	holder = 1022889
}

536.2.1 = {
	holder = 1024171
}

537.2.1 = {
	holder = 1023071
}

537.2.2 = {
	holder = 1025339
}

583.2.1 = {
	holder = 1026603
}

618.2.1 = {
	holder = 1028604
}

649.2.1 = {
	holder = 1030821
}

677.2.1 = {
	holder = 1032782
}

689.2.1 = {
	holder = 1035035
}

690.2.1 = {
	holder = 1033851
}

691.2.1 = {
	holder = 1035371
}

704.2.1 = {
	holder = 1033851
}

704.2.2 = {
	holder = 1036302
}

800.2.1 = {
	holder = 1040057
}

824.2.1 = {
	holder = 1041656
}

848.2.1 = {
	holder = 1044362
}

849.2.1 = {
	holder = 1045656
}

