200.2.1 = {
	holder = 1000032
	law = succ_primogeniture
	law = agnatic_succession
}

200.2.2 = {
	holder = 1000893
	law = succ_primogeniture
	law = agnatic_succession
}

200.2.3 = {
	liege = d_revegum
}

200.2.4 = {
	holder = 1000891
	law = succ_primogeniture
	law = agnatic_succession
}

200.2.5 = {
	holder = 1001401
}

208.2.1 = {
	holder = 1001800
}

226.2.1 = {
	holder = 1003253
}

228.2.1 = {
	holder = 1000894
}

231.2.1 = {
	holder = 1003516
}

242.2.1 = {
	holder = 1003538
}

265.2.1 = {
	holder = 1004371
}

295.2.1 = {
	holder = 1006180
}

305.2.1 = {
	holder = 1007007
}

329.2.1 = {
	holder = 1007145
}

330.2.1 = {
	holder = 1008262
}

356.2.1 = {
	holder = 1007900
}

365.2.1 = {
	holder = 1009281
}

368.2.1 = {
	holder = 1010041
}

383.2.1 = {
	holder = 1010183
}

420.2.1 = {
	holder = 1011138
}

437.2.1 = {
	holder = 1012730
}

446.2.1 = {
	holder = 1011907
}

446.2.2 = {
	holder = 1013881
}

496.2.1 = {
	holder = 1014038
}

508.2.1 = {
	holder = 1016887
}

544.2.1 = {
	holder = 1016960
}

572.2.1 = {
	holder = 1016822
}

572.2.2 = {
	holder = 1019961
}

578.2.1 = {
	holder = 1020262
}

632.2.1 = {
	holder = 1020386
}

647.2.1 = {
	holder = 1023048
}

681.2.1 = {
	holder = 1024076
}

693.2.1 = {
	holder = 1025028
}

693.2.2 = {
	holder = 1025723
}

800.2.1 = {
	holder = 1029717
}

801.2.1 = {
	holder = 1029830
}

835.2.1 = {
	holder = 1032046
}

848.2.1 = {
	holder = 1032556
}

848.2.2 = {
	holder = 1031781
}

867.2.1 = {
	holder = 1033400
}

872.2.1 = {
	holder = 1033353
}

886.2.1 = {
	holder = 1034163
}

887.2.1 = {
	holder = 1035042
}

1000.2.1 = {
	holder = 1038392
}

1007.2.1 = {
	holder = 1039332
}

1045.2.1 = {
	holder = 1040898
}

1063.2.1 = {
	holder = 1042927
}

1064.2.1 = {
	holder = 1043341
}

1064.2.2 = {
	holder = 1040506
}

