200.2.1 = {
	holder = 1000011
	law = succ_primogeniture
	law = agnatic_succession
}

200.2.2 = {
	holder = 1000822
	law = succ_primogeniture
	law = agnatic_succession
}

200.2.3 = {
	liege = d_ejuzan
}

200.2.4 = {
	holder = 1000821
	law = succ_primogeniture
	law = agnatic_succession
}

224.2.1 = {
	holder = 1004539
}

225.2.1 = {
	holder = 1004603
}

400.2.1 = {
	holder = 1014593
}

419.2.1 = {
	holder = 1015103
}

423.2.1 = {
	holder = 1016375
}

455.2.1 = {
	holder = 1017820
}

486.2.1 = {
	holder = 1020337
}

533.2.1 = {
	holder = 1023373
}

559.2.1 = {
	holder = 1025271
}

562.2.1 = {
	holder = 1023469
}

571.2.1 = {
	holder = 1026484
}

618.2.1 = {
	holder = 1027606
}

624.2.1 = {
	holder = 1027394
}

625.2.1 = {
	holder = 1031065
}

671.2.1 = {
	holder = 1031280
}

681.2.1 = {
	holder = 1034158
}

698.2.1 = {
	holder = 1035241
}

740.2.1 = {
	holder = 1036818
}

745.2.1 = {
	holder = 1036100
}

763.2.1 = {
	holder = 1036397
}

764.2.1 = {
	holder = 1040125
}

784.2.1 = {
	holder = 1040511
}

793.2.1 = {
	holder = 1039227
}

814.2.1 = {
	holder = 1042587
}

823.2.1 = {
	holder = 1043935
}

855.2.1 = {
	holder = 1044082
}

890.2.1 = {
	holder = 1046334
}

