200.2.1 = {
	holder = 1000016
	law = succ_elective_gavelkind
	law = agnatic_succession
}

200.2.2 = {
	holder = 1000017
	law = succ_elective_gavelkind
	law = agnatic_succession
}

200.2.3 = {
	holder = 1001144
	law = succ_primogeniture
	law = agnatic_succession
}

200.2.4 = {
	liege = d_edizemia
}

200.2.5 = {
	holder = 1001143
	law = succ_primogeniture
	law = agnatic_succession
}

238.2.1 = {
	holder = 1002019
}

238.2.2 = {
	holder = 1005429
}

400.2.1 = {
	holder = 1014147
}

415.2.1 = {
	holder = 1014571
}

425.2.1 = {
	holder = 1018111
}

429.2.1 = {
	holder = 1018374
}

451.2.1 = {
	holder = 1019254
}

462.2.1 = {
	holder = 1020586
}

465.2.1 = {
	holder = 1020691
}

468.2.1 = {
	holder = 1019254
}

475.2.1 = {
	holder = 1021417
}

500.2.1 = {
	holder = 1022997
}

600.2.1 = {
	holder = 1029088
}

608.2.1 = {
	holder = 1029246
}

621.2.1 = {
	holder = 1030818
}

676.2.1 = {
	holder = 1031912
}

677.2.1 = {
	holder = 1034450
}

682.2.1 = {
	holder = 1029632
}

683.2.1 = {
	holder = 1034450
}

683.2.2 = {
	holder = 1034855
}

694.2.1 = {
	holder = 1035255
}

756.2.1 = {
	holder = 1037943
}

756.2.2 = {
	holder = 1039590
}

771.2.1 = {
	holder = 1039755
}

823.2.1 = {
	holder = 1041098
}

824.2.1 = {
	holder = 1041894
}

824.2.2 = {
	holder = 1044052
}

825.2.1 = {
	holder = 1041894
}

825.2.2 = {
	holder = 1044117
}

854.2.1 = {
	holder = 1044400
}

873.2.1 = {
	holder = 1046218
}

