200.2.1 = {
	holder = 1000033
	law = succ_tanistry
	law = cognatic_succession
}

200.2.2 = {
	liege = d_aputlu
}

200.2.3 = {
	liege = d_aputlu
}

200.2.4 = {
	holder = 1001663
	law = succ_tanistry
	law = cognatic_succession
}

221.2.1 = {
	holder = 1002868
}

259.2.1 = {
	holder = 1004458
}

265.2.1 = {
	holder = 1006954
}

268.2.1 = {
	holder = 1005222
}

289.2.1 = {
	holder = 1008636
}

300.2.1 = {
	holder = 1007680
}

301.2.1 = {
	holder = 1009835
}

304.2.1 = {
	holder = 1005828
}

305.2.1 = {
	holder = 1006895
}

305.2.2 = {
	holder = 1010086
}

321.2.1 = {
	holder = 1010474
}

364.2.1 = {
	holder = 1012254
}

372.2.1 = {
	holder = 1014278
}

376.2.1 = {
	holder = 1013545
}

392.2.1 = {
	holder = 1015263
}

417.2.1 = {
	holder = 1015876
}

417.2.2 = {
	holder = 1017557
}

471.2.1 = {
	holder = 1017694
}

483.2.1 = {
	holder = 1018023
}

484.2.1 = {
	holder = 1021959
}

495.2.1 = {
	holder = 1019731
}

500.2.1 = {
	holder = 1022964
}

502.2.1 = {
	holder = 1022751
}

560.2.1 = {
	holder = 1023869
}

565.2.1 = {
	holder = 1026915
}

575.2.1 = {
	holder = 1027788
}

590.2.1 = {
	holder = 1026915
}

591.2.1 = {
	holder = 1027985
}

594.2.1 = {
	holder = 1028145
}

600.2.1 = {
	holder = 1029187
}

632.2.1 = {
	holder = 1030498
}

650.2.1 = {
	holder = 1032671
}

696.2.1 = {
	holder = 1033482
}

696.2.2 = {
	holder = 1035694
}

723.2.1 = {
	holder = 1037199
}

723.2.2 = {
	holder = 1037514
}

753.2.1 = {
	holder = 1038530
}

756.2.1 = {
	holder = 1035979
}

756.2.2 = {
	holder = 1039562
}

770.2.1 = {
	holder = 1039563
}

771.2.1 = {
	holder = 1040465
}

771.2.2 = {
	holder = 1040604
}

808.2.1 = {
	holder = 1040659
}

829.2.1 = {
	holder = 1044350
}

879.2.1 = {
	holder = 1044555
}

885.2.1 = {
	holder = 1047088
}

886.2.1 = {
	holder = 1047990
}

900.2.1 = {
	holder = 1048247
}

