200.2.1 = {
	holder = 1000021
	law = succ_open_elective
	law = agnatic_succession
}

200.2.2 = {
	holder = 1000022
	law = succ_elective_gavelkind
	law = agnatic_succession
}

200.2.3 = {
	holder = 1001381
	law = succ_tanistry
	law = agnatic_succession
}

200.2.4 = {
	liege = d_togeria
}

200.2.5 = {
	holder = 1001380
	law = succ_tanistry
	law = agnatic_succession
}

225.2.1 = {
	holder = 1003709
}

252.2.1 = {
	holder = 1001345
}

253.2.1 = {
	holder = 1004141
}

400.2.1 = {
	holder = 1015451
}

427.2.1 = {
	holder = 1015645
}

429.2.1 = {
	holder = 1018375
}

431.2.1 = {
	holder = 1018459
}

452.2.1 = {
	holder = 1019814
}

507.2.1 = {
	holder = 1023433
}

564.2.1 = {
	holder = 1024847
}

579.2.1 = {
	holder = 1028078
}

589.2.1 = {
	holder = 1028474
}

631.2.1 = {
	holder = 1029522
}

655.2.1 = {
	holder = 1032248
}

684.2.1 = {
	holder = 1034925
}

706.2.1 = {
	holder = 1035831
}

761.2.1 = {
	holder = 1037048
}

789.2.1 = {
	holder = 1040276
}

791.2.1 = {
	holder = 1041101
}

800.2.1 = {
	holder = 1042325
}

870.2.1 = {
	holder = 1043675
}

874.2.1 = {
	holder = 1046224
}

885.2.1 = {
	holder = 1047280
}

899.2.1 = {
	holder = 1048671
}

