200.2.1 = {
	holder = 1000017
	law = succ_tanistry
	law = cognatic_succession
}

200.2.2 = {
	holder = 1000540
	law = succ_tanistry
	law = cognatic_succession
}

200.2.3 = {
	liege = d_dyah
}

200.2.4 = {
	holder = 1000538
	law = succ_tanistry
	law = cognatic_succession
}

231.2.1 = {
	holder = 1002971
}

275.2.1 = {
	holder = 1003552
}

275.2.2 = {
	holder = 1005581
}

276.2.1 = {
	holder = 1003552
}

276.2.2 = {
	holder = 1005624
}

280.2.1 = {
	holder = 1005650
}

328.2.1 = {
	holder = 1007427
}

368.2.1 = {
	holder = 1006781
}

378.2.1 = {
	holder = 1010215
}

398.2.1 = {
	holder = 1011187
}

414.2.1 = {
	holder = 1012221
}

419.2.1 = {
	holder = 1011263
}

442.2.1 = {
	holder = 1011423
}

469.2.1 = {
	holder = 1014337
}

475.2.1 = {
	holder = 1015204
}

482.2.1 = {
	holder = 1014946
}

483.2.1 = {
	holder = 1015663
}

532.2.1 = {
	holder = 1015776
}

533.2.1 = {
	holder = 1017255
}

533.2.2 = {
	holder = 1018103
}

552.2.1 = {
	holder = 1018534
}

584.2.1 = {
	holder = 1019410
}

616.2.1 = {
	holder = 1020777
}

627.2.1 = {
	holder = 1022417
}

668.2.1 = {
	holder = 1023349
}

679.2.1 = {
	holder = 1024495
}

679.2.2 = {
	holder = 1025043
}

682.2.1 = {
	holder = 1023576
}

700.2.1 = {
	holder = 1026055
}

800.2.1 = {
	holder = 1027474
}

806.2.1 = {
	holder = 1030744
}

817.2.1 = {
	holder = 1031847
}

840.2.1 = {
	holder = 1031990
}

889.2.1 = {
	holder = 1034946
}

898.2.1 = {
	holder = 1034027
}

898.2.2 = {
	holder = 1035573
}

906.2.1 = {
	holder = 1035734
}

928.2.1 = {
	holder = 1036967
}

931.2.1 = {
	holder = 1036689
}

931.2.2 = {
	holder = 1033972
}

936.2.1 = {
	holder = 1037292
}

952.2.1 = {
	holder = 1038029
}

967.2.1 = {
	holder = 1038806
}

977.2.1 = {
	holder = 1037598
}

977.2.2 = {
	holder = 1039275
}

1019.2.1 = {
	holder = 1039316
}

1033.2.1 = {
	holder = 1041373
}

1043.2.1 = {
	holder = 1042418
}

