200.2.1 = {
	holder = 1000000
	law = succ_elective_gavelkind
	law = agnatic_succession
}

200.2.2 = {
	holder = 1000111
	law = succ_elective_gavelkind
	law = agnatic_succession
}

200.2.3 = {
	liege = d_saepiisa
}

200.2.4 = {
	holder = 1000110
	law = succ_elective_gavelkind
	law = agnatic_succession
}

241.2.1 = {
	holder = 1004979
}

242.2.1 = {
	holder = 1005080
}

261.2.1 = {
	holder = 1005364
}

277.2.1 = {
	holder = 1008120
}

289.2.1 = {
	holder = 1007411
}

289.2.2 = {
	holder = 1008969
}

290.2.1 = {
	holder = 1007411
}

290.2.2 = {
	holder = 1009026
}

319.2.1 = {
	holder = 1010507
}

328.2.1 = {
	holder = 1007411
}

328.2.2 = {
	holder = 1007830
}

339.2.1 = {
	holder = 1011261
}

367.2.1 = {
	holder = 1012324
}

379.2.1 = {
	holder = 1014492
}

390.2.1 = {
	holder = 1015519
}

411.2.1 = {
	holder = 1017134
}

460.2.1 = {
	holder = 1018660
}

468.2.1 = {
	holder = 1019559
}

468.2.2 = {
	holder = 1020959
}

490.2.1 = {
	holder = 1021178
}

500.2.1 = {
	holder = 1022654
}

516.2.1 = {
	holder = 1020787
}

517.2.1 = {
	holder = 1024019
}

570.2.1 = {
	holder = 1024024
}

580.2.1 = {
	holder = 1028088
}

617.2.1 = {
	holder = 1028470
}

641.2.1 = {
	holder = 1030699
}

657.2.1 = {
	holder = 1032169
}

662.2.1 = {
	holder = 1033491
}

667.2.1 = {
	holder = 1032169
}

667.2.2 = {
	holder = 1033800
}

678.2.1 = {
	holder = 1032399
}

679.2.1 = {
	holder = 1034547
}

687.2.1 = {
	holder = 1033939
}

702.2.1 = {
	holder = 1034015
}

722.2.1 = {
	holder = 1036797
}

736.2.1 = {
	holder = 1037847
}

744.2.1 = {
	holder = 1038051
}

744.2.2 = {
	holder = 1038849
}

793.2.1 = {
	holder = 1039272
}

805.2.1 = {
	holder = 1041469
}

827.2.1 = {
	holder = 1042913
}

835.2.1 = {
	holder = 1044310
}

858.2.1 = {
	holder = 1045332
}

892.2.1 = {
	holder = 1046698
}

898.2.1 = {
	holder = 1048413
}

