200.2.1 = {
	holder = 1000005
	law = succ_open_elective
	law = cognatic_succession
}

200.2.2 = {
	holder = 1000269
	law = succ_open_elective
	law = cognatic_succession
}

200.2.3 = {
	liege = d_ekugadar
}

200.2.4 = {
	holder = 1000267
	law = succ_open_elective
	law = cognatic_succession
}

208.2.1 = {
	holder = 1002165
}

243.2.1 = {
	holder = 1003215
}

286.2.1 = {
	holder = 1004149
}

322.2.1 = {
	holder = 1006616
}

341.2.1 = {
	holder = 1008133
}

344.2.1 = {
	holder = 1008867
}

357.2.1 = {
	holder = 1009522
}

363.2.1 = {
	holder = 1009780
}

400.2.1 = {
	holder = 1009575
}

404.2.1 = {
	holder = 1010195
}

405.2.1 = {
	holder = 1011925
}

419.2.1 = {
	holder = 1012624
}

427.2.1 = {
	holder = 1012937
}

442.2.1 = {
	holder = 1012146
}

442.2.2 = {
	holder = 1013683
}

481.2.1 = {
	holder = 1013962
}

514.2.1 = {
	holder = 1015908
}

525.2.1 = {
	holder = 1017685
}

553.2.1 = {
	holder = 1017813
}

559.2.1 = {
	holder = 1019106
}

573.2.1 = {
	holder = 1017310
}

573.2.2 = {
	holder = 1020040
}

598.2.1 = {
	holder = 1020223
}

621.2.1 = {
	holder = 1022217
}

627.2.1 = {
	holder = 1020906
}

627.2.2 = {
	holder = 1022585
}

632.2.1 = {
	holder = 1022849
}

668.2.1 = {
	holder = 1023798
}

668.2.2 = {
	holder = 1024494
}

669.2.1 = {
	holder = 1022592
}

670.2.1 = {
	holder = 1024587
}

674.2.1 = {
	holder = 1022592
}

674.2.2 = {
	holder = 1024783
}

726.2.1 = {
	holder = 1025160
}

734.2.1 = {
	holder = 1027505
}

779.2.1 = {
	holder = 1028342
}

800.2.1 = {
	holder = 1030865
}

851.2.1 = {
	holder = 1031859
}

886.2.1 = {
	holder = 1034181
}

886.2.2 = {
	holder = 1033275
}

1000.2.1 = {
	holder = 1038462
}

1001.2.1 = {
	holder = 1039308
}

1010.2.1 = {
	holder = 1040769
}

1045.2.1 = {
	holder = 1042612
}

