200.2.1 = {
	holder = 1000001
	law = succ_tanistry
	law = agnatic_succession
}

200.2.2 = {
	holder = 1000002
	law = succ_elective_gavelkind
	law = agnatic_succession
}

200.2.3 = {
	holder = 1000212
	law = succ_seniority
	law = cognatic_succession
}

200.2.4 = {
	liege = d_kuapa
}

200.2.5 = {
	holder = 1000211
	law = succ_seniority
	law = cognatic_succession
}

245.2.1 = {
	holder = 1002081
}

273.2.1 = {
	holder = 1005236
}

298.2.1 = {
	holder = 1008590
}

301.2.1 = {
	holder = 1007853
}

301.2.2 = {
	holder = 1009764
}

359.2.1 = {
	holder = 1009996
}

362.2.1 = {
	holder = 1011040
}

379.2.1 = {
	holder = 1014039
}

381.2.1 = {
	holder = 1012503
}

382.2.1 = {
	holder = 1015153
}

404.2.1 = {
	holder = 1015600
}

442.2.1 = {
	holder = 1017209
}

456.2.1 = {
	holder = 1016896
}

459.2.1 = {
	holder = 1020261
}

476.2.1 = {
	holder = 1021474
}

483.2.1 = {
	holder = 1021500
}

486.2.1 = {
	holder = 1019511
}

487.2.1 = {
	holder = 1022126
}

494.2.1 = {
	holder = 1022129
}

500.2.1 = {
	holder = 1022910
}

530.2.1 = {
	holder = 1023013
}

547.2.1 = {
	holder = 1023947
}

547.2.2 = {
	holder = 1026044
}

590.2.1 = {
	holder = 1026259
}

617.2.1 = {
	holder = 1028905
}

641.2.1 = {
	holder = 1030767
}

659.2.1 = {
	holder = 1032331
}

674.2.1 = {
	holder = 1033700
}

680.2.1 = {
	holder = 1033580
}

680.2.2 = {
	holder = 1034661
}

690.2.1 = {
	holder = 1034747
}

728.2.1 = {
	holder = 1036111
}

744.2.1 = {
	holder = 1038008
}

775.2.1 = {
	holder = 1039603
}

824.2.1 = {
	holder = 1041023
}

841.2.1 = {
	holder = 1044709
}

865.2.1 = {
	holder = 1045728
}

