200.2.1 = {
	holder = 1000010
	law = succ_elective_gavelkind
	law = agnatic_succession
}

200.2.2 = {
	holder = 1000712
	law = succ_elective_gavelkind
	law = agnatic_succession
}

200.2.3 = {
	liege = d_kibani
}

200.2.4 = {
	holder = 1000711
	law = succ_elective_gavelkind
	law = agnatic_succession
}

216.2.1 = {
	holder = 1003073
}

262.2.1 = {
	holder = 1004936
}

274.2.1 = {
	holder = 1007150
}

320.2.1 = {
	holder = 1008285
}

332.2.1 = {
	holder = 1008184
}

332.2.2 = {
	holder = 1011949
}

372.2.1 = {
	holder = 1012341
}

403.2.1 = {
	holder = 1016567
}

421.2.1 = {
	holder = 1016625
}

464.2.1 = {
	holder = 1017858
}

475.2.1 = {
	holder = 1020204
}

518.2.1 = {
	holder = 1021601
}

519.2.1 = {
	holder = 1021972
}

535.2.1 = {
	holder = 1024786
}

563.2.1 = {
	holder = 1026151
}

585.2.1 = {
	holder = 1028427
}

605.2.1 = {
	holder = 1028559
}

608.2.1 = {
	holder = 1026130
}

609.2.1 = {
	holder = 1029978
}

649.2.1 = {
	holder = 1030253
}

661.2.1 = {
	holder = 1033050
}

717.2.1 = {
	holder = 1034152
}

734.2.1 = {
	holder = 1034970
}

734.2.2 = {
	holder = 1038194
}

771.2.1 = {
	holder = 1038435
}

772.2.1 = {
	holder = 1038193
}

772.2.2 = {
	holder = 1037893
}

784.2.1 = {
	holder = 1041339
}

787.2.1 = {
	holder = 1038988
}

811.2.1 = {
	holder = 1041646
}

827.2.1 = {
	holder = 1042443
}

828.2.1 = {
	holder = 1044303
}

846.2.1 = {
	holder = 1044449
}

891.2.1 = {
	holder = 1045999
}

894.2.1 = {
	holder = 1048504
}

899.2.1 = {
	holder = 1048626
}

