200.2.1 = {
	holder = 1000030
	law = succ_seniority
	law = cognatic_succession
}

200.2.2 = {
	liege = d_kaururad
}

200.2.3 = {
	holder = 1001762
}

233.2.1 = {
	holder = 1001760
}

234.2.1 = {
	holder = 1003638
}

266.2.1 = {
	holder = 1004577
}

274.2.1 = {
	holder = 1005412
}

309.2.1 = {
	holder = 1006165
}

333.2.1 = {
	holder = 1007257
}

357.2.1 = {
	holder = 1008999
}

363.2.1 = {
	holder = 1009777
}

402.2.1 = {
	holder = 1009833
}

428.2.1 = {
	holder = 1012192
}

452.2.1 = {
	holder = 1014213
}

492.2.1 = {
	holder = 1015891
}

500.2.1 = {
	holder = 1016478
}

510.2.1 = {
	holder = 1016602
}

540.2.1 = {
	holder = 1018458
}

576.2.1 = {
	holder = 1019603
}

604.2.1 = {
	holder = 1020904
}

614.2.1 = {
	holder = 1021717
}

660.2.1 = {
	holder = 1022627
}

682.2.1 = {
	holder = 1024195
}

685.2.1 = {
	holder = 1025338
}

689.2.1 = {
	holder = 1025533
}

691.2.1 = {
	holder = 1025591
}

700.4.1 = {
	law = succ_patrician_elective
}

