200.2.1 = {
	holder = 1000021
	law = succ_primogeniture
	law = agnatic_succession
}

200.2.2 = {
	holder = 1000750
	law = succ_primogeniture
	law = agnatic_succession
}

200.2.3 = {
	liege = d_lomagi
}

200.2.4 = {
	holder = 1000751
	law = succ_primogeniture
	law = cognatic_succession
}

200.2.5 = {
	holder = 1000748
	law = succ_primogeniture
	law = agnatic_succession
}

225.2.1 = {
	holder = 1002116
}

267.2.1 = {
	holder = 1003770
}

300.2.1 = {
	holder = 1005439
}

320.2.1 = {
	holder = 1006860
}

327.2.1 = {
	holder = 1007815
}

358.2.1 = {
	holder = 1008149
}

375.2.1 = {
	holder = 1009626
}

379.2.1 = {
	holder = 1007735
}

380.2.1 = {
	holder = 1010649
}

406.2.1 = {
	holder = 1010862
}

439.2.1 = {
	holder = 1012421
}

456.2.1 = {
	holder = 1013610
}

462.2.1 = {
	holder = 1012861
}

463.2.1 = {
	holder = 1013663
}

471.2.1 = {
	holder = 1014055
}

472.2.1 = {
	holder = 1012419
}

476.2.1 = {
	holder = 1013609
}

502.2.1 = {
	holder = 1015381
}

514.2.1 = {
	holder = 1016622
}

556.2.1 = {
	holder = 1017714
}

557.2.1 = {
	holder = 1019253
}

577.2.1 = {
	holder = 1019957
}

596.2.1 = {
	holder = 1021116
}

600.2.1 = {
	holder = 1021117
}

638.2.1 = {
	holder = 1021511
}

656.2.1 = {
	holder = 1023916
}

679.2.1 = {
	holder = 1024388
}

727.2.1 = {
	holder = 1025660
}

747.2.1 = {
	holder = 1026549
}

748.2.1 = {
	holder = 1028357
}

785.2.1 = {
	holder = 1028360
}

814.2.1 = {
	holder = 1030315
}

849.2.1 = {
	holder = 1030373
}

855.2.1 = {
	holder = 1033570
}

858.2.1 = {
	holder = 1033618
}

900.2.1 = {
	holder = 1034371
}

905.2.1 = {
	holder = 1034910
}

906.2.1 = {
	holder = 1035965
}

951.2.1 = {
	holder = 1037195
}

984.2.1 = {
	holder = 1038813
}

991.2.1 = {
	holder = 1039939
}

1011.2.1 = {
	holder = 1040321
}

1014.2.1 = {
	holder = 1040479
}

1034.2.1 = {
	holder = 1041452
}

1050.2.1 = {
	holder = 1042846
}

1051.2.1 = {
	holder = 1042462
}

1052.2.1 = {
	holder = 1042919
}

1059.2.1 = {
	holder = 1042921
}

