200.2.1 = {
	holder = 1000033
	law = succ_tanistry
	law = cognatic_succession
}

200.2.2 = {
	holder = 1001695
	law = succ_tanistry
	law = cognatic_succession
}

200.2.3 = {
	liege = d_rilaybilay
}

200.2.4 = {
	holder = 1001694
	law = succ_tanistry
	law = cognatic_succession
}

235.2.1 = {
	holder = 1003233
}

250.2.1 = {
	holder = 1003985
}

263.2.1 = {
	holder = 1007174
}

314.2.1 = {
	holder = 1007605
}

320.2.1 = {
	holder = 1010873
}

321.2.1 = {
	holder = 1009154
}

322.2.1 = {
	holder = 1008742
}

339.2.1 = {
	holder = 1011360
}

398.2.1 = {
	holder = 1012540
}

399.2.1 = {
	holder = 1015191
}

442.2.1 = {
	holder = 1016800
}

453.2.1 = {
	holder = 1019491
}

468.2.1 = {
	holder = 1020571
}

481.2.1 = {
	holder = 1017753
}

482.2.1 = {
	holder = 1018306
}

490.2.1 = {
	holder = 1022162
}

521.2.1 = {
	holder = 1023489
}

523.2.1 = {
	holder = 1022889
}

524.2.1 = {
	holder = 1024511
}

525.2.1 = {
	holder = 1023300
}

526.2.1 = {
	holder = 1024661
}

546.2.1 = {
	holder = 1024966
}

599.2.1 = {
	holder = 1026767
}

609.2.1 = {
	holder = 1029499
}

633.2.1 = {
	holder = 1031240
}

634.2.1 = {
	holder = 1031623
}

641.2.1 = {
	holder = 1028319
}

653.2.1 = {
	holder = 1029567
}

653.2.2 = {
	holder = 1032876
}

709.2.1 = {
	holder = 1033615
}

715.2.1 = {
	holder = 1033849
}

730.2.1 = {
	holder = 1035743
}

751.2.1 = {
	holder = 1039243
}

783.2.1 = {
	holder = 1039178
}

812.2.1 = {
	holder = 1039700
}

826.2.1 = {
	holder = 1043385
}

830.2.1 = {
	holder = 1043727
}

843.2.1 = {
	holder = 1044751
}

886.2.1 = {
	holder = 1045906
}

