200.2.1 = {
	holder = 1000002
	law = succ_elective_gavelkind
	law = agnatic_succession
}

200.2.2 = {
	holder = 1000226
	law = succ_seniority
	law = cognatic_succession
}

200.2.3 = {
	liege = d_soudeya
}

200.2.4 = {
	holder = 1000224
	law = succ_seniority
	law = cognatic_succession
}

203.2.1 = {
	holder = 1003012
}

300.2.1 = {
	holder = 1006732
}

319.2.1 = {
	holder = 1008184
}

340.2.1 = {
	holder = 1011438
}

372.2.1 = {
	holder = 1012638
}

389.2.1 = {
	holder = 1015274
}

400.2.1 = {
	holder = 1013963
}

500.2.1 = {
	holder = 1021343
}

501.2.1 = {
	holder = 1021363
}

536.2.1 = {
	holder = 1023384
}

564.2.1 = {
	holder = 1025733
}

569.2.1 = {
	holder = 1026130
}

570.2.1 = {
	holder = 1027428
}

700.2.1 = {
	holder = 1033050
}

717.2.1 = {
	holder = 1034152
}

734.2.1 = {
	holder = 1034970
}

737.2.1 = {
	holder = 1037037
}

745.2.1 = {
	holder = 1038542
}

750.2.1 = {
	holder = 1038193
}

783.2.1 = {
	holder = 1038988
}

787.2.1 = {
	holder = 1041588
}

792.2.1 = {
	holder = 1041842
}

836.2.1 = {
	holder = 1043618
}

871.2.1 = {
	holder = 1044856
}

900.2.1 = {
	holder = 1047053
}

