200.2.1 = {
	holder = 1000019
	law = succ_primogeniture
	law = agnatic_succession
}

200.2.2 = {
	liege = d_totey
}

200.2.3 = {
	liege = d_dagechok
}

200.2.4 = {
	holder = 1001246
	law = succ_primogeniture
	law = agnatic_succession
}

223.2.1 = {
	holder = 1004471
}

270.2.1 = {
	holder = 1005192
}

273.2.1 = {
	holder = 1007813
}

326.2.1 = {
	holder = 1009205
}

344.2.1 = {
	holder = 1011658
}

347.2.1 = {
	holder = 1009413
}

347.2.2 = {
	holder = 1012894
}

349.2.1 = {
	holder = 1009413
}

351.2.1 = {
	holder = 1011933
}

352.2.1 = {
	holder = 1013235
}

500.2.1 = {
	holder = 1020304
}

510.2.1 = {
	holder = 1022680
}

511.2.1 = {
	holder = 1023683
}

600.2.1 = {
	holder = 1026024
}

602.2.1 = {
	holder = 1029551
}

603.2.1 = {
	holder = 1029633
}

700.2.1 = {
	holder = 1033118
}

712.2.1 = {
	holder = 1033718
}

722.2.1 = {
	holder = 1036784
}

722.2.2 = {
	holder = 1037462
}

725.2.1 = {
	holder = 1037631
}

777.2.1 = {
	holder = 1038637
}

779.2.1 = {
	holder = 1038374
}

800.2.1 = {
	holder = 1042381
}

900.2.1 = {
	holder = 1045858
}

900.2.2 = {
	holder = 1048945
}

