200.2.1 = {
	holder = 1000015
	law = succ_tanistry
	law = agnatic_succession
}

200.2.2 = {
	holder = 1001009
	law = succ_tanistry
	law = agnatic_succession
}

200.2.3 = {
	liege = d_rovogli
}

200.2.4 = {
	holder = 1001010
	law = succ_elective_gavelkind
	law = agnatic_succession
}

200.2.5 = {
	liege = d_rovogli
}

200.2.6 = {
	holder = 1001006
	law = succ_tanistry
	law = agnatic_succession
}

204.2.1 = {
	holder = 1002676
}

208.2.1 = {
	holder = 1000955
}

231.2.1 = {
	holder = 1004945
}

252.2.1 = {
	holder = 1004947
}

267.2.1 = {
	holder = 1006699
}

276.2.1 = {
	holder = 1007886
}

324.2.1 = {
	holder = 1009197
}

325.2.1 = {
	holder = 1011466
}

344.2.1 = {
	holder = 1012617
}

371.2.1 = {
	holder = 1013664
}

410.2.1 = {
	holder = 1014977
}

433.2.1 = {
	holder = 1017254
}

454.2.1 = {
	holder = 1018845
}

464.2.1 = {
	holder = 1020299
}

494.2.1 = {
	holder = 1021319
}

498.2.1 = {
	holder = 1022673
}

525.2.1 = {
	holder = 1023793
}

555.2.1 = {
	holder = 1024940
}

586.2.1 = {
	holder = 1028251
}

641.2.1 = {
	holder = 1029806
}

641.2.2 = {
	holder = 1032075
}

651.2.1 = {
	holder = 1032658
}

660.2.1 = {
	holder = 1031935
}

694.2.1 = {
	holder = 1033186
}

698.2.1 = {
	holder = 1035091
}

705.2.1 = {
	holder = 1036366
}

749.2.1 = {
	holder = 1036473
}

758.2.1 = {
	holder = 1039552
}

796.2.1 = {
	holder = 1040699
}

834.2.1 = {
	holder = 1042661
}

836.2.1 = {
	holder = 1043759
}

837.2.1 = {
	holder = 1044877
}

866.2.1 = {
	holder = 1045350
}

893.2.1 = {
	holder = 1047072
}

