200.2.1 = {
	holder = 1001879
	law = succ_open_elective
	law = agnatic_succession
}

200.2.2 = {
	liege = d_lolulay
}

200.2.3 = {
	holder = 1001880
	law = succ_elective_gavelkind
	law = agnatic_succession
}

200.2.4 = {
	holder = 1001877
	law = succ_open_elective
	law = agnatic_succession
}

255.2.1 = {
	holder = 1004355
}

264.2.1 = {
	holder = 1007107
}

303.2.1 = {
	holder = 1008364
}

326.2.1 = {
	holder = 1010221
}

342.2.1 = {
	holder = 1011898
}

352.2.1 = {
	holder = 1012854
}

379.2.1 = {
	holder = 1013476
}

394.2.1 = {
	holder = 1015269
}

400.2.1 = {
	holder = 1012708
}

400.2.2 = {
	holder = 1016363
}

422.2.1 = {
	holder = 1016524
}

438.2.1 = {
	holder = 1017832
}

441.2.1 = {
	holder = 1018244
}

450.2.1 = {
	holder = 1019439
}

453.2.1 = {
	holder = 1020006
}

600.2.1 = {
	holder = 1028266
}

600.2.2 = {
	holder = 1029415
}

645.2.1 = {
	holder = 1029957
}

661.2.1 = {
	holder = 1032624
}

682.2.1 = {
	holder = 1033682
}

718.2.1 = {
	holder = 1035200
}

726.2.1 = {
	holder = 1037395
}

783.2.1 = {
	holder = 1038719
}

786.2.1 = {
	holder = 1041519
}

801.2.1 = {
	holder = 1041763
}

807.2.1 = {
	holder = 1040836
}

807.2.2 = {
	holder = 1042883
}

813.2.1 = {
	holder = 1039980
}

813.2.2 = {
	holder = 1043332
}

848.2.1 = {
	holder = 1044561
}

871.2.1 = {
	holder = 1045774
}

895.2.1 = {
	holder = 1047093
}

