200.2.1 = {
	holder = 1000023
	law = succ_primogeniture
	law = agnatic_succession
}

200.2.2 = {
	holder = 1001405
	law = succ_primogeniture
	law = agnatic_succession
}

200.2.3 = {
	liege = d_wianmou
}

200.2.4 = {
	holder = 1001406
	law = succ_elective_gavelkind
	law = agnatic_succession
}

200.2.5 = {
	liege = d_wianmou
}

200.2.6 = {
	holder = 1001401
	law = succ_primogeniture
	law = agnatic_succession
}

210.2.1 = {
	holder = 1002708
}

238.2.1 = {
	holder = 1004514
}

277.2.1 = {
	holder = 1006277
}

301.2.1 = {
	holder = 1008486
}

306.2.1 = {
	holder = 1010028
}

344.2.1 = {
	holder = 1011294
}

380.2.1 = {
	holder = 1013174
}

394.2.1 = {
	holder = 1015683
}

396.2.1 = {
	holder = 1015909
}

435.2.1 = {
	holder = 1016103
}

440.2.1 = {
	holder = 1016683
}

440.2.2 = {
	holder = 1016065
}

442.2.1 = {
	holder = 1017480
}

458.2.1 = {
	holder = 1020054
}

473.2.1 = {
	holder = 1021215
}

482.2.1 = {
	holder = 1020887
}

483.2.1 = {
	holder = 1021856
}

513.2.1 = {
	holder = 1021948
}

536.2.1 = {
	holder = 1025192
}

548.2.1 = {
	holder = 1022839
}

551.2.1 = {
	holder = 1025949
}

557.2.1 = {
	holder = 1025439
}

557.2.2 = {
	holder = 1026639
}

598.2.1 = {
	holder = 1026758
}

622.2.1 = {
	holder = 1030548
}

631.2.1 = {
	holder = 1029389
}

631.2.2 = {
	holder = 1031418
}

658.2.1 = {
	holder = 1031754
}

699.2.1 = {
	holder = 1033471
}

717.2.1 = {
	holder = 1033767
}

718.2.1 = {
	holder = 1037176
}

755.2.1 = {
	holder = 1037378
}

759.2.1 = {
	holder = 1039531
}

760.2.1 = {
	holder = 1039799
}

764.2.1 = {
	holder = 1038080
}

765.2.1 = {
	holder = 1040147
}

788.2.1 = {
	holder = 1040708
}

805.2.1 = {
	holder = 1042387
}

812.2.1 = {
	holder = 1042579
}

820.2.1 = {
	holder = 1043752
}

870.2.1 = {
	holder = 1044862
}

898.2.1 = {
	holder = 1047171
}

