200.2.1 = {
	holder = 1000033
	law = succ_tanistry
	law = cognatic_succession
}

200.2.2 = {
	liege = d_notomas
}

200.2.3 = {
	liege = d_notomas
}

200.2.4 = {
	holder = 1001715
	law = succ_elective_gavelkind
	law = cognatic_succession
}

231.2.1 = {
	holder = 1002731
}

245.2.1 = {
	holder = 1005206
}

293.2.1 = {
	holder = 1006484
}

313.2.1 = {
	holder = 1009357
}

352.2.1 = {
	holder = 1011893
}

392.2.1 = {
	holder = 1013685
}

407.2.1 = {
	holder = 1015876
}

459.2.1 = {
	holder = 1017344
}

475.2.1 = {
	holder = 1020950
}

491.2.1 = {
	holder = 1021958
}

500.2.1 = {
	holder = 1022968
}

520.2.1 = {
	holder = 1022235
}

530.2.1 = {
	holder = 1024969
}

532.2.1 = {
	holder = 1023191
}

532.2.2 = {
	holder = 1025096
}

556.2.1 = {
	holder = 1025383
}

592.2.1 = {
	holder = 1027242
}

601.2.1 = {
	holder = 1029496
}

646.2.1 = {
	holder = 1030154
}

683.2.1 = {
	holder = 1032490
}

689.2.1 = {
	holder = 1033015
}

690.2.1 = {
	holder = 1035270
}

728.2.1 = {
	holder = 1035979
}

729.2.1 = {
	holder = 1035280
}

763.2.1 = {
	holder = 1039503
}

768.2.1 = {
	holder = 1039563
}

769.2.1 = {
	holder = 1040465
}

813.2.1 = {
	holder = 1041878
}

816.2.1 = {
	holder = 1043519
}

821.2.1 = {
	holder = 1043517
}

824.2.1 = {
	holder = 1044034
}

827.2.1 = {
	holder = 1043579
}

835.2.1 = {
	holder = 1044294
}

835.2.2 = {
	holder = 1044753
}

871.2.1 = {
	holder = 1046739
}

872.2.1 = {
	holder = 1047084
}

872.2.2 = {
	holder = 1047088
}

