200.2.1 = {
	holder = 1000037
	law = succ_primogeniture
	law = cognatic_succession
}

200.2.2 = {
	liege = d_atkutletf
}

200.2.3 = {
	holder = 1001102
	law = succ_primogeniture
	law = cognatic_succession
}

200.2.4 = {
	holder = 1001404
}

220.2.1 = {
	holder = 1003006
}

242.2.1 = {
	holder = 1003282
}

261.2.1 = {
	holder = 1004943
}

289.2.1 = {
	holder = 1005491
}

306.2.1 = {
	holder = 1006449
}

307.2.1 = {
	holder = 1004475
}

307.2.2 = {
	holder = 1007110
}

325.2.1 = {
	holder = 1007598
}

359.2.1 = {
	holder = 1009191
}

402.2.1 = {
	holder = 1010531
}

404.2.1 = {
	holder = 1011450
}

404.2.2 = {
	holder = 1011874
}

406.2.1 = {
	holder = 1010051
}

406.2.2 = {
	holder = 1011969
}

453.2.1 = {
	holder = 1012022
}

460.2.1 = {
	holder = 1012792
}

460.2.2 = {
	holder = 1014551
}

472.2.1 = {
	holder = 1014594
}

480.2.1 = {
	holder = 1015487
}

504.2.1 = {
	holder = 1014252
}

507.2.1 = {
	holder = 1015351
}

516.2.1 = {
	holder = 1016924
}

552.2.1 = {
	holder = 1017924
}

566.2.1 = {
	holder = 1019676
}

601.2.1 = {
	holder = 1019769
}

630.2.1 = {
	holder = 1021571
}

646.2.1 = {
	holder = 1023096
}

702.2.1 = {
	holder = 1024136
}

717.2.1 = {
	holder = 1026240
}

717.2.2 = {
	holder = 1026925
}

751.2.1 = {
	holder = 1027115
}

760.2.1 = {
	holder = 1028784
}

777.2.1 = {
	holder = 1029620
}

787.2.1 = {
	holder = 1028008
}

787.2.2 = {
	holder = 1029577
}

808.2.1 = {
	holder = 1030326
}

818.2.1 = {
	holder = 1031239
}

818.2.2 = {
	holder = 1031889
}

828.2.1 = {
	holder = 1031890
}

837.2.1 = {
	holder = 1030904
}

844.2.1 = {
	holder = 1031625
}

859.2.1 = {
	holder = 1031633
}

864.2.1 = {
	holder = 1032801
}

884.2.1 = {
	holder = 1034294
}

907.2.1 = {
	holder = 1035052
}

933.2.1 = {
	holder = 1036517
}

934.2.1 = {
	holder = 1037264
}

941.2.1 = {
	holder = 1037570
}

947.2.1 = {
	holder = 1037265
}

955.2.1 = {
	holder = 1038244
}

986.2.1 = {
	holder = 1038403
}

994.2.1 = {
	holder = 1037667
}

1001.2.1 = {
	holder = 1039167
}

1003.2.1 = {
	holder = 1040572
}

1009.2.1 = {
	holder = 1040612
}

1010.2.1 = {
	holder = 1040518
}

1016.2.1 = {
	holder = 1038910
}

1020.2.1 = {
	holder = 1041395
}

1024.2.1 = {
	holder = 1037265
}

1029.2.1 = {
	holder = 1037623
}

1047.2.1 = {
	holder = 1042529
}

1048.2.1 = {
	holder = 1041855
}

1049.2.1 = {
	holder = 1042796
}

