200.2.1 = {
	holder = 1000015
	law = succ_tanistry
	law = agnatic_succession
}

200.2.2 = {
	holder = 1000995
	law = succ_tanistry
	law = agnatic_succession
}

200.2.3 = {
	liege = d_rovulay
}

200.2.4 = {
	holder = 1000994
	law = succ_tanistry
	law = agnatic_succession
}

203.2.1 = {
	holder = 1002674
}

228.2.1 = {
	holder = 1004743
}

228.2.2 = {
	holder = 1004796
}

240.2.1 = {
	holder = 1004826
}

298.2.1 = {
	holder = 1006390
}

317.2.1 = {
	holder = 1010016
}

340.2.1 = {
	holder = 1011720
}

383.2.1 = {
	holder = 1012296
}

383.2.2 = {
	holder = 1015244
}

439.2.1 = {
	holder = 1015616
}

447.2.1 = {
	holder = 1019252
}

468.2.1 = {
	holder = 1020338
}

469.2.1 = {
	holder = 1018281
}

470.2.1 = {
	holder = 1021094
}

495.2.1 = {
	holder = 1020938
}

495.2.2 = {
	holder = 1018418
}

496.2.1 = {
	holder = 1019854
}

496.2.2 = {
	holder = 1022583
}

528.2.1 = {
	holder = 1024845
}

568.2.1 = {
	holder = 1026430
}

585.2.1 = {
	holder = 1027839
}

638.2.1 = {
	holder = 1028926
}

641.2.1 = {
	holder = 1031935
}

694.2.1 = {
	holder = 1033186
}

698.2.1 = {
	holder = 1035091
}

698.2.2 = {
	holder = 1031377
}

700.2.1 = {
	holder = 1034667
}

701.2.1 = {
	holder = 1034836
}

710.2.1 = {
	holder = 1036706
}

713.2.1 = {
	holder = 1036824
}

764.2.1 = {
	holder = 1038978
}

764.2.2 = {
	holder = 1040127
}

803.2.1 = {
	holder = 1040243
}

805.2.1 = {
	holder = 1042724
}

849.2.1 = {
	holder = 1044020
}

851.2.1 = {
	holder = 1045783
}

854.2.1 = {
	holder = 1043759
}

854.2.2 = {
	holder = 1041625
}

858.2.1 = {
	holder = 1042598
}

862.2.1 = {
	holder = 1045164
}

873.2.1 = {
	holder = 1046541
}

883.2.1 = {
	holder = 1047750
}

