200.2.1 = {
	holder = 1000033
	law = succ_tanistry
	law = cognatic_succession
}

200.2.2 = {
	holder = 1001681
	law = succ_tanistry
	law = cognatic_succession
}

200.2.3 = {
	liege = d_syinyia
}

200.2.4 = {
	holder = 1001682
	law = succ_elective_gavelkind
	law = agnatic_succession
}

200.2.5 = {
	holder = 1001679
	law = succ_tanistry
	law = cognatic_succession
}

216.2.1 = {
	holder = 1002443
}

227.2.1 = {
	holder = 1001599
}

239.2.1 = {
	holder = 1003116
}

250.2.1 = {
	holder = 1005547
}

273.2.1 = {
	holder = 1007398
}

280.2.1 = {
	holder = 1004588
}

286.2.1 = {
	holder = 1007540
}

310.2.1 = {
	holder = 1010399
}

334.2.1 = {
	holder = 1010402
}

371.2.1 = {
	holder = 1012699
}

408.2.1 = {
	holder = 1016134
}

464.2.1 = {
	holder = 1017343
}

475.2.1 = {
	holder = 1020188
}

499.2.1 = {
	holder = 1020388
}

503.2.1 = {
	holder = 1021761
}

504.2.1 = {
	holder = 1020503
}

512.2.1 = {
	holder = 1021334
}

527.2.1 = {
	holder = 1024745
}

558.2.1 = {
	holder = 1024749
}

580.2.1 = {
	holder = 1026841
}

584.2.1 = {
	holder = 1027720
}

585.2.1 = {
	holder = 1026763
}

620.2.1 = {
	holder = 1028391
}

629.2.1 = {
	holder = 1031300
}

630.2.1 = {
	holder = 1027983
}

633.2.1 = {
	holder = 1031240
}

636.2.1 = {
	holder = 1031758
}

647.2.1 = {
	holder = 1031901
}

658.2.1 = {
	holder = 1032877
}

702.2.1 = {
	holder = 1034358
}

708.2.1 = {
	holder = 1034179
}

708.2.2 = {
	holder = 1036554
}

730.2.1 = {
	holder = 1036622
}

763.2.1 = {
	holder = 1038039
}

797.2.1 = {
	holder = 1040602
}

811.2.1 = {
	holder = 1041939
}

813.2.1 = {
	holder = 1041365
}

814.2.1 = {
	holder = 1043386
}

816.2.1 = {
	holder = 1039767
}

817.2.1 = {
	holder = 1043576
}

817.2.2 = {
	holder = 1041511
}

818.2.1 = {
	holder = 1038836
}

819.2.1 = {
	holder = 1041511
}

820.2.1 = {
	holder = 1043767
}

831.2.1 = {
	holder = 1043892
}

839.2.1 = {
	holder = 1044361
}

855.2.1 = {
	holder = 1046038
}

