200.2.1 = {
	holder = 1000024
	law = succ_primogeniture
	law = agnatic_succession
}

200.2.2 = {
	holder = 1000809
	law = succ_primogeniture
	law = agnatic_succession
}

200.2.3 = {
	liege = d_boryan
}

200.2.4 = {
	holder = 1000807
	law = succ_primogeniture
	law = agnatic_succession
}

210.2.1 = {
	holder = 1002188
}

261.2.1 = {
	holder = 1003136
}

271.2.1 = {
	holder = 1005224
}

284.2.1 = {
	holder = 1004519
}

285.2.1 = {
	holder = 1006058
}

285.2.2 = {
	holder = 1004519
}

315.2.1 = {
	holder = 1005392
}

331.2.1 = {
	holder = 1007790
}

338.2.1 = {
	holder = 1008613
}

357.2.1 = {
	holder = 1007844
}

365.2.1 = {
	holder = 1009448
}

404.2.1 = {
	holder = 1010392
}

405.2.1 = {
	holder = 1011932
}

441.2.1 = {
	holder = 1012128
}

467.2.1 = {
	holder = 1013723
}

503.2.1 = {
	holder = 1015126
}

514.2.1 = {
	holder = 1016714
}

540.2.1 = {
	holder = 1015305
}

540.2.2 = {
	holder = 1018465
}

543.2.1 = {
	holder = 1016956
}

552.2.1 = {
	holder = 1018625
}

553.2.1 = {
	holder = 1019067
}

554.2.1 = {
	holder = 1018625
}

573.2.1 = {
	holder = 1016220
}

574.2.1 = {
	holder = 1020060
}

642.2.1 = {
	holder = 1020695
}

643.2.1 = {
	holder = 1023354
}

678.2.1 = {
	holder = 1023620
}

700.2.1 = {
	holder = 1025516
}

712.2.1 = {
	holder = 1025258
}

712.2.2 = {
	holder = 1026660
}

748.2.1 = {
	holder = 1027333
}

750.2.1 = {
	holder = 1028461
}

783.2.1 = {
	holder = 1028608
}

806.2.1 = {
	holder = 1030378
}

808.2.1 = {
	holder = 1028923
}

808.2.2 = {
	holder = 1031359
}

828.2.1 = {
	holder = 1031140
}

828.2.2 = {
	holder = 1032329
}

877.2.1 = {
	holder = 1032361
}

882.2.1 = {
	holder = 1034642
}

950.2.1 = {
	holder = 1035676
}

952.2.1 = {
	holder = 1037097
}

953.2.1 = {
	holder = 1038134
}

989.2.1 = {
	holder = 1038440
}

992.2.1 = {
	holder = 1037803
}

997.2.1 = {
	holder = 1039052
}

1015.2.1 = {
	holder = 1041166
}

1042.2.1 = {
	holder = 1041300
}

