200.2.1 = {
	holder = 1000003
	law = succ_gavelkind
	law = cognatic_succession
}

200.2.2 = {
	holder = 1000181
	law = succ_gavelkind
	law = cognatic_succession
}

200.2.3 = {
	liege = d_kyinyata
}

200.2.4 = {
	holder = 1000179
	law = succ_gavelkind
	law = cognatic_succession
}

202.2.1 = {
	holder = 1001921
}

221.2.1 = {
	holder = 1002598
}

256.2.1 = {
	holder = 1002003
}

260.2.1 = {
	holder = 1004104
}

297.2.1 = {
	holder = 1005517
}

310.2.1 = {
	holder = 1006653
}

366.2.1 = {
	holder = 1007524
}

383.2.1 = {
	holder = 1010261
}

447.2.1 = {
	holder = 1011514
}

462.2.1 = {
	holder = 1014067
}

505.2.1 = {
	holder = 1015457
}

508.2.1 = {
	holder = 1014475
}

517.2.1 = {
	holder = 1016224
}

518.2.1 = {
	holder = 1016689
}

518.2.2 = {
	holder = 1017307
}

563.2.1 = {
	holder = 1017562
}

578.2.1 = {
	holder = 1019990
}

596.2.1 = {
	holder = 1020613
}

631.2.1 = {
	holder = 1021590
}

661.2.1 = {
	holder = 1023296
}

671.2.1 = {
	holder = 1024599
}

694.2.1 = {
	holder = 1025500
}

698.2.1 = {
	holder = 1024052
}

698.2.2 = {
	holder = 1022407
}

702.2.1 = {
	holder = 1025980
}

710.2.1 = {
	holder = 1024000
}

712.2.1 = {
	holder = 1025803
}

714.2.1 = {
	holder = 1025851
}

715.2.1 = {
	holder = 1026780
}

716.2.1 = {
	holder = 1024052
}

722.2.1 = {
	holder = 1025295
}

747.2.1 = {
	holder = 1028097
}

762.2.1 = {
	holder = 1028388
}

765.2.1 = {
	holder = 1027317
}

781.2.1 = {
	holder = 1029002
}

783.2.1 = {
	holder = 1029189
}

784.2.1 = {
	holder = 1030136
}

803.2.1 = {
	holder = 1030686
}

825.2.1 = {
	holder = 1031532
}

871.2.1 = {
	holder = 1033655
}

874.2.1 = {
	holder = 1034445
}

901.2.1 = {
	holder = 1035162
}

935.2.1 = {
	holder = 1036077
}

948.2.1 = {
	holder = 1037442
}

975.2.1 = {
	holder = 1038164
}

993.2.1 = {
	holder = 1039306
}

1030.2.1 = {
	holder = 1040049
}

1055.2.1 = {
	holder = 1042662
}

1059.2.1 = {
	holder = 1042861
}

