200.2.1 = {
	holder = 1000032
	law = succ_feudal_elective
	law = cognatic_succession
}

200.2.2 = {
	holder = 1001607
	law = succ_feudal_elective
	law = cognatic_succession
}

200.2.3 = {
	liege = d_ekapa
}

200.2.4 = {
	liege = d_awaelana
}

200.2.5 = {
	holder = 1001585
	law = succ_feudal_elective
	law = cognatic_succession
}

200.2.6 = {
	holder = 1002032
}

206.2.1 = {
	holder = 1001599
}

248.2.1 = {
	holder = 1005158
}

256.2.1 = {
	holder = 1006737
}

277.2.1 = {
	holder = 1007096
}

292.2.1 = {
	holder = 1008417
}

298.2.1 = {
	holder = 1008684
}

298.2.2 = {
	holder = 1009571
}

300.2.1 = {
	holder = 1006346
}

300.2.2 = {
	holder = 1009718
}

309.2.1 = {
	holder = 1010154
}

345.2.1 = {
	holder = 1011421
}

368.2.1 = {
	holder = 1013414
}

422.2.1 = {
	holder = 1014799
}

427.2.1 = {
	holder = 1017913
}

438.2.1 = {
	holder = 1018017
}

444.2.1 = {
	holder = 1019424
}

458.2.1 = {
	holder = 1020188
}

476.2.1 = {
	holder = 1021466
}

499.2.1 = {
	holder = 1020444
}

500.2.1 = {
	holder = 1021836
}

535.2.1 = {
	holder = 1023071
}

537.2.1 = {
	holder = 1025404
}

573.2.1 = {
	holder = 1026167
}

574.2.1 = {
	holder = 1027720
}

585.2.1 = {
	holder = 1026763
}

585.2.2 = {
	holder = 1028452
}

609.2.1 = {
	holder = 1028317
}

609.2.2 = {
	holder = 1030015
}

700.2.1 = {
	holder = 1033849
}

730.2.1 = {
	holder = 1035743
}

759.2.1 = {
	holder = 1038966
}

771.2.1 = {
	holder = 1040182
}

793.2.1 = {
	holder = 1041511
}

831.2.1 = {
	holder = 1042540
}

836.2.1 = {
	holder = 1044686
}

855.2.1 = {
	holder = 1044361
}

871.2.1 = {
	holder = 1044482
}

888.2.1 = {
	holder = 1048056
}

