200.2.1 = {
	holder = 1000003
	law = succ_tanistry
	law = cognatic_succession
}

200.2.2 = {
	holder = 1000351
	law = succ_tanistry
	law = cognatic_succession
}

200.2.3 = {
	liege = d_wihesa
}

200.2.4 = {
	holder = 1000350
	law = succ_tanistry
	law = cognatic_succession
}

201.2.1 = {
	holder = 1002628
}

217.2.1 = {
	holder = 1003062
}

230.2.1 = {
	holder = 1004623
}

255.2.1 = {
	holder = 1004294
}

255.2.2 = {
	holder = 1006648
}

301.2.1 = {
	holder = 1007219
}

302.2.1 = {
	holder = 1009848
}

315.2.1 = {
	holder = 1007857
}

341.2.1 = {
	holder = 1008911
}

350.2.1 = {
	holder = 1009738
}

355.2.1 = {
	holder = 1009845
}

368.2.1 = {
	holder = 1013766
}

369.2.1 = {
	holder = 1014369
}

407.2.1 = {
	holder = 1014419
}

434.2.1 = {
	holder = 1017210
}

464.2.1 = {
	holder = 1020709
}

516.2.1 = {
	holder = 1020903
}

528.2.1 = {
	holder = 1024765
}

550.2.1 = {
	holder = 1026237
}

596.2.1 = {
	holder = 1028401
}

653.2.1 = {
	holder = 1030097
}

664.2.1 = {
	holder = 1032962
}

693.2.1 = {
	holder = 1034254
}

735.2.1 = {
	holder = 1035635
}

745.2.1 = {
	holder = 1038337
}

790.2.1 = {
	holder = 1039314
}

817.2.1 = {
	holder = 1041886
}

828.2.1 = {
	holder = 1044050
}

853.2.1 = {
	holder = 1045139
}

894.2.1 = {
	holder = 1046167
}

899.2.1 = {
	holder = 1046192
}

