200.2.1 = {
	holder = 1000031
	law = succ_ultimogeniture
	law = agnatic_succession
}

200.2.2 = {
	holder = 1000839
	law = succ_ultimogeniture
	law = agnatic_succession
}

200.2.3 = {
	liege = d_kafeo
}

200.2.4 = {
	holder = 1000837
	law = succ_ultimogeniture
	law = agnatic_succession
}

200.2.5 = {
	holder = 1001400
}

231.2.1 = {
	holder = 1002530
}

270.2.1 = {
	holder = 1004583
}

309.2.1 = {
	holder = 1005945
}

310.2.1 = {
	holder = 1004522
}

311.2.1 = {
	holder = 1005760
}

316.2.1 = {
	holder = 1007461
}

365.2.1 = {
	holder = 1008389
}

386.2.1 = {
	holder = 1010947
}

406.2.1 = {
	holder = 1011219
}

442.2.1 = {
	holder = 1013688
}

443.2.1 = {
	holder = 1011582
}

444.2.1 = {
	holder = 1013777
}

446.2.1 = {
	holder = 1013316
}

447.2.1 = {
	holder = 1011641
}

454.2.1 = {
	holder = 1014247
}

486.2.1 = {
	holder = 1015586
}

509.2.1 = {
	holder = 1013932
}

512.2.1 = {
	holder = 1014442
}

520.2.1 = {
	holder = 1017086
}

521.2.1 = {
	holder = 1017499
}

542.2.1 = {
	holder = 1017666
}

587.2.1 = {
	holder = 1018930
}

604.2.1 = {
	holder = 1021455
}

640.2.1 = {
	holder = 1021561
}

667.2.1 = {
	holder = 1023450
}

678.2.1 = {
	holder = 1023330
}

678.2.2 = {
	holder = 1024995
}

800.2.1 = {
	holder = 1028464
}

822.2.1 = {
	holder = 1030320
}

857.2.1 = {
	holder = 1032289
}

864.2.1 = {
	holder = 1033846
}

878.2.1 = {
	holder = 1034610
}

912.2.1 = {
	holder = 1035344
}

913.2.1 = {
	holder = 1036296
}

958.2.1 = {
	holder = 1036528
}

969.2.1 = {
	holder = 1038458
}

1013.2.1 = {
	holder = 1040232
}

1059.2.1 = {
	holder = 1041838
}

