200.2.1 = {
	holder = 1000043
	law = succ_seniority
	law = cognatic_succession
}

200.2.2 = {
	liege = d_karozel
}

200.2.3 = {
	holder = 1001348
	law = succ_seniority
	law = cognatic_succession
}

216.2.1 = {
	holder = 1001890
}

231.2.1 = {
	holder = 1003197
}

269.2.1 = {
	holder = 1004089
}

273.2.1 = {
	holder = 1005369
}

328.2.1 = {
	holder = 1006504
}

350.2.1 = {
	holder = 1008383
}

388.2.1 = {
	holder = 1009418
}

423.2.1 = {
	holder = 1011551
}

437.2.1 = {
	holder = 1012972
}

478.2.1 = {
	holder = 1014208
}

502.2.1 = {
	holder = 1015707
}

535.2.1 = {
	holder = 1016880
}

560.2.1 = {
	holder = 1018255
}

575.2.1 = {
	holder = 1018312
}

579.2.1 = {
	holder = 1020310
}

583.2.1 = {
	holder = 1020511
}

620.2.1 = {
	holder = 1021716
}

632.2.1 = {
	holder = 1021253
}

633.2.1 = {
	holder = 1019649
}

635.2.1 = {
	holder = 1022638
}

656.2.1 = {
	holder = 1023947
}

669.2.1 = {
	holder = 1023279
}

675.2.1 = {
	holder = 1023977
}

685.2.1 = {
	holder = 1025328
}

701.2.1 = {
	holder = 1025487
}

750.2.1 = {
	holder = 1026569
}

753.2.1 = {
	holder = 1026010
}

754.2.1 = {
	holder = 1028680
}

761.2.1 = {
	holder = 1028788
}

807.2.1 = {
	holder = 1029797
}

829.2.1 = {
	holder = 1031569
}

879.2.1 = {
	holder = 1033088
}

896.2.1 = {
	holder = 1034830
}

898.2.1 = {
	holder = 1033534
}

899.2.1 = {
	holder = 1035611
}

926.2.1 = {
	holder = 1035330
}

948.2.1 = {
	holder = 1036703
}

975.2.1 = {
	holder = 1037111
}

984.2.1 = {
	holder = 1036924
}

985.2.1 = {
	holder = 1039696
}

1025.2.1 = {
	holder = 1039698
}

1042.2.1 = {
	holder = 1041788
}

