200.2.1 = {
	holder = 1000018
	law = succ_feudal_elective
	law = agnatic_succession
}

200.2.2 = {
	holder = 1000602
	law = succ_feudal_elective
	law = agnatic_succession
}

200.2.3 = {
	liege = d_tesatsquds
}

200.2.4 = {
	liege = d_tesatsquds
}

200.2.5 = {
	holder = 1000598
	law = succ_feudal_elective
	law = agnatic_succession
}

226.2.1 = {
	holder = 1001549
}

267.2.1 = {
	holder = 1003398
}

292.2.1 = {
	holder = 1005349
}

317.2.1 = {
	holder = 1006526
}

348.2.1 = {
	holder = 1007783
}

350.2.1 = {
	holder = 1007814
}

350.2.2 = {
	holder = 1005596
}

356.2.1 = {
	holder = 1009207
}

385.2.1 = {
	holder = 1009742
}

409.2.1 = {
	holder = 1011008
}

443.2.1 = {
	holder = 1010648
}

447.2.1 = {
	holder = 1011558
}

448.2.1 = {
	holder = 1014005
}

488.2.1 = {
	holder = 1014282
}

522.2.1 = {
	holder = 1016755
}

562.2.1 = {
	holder = 1017951
}

574.2.1 = {
	holder = 1018381
}

601.2.1 = {
	holder = 1020158
}

635.2.1 = {
	holder = 1023014
}

650.2.1 = {
	holder = 1023161
}

656.2.1 = {
	holder = 1021867
}

657.2.1 = {
	holder = 1022134
}

679.2.1 = {
	holder = 1024067
}

712.2.1 = {
	holder = 1025797
}

713.2.1 = {
	holder = 1026714
}

730.4.1 = {
	law = succ_patrician_elective
}

