200.2.1 = {
	holder = 1000017
	law = succ_primogeniture
	law = agnatic_succession
}

200.2.2 = {
	holder = 1001150
	law = succ_primogeniture
	law = agnatic_succession
}

200.2.3 = {
	liege = d_qivozar
}

200.2.4 = {
	holder = 1001151
	law = succ_elective_gavelkind
	law = agnatic_succession
}

200.2.5 = {
	holder = 1001148
	law = succ_primogeniture
	law = agnatic_succession
}

202.2.1 = {
	holder = 1002832
}

241.2.1 = {
	holder = 1004336
}

260.2.1 = {
	holder = 1006335
}

282.2.1 = {
	holder = 1007889
}

329.2.1 = {
	holder = 1009065
}

344.2.1 = {
	holder = 1012651
}

355.2.1 = {
	holder = 1013169
}

359.2.1 = {
	holder = 1011317
}

359.2.2 = {
	holder = 1013709
}

500.2.1 = {
	holder = 1021417
}

513.2.1 = {
	holder = 1022555
}

526.2.1 = {
	holder = 1024079
}

537.2.1 = {
	holder = 1022625
}

553.2.1 = {
	holder = 1025187
}

595.2.1 = {
	holder = 1027358
}

612.2.1 = {
	holder = 1029246
}

621.2.1 = {
	holder = 1030818
}

676.2.1 = {
	holder = 1031912
}

678.2.1 = {
	holder = 1034533
}

681.2.1 = {
	holder = 1034450
}

725.2.1 = {
	holder = 1034502
}

743.2.1 = {
	holder = 1037943
}

771.2.1 = {
	holder = 1039984
}

777.2.1 = {
	holder = 1040964
}

783.2.1 = {
	holder = 1041316
}

784.2.1 = {
	holder = 1041385
}

803.2.1 = {
	holder = 1041894
}

853.2.1 = {
	holder = 1043674
}

877.2.1 = {
	holder = 1046449
}

