200.2.1 = {
	holder = 1000027
	law = succ_tanistry
	law = cognatic_succession
}

200.2.2 = {
	holder = 1001503
	law = succ_tanistry
	law = cognatic_succession
}

200.2.3 = {
	liege = d_raunasa
}

200.2.4 = {
	holder = 1001502
	law = succ_tanistry
	law = cognatic_succession
}

201.2.1 = {
	holder = 1002715
}

240.2.1 = {
	holder = 1003217
}

258.2.1 = {
	holder = 1006626
}

282.2.1 = {
	holder = 1008491
}

317.2.1 = {
	holder = 1010337
}

327.2.1 = {
	holder = 1011609
}

377.2.1 = {
	holder = 1014866
}

385.2.1 = {
	holder = 1015385
}

482.2.1 = {
	holder = 1021806
}

524.2.1 = {
	holder = 1022282
}

550.2.1 = {
	holder = 1024588
}

571.2.1 = {
	holder = 1026289
}

606.2.1 = {
	holder = 1027716
}

628.2.1 = {
	holder = 1030010
}

665.2.1 = {
	holder = 1033009
}

666.2.1 = {
	holder = 1033727
}

711.2.1 = {
	holder = 1034239
}

738.2.1 = {
	holder = 1036898
}

747.2.1 = {
	holder = 1038702
}

799.2.1 = {
	holder = 1039964
}

830.2.1 = {
	holder = 1043166
}

872.2.1 = {
	holder = 1044682
}

887.2.1 = {
	holder = 1047319
}

