200.2.1 = {
	holder = 1000033
	law = succ_open_elective
	law = cognatic_succession
}

200.2.2 = {
	holder = 1000935
	law = succ_open_elective
	law = cognatic_succession
}

200.2.3 = {
	liege = d_laparadai
}

200.2.4 = {
	holder = 1000936
	law = succ_primogeniture
	law = cognatic_succession
}

200.2.5 = {
	holder = 1000933
	law = succ_open_elective
	law = cognatic_succession
}

237.2.1 = {
	holder = 1002272
}

279.2.1 = {
	holder = 1004119
}

305.2.1 = {
	holder = 1006182
}

337.2.1 = {
	holder = 1008312
}

345.2.1 = {
	holder = 1008950
}

356.2.1 = {
	holder = 1009233
}

364.2.1 = {
	holder = 1009101
}

396.2.1 = {
	holder = 1011456
}

430.2.1 = {
	holder = 1011481
}

477.2.1 = {
	holder = 1013282
}

507.2.1 = {
	holder = 1015504
}

533.2.1 = {
	holder = 1016685
}

544.2.1 = {
	holder = 1018392
}

549.2.1 = {
	holder = 1016038
}

551.2.1 = {
	holder = 1018705
}

552.2.1 = {
	holder = 1019043
}

611.2.1 = {
	holder = 1020783
}

612.2.1 = {
	holder = 1019586
}

612.2.2 = {
	holder = 1021872
}

623.2.1 = {
	holder = 1022142
}

651.2.1 = {
	holder = 1022945
}

671.2.1 = {
	holder = 1024441
}

726.2.1 = {
	holder = 1025322
}

746.2.1 = {
	holder = 1027391
}

778.2.1 = {
	holder = 1028500
}

789.2.1 = {
	holder = 1029686
}

789.2.2 = {
	holder = 1030385
}

900.2.1 = {
	holder = 1034869
}

931.2.1 = {
	holder = 1035929
}

950.2.1 = {
	holder = 1038013
}

977.2.1 = {
	holder = 1038085
}

992.2.1 = {
	holder = 1039335
}

1043.2.1 = {
	holder = 1040297
}

