200.2.1 = {
	holder = 1000038
	law = succ_tanistry
	law = cognatic_succession
}

200.2.2 = {
	holder = 1001226
	law = succ_tanistry
	law = cognatic_succession
}

200.2.3 = {
	liege = d_ratungas
}

200.2.4 = {
	holder = 1001225
	law = succ_tanistry
	law = cognatic_succession
}

225.2.1 = {
	holder = 1002584
}

277.2.1 = {
	holder = 1003377
}

286.2.1 = {
	holder = 1005772
}

293.2.1 = {
	holder = 1005448
}

307.2.1 = {
	holder = 1006765
}

315.2.1 = {
	holder = 1007492
}

363.2.1 = {
	holder = 1007553
}

377.2.1 = {
	holder = 1009825
}

400.2.1 = {
	holder = 1011656
}

444.2.1 = {
	holder = 1012615
}

470.2.1 = {
	holder = 1013844
}

482.2.1 = {
	holder = 1015597
}

511.2.1 = {
	holder = 1015800
}

539.2.1 = {
	holder = 1017935
}

544.2.1 = {
	holder = 1018635
}

545.2.1 = {
	holder = 1018696
}

551.2.1 = {
	holder = 1017334
}

574.2.1 = {
	holder = 1018146
}

584.2.1 = {
	holder = 1020548
}

600.2.1 = {
	holder = 1020555
}

633.2.1 = {
	holder = 1021412
}

652.2.1 = {
	holder = 1020897
}

656.2.1 = {
	holder = 1021857
}

685.2.1 = {
	holder = 1024082
}

686.2.1 = {
	holder = 1025386
}

740.2.1 = {
	holder = 1025443
}

740.2.2 = {
	holder = 1027961
}

902.2.1 = {
	holder = 1035768
}

1006.2.1 = {
	holder = 1037960
}

1012.2.1 = {
	holder = 1040462
}

1034.2.1 = {
	holder = 1041350
}

