200.2.1 = {
	holder = 1000034
	law = succ_elective_gavelkind
	law = cognatic_succession
}

200.2.2 = {
	liege = d_atern
}

200.2.3 = {
	liege = d_bistin
}

200.2.4 = {
	holder = 1001862
	law = succ_gavelkind
	law = agnatic_succession
}

236.2.1 = {
	holder = 1003424
}

244.2.1 = {
	holder = 1005348
}

260.2.1 = {
	holder = 1006572
}

302.2.1 = {
	holder = 1009636
}

348.2.1 = {
	holder = 1011098
}

379.2.1 = {
	holder = 1014281
}

391.2.1 = {
	holder = 1015759
}

417.2.1 = {
	holder = 1015881
}

444.2.1 = {
	holder = 1018790
}

460.2.1 = {
	holder = 1018935
}

479.2.1 = {
	holder = 1020573
}

490.2.1 = {
	holder = 1022351
}

507.2.1 = {
	holder = 1022096
}

521.2.1 = {
	holder = 1023635
}

526.2.1 = {
	holder = 1024668
}

531.2.1 = {
	holder = 1025039
}

574.2.1 = {
	holder = 1025520
}

579.2.1 = {
	holder = 1027859
}

590.2.1 = {
	holder = 1027739
}

606.2.1 = {
	holder = 1029193
}

613.2.1 = {
	holder = 1029823
}

614.2.1 = {
	holder = 1027927
}

634.2.1 = {
	holder = 1031437
}

643.2.1 = {
	holder = 1028825
}

643.2.2 = {
	holder = 1032249
}

644.2.1 = {
	holder = 1029750
}

645.2.1 = {
	holder = 1032381
}

661.2.1 = {
	holder = 1032383
}

687.2.1 = {
	holder = 1033071
}

693.2.1 = {
	holder = 1033070
}

711.2.1 = {
	holder = 1035506
}

713.2.1 = {
	holder = 1036491
}

743.2.1 = {
	holder = 1038777
}

795.2.1 = {
	holder = 1039020
}

798.2.1 = {
	holder = 1039073
}

799.2.1 = {
	holder = 1042312
}

835.2.1 = {
	holder = 1042488
}

854.2.1 = {
	holder = 1044900
}

891.2.1 = {
	holder = 1046047
}

