200.2.1 = {
	holder = 1000032
	law = succ_primogeniture
	law = agnatic_succession
}

200.2.2 = {
	liege = d_lyilamar
}

200.2.3 = {
	liege = d_lyilamar
}

200.2.4 = {
	holder = 1001038
	law = succ_feudal_elective
	law = cognatic_succession
}

255.2.1 = {
	holder = 1003668
}

271.2.1 = {
	holder = 1004468
}

283.2.1 = {
	holder = 1005919
}

290.2.1 = {
	holder = 1006304
}

301.2.1 = {
	holder = 1006486
}

322.2.1 = {
	holder = 1005919
}

322.2.2 = {
	holder = 1007871
}

347.2.1 = {
	holder = 1007900
}

365.2.1 = {
	holder = 1009281
}

407.2.1 = {
	holder = 1010186
}

444.2.1 = {
	holder = 1012730
}

446.2.1 = {
	holder = 1011907
}

467.2.1 = {
	holder = 1013283
}

502.2.1 = {
	holder = 1015922
}

505.2.1 = {
	holder = 1016720
}

530.2.1 = {
	holder = 1016822
}

573.2.1 = {
	holder = 1017963
}

589.2.1 = {
	holder = 1020592
}

616.2.1 = {
	holder = 1021999
}

643.2.1 = {
	holder = 1022713
}

644.2.1 = {
	holder = 1022991
}

653.2.1 = {
	holder = 1022765
}

653.2.2 = {
	holder = 1023777
}

693.2.1 = {
	holder = 1023781
}

699.2.1 = {
	holder = 1025877
}

752.2.1 = {
	holder = 1028582
}

756.2.1 = {
	holder = 1028722
}

778.2.1 = {
	holder = 1029898
}

825.2.1 = {
	holder = 1029974
}

833.2.1 = {
	holder = 1032556
}

896.2.1 = {
	holder = 1033686
}

924.2.1 = {
	holder = 1035606
}

978.2.1 = {
	holder = 1036871
}

985.2.1 = {
	holder = 1039448
}

988.2.1 = {
	holder = 1038392
}

989.2.1 = {
	holder = 1039845
}

1034.2.1 = {
	holder = 1039946
}

1042.2.1 = {
	holder = 1042291
}

