200.2.1 = {
	holder = 1000014
	law = succ_elective_gavelkind
	law = agnatic_succession
}

200.2.2 = {
	holder = 1000920
	law = succ_elective_gavelkind
	law = agnatic_succession
}

200.2.3 = {
	liege = d_navatru
}

200.2.4 = {
	holder = 1000919
	law = succ_elective_gavelkind
	law = agnatic_succession
}

246.2.1 = {
	holder = 1005001
}

249.2.1 = {
	holder = 1006181
}

283.2.1 = {
	holder = 1007588
}

287.2.1 = {
	holder = 1007319
}

287.2.2 = {
	holder = 1008799
}

306.2.1 = {
	holder = 1009792
}

336.2.1 = {
	holder = 1011974
}

354.2.1 = {
	holder = 1010230
}

360.2.1 = {
	holder = 1011281
}

374.2.1 = {
	holder = 1013904
}

387.2.1 = {
	holder = 1015278
}

393.2.1 = {
	holder = 1015244
}

439.2.1 = {
	holder = 1015616
}

447.2.1 = {
	holder = 1019252
}

468.2.1 = {
	holder = 1020338
}

469.2.1 = {
	holder = 1018281
}

491.2.1 = {
	holder = 1019854
}

496.2.1 = {
	holder = 1022583
}

548.2.1 = {
	holder = 1023829
}

566.2.1 = {
	holder = 1026244
}

578.2.1 = {
	holder = 1027870
}

631.2.1 = {
	holder = 1029315
}

651.2.1 = {
	holder = 1031837
}

675.2.1 = {
	holder = 1032968
}

696.2.1 = {
	holder = 1035091
}

709.2.1 = {
	holder = 1034836
}

738.2.1 = {
	holder = 1036333
}

748.2.1 = {
	holder = 1038978
}

787.2.1 = {
	holder = 1040332
}

797.2.1 = {
	holder = 1041766
}

847.2.1 = {
	holder = 1042724
}

849.2.1 = {
	holder = 1044020
}

888.2.1 = {
	holder = 1045971
}

