200.2.1 = {
	holder = 1000003
	law = succ_tanistry
	law = cognatic_succession
}

200.2.2 = {
	holder = 1000331
	law = succ_tanistry
	law = cognatic_succession
}

200.2.3 = {
	liege = d_namutasia
}

200.2.4 = {
	liege = d_nakuel
}

200.2.5 = {
	holder = 1000332
	law = succ_tanistry
	law = cognatic_succession
}

235.2.1 = {
	holder = 1003748
}

257.2.1 = {
	holder = 1005511
}

263.2.1 = {
	holder = 1006994
}

277.2.1 = {
	holder = 1006972
}

277.2.2 = {
	holder = 1008189
}

288.2.1 = {
	holder = 1008752
}

289.2.1 = {
	holder = 1008973
}

293.2.1 = {
	holder = 1007309
}

297.2.1 = {
	holder = 1009508
}

301.2.1 = {
	holder = 1006004
}

302.2.1 = {
	holder = 1009910
}

329.2.1 = {
	holder = 1010000
}

383.2.1 = {
	holder = 1015219
}

429.2.1 = {
	holder = 1015346
}

439.2.1 = {
	holder = 1018680
}

445.2.1 = {
	holder = 1017092
}

445.2.2 = {
	holder = 1015223
}

462.2.1 = {
	holder = 1019455
}

476.2.1 = {
	holder = 1021440
}

512.2.1 = {
	holder = 1021554
}

534.2.1 = {
	holder = 1024544
}

549.2.1 = {
	holder = 1025891
}

599.2.1 = {
	holder = 1027310
}

614.2.1 = {
	holder = 1029856
}

645.2.1 = {
	holder = 1030909
}

670.2.1 = {
	holder = 1032466
}

688.2.1 = {
	holder = 1034026
}

705.2.1 = {
	holder = 1035231
}

757.2.1 = {
	holder = 1036938
}

777.2.1 = {
	holder = 1039739
}

823.2.1 = {
	holder = 1041263
}

825.2.1 = {
	holder = 1042704
}

842.2.1 = {
	holder = 1045098
}

843.2.1 = {
	holder = 1045219
}

868.2.1 = {
	holder = 1045989
}

889.2.1 = {
	holder = 1047116
}

