200.2.1 = {
	holder = 1000039
	law = succ_feudal_elective
	law = cognatic_succession
}

200.2.2 = {
	holder = 1001289
	law = succ_feudal_elective
	law = cognatic_succession
}

200.2.3 = {
	liege = d_taradga
}

200.2.4 = {
	holder = 1001288
	law = succ_feudal_elective
	law = cognatic_succession
}

208.2.1 = {
	holder = 1001407
}

208.2.2 = {
	holder = 1002436
}

210.2.1 = {
	holder = 1002487
}

229.2.1 = {
	holder = 1002848
}

230.2.1 = {
	holder = 1003477
}

235.2.1 = {
	holder = 1002848
}

243.2.1 = {
	holder = 1002063
}

245.2.1 = {
	holder = 1002848
}

245.2.2 = {
	holder = 1001880
}

255.2.1 = {
	holder = 1004655
}

289.2.1 = {
	holder = 1006256
}

341.2.1 = {
	holder = 1006296
}

348.2.1 = {
	holder = 1008081
}

349.2.1 = {
	holder = 1009128
}

382.2.1 = {
	holder = 1009197
}

398.2.1 = {
	holder = 1010979
}

420.2.1 = {
	holder = 1012076
}

433.2.1 = {
	holder = 1013206
}

461.2.1 = {
	holder = 1013171
}

493.2.1 = {
	holder = 1013958
}

494.2.1 = {
	holder = 1016168
}

600.2.1 = {
	holder = 1018358
}

605.2.1 = {
	holder = 1018041
}

621.2.1 = {
	holder = 1021498
}

627.2.1 = {
	holder = 1019774
}

628.2.1 = {
	holder = 1022639
}

634.2.1 = {
	holder = 1021575
}

634.2.2 = {
	holder = 1022971
}

800.2.1 = {
	holder = 1028074
}

800.2.2 = {
	holder = 1030908
}

900.2.1 = {
	holder = 1034569
}

941.2.1 = {
	holder = 1035384
}

955.2.1 = {
	holder = 1037921
}

956.2.1 = {
	holder = 1038309
}

1066.2.1 = {
	holder = 1042742
}

