200.2.1 = {
	holder = 1000015
	law = succ_tanistry
	law = agnatic_succession
}

200.2.2 = {
	holder = 1000016
	law = succ_elective_gavelkind
	law = agnatic_succession
}

200.2.3 = {
	holder = 1001099
	law = succ_elective_gavelkind
	law = agnatic_succession
}

200.2.4 = {
	liege = d_laapare
}

200.2.5 = {
	holder = 1001098
	law = succ_elective_gavelkind
	law = agnatic_succession
}

248.2.1 = {
	holder = 1002296
}

263.2.1 = {
	holder = 1003022
}

263.2.2 = {
	holder = 1007198
}

305.2.1 = {
	holder = 1007724
}

311.2.1 = {
	holder = 1009751
}

311.2.2 = {
	holder = 1010498
}

325.2.1 = {
	holder = 1010857
}

349.2.1 = {
	holder = 1011930
}

367.2.1 = {
	holder = 1013091
}

379.2.1 = {
	holder = 1015008
}

380.2.1 = {
	holder = 1013091
}

401.2.1 = {
	holder = 1015107
}

402.2.1 = {
	holder = 1016530
}

500.2.1 = {
	holder = 1020081
}

507.2.1 = {
	holder = 1023430
}

544.2.1 = {
	holder = 1024364
}

547.2.1 = {
	holder = 1025962
}

551.2.1 = {
	holder = 1023544
}

564.2.1 = {
	holder = 1026433
}

572.2.1 = {
	holder = 1025504
}

573.2.1 = {
	holder = 1023986
}

603.2.1 = {
	holder = 1027705
}

627.2.1 = {
	holder = 1029939
}

668.2.1 = {
	holder = 1031411
}

680.2.1 = {
	holder = 1034570
}

703.2.1 = {
	holder = 1032865
}

705.2.1 = {
	holder = 1034165
}

721.2.1 = {
	holder = 1036402
}

757.2.1 = {
	holder = 1037839
}

782.2.1 = {
	holder = 1039261
}

799.2.1 = {
	holder = 1041833
}

831.2.1 = {
	holder = 1043119
}

873.2.1 = {
	holder = 1044774
}

884.2.1 = {
	holder = 1047210
}

