200.2.1 = {
	holder = 1000013
	law = succ_gavelkind
	law = cognatic_succession
}

200.2.2 = {
	holder = 1000373
	law = succ_gavelkind
	law = cognatic_succession
}

200.2.3 = {
	liege = d_roltaray
}

200.2.4 = {
	holder = 1000372
	law = succ_gavelkind
	law = cognatic_succession
}

211.2.1 = {
	holder = 1001386
}

252.2.1 = {
	holder = 1001902
}

265.2.1 = {
	holder = 1005149
}

272.2.1 = {
	holder = 1005457
}

282.2.1 = {
	holder = 1005940
}

286.2.1 = {
	holder = 1006117
}

315.2.1 = {
	holder = 1006299
}

320.2.1 = {
	holder = 1007759
}

383.2.1 = {
	holder = 1008586
}

398.2.1 = {
	holder = 1011555
}

447.2.1 = {
	holder = 1011620
}

472.2.1 = {
	holder = 1013965
}

510.2.1 = {
	holder = 1015113
}

515.2.1 = {
	holder = 1017119
}

550.2.1 = {
	holder = 1018530
}

553.2.1 = {
	holder = 1018797
}

553.2.2 = {
	holder = 1019092
}

700.2.1 = {
	holder = 1025929
}

711.2.1 = {
	holder = 1024148
}

711.2.2 = {
	holder = 1026619
}

750.2.1 = {
	holder = 1026898
}

768.2.1 = {
	holder = 1028653
}

835.2.1 = {
	holder = 1032613
}

873.2.1 = {
	holder = 1032868
}

901.2.1 = {
	holder = 1034809
}

944.2.1 = {
	holder = 1035911
}

964.2.1 = {
	holder = 1037777
}

1010.2.1 = {
	holder = 1039029
}

1010.2.2 = {
	holder = 1040874
}

1013.2.1 = {
	holder = 1040933
}

1063.2.1 = {
	holder = 1041686
}

