200.2.1 = {
	holder = 1000032
	law = succ_feudal_elective
	law = cognatic_succession
}

200.2.2 = {
	holder = 1001613
	law = succ_feudal_elective
	law = cognatic_succession
}

200.2.3 = {
	liege = d_riuneel
}

200.2.4 = {
	holder = 1001612
	law = succ_feudal_elective
	law = cognatic_succession
}

230.2.1 = {
	holder = 1002723
}

246.2.1 = {
	holder = 1005620
}

256.2.1 = {
	holder = 1005158
}

258.2.1 = {
	holder = 1006864
}

298.2.1 = {
	holder = 1007997
}

326.2.1 = {
	holder = 1010892
}

358.2.1 = {
	holder = 1012269
}

374.2.1 = {
	holder = 1013908
}

421.2.1 = {
	holder = 1015570
}

423.2.1 = {
	holder = 1017061
}

469.2.1 = {
	holder = 1018808
}

481.2.1 = {
	holder = 1020444
}

482.2.1 = {
	holder = 1021834
}

502.2.1 = {
	holder = 1022232
}

539.2.1 = {
	holder = 1023253
}

563.2.1 = {
	holder = 1025651
}

575.2.1 = {
	holder = 1027146
}

605.2.1 = {
	holder = 1028510
}

621.2.1 = {
	holder = 1030081
}

623.2.1 = {
	holder = 1028317
}

623.2.2 = {
	holder = 1030944
}

652.2.1 = {
	holder = 1031115
}

659.2.1 = {
	holder = 1029567
}

660.2.1 = {
	holder = 1033348
}

663.2.1 = {
	holder = 1030821
}

663.2.2 = {
	holder = 1033572
}

680.2.1 = {
	holder = 1033733
}

700.2.1 = {
	holder = 1034956
}

741.2.1 = {
	holder = 1038457
}

751.2.1 = {
	holder = 1035743
}

752.2.1 = {
	holder = 1039304
}

797.2.1 = {
	holder = 1039372
}

817.2.1 = {
	holder = 1042307
}

831.2.1 = {
	holder = 1041819
}

852.2.1 = {
	holder = 1044167
}

869.2.1 = {
	holder = 1046283
}

875.2.1 = {
	holder = 1044234
}

875.2.2 = {
	holder = 1047258
}

884.2.1 = {
	holder = 1047862
}

