200.2.1 = {
	holder = 1000000
	law = succ_elective_gavelkind
	law = agnatic_succession
}

200.2.2 = {
	holder = 1000081
	law = succ_elective_gavelkind
	law = agnatic_succession
}

200.2.3 = {
	liege = d_naniisa
}

200.2.4 = {
	holder = 1000082
	law = succ_elective_gavelkind
	law = agnatic_succession
}

200.2.5 = {
	holder = 1000079
	law = succ_elective_gavelkind
	law = agnatic_succession
}

236.2.1 = {
	holder = 1003361
}

252.2.1 = {
	holder = 1006373
}

270.2.1 = {
	holder = 1007128
}

290.2.1 = {
	holder = 1008271
}

335.2.1 = {
	holder = 1009595
}

358.2.1 = {
	holder = 1012385
}

387.2.1 = {
	holder = 1013636
}

411.2.1 = {
	holder = 1015653
}

432.2.1 = {
	holder = 1017364
}

461.2.1 = {
	holder = 1018956
}

507.2.1 = {
	holder = 1021176
}

532.2.1 = {
	holder = 1023835
}

550.2.1 = {
	holder = 1025675
}

588.2.1 = {
	holder = 1026732
}

603.2.1 = {
	holder = 1029525
}

619.2.1 = {
	holder = 1027012
}

620.2.1 = {
	holder = 1030693
}

623.2.1 = {
	holder = 1030891
}

670.2.1 = {
	holder = 1031846
}

704.2.1 = {
	holder = 1034391
}

712.2.1 = {
	holder = 1036794
}

718.2.1 = {
	holder = 1036983
}

721.2.1 = {
	holder = 1036442
}

734.2.1 = {
	holder = 1038130
}

755.2.1 = {
	holder = 1038203
}

796.2.1 = {
	holder = 1040557
}

832.2.1 = {
	holder = 1042330
}

843.2.1 = {
	holder = 1045212
}

891.2.1 = {
	holder = 1046175
}

899.2.1 = {
	holder = 1048800
}

