200.2.1 = {
	holder = 1000010
	law = succ_elective_gavelkind
	law = agnatic_succession
}

200.2.2 = {
	holder = 1000703
	law = succ_elective_gavelkind
	law = agnatic_succession
}

200.2.3 = {
	liege = d_anibalo
}

200.2.4 = {
	holder = 1000702
	law = succ_elective_gavelkind
	law = agnatic_succession
}

222.2.1 = {
	holder = 1002652
}

229.2.1 = {
	holder = 1004818
}

267.2.1 = {
	holder = 1004876
}

302.2.1 = {
	holder = 1007950
}

309.2.1 = {
	holder = 1007651
}

310.2.1 = {
	holder = 1006366
}

315.2.1 = {
	holder = 1009445
}

328.2.1 = {
	holder = 1011176
}

357.2.1 = {
	holder = 1012793
}

375.2.1 = {
	holder = 1014303
}

400.2.1 = {
	holder = 1011143
}

500.2.1 = {
	holder = 1022581
}

506.2.1 = {
	holder = 1022607
}

551.2.1 = {
	holder = 1023671
}

597.2.1 = {
	holder = 1027394
}

625.2.1 = {
	holder = 1031064
}

645.2.1 = {
	holder = 1032140
}

654.2.1 = {
	holder = 1030664
}

654.2.2 = {
	holder = 1030784
}

655.2.1 = {
	holder = 1029172
}

655.2.2 = {
	holder = 1033027
}

680.2.1 = {
	holder = 1033049
}

681.2.1 = {
	holder = 1034697
}

703.2.1 = {
	holder = 1035723
}

707.2.1 = {
	holder = 1035827
}

707.2.2 = {
	holder = 1033899
}

708.2.1 = {
	holder = 1036574
}

735.2.1 = {
	holder = 1036594
}

764.2.1 = {
	holder = 1036397
}

770.2.1 = {
	holder = 1040411
}

784.2.1 = {
	holder = 1038817
}

785.2.1 = {
	holder = 1041458
}

821.2.1 = {
	holder = 1041856
}

831.2.1 = {
	holder = 1044076
}

862.2.1 = {
	holder = 1045112
}

