200.2.1 = {
	holder = 1000037
	law = succ_primogeniture
	law = cognatic_succession
}

200.2.2 = {
	liege = d_babunno
}

200.2.3 = {
	liege = d_kaviif
}

200.2.4 = {
	holder = 1001106
	law = succ_primogeniture
	law = cognatic_succession
}

203.2.1 = {
	holder = 1001110
}

203.2.2 = {
	holder = 1002057
}

239.2.1 = {
	holder = 1001969
}

257.2.1 = {
	holder = 1004216
}

281.2.1 = {
	holder = 1005448
}

294.2.1 = {
	holder = 1006492
}

315.2.1 = {
	holder = 1006548
}

317.2.1 = {
	holder = 1006765
}

317.2.2 = {
	holder = 1007599
}

318.2.1 = {
	holder = 1007653
}

369.2.1 = {
	holder = 1008460
}

393.2.1 = {
	holder = 1010682
}

393.2.2 = {
	holder = 1011298
}

396.2.1 = {
	holder = 1010051
}

397.2.1 = {
	holder = 1009721
}

401.2.1 = {
	holder = 1011719
}

407.2.1 = {
	holder = 1012023
}

457.2.1 = {
	holder = 1012836
}

459.2.1 = {
	holder = 1012792
}

459.2.2 = {
	holder = 1014505
}

491.2.1 = {
	holder = 1014108
}

493.2.1 = {
	holder = 1014824
}

516.2.1 = {
	holder = 1014553
}

522.2.1 = {
	holder = 1017544
}

563.2.1 = {
	holder = 1018302
}

565.2.1 = {
	holder = 1019590
}

570.2.1 = {
	holder = 1017032
}

581.2.1 = {
	holder = 1018026
}

583.2.1 = {
	holder = 1018146
}

588.2.1 = {
	holder = 1020294
}

604.2.1 = {
	holder = 1021170
}

628.2.1 = {
	holder = 1021963
}

638.2.1 = {
	holder = 1023137
}

687.2.1 = {
	holder = 1023231
}

699.2.1 = {
	holder = 1024774
}

699.2.2 = {
	holder = 1026011
}

736.2.1 = {
	holder = 1026186
}

738.2.1 = {
	holder = 1026924
}

738.2.2 = {
	holder = 1024364
}

762.2.1 = {
	holder = 1027120
}

763.2.1 = {
	holder = 1029130
}

764.2.1 = {
	holder = 1026858
}

765.2.1 = {
	holder = 1029215
}

817.2.1 = {
	holder = 1029268
}

821.2.1 = {
	holder = 1031832
}

837.2.1 = {
	holder = 1031890
}

837.2.2 = {
	holder = 1030900
}

838.2.1 = {
	holder = 1032012
}

839.2.1 = {
	holder = 1032844
}

850.2.1 = {
	holder = 1033114
}

873.2.1 = {
	holder = 1034068
}

916.2.1 = {
	holder = 1034788
}

952.2.1 = {
	holder = 1036472
}

978.2.1 = {
	holder = 1038404
}

1009.2.1 = {
	holder = 1039598
}

1010.2.1 = {
	holder = 1037265
}

1029.2.1 = {
	holder = 1037623
}

1029.2.2 = {
	holder = 1041860
}

1042.2.1 = {
	holder = 1041884
}

