200.2.1 = {
	holder = 1000033
	law = succ_open_elective
	law = cognatic_succession
}

200.2.2 = {
	holder = 1001024
	law = succ_open_elective
	law = cognatic_succession
}

200.2.3 = {
	liege = d_sodai
}

200.2.4 = {
	holder = 1001022
	law = succ_open_elective
	law = cognatic_succession
}

218.2.1 = {
	holder = 1002053
}

260.2.1 = {
	holder = 1003718
}

283.2.1 = {
	holder = 1005487
}

292.2.1 = {
	holder = 1004796
}

292.2.2 = {
	holder = 1006398
}

302.2.1 = {
	holder = 1006485
}

309.2.1 = {
	holder = 1005992
}

315.2.1 = {
	holder = 1007487
}

343.2.1 = {
	holder = 1007648
}

385.2.1 = {
	holder = 1008988
}

397.2.1 = {
	holder = 1011440
}

405.2.1 = {
	holder = 1011199
}

406.2.1 = {
	holder = 1011962
}

422.2.1 = {
	holder = 1012334
}

448.2.1 = {
	holder = 1013287
}

490.2.1 = {
	holder = 1014199
}

510.2.1 = {
	holder = 1016155
}

522.2.1 = {
	holder = 1016819
}

523.2.1 = {
	holder = 1015290
}

543.2.1 = {
	holder = 1017668
}

580.2.1 = {
	holder = 1019337
}

630.2.1 = {
	holder = 1021906
}

631.2.1 = {
	holder = 1022788
}

668.2.1 = {
	holder = 1023500
}

707.2.1 = {
	holder = 1025378
}

743.2.1 = {
	holder = 1026647
}

776.2.1 = {
	holder = 1027443
}

789.2.1 = {
	holder = 1029015
}

792.2.1 = {
	holder = 1030428
}

804.2.1 = {
	holder = 1029990
}

804.2.2 = {
	holder = 1031142
}

805.2.1 = {
	holder = 1029830
}

806.2.1 = {
	holder = 1031230
}

844.2.1 = {
	holder = 1031388
}

874.2.1 = {
	holder = 1034415
}

888.2.1 = {
	holder = 1034742
}

890.2.1 = {
	holder = 1034163
}

890.2.2 = {
	holder = 1035187
}

911.2.1 = {
	holder = 1035449
}

947.2.1 = {
	holder = 1036653
}

973.2.1 = {
	holder = 1038140
}

984.2.1 = {
	holder = 1038392
}

989.2.1 = {
	holder = 1039846
}

1008.2.1 = {
	holder = 1040454
}

1010.2.1 = {
	holder = 1039210
}

1031.2.1 = {
	holder = 1040480
}

1050.2.1 = {
	holder = 1042188
}

1056.2.1 = {
	holder = 1043000
}

1060.2.1 = {
	holder = 1040992
}

1061.2.1 = {
	holder = 1043339
}

