200.2.1 = {
	holder = 1000017
	law = succ_elective_gavelkind
	law = agnatic_succession
}

200.2.2 = {
	holder = 1001129
	law = succ_primogeniture
	law = agnatic_succession
}

200.2.3 = {
	liege = d_tivudha
}

200.2.4 = {
	holder = 1001127
	law = succ_primogeniture
	law = agnatic_succession
}

211.2.1 = {
	holder = 1002685
}

255.2.1 = {
	holder = 1004769
}

296.2.1 = {
	holder = 1007015
}

328.2.1 = {
	holder = 1010018
}

349.2.1 = {
	holder = 1012534
}

370.2.1 = {
	holder = 1014271
}

387.2.1 = {
	holder = 1014305
}

400.2.1 = {
	holder = 1016379
}

425.2.1 = {
	holder = 1016494
}

453.2.1 = {
	holder = 1018222
}

457.2.1 = {
	holder = 1020043
}

486.2.1 = {
	holder = 1021570
}

534.2.1 = {
	holder = 1023479
}

557.2.1 = {
	holder = 1025642
}

624.2.1 = {
	holder = 1026901
}

628.2.1 = {
	holder = 1030670
}

630.2.1 = {
	holder = 1030394
}

631.2.1 = {
	holder = 1028499
}

670.2.1 = {
	holder = 1031882
}

671.2.1 = {
	holder = 1034040
}

686.2.1 = {
	holder = 1034105
}

706.2.1 = {
	holder = 1036410
}

745.2.1 = {
	holder = 1036414
}

760.2.1 = {
	holder = 1039427
}

806.2.1 = {
	holder = 1042816
}

857.2.1 = {
	holder = 1042945
}

858.2.1 = {
	holder = 1043224
}

859.2.1 = {
	holder = 1046302
}

863.2.1 = {
	holder = 1044432
}

864.2.1 = {
	holder = 1046625
}

865.2.1 = {
	holder = 1044432
}

865.2.2 = {
	holder = 1046686
}

882.2.1 = {
	holder = 1047307
}

