200.2.1 = {
	holder = 1000014
	law = succ_elective_gavelkind
	law = agnatic_succession
}

200.2.2 = {
	holder = 1000885
	law = succ_elective_gavelkind
	law = agnatic_succession
}

200.2.3 = {
	liege = d_lovsataksa
}

200.2.4 = {
	holder = 1000884
	law = succ_elective_gavelkind
	law = agnatic_succession
}

235.2.1 = {
	holder = 1002668
}

240.2.1 = {
	holder = 1004442
}

240.2.2 = {
	holder = 1005525
}

276.2.1 = {
	holder = 1005604
}

327.2.1 = {
	holder = 1008724
}

332.2.1 = {
	holder = 1011649
}

384.2.1 = {
	holder = 1012676
}

386.2.1 = {
	holder = 1015361
}

393.2.1 = {
	holder = 1014463
}

414.2.1 = {
	holder = 1014972
}

430.2.1 = {
	holder = 1017799
}

477.2.1 = {
	holder = 1019132
}

484.2.1 = {
	holder = 1021648
}

547.2.1 = {
	holder = 1022742
}

562.2.1 = {
	holder = 1025639
}

563.2.1 = {
	holder = 1027031
}

700.2.1 = {
	holder = 1035475
}

721.2.1 = {
	holder = 1036670
}

743.2.1 = {
	holder = 1037005
}

743.2.2 = {
	holder = 1038788
}

744.2.1 = {
	holder = 1038822
}

790.2.1 = {
	holder = 1039813
}

800.2.1 = {
	holder = 1041984
}

875.2.1 = {
	holder = 1043564
}

