200.2.1 = {
	holder = 1000000
	law = succ_elective_gavelkind
	law = agnatic_succession
}

200.2.2 = {
	holder = 1000108
	law = succ_elective_gavelkind
	law = agnatic_succession
}

200.2.3 = {
	liege = d_ratepin
}

200.2.4 = {
	holder = 1000107
	law = succ_elective_gavelkind
	law = agnatic_succession
}

265.2.1 = {
	holder = 1002771
}

273.2.1 = {
	holder = 1007411
}

334.2.1 = {
	holder = 1011261
}

367.2.1 = {
	holder = 1012324
}

379.2.1 = {
	holder = 1014492
}

390.2.1 = {
	holder = 1015519
}

438.2.1 = {
	holder = 1016806
}

458.2.1 = {
	holder = 1019559
}

482.2.1 = {
	holder = 1021079
}

498.2.1 = {
	holder = 1022173
}

539.2.1 = {
	holder = 1023819
}

555.2.1 = {
	holder = 1025931
}

576.2.1 = {
	holder = 1027156
}

611.2.1 = {
	holder = 1028470
}

641.2.1 = {
	holder = 1030699
}

657.2.1 = {
	holder = 1032169
}

674.2.1 = {
	holder = 1033684
}

707.2.1 = {
	holder = 1034968
}

720.2.1 = {
	holder = 1036780
}

736.2.1 = {
	holder = 1038051
}

763.2.1 = {
	holder = 1039190
}

802.2.1 = {
	holder = 1040405
}

831.2.1 = {
	holder = 1044113
}

888.2.1 = {
	holder = 1045319
}

893.2.1 = {
	holder = 1048256
}

