200.2.1 = {
	holder = 1000031
	law = succ_ultimogeniture
	law = agnatic_succession
}

200.2.2 = {
	holder = 1000881
	law = succ_ultimogeniture
	law = agnatic_succession
}

200.2.3 = {
	liege = d_tudida
}

200.2.4 = {
	holder = 1000882
	law = succ_primogeniture
	law = cognatic_succession
}

200.2.5 = {
	holder = 1000877
	law = succ_ultimogeniture
	law = agnatic_succession
}

225.2.1 = {
	holder = 1000851
}

238.2.1 = {
	holder = 1002734
}

261.2.1 = {
	holder = 1003929
}

284.2.1 = {
	holder = 1005084
}

320.2.1 = {
	holder = 1006278
}

331.2.1 = {
	holder = 1007307
}

331.2.2 = {
	holder = 1008327
}

351.2.1 = {
	holder = 1008367
}

377.2.1 = {
	holder = 1009546
}

414.2.1 = {
	holder = 1010625
}

425.2.1 = {
	holder = 1012687
}

452.2.1 = {
	holder = 1013466
}

471.2.1 = {
	holder = 1014499
}

487.2.1 = {
	holder = 1015838
}

549.2.1 = {
	holder = 1016066
}

550.2.1 = {
	holder = 1018932
}

609.2.1 = {
	holder = 1019077
}

616.2.1 = {
	holder = 1021765
}

616.2.2 = {
	holder = 1022052
}

629.2.1 = {
	holder = 1022237
}

677.2.1 = {
	holder = 1023267
}

692.2.1 = {
	holder = 1025023
}

700.2.1 = {
	holder = 1025952
}

714.2.1 = {
	holder = 1024937
}

724.2.1 = {
	holder = 1025739
}

760.2.1 = {
	holder = 1027044
}

766.2.1 = {
	holder = 1029228
}

770.2.1 = {
	holder = 1029492
}

804.2.1 = {
	holder = 1029614
}

844.2.1 = {
	holder = 1031502
}

862.2.1 = {
	holder = 1033908
}

893.2.1 = {
	holder = 1034698
}

913.2.1 = {
	holder = 1036272
}

963.2.1 = {
	holder = 1036364
}

972.2.1 = {
	holder = 1038815
}

1019.2.1 = {
	holder = 1039592
}

1026.2.1 = {
	holder = 1041385
}

