200.2.1 = {
	holder = 1000039
	law = succ_feudal_elective
	law = cognatic_succession
}

200.2.2 = {
	holder = 1001259
	law = succ_feudal_elective
	law = cognatic_succession
}

200.2.3 = {
	liege = d_lemun
}

200.2.4 = {
	liege = d_koradga
}

200.2.5 = {
	holder = 1001267
	law = succ_feudal_elective
	law = cognatic_succession
}

219.2.1 = {
	holder = 1002358
}

227.2.1 = {
	holder = 1001885
}

280.2.1 = {
	holder = 1004024
}

281.2.1 = {
	holder = 1005882
}

281.2.2 = {
	holder = 1002718
}

281.2.3 = {
	holder = 1005896
}

314.2.1 = {
	holder = 1006501
}

351.2.1 = {
	holder = 1007958
}

363.2.1 = {
	holder = 1009338
}

397.2.1 = {
	holder = 1010881
}

436.2.1 = {
	holder = 1012618
}

440.2.1 = {
	holder = 1012792
}

441.2.1 = {
	holder = 1013631
}

460.2.1 = {
	holder = 1014550
}

461.2.1 = {
	holder = 1014252
}

462.2.1 = {
	holder = 1014626
}

509.2.1 = {
	holder = 1014936
}

511.2.1 = {
	holder = 1017032
}

581.2.1 = {
	holder = 1018026
}

583.2.1 = {
	holder = 1018146
}

584.2.1 = {
	holder = 1020550
}

601.2.1 = {
	holder = 1020597
}

602.2.1 = {
	holder = 1018781
}

610.2.1 = {
	holder = 1020897
}

611.2.1 = {
	holder = 1021796
}

639.2.1 = {
	holder = 1023183
}

675.2.1 = {
	holder = 1023323
}

686.2.1 = {
	holder = 1024873
}

694.2.1 = {
	holder = 1025528
}

695.2.1 = {
	holder = 1025836
}

733.2.1 = {
	holder = 1026924
}

734.2.1 = {
	holder = 1025443
}

747.2.1 = {
	holder = 1028010
}

786.2.1 = {
	holder = 1029678
}

788.2.1 = {
	holder = 1030080
}

805.2.1 = {
	holder = 1029577
}

806.2.1 = {
	holder = 1031240
}

812.2.1 = {
	holder = 1029173
}

813.2.1 = {
	holder = 1031625
}

859.2.1 = {
	holder = 1031633
}

864.2.1 = {
	holder = 1032801
}

864.2.2 = {
	holder = 1034013
}

922.2.1 = {
	holder = 1034083
}

928.2.1 = {
	holder = 1036793
}

956.2.1 = {
	holder = 1038096
}

980.2.1 = {
	holder = 1039164
}

985.2.1 = {
	holder = 1038097
}

985.2.2 = {
	holder = 1036702
}

989.2.1 = {
	holder = 1038091
}

990.2.1 = {
	holder = 1039900
}

1001.2.1 = {
	holder = 1040221
}

1009.2.1 = {
	holder = 1038910
}

1010.2.1 = {
	holder = 1040905
}

1017.2.1 = {
	holder = 1041254
}

1049.2.1 = {
	holder = 1041397
}

1057.2.1 = {
	holder = 1042128
}

1058.2.1 = {
	holder = 1041351
}

1061.2.1 = {
	holder = 1043214
}

