200.2.1 = {
	holder = 1000022
	law = succ_tanistry
	law = agnatic_succession
}

200.2.2 = {
	holder = 1001368
	law = succ_tanistry
	law = agnatic_succession
}

200.2.3 = {
	liege = d_lekomo
}

200.2.4 = {
	holder = 1001369
	law = succ_elective_gavelkind
	law = agnatic_succession
}

200.2.5 = {
	holder = 1001366
	law = succ_tanistry
	law = agnatic_succession
}

236.2.1 = {
	holder = 1003711
}

236.2.2 = {
	holder = 1005262
}

245.2.1 = {
	holder = 1005263
}

245.2.2 = {
	holder = 1005896
}

287.2.1 = {
	holder = 1008619
}

287.2.2 = {
	holder = 1008826
}

318.2.1 = {
	holder = 1009955
}

341.2.1 = {
	holder = 1011156
}

381.2.1 = {
	holder = 1010070
}

381.2.2 = {
	holder = 1015118
}

419.2.1 = {
	holder = 1015378
}

440.2.1 = {
	holder = 1017750
}

447.2.1 = {
	holder = 1019092
}

447.2.2 = {
	holder = 1017218
}

463.2.1 = {
	holder = 1020000
}

514.2.1 = {
	holder = 1021066
}

525.2.1 = {
	holder = 1022304
}

525.2.2 = {
	holder = 1024604
}

700.2.1 = {
	holder = 1025519
}

700.2.2 = {
	holder = 1035292
}

737.2.1 = {
	holder = 1035606
}

747.2.1 = {
	holder = 1035819
}

756.2.1 = {
	holder = 1037034
}

772.2.1 = {
	holder = 1039774
}

833.2.1 = {
	holder = 1042314
}

846.2.1 = {
	holder = 1042127
}

857.2.1 = {
	holder = 1043732
}

858.2.1 = {
	holder = 1046239
}

