200.2.1 = {
	holder = 1000003
	law = succ_gavelkind
	law = cognatic_succession
}

200.2.2 = {
	holder = 1000174
	law = succ_gavelkind
	law = cognatic_succession
}

200.2.3 = {
	liege = d_lagyata
}

200.2.4 = {
	holder = 1000172
	law = succ_gavelkind
	law = cognatic_succession
}

224.2.1 = {
	holder = 1001444
}

240.2.1 = {
	holder = 1003647
}

251.2.1 = {
	holder = 1002860
}

285.2.1 = {
	holder = 1005001
}

300.2.1 = {
	holder = 1006411
}

329.2.1 = {
	holder = 1007035
}

360.2.1 = {
	holder = 1007076
}

361.2.1 = {
	holder = 1009677
}

404.2.1 = {
	holder = 1010118
}

421.2.1 = {
	holder = 1012103
}

478.2.1 = {
	holder = 1013451
}

497.2.1 = {
	holder = 1015607
}

519.2.1 = {
	holder = 1016605
}

555.2.1 = {
	holder = 1017634
}

559.2.1 = {
	holder = 1017848
}

560.2.1 = {
	holder = 1019394
}

585.2.1 = {
	holder = 1019443
}

597.2.1 = {
	holder = 1021143
}

635.2.1 = {
	holder = 1021684
}

674.2.1 = {
	holder = 1024780
}

682.2.1 = {
	holder = 1023199
}

682.2.2 = {
	holder = 1025190
}

739.2.1 = {
	holder = 1025640
}

746.2.1 = {
	holder = 1028094
}

780.2.1 = {
	holder = 1029548
}

803.2.1 = {
	holder = 1030467
}

847.2.1 = {
	holder = 1031366
}

850.2.1 = {
	holder = 1033268
}

856.2.1 = {
	holder = 1031735
}

856.2.2 = {
	holder = 1033644
}

895.2.1 = {
	holder = 1034802
}

900.2.1 = {
	holder = 1035582
}

912.2.1 = {
	holder = 1033375
}

919.2.1 = {
	holder = 1034759
}

935.2.1 = {
	holder = 1036671
}

952.2.1 = {
	holder = 1038101
}

988.2.1 = {
	holder = 1038116
}

995.2.1 = {
	holder = 1039873
}

1001.2.1 = {
	holder = 1040478
}

