200.2.1 = {
	holder = 1000001
	law = succ_elective_gavelkind
	law = cognatic_succession
}

200.2.2 = {
	liege = d_wajuta
}

200.2.3 = {
	liege = d_wajuta
}

200.2.4 = {
	holder = 1000077
	law = succ_elective_gavelkind
	law = cognatic_succession
}

229.2.1 = {
	holder = 1002234
}

231.2.1 = {
	holder = 1000086
}

237.2.1 = {
	holder = 1002819
}

257.2.1 = {
	holder = 1004041
}

312.2.1 = {
	holder = 1007033
}

313.2.1 = {
	holder = 1007363
}

349.2.1 = {
	holder = 1007770
}

360.2.1 = {
	holder = 1009387
}

368.2.1 = {
	holder = 1009849
}

369.2.1 = {
	holder = 1010066
}

386.2.1 = {
	holder = 1010846
}

395.2.1 = {
	holder = 1009789
}

398.2.1 = {
	holder = 1009853
}

400.2.1 = {
	holder = 1011613
}

416.2.1 = {
	holder = 1011847
}

458.2.1 = {
	holder = 1013352
}

486.2.1 = {
	holder = 1014674
}

506.2.1 = {
	holder = 1016739
}

521.2.1 = {
	holder = 1016839
}

532.2.1 = {
	holder = 1016223
}

551.2.1 = {
	holder = 1018423
}

591.2.1 = {
	holder = 1019240
}

600.2.1 = {
	holder = 1019399
}

624.2.1 = {
	holder = 1022403
}

654.2.1 = {
	holder = 1022446
}

662.2.1 = {
	holder = 1024205
}

663.2.1 = {
	holder = 1022032
}

680.2.1 = {
	holder = 1023429
}

705.2.1 = {
	holder = 1025153
}

750.2.1 = {
	holder = 1026527
}

755.2.1 = {
	holder = 1028644
}

763.2.1 = {
	holder = 1026979
}

764.2.1 = {
	holder = 1029149
}

765.2.1 = {
	holder = 1027354
}

782.2.1 = {
	holder = 1028731
}

786.2.1 = {
	holder = 1030221
}

790.2.1 = {
	holder = 1030133
}

797.2.1 = {
	holder = 1030504
}

817.2.1 = {
	holder = 1031354
}

864.2.1 = {
	holder = 1032320
}

886.2.1 = {
	holder = 1034343
}

903.2.1 = {
	holder = 1035055
}

941.2.1 = {
	holder = 1036382
}

955.2.1 = {
	holder = 1037802
}

962.2.1 = {
	holder = 1038538
}

1003.2.1 = {
	holder = 1039557
}

1040.2.1 = {
	holder = 1040626
}

1063.2.1 = {
	holder = 1042445
}

