200.2.1 = {
	holder = 1000008
	law = succ_gavelkind
	law = agnatic_succession
}

200.2.2 = {
	holder = 1000661
	law = succ_gavelkind
	law = agnatic_succession
}

200.2.3 = {
	liege = d_boriuge
}

200.2.4 = {
	holder = 1000660
	law = succ_gavelkind
	law = agnatic_succession
}

235.2.1 = {
	holder = 1002648
}

241.2.1 = {
	holder = 1000698
}

249.2.1 = {
	holder = 1002806
}

253.2.1 = {
	holder = 1005592
}

262.2.1 = {
	holder = 1007110
}

267.2.1 = {
	holder = 1007228
}

309.2.1 = {
	holder = 1008918
}

313.2.1 = {
	holder = 1010654
}

358.2.1 = {
	holder = 1010692
}

378.2.1 = {
	holder = 1014105
}

387.2.1 = {
	holder = 1014421
}

387.2.2 = {
	holder = 1010849
}

388.2.1 = {
	holder = 1012521
}

388.2.2 = {
	holder = 1015546
}

390.2.1 = {
	holder = 1015611
}

425.2.1 = {
	holder = 1016689
}

454.2.1 = {
	holder = 1020078
}

600.2.1 = {
	holder = 1025422
}

600.2.2 = {
	holder = 1027618
}

617.2.1 = {
	holder = 1029931
}

623.2.1 = {
	holder = 1029871
}

633.2.1 = {
	holder = 1031541
}

635.2.1 = {
	holder = 1029871
}

638.2.1 = {
	holder = 1031908
}

664.2.1 = {
	holder = 1032858
}

715.2.1 = {
	holder = 1034225
}

737.2.1 = {
	holder = 1037232
}

738.2.1 = {
	holder = 1035330
}

748.2.1 = {
	holder = 1038507
}

750.2.1 = {
	holder = 1037232
}

750.2.2 = {
	holder = 1039192
}

789.2.1 = {
	holder = 1039807
}

832.2.1 = {
	holder = 1042227
}

836.2.1 = {
	holder = 1040192
}

836.2.2 = {
	holder = 1044841
}

