200.2.1 = {
	holder = 1000046
	law = succ_open_elective
	law = agnatic_succession
}

200.2.2 = {
	holder = 1000047
	law = succ_elective_gavelkind
	law = agnatic_succession
}

200.2.3 = {
	holder = 1001924
	law = succ_open_elective
	law = agnatic_succession
}

200.2.4 = {
	liege = d_wajebert
}

200.2.5 = {
	holder = 1001925
	law = succ_elective_gavelkind
	law = agnatic_succession
}

200.2.6 = {
	holder = 1001922
	law = succ_open_elective
	law = agnatic_succession
}

203.2.1 = {
	holder = 1001877
}

255.2.1 = {
	holder = 1004355
}

264.2.1 = {
	holder = 1007107
}

303.2.1 = {
	holder = 1008364
}

308.2.1 = {
	holder = 1010287
}

319.2.1 = {
	holder = 1010406
}

325.2.1 = {
	holder = 1008181
}

329.2.1 = {
	holder = 1009820
}

333.2.1 = {
	holder = 1012005
}

346.2.1 = {
	holder = 1012063
}

356.2.1 = {
	holder = 1011835
}

356.2.2 = {
	holder = 1013493
}

391.2.1 = {
	holder = 1013553
}

395.2.1 = {
	holder = 1015525
}

395.2.2 = {
	holder = 1016039
}

434.2.1 = {
	holder = 1016524
}

438.2.1 = {
	holder = 1017832
}

438.2.2 = {
	holder = 1019014
}

454.2.1 = {
	holder = 1019439
}

486.2.1 = {
	holder = 1020006
}

600.2.1 = {
	holder = 1028266
}

611.2.1 = {
	holder = 1028888
}

647.2.1 = {
	holder = 1029957
}

647.2.2 = {
	holder = 1032497
}

677.2.1 = {
	holder = 1033078
}

715.2.1 = {
	holder = 1033682
}

716.2.1 = {
	holder = 1037105
}

756.2.1 = {
	holder = 1037699
}

787.2.1 = {
	holder = 1039980
}

832.2.1 = {
	holder = 1042971
}

839.2.1 = {
	holder = 1044762
}

861.2.1 = {
	holder = 1044561
}

861.2.2 = {
	holder = 1046433
}

