200.2.1 = {
	holder = 1000004
	law = succ_elective_gavelkind
	law = agnatic_succession
}

200.2.2 = {
	holder = 1000013
	law = succ_primogeniture
	law = cognatic_succession
}

200.2.3 = {
	holder = 1000364
	law = succ_gavelkind
	law = cognatic_succession
}

200.2.4 = {
	liege = d_bye
}

200.2.5 = {
	holder = 1000363
	law = succ_gavelkind
	law = cognatic_succession
}

248.2.1 = {
	holder = 1002682
}

264.2.1 = {
	holder = 1004719
}

323.2.1 = {
	holder = 1005704
}

337.2.1 = {
	holder = 1006037
}

337.2.2 = {
	holder = 1008583
}

345.2.1 = {
	holder = 1008602
}

350.2.1 = {
	holder = 1008041
}

382.2.1 = {
	holder = 1008251
}

388.2.1 = {
	holder = 1010645
}

414.2.1 = {
	holder = 1012397
}

445.2.1 = {
	holder = 1013597
}

489.2.1 = {
	holder = 1015015
}

525.2.1 = {
	holder = 1017653
}

551.2.1 = {
	holder = 1017993
}

562.2.1 = {
	holder = 1019112
}

569.2.1 = {
	holder = 1016311
}

569.2.2 = {
	holder = 1019839
}

600.2.1 = {
	holder = 1020151
}

644.2.1 = {
	holder = 1021831
}

647.2.1 = {
	holder = 1023298
}

653.2.1 = {
	holder = 1023763
}

654.2.1 = {
	holder = 1023298
}

670.2.1 = {
	holder = 1023850
}

670.2.2 = {
	holder = 1024548
}

701.2.1 = {
	holder = 1025417
}

701.2.2 = {
	holder = 1026103
}

740.2.1 = {
	holder = 1026353
}

760.2.1 = {
	holder = 1028489
}

793.2.1 = {
	holder = 1028297
}

793.2.2 = {
	holder = 1030557
}

833.2.1 = {
	holder = 1030772
}

833.2.2 = {
	holder = 1032530
}

850.2.1 = {
	holder = 1032540
}

873.2.1 = {
	holder = 1033608
}

887.2.1 = {
	holder = 1034492
}

934.2.1 = {
	holder = 1035536
}

961.2.1 = {
	holder = 1037641
}

980.2.1 = {
	holder = 1038511
}

994.2.1 = {
	holder = 1039673
}

