200.2.1 = {
	holder = 1000003
	law = succ_tanistry
	law = cognatic_succession
}

200.2.2 = {
	holder = 1000366
	law = succ_tanistry
	law = cognatic_succession
}

200.2.3 = {
	liege = d_damoranos
}

200.2.4 = {
	holder = 1000367
	law = succ_elective_gavelkind
	law = agnatic_succession
}

200.2.5 = {
	liege = d_rurissa
}

200.2.6 = {
	holder = 1000340
	law = succ_tanistry
	law = cognatic_succession
}

205.2.1 = {
	holder = 1001995
}

209.2.1 = {
	holder = 1002894
}

216.2.1 = {
	holder = 1000636
}

245.2.1 = {
	holder = 1003186
}

254.2.1 = {
	holder = 1005982
}

260.2.1 = {
	holder = 1006972
}

277.2.1 = {
	holder = 1008186
}

298.2.1 = {
	holder = 1009461
}

359.2.1 = {
	holder = 1010684
}

369.2.1 = {
	holder = 1010576
}

369.2.2 = {
	holder = 1014371
}

373.2.1 = {
	holder = 1012792
}

417.2.1 = {
	holder = 1015072
}

427.2.1 = {
	holder = 1017711
}

480.2.1 = {
	holder = 1020073
}

499.2.1 = {
	holder = 1022881
}

500.2.1 = {
	holder = 1022981
}

513.2.1 = {
	holder = 1023823
}

570.2.1 = {
	holder = 1027311
}

599.2.1 = {
	holder = 1029226
}

609.2.1 = {
	holder = 1026962
}

629.2.1 = {
	holder = 1028246
}

630.2.1 = {
	holder = 1030715
}

631.2.1 = {
	holder = 1031394
}

663.2.1 = {
	holder = 1031722
}

700.2.1 = {
	holder = 1034687
}

724.2.1 = {
	holder = 1036730
}

742.2.1 = {
	holder = 1038073
}

778.2.1 = {
	holder = 1039524
}

809.2.1 = {
	holder = 1041079
}

828.2.1 = {
	holder = 1043067
}

871.2.1 = {
	holder = 1044509
}

878.2.1 = {
	holder = 1047228
}

879.2.1 = {
	holder = 1044376
}

879.2.2 = {
	holder = 1047527
}

