200.2.1 = {
	holder = 1000029
	law = succ_gavelkind
	law = cognatic_succession
}

200.2.2 = {
	holder = 1001542
	law = succ_gavelkind
	law = cognatic_succession
}

200.2.3 = {
	liege = d_kaueta
}

200.2.4 = {
	holder = 1001541
	law = succ_gavelkind
	law = cognatic_succession
}

226.2.1 = {
	holder = 1002992
}

252.2.1 = {
	holder = 1004724
}

253.2.1 = {
	holder = 1002994
}

253.2.2 = {
	holder = 1003115
}

400.2.1 = {
	holder = 1013681
}

405.2.1 = {
	holder = 1015127
}

438.2.1 = {
	holder = 1017192
}

468.2.1 = {
	holder = 1019486
}

471.2.1 = {
	holder = 1019945
}

472.2.1 = {
	holder = 1021218
}

530.2.1 = {
	holder = 1022019
}

534.2.1 = {
	holder = 1025144
}

536.2.1 = {
	holder = 1024467
}

543.2.1 = {
	holder = 1024589
}

552.2.1 = {
	holder = 1026340
}

559.2.1 = {
	holder = 1024589
}

562.2.1 = {
	holder = 1025924
}

563.2.1 = {
	holder = 1027041
}

566.2.1 = {
	holder = 1027218
}

612.2.1 = {
	holder = 1027221
}

620.2.1 = {
	holder = 1030744
}

673.2.1 = {
	holder = 1032090
}

682.2.1 = {
	holder = 1034584
}

727.2.1 = {
	holder = 1036423
}

758.2.1 = {
	holder = 1038263
}

808.2.1 = {
	holder = 1039902
}

822.2.1 = {
	holder = 1043238
}

881.2.1 = {
	holder = 1044290
}

883.2.1 = {
	holder = 1047761
}

