200.2.1 = {
	holder = 1000025
	law = succ_elective_gavelkind
	law = agnatic_succession
}

200.2.2 = {
	holder = 1000026
	law = succ_elective_gavelkind
	law = agnatic_succession
}

200.2.3 = {
	holder = 1001499
	law = succ_gavelkind
	law = agnatic_succession
}

200.2.4 = {
	liege = d_wogala
}

200.2.5 = {
	holder = 1001498
	law = succ_gavelkind
	law = agnatic_succession
}

201.2.1 = {
	holder = 1001467
}

202.2.1 = {
	holder = 1002854
}

300.2.1 = {
	holder = 1008037
}

301.2.1 = {
	holder = 1009177
}

301.2.2 = {
	holder = 1009833
}

304.2.1 = {
	holder = 1009887
}

315.2.1 = {
	holder = 1008737
}

322.2.1 = {
	holder = 1010153
}

327.2.1 = {
	holder = 1009832
}

337.2.1 = {
	holder = 1009959
}

367.2.1 = {
	holder = 1012358
}

386.2.1 = {
	holder = 1014546
}

392.2.1 = {
	holder = 1015798
}

425.2.1 = {
	holder = 1016014
}

473.2.1 = {
	holder = 1019608
}

513.2.1 = {
	holder = 1021403
}

530.2.1 = {
	holder = 1024105
}

555.2.1 = {
	holder = 1025023
}

556.2.1 = {
	holder = 1026561
}

571.2.1 = {
	holder = 1026166
}

572.2.1 = {
	holder = 1027580
}

593.2.1 = {
	holder = 1028964
}

628.2.1 = {
	holder = 1029636
}

648.2.1 = {
	holder = 1031815
}

713.2.1 = {
	holder = 1033788
}

728.2.1 = {
	holder = 1034173
}

729.2.1 = {
	holder = 1037873
}

760.2.1 = {
	holder = 1039852
}

764.2.1 = {
	holder = 1039900
}

795.2.1 = {
	holder = 1041167
}

804.2.1 = {
	holder = 1042389
}

849.2.1 = {
	holder = 1044102
}

882.2.1 = {
	holder = 1045697
}

