200.2.1 = {
	holder = 1000016
	law = succ_tanistry
	law = agnatic_succession
}

200.2.2 = {
	holder = 1000515
	law = succ_tanistry
	law = agnatic_succession
}

200.2.3 = {
	liege = d_bogay
}

200.2.4 = {
	holder = 1000516
	law = succ_primogeniture
	law = cognatic_succession
}

200.2.5 = {
	holder = 1000513
	law = succ_tanistry
	law = agnatic_succession
}

242.2.1 = {
	holder = 1002253
}

250.2.1 = {
	holder = 1002170
}

270.2.1 = {
	holder = 1004598
}

272.2.1 = {
	holder = 1002689
}

272.2.2 = {
	holder = 1003813
}

289.2.1 = {
	holder = 1006221
}

311.2.1 = {
	holder = 1006272
}

350.2.1 = {
	holder = 1007425
}

377.2.1 = {
	holder = 1009319
}

394.2.1 = {
	holder = 1010911
}

426.2.1 = {
	holder = 1012372
}

430.2.1 = {
	holder = 1012165
}

437.2.1 = {
	holder = 1013403
}

454.2.1 = {
	holder = 1013457
}

484.2.1 = {
	holder = 1012982
}

487.2.1 = {
	holder = 1015559
}

488.2.1 = {
	holder = 1015895
}

524.2.1 = {
	holder = 1015966
}

555.2.1 = {
	holder = 1017998
}

591.2.1 = {
	holder = 1019324
}

609.2.1 = {
	holder = 1020127
}

609.2.2 = {
	holder = 1021720
}

618.2.1 = {
	holder = 1022045
}

636.2.1 = {
	holder = 1022255
}

666.2.1 = {
	holder = 1022985
}

698.2.1 = {
	holder = 1024466
}

785.2.1 = {
	holder = 1027199
}

788.2.1 = {
	holder = 1029145
}

788.2.2 = {
	holder = 1030335
}

793.2.1 = {
	holder = 1029145
}

793.2.2 = {
	holder = 1030595
}

797.2.1 = {
	holder = 1030654
}

812.2.1 = {
	holder = 1028669
}

812.2.2 = {
	holder = 1031555
}

849.2.1 = {
	holder = 1031763
}

870.2.1 = {
	holder = 1033340
}

903.2.1 = {
	holder = 1035077
}

904.2.1 = {
	holder = 1035573
}

904.2.2 = {
	holder = 1035873
}

906.2.1 = {
	holder = 1035734
}

954.2.1 = {
	holder = 1038209
}

1003.2.1 = {
	holder = 1038599
}

1015.2.1 = {
	holder = 1040889
}

1033.2.1 = {
	holder = 1041961
}

