200.2.1 = {
	holder = 1000006
	law = succ_primogeniture
	law = agnatic_succession
}

200.2.2 = {
	liege = d_nelete
}

200.2.3 = {
	liege = d_rilevid
}

200.2.4 = {
	holder = 1000545
	law = succ_primogeniture
	law = agnatic_succession
}

216.2.1 = {
	holder = 1004003
}

224.2.1 = {
	holder = 1004118
}

250.2.1 = {
	holder = 1005513
}

283.2.1 = {
	holder = 1007306
}

323.2.1 = {
	holder = 1008603
}

351.2.1 = {
	holder = 1011904
}

365.2.1 = {
	holder = 1013827
}

366.2.1 = {
	holder = 1014145
}

369.2.1 = {
	holder = 1014374
}

384.2.1 = {
	holder = 1015324
}

389.2.1 = {
	holder = 1015448
}

401.2.1 = {
	holder = 1015201
}

403.2.1 = {
	holder = 1015349
}

441.2.1 = {
	holder = 1019248
}

476.2.1 = {
	holder = 1019443
}

477.2.1 = {
	holder = 1019520
}

484.2.1 = {
	holder = 1020984
}

485.2.1 = {
	holder = 1022034
}

490.2.1 = {
	holder = 1021602
}

511.2.1 = {
	holder = 1022473
}

513.2.1 = {
	holder = 1023828
}

539.2.1 = {
	holder = 1022659
}

552.2.1 = {
	holder = 1025062
}

593.2.1 = {
	holder = 1026727
}

612.2.1 = {
	holder = 1029024
}

647.2.1 = {
	holder = 1030428
}

664.2.1 = {
	holder = 1032889
}

712.2.1 = {
	holder = 1034598
}

726.2.1 = {
	holder = 1037160
}

731.2.1 = {
	holder = 1037998
}

763.2.1 = {
	holder = 1038055
}

808.2.1 = {
	holder = 1041030
}

833.2.1 = {
	holder = 1044635
}

866.2.1 = {
	holder = 1045856
}

869.2.1 = {
	holder = 1046920
}

