200.2.1 = {
	holder = 1000014
	law = succ_elective_gavelkind
	law = agnatic_succession
}

200.2.2 = {
	holder = 1000902
	law = succ_elective_gavelkind
	law = agnatic_succession
}

200.2.3 = {
	liege = d_avsadossa
}

200.2.4 = {
	holder = 1000901
	law = succ_elective_gavelkind
	law = agnatic_succession
}

204.2.1 = {
	holder = 1002959
}

228.2.1 = {
	holder = 1002754
}

268.2.1 = {
	holder = 1005036
}

276.2.1 = {
	holder = 1008110
}

277.2.1 = {
	holder = 1006106
}

302.2.1 = {
	holder = 1009862
}

347.2.1 = {
	holder = 1012865
}

386.2.1 = {
	holder = 1013347
}

418.2.1 = {
	holder = 1015999
}

447.2.1 = {
	holder = 1019596
}

463.2.1 = {
	holder = 1017330
}

463.2.2 = {
	holder = 1020620
}

497.2.1 = {
	holder = 1021457
}

506.2.1 = {
	holder = 1022802
}

520.2.1 = {
	holder = 1021259
}

520.2.2 = {
	holder = 1021793
}

536.2.1 = {
	holder = 1024637
}

564.2.1 = {
	holder = 1026086
}

565.2.1 = {
	holder = 1024795
}

566.2.1 = {
	holder = 1027193
}

594.2.1 = {
	holder = 1027440
}

616.2.1 = {
	holder = 1029055
}

635.2.1 = {
	holder = 1030593
}

643.2.1 = {
	holder = 1031876
}

668.2.1 = {
	holder = 1033467
}

693.2.1 = {
	holder = 1034335
}

719.2.1 = {
	holder = 1035674
}

731.2.1 = {
	holder = 1036192
}

736.2.1 = {
	holder = 1037749
}

758.2.1 = {
	holder = 1039689
}

798.2.1 = {
	holder = 1040239
}

825.2.1 = {
	holder = 1042721
}

868.2.1 = {
	holder = 1044873
}

885.2.1 = {
	holder = 1045476
}

891.2.1 = {
	holder = 1048294
}

