200.2.1 = {
	holder = 1000031
	law = succ_ultimogeniture
	law = agnatic_succession
}

200.2.2 = {
	holder = 1000890
	law = succ_ultimogeniture
	law = agnatic_succession
}

200.2.3 = {
	liege = d_akosanna
}

200.2.4 = {
	holder = 1000888
	law = succ_ultimogeniture
	law = agnatic_succession
}

223.2.1 = {
	holder = 1003045
}

223.2.2 = {
	holder = 1003156
}

244.2.1 = {
	holder = 1000553
}

244.2.2 = {
	holder = 1004135
}

272.2.1 = {
	holder = 1005266
}

275.2.1 = {
	holder = 1005458
}

276.2.1 = {
	holder = 1005595
}

400.2.1 = {
	holder = 1010087
}

431.2.1 = {
	holder = 1011641
}

454.2.1 = {
	holder = 1014247
}

486.2.1 = {
	holder = 1015586
}

509.2.1 = {
	holder = 1013932
}

509.2.2 = {
	holder = 1016900
}

530.2.1 = {
	holder = 1017327
}

535.2.1 = {
	holder = 1017617
}

540.2.1 = {
	holder = 1018431
}

583.2.1 = {
	holder = 1017014
}

588.2.1 = {
	holder = 1018667
}

588.2.2 = {
	holder = 1020729
}

622.2.1 = {
	holder = 1021125
}

657.2.1 = {
	holder = 1022825
}

664.2.1 = {
	holder = 1024127
}

669.2.1 = {
	holder = 1023115
}

681.2.1 = {
	holder = 1023452
}

696.2.1 = {
	holder = 1025177
}

700.2.1 = {
	holder = 1023726
}

800.2.1 = {
	holder = 1028669
}

817.2.1 = {
	holder = 1030799
}

841.2.1 = {
	holder = 1032045
}

870.2.1 = {
	holder = 1032879
}

893.2.1 = {
	holder = 1033667
}

900.2.1 = {
	holder = 1035659
}

913.2.1 = {
	holder = 1035660
}

937.2.1 = {
	holder = 1036733
}

987.2.1 = {
	holder = 1039236
}

987.2.2 = {
	holder = 1039759
}

1035.2.1 = {
	holder = 1039889
}

1062.2.1 = {
	holder = 1042384
}

