200.2.1 = {
	holder = 1000018
	law = succ_feudal_elective
	law = agnatic_succession
}

200.2.2 = {
	holder = 1000600
	law = succ_feudal_elective
	law = agnatic_succession
}

200.2.3 = {
	liege = d_tesatsquds
}

200.2.4 = {
	holder = 1000601
	law = succ_primogeniture
	law = cognatic_succession
}

200.2.5 = {
	holder = 1000598
	law = succ_feudal_elective
	law = agnatic_succession
}

226.2.1 = {
	holder = 1001549
}

267.2.1 = {
	holder = 1003398
}

292.2.1 = {
	holder = 1005349
}

317.2.1 = {
	holder = 1006526
}

348.2.1 = {
	holder = 1007783
}

350.2.1 = {
	holder = 1007814
}

350.2.2 = {
	holder = 1005596
}

356.2.1 = {
	holder = 1009207
}

385.2.1 = {
	holder = 1009742
}

409.2.1 = {
	holder = 1011008
}

443.2.1 = {
	holder = 1010648
}

447.2.1 = {
	holder = 1011558
}

448.2.1 = {
	holder = 1014005
}

488.2.1 = {
	holder = 1014282
}

522.2.1 = {
	holder = 1016755
}

562.2.1 = {
	holder = 1017951
}

574.2.1 = {
	holder = 1018381
}

575.2.1 = {
	holder = 1020092
}

700.2.1 = {
	holder = 1024067
}

700.2.2 = {
	holder = 1026085
}

800.2.1 = {
	holder = 1027946
}

803.2.1 = {
	holder = 1030969
}

809.2.1 = {
	holder = 1031403
}

816.2.1 = {
	holder = 1031489
}

831.2.1 = {
	holder = 1031080
}

833.2.1 = {
	holder = 1032242
}

840.2.1 = {
	holder = 1032905
}

844.2.1 = {
	holder = 1032856
}

878.2.1 = {
	holder = 1033066
}

893.2.1 = {
	holder = 1034774
}

896.2.1 = {
	holder = 1034136
}

896.2.2 = {
	holder = 1032662
}

908.2.1 = {
	holder = 1035736
}

934.2.1 = {
	holder = 1036263
}

934.2.2 = {
	holder = 1037248
}

970.2.1 = {
	holder = 1037521
}

982.2.1 = {
	holder = 1039032
}

1016.2.1 = {
	holder = 1040027
}

1017.2.1 = {
	holder = 1041236
}

1034.2.1 = {
	holder = 1040120
}

1036.2.1 = {
	holder = 1040810
}

1050.2.1 = {
	holder = 1041452
}

1064.2.1 = {
	holder = 1042442
}

1065.2.1 = {
	holder = 1043560
}

