200.2.1 = {
	holder = 1000015
	law = succ_tanistry
	law = agnatic_succession
}

200.2.2 = {
	holder = 1000991
	law = succ_tanistry
	law = agnatic_succession
}

200.2.3 = {
	liege = d_napelgil
}

200.2.4 = {
	holder = 1000990
	law = succ_tanistry
	law = agnatic_succession
}

234.2.1 = {
	holder = 1002265
}

251.2.1 = {
	holder = 1005678
}

255.2.1 = {
	holder = 1004743
}

262.2.1 = {
	holder = 1004908
}

266.2.1 = {
	holder = 1007194
}

308.2.1 = {
	holder = 1009172
}

332.2.1 = {
	holder = 1010497
}

333.2.1 = {
	holder = 1010230
}

360.2.1 = {
	holder = 1011281
}

374.2.1 = {
	holder = 1013904
}

387.2.1 = {
	holder = 1015278
}

393.2.1 = {
	holder = 1015244
}

394.2.1 = {
	holder = 1015948
}

414.2.1 = {
	holder = 1016060
}

430.2.1 = {
	holder = 1017868
}

445.2.1 = {
	holder = 1015995
}

448.2.1 = {
	holder = 1017101
}

467.2.1 = {
	holder = 1019931
}

476.2.1 = {
	holder = 1021058
}

525.2.1 = {
	holder = 1022215
}

528.2.1 = {
	holder = 1022583
}

548.2.1 = {
	holder = 1023829
}

566.2.1 = {
	holder = 1026244
}

578.2.1 = {
	holder = 1027870
}

600.2.1 = {
	holder = 1029440
}

700.2.1 = {
	holder = 1032148
}

707.2.1 = {
	holder = 1036472
}

712.2.1 = {
	holder = 1033466
}

731.2.1 = {
	holder = 1036828
}

759.2.1 = {
	holder = 1038027
}

793.2.1 = {
	holder = 1040739
}

810.2.1 = {
	holder = 1042240
}

821.2.1 = {
	holder = 1040699
}

822.2.1 = {
	holder = 1043867
}

833.2.1 = {
	holder = 1044089
}

888.2.1 = {
	holder = 1045163
}

896.2.1 = {
	holder = 1048439
}

