200.2.1 = {
	holder = 1000003
	law = succ_tanistry
	law = cognatic_succession
}

200.2.2 = {
	holder = 1000309
	law = succ_tanistry
	law = cognatic_succession
}

200.2.3 = {
	liege = d_dezutlu
}

200.2.4 = {
	holder = 1000308
	law = succ_tanistry
	law = cognatic_succession
}

200.2.5 = {
	holder = 1001994
}

243.2.1 = {
	holder = 1002542
}

249.2.1 = {
	holder = 1005843
}

261.2.1 = {
	holder = 1005511
}

262.2.1 = {
	holder = 1003955
}

400.2.1 = {
	holder = 1013921
}

400.2.2 = {
	holder = 1016301
}

500.2.1 = {
	holder = 1021440
}

512.2.1 = {
	holder = 1021554
}

514.2.1 = {
	holder = 1023841
}

518.2.1 = {
	holder = 1023906
}

527.2.1 = {
	holder = 1022058
}

527.2.2 = {
	holder = 1021183
}

532.2.1 = {
	holder = 1024778
}

582.2.1 = {
	holder = 1025812
}

605.2.1 = {
	holder = 1028418
}

606.2.1 = {
	holder = 1027310
}

606.2.2 = {
	holder = 1026001
}

611.2.1 = {
	holder = 1027310
}

611.2.2 = {
	holder = 1030117
}

700.2.1 = {
	holder = 1032334
}

706.2.1 = {
	holder = 1034082
}

746.2.1 = {
	holder = 1036728
}

766.2.1 = {
	holder = 1039471
}

769.2.1 = {
	holder = 1038748
}

769.2.2 = {
	holder = 1040435
}

803.2.1 = {
	holder = 1040793
}

805.2.1 = {
	holder = 1042642
}

812.2.1 = {
	holder = 1042704
}

826.2.1 = {
	holder = 1044128
}

841.2.1 = {
	holder = 1042704
}

841.2.2 = {
	holder = 1045098
}

859.2.1 = {
	holder = 1045270
}

