200.2.1 = {
	holder = 1000034
	law = succ_feudal_elective
	law = cognatic_succession
}

200.2.2 = {
	holder = 1001070
	law = succ_feudal_elective
	law = cognatic_succession
}

200.2.3 = {
	liege = d_etolault
}

200.2.4 = {
	holder = 1001069
	law = succ_feudal_elective
	law = cognatic_succession
}

253.2.1 = {
	holder = 1001869
}

258.2.1 = {
	holder = 1003238
}

262.2.1 = {
	holder = 1004259
}

301.2.1 = {
	holder = 1005043
}

308.2.1 = {
	holder = 1006085
}

308.2.2 = {
	holder = 1007164
}

312.2.1 = {
	holder = 1007192
}

356.2.1 = {
	holder = 1008012
}

382.2.1 = {
	holder = 1009552
}

395.2.1 = {
	holder = 1008988
}

396.2.1 = {
	holder = 1011438
}

436.2.1 = {
	holder = 1011593
}

460.2.1 = {
	holder = 1013423
}

469.2.1 = {
	holder = 1014154
}

470.2.1 = {
	holder = 1014985
}

470.2.2 = {
	holder = 1013007
}

471.2.1 = {
	holder = 1015033
}

510.2.1 = {
	holder = 1015134
}

536.2.1 = {
	holder = 1017240
}

571.2.1 = {
	holder = 1018351
}

582.2.1 = {
	holder = 1019964
}

630.2.1 = {
	holder = 1021167
}

653.2.1 = {
	holder = 1023135
}

701.2.1 = {
	holder = 1024028
}

717.2.1 = {
	holder = 1026184
}

724.2.1 = {
	holder = 1027166
}

762.2.1 = {
	holder = 1028062
}

768.2.1 = {
	holder = 1029042
}

768.2.2 = {
	holder = 1026457
}

771.2.1 = {
	holder = 1027661
}

772.2.1 = {
	holder = 1029568
}

814.2.1 = {
	holder = 1030167
}

830.2.1 = {
	holder = 1031036
}

830.2.2 = {
	holder = 1032432
}

845.2.1 = {
	holder = 1032503
}

848.2.1 = {
	holder = 1031288
}

863.2.1 = {
	holder = 1033955
}

877.2.1 = {
	holder = 1034165
}

912.2.1 = {
	holder = 1035142
}

945.2.1 = {
	holder = 1036367
}

953.2.1 = {
	holder = 1037655
}

954.2.1 = {
	holder = 1038188
}

992.2.1 = {
	holder = 1038400
}

1024.2.1 = {
	holder = 1040513
}

1057.2.1 = {
	holder = 1041666
}

1058.2.1 = {
	holder = 1042222
}

