200.2.1 = {
	holder = 1000000
	law = succ_elective_gavelkind
	law = agnatic_succession
}

200.2.2 = {
	holder = 1000090
	law = succ_elective_gavelkind
	law = agnatic_succession
}

200.2.3 = {
	liege = d_tatertk
}

200.2.4 = {
	holder = 1000088
	law = succ_elective_gavelkind
	law = agnatic_succession
}

236.2.1 = {
	holder = 1000053
}

237.2.1 = {
	holder = 1005283
}

400.2.1 = {
	holder = 1015271
}

409.2.1 = {
	holder = 1016599
}

427.2.1 = {
	holder = 1016824
}

463.2.1 = {
	holder = 1018317
}

493.2.1 = {
	holder = 1020276
}

494.2.1 = {
	holder = 1022577
}

509.2.1 = {
	holder = 1022782
}

543.2.1 = {
	holder = 1023966
}

547.2.1 = {
	holder = 1025604
}

571.2.1 = {
	holder = 1027481
}

589.2.1 = {
	holder = 1028085
}

597.2.1 = {
	holder = 1029161
}

601.2.1 = {
	holder = 1025804
}

602.2.1 = {
	holder = 1029525
}

621.2.1 = {
	holder = 1028710
}

622.2.1 = {
	holder = 1030828
}

800.2.1 = {
	holder = 1039656
}

810.2.1 = {
	holder = 1039660
}

812.2.1 = {
	holder = 1043128
}

817.2.1 = {
	holder = 1040405
}

820.2.1 = {
	holder = 1041390
}

828.2.1 = {
	holder = 1044193
}

837.2.1 = {
	holder = 1044310
}

837.2.2 = {
	holder = 1041664
}

850.2.1 = {
	holder = 1044113
}

850.2.2 = {
	holder = 1045712
}

898.2.1 = {
	holder = 1045931
}

