200.2.1 = {
	holder = 1000002
	law = succ_seniority
	law = cognatic_succession
}

200.2.2 = {
	holder = 1000003
	law = succ_elective_gavelkind
	law = agnatic_succession
}

200.2.3 = {
	liege = d_rabira
}

200.2.4 = {
	liege = d_nahugr
}

200.2.5 = {
	holder = 1000282
	law = succ_seniority
	law = cognatic_succession
}

234.2.1 = {
	holder = 1003244
}

263.2.1 = {
	holder = 1005420
}

302.2.1 = {
	holder = 1007469
}

327.2.1 = {
	holder = 1010294
}

340.2.1 = {
	holder = 1011900
}

380.2.1 = {
	holder = 1013312
}

400.2.1 = {
	holder = 1015581
}

420.2.1 = {
	holder = 1017209
}

456.2.1 = {
	holder = 1016896
}

459.2.1 = {
	holder = 1020261
}

525.2.1 = {
	holder = 1023947
}

548.2.1 = {
	holder = 1025718
}

560.2.1 = {
	holder = 1024129
}

573.2.1 = {
	holder = 1025297
}

577.2.1 = {
	holder = 1027064
}

581.2.1 = {
	holder = 1028216
}

610.2.1 = {
	holder = 1027997
}

623.2.1 = {
	holder = 1028027
}

642.2.1 = {
	holder = 1031250
}

648.2.1 = {
	holder = 1032501
}

675.2.1 = {
	holder = 1033580
}

680.2.1 = {
	holder = 1031718
}

691.2.1 = {
	holder = 1034684
}

760.2.1 = {
	holder = 1035917
}

768.2.1 = {
	holder = 1039933
}

781.2.1 = {
	holder = 1040976
}

822.2.1 = {
	holder = 1041962
}

859.2.1 = {
	holder = 1043915
}

890.2.1 = {
	holder = 1046388
}

