200.2.1 = {
	holder = 1000005
	law = succ_tanistry
	law = cognatic_succession
}

200.2.2 = {
	liege = d_dudavlelav
}

200.2.3 = {
	holder = 1000496
	law = succ_tanistry
	law = cognatic_succession
}

243.2.1 = {
	holder = 1005169
}

278.2.1 = {
	holder = 1006872
}

302.2.1 = {
	holder = 1008647
}

318.2.1 = {
	holder = 1008390
}

318.2.2 = {
	holder = 1010990
}

326.2.1 = {
	holder = 1011201
}

362.2.1 = {
	holder = 1013078
}

392.2.1 = {
	holder = 1014100
}

418.2.1 = {
	holder = 1016173
}

445.2.1 = {
	holder = 1018270
}

486.2.1 = {
	holder = 1020226
}

506.2.1 = {
	holder = 1022382
}

512.2.1 = {
	holder = 1023461
}

520.2.1 = {
	holder = 1023529
}

520.2.2 = {
	holder = 1024209
}

542.2.1 = {
	holder = 1025684
}

580.2.1 = {
	holder = 1025738
}

598.2.1 = {
	holder = 1028362
}

608.2.1 = {
	holder = 1029464
}

657.2.1 = {
	holder = 1030530
}

675.2.1 = {
	holder = 1033707
}

686.2.1 = {
	holder = 1031271
}

696.2.1 = {
	holder = 1034815
}

700.2.1 = {
	holder = 1032343
}

707.2.1 = {
	holder = 1035053
}

707.2.2 = {
	holder = 1036460
}

720.2.1 = {
	holder = 1036658
}

736.2.1 = {
	holder = 1037125
}

743.2.1 = {
	holder = 1038085
}

759.2.1 = {
	holder = 1039408
}

802.2.1 = {
	holder = 1041031
}

836.2.1 = {
	holder = 1044794
}

844.2.1 = {
	holder = 1045036
}

893.2.1 = {
	holder = 1046393
}

