200.2.1 = {
	holder = 1000032
	law = succ_feudal_elective
	law = cognatic_succession
}

200.2.2 = {
	holder = 1001598
	law = succ_feudal_elective
	law = cognatic_succession
}

200.2.3 = {
	liege = d_qyelapa
}

200.2.4 = {
	liege = d_tuseja
}

200.2.5 = {
	holder = 1001608
	law = succ_feudal_elective
	law = cognatic_succession
}

240.2.1 = {
	holder = 1003116
}

250.2.1 = {
	holder = 1005547
}

273.2.1 = {
	holder = 1007398
}

280.2.1 = {
	holder = 1004588
}

281.2.1 = {
	holder = 1008418
}

292.2.1 = {
	holder = 1008684
}

315.2.1 = {
	holder = 1010276
}

365.2.1 = {
	holder = 1013471
}

366.2.1 = {
	holder = 1012692
}

375.2.1 = {
	holder = 1013034
}

403.2.1 = {
	holder = 1015504
}

406.2.1 = {
	holder = 1015570
}

411.2.1 = {
	holder = 1017118
}

441.2.1 = {
	holder = 1017272
}

443.2.1 = {
	holder = 1018017
}

456.2.1 = {
	holder = 1019424
}

456.2.2 = {
	holder = 1020188
}

499.2.1 = {
	holder = 1020388
}

503.2.1 = {
	holder = 1021761
}

504.2.1 = {
	holder = 1023251
}

515.2.1 = {
	holder = 1021836
}

515.2.2 = {
	holder = 1023961
}

517.2.1 = {
	holder = 1023300
}

553.2.1 = {
	holder = 1024743
}

563.2.1 = {
	holder = 1026763
}

585.2.1 = {
	holder = 1028453
}

631.2.1 = {
	holder = 1029567
}

663.2.1 = {
	holder = 1032231
}

664.2.1 = {
	holder = 1029031
}

668.2.1 = {
	holder = 1033851
}

669.2.1 = {
	holder = 1033921
}

673.2.1 = {
	holder = 1034179
}

711.2.1 = {
	holder = 1034183
}

732.2.1 = {
	holder = 1036301
}

744.2.1 = {
	holder = 1036840
}

773.2.1 = {
	holder = 1039178
}

784.2.1 = {
	holder = 1041364
}

795.2.1 = {
	holder = 1041365
}

814.2.1 = {
	holder = 1043385
}

830.2.1 = {
	holder = 1043727
}

843.2.1 = {
	holder = 1044751
}

886.2.1 = {
	holder = 1045906
}

