200.2.1 = {
	holder = 1000015
	law = succ_seniority
	law = cognatic_succession
}

200.2.2 = {
	holder = 1000444
	law = succ_seniority
	law = cognatic_succession
}

200.2.3 = {
	liege = d_sacold
}

200.2.4 = {
	holder = 1000443
	law = succ_seniority
	law = cognatic_succession
}

200.2.5 = {
	holder = 1000527
}

236.2.1 = {
	holder = 1002018
}

267.2.1 = {
	holder = 1004057
}

295.2.1 = {
	holder = 1005254
}

307.2.1 = {
	holder = 1006668
}

333.2.1 = {
	holder = 1007279
}

374.2.1 = {
	holder = 1008206
}

393.2.1 = {
	holder = 1010411
}

394.2.1 = {
	holder = 1010212
}

403.2.1 = {
	holder = 1011792
}

416.2.1 = {
	holder = 1011373
}

434.2.1 = {
	holder = 1013039
}

440.2.1 = {
	holder = 1010354
}

441.2.1 = {
	holder = 1011522
}

452.2.1 = {
	holder = 1013714
}

522.2.1 = {
	holder = 1014518
}

600.2.1 = {
	holder = 1020191
}

640.2.1 = {
	holder = 1021189
}

661.2.1 = {
	holder = 1024009
}

690.2.1 = {
	holder = 1024844
}

732.2.1 = {
	holder = 1025903
}

734.2.1 = {
	holder = 1027683
}

747.2.1 = {
	holder = 1026434
}

763.2.1 = {
	holder = 1027091
}

767.2.1 = {
	holder = 1029161
}

776.2.1 = {
	holder = 1029286
}

776.2.2 = {
	holder = 1029800
}

788.2.1 = {
	holder = 1030052
}

834.2.1 = {
	holder = 1030872
}

842.2.1 = {
	holder = 1032765
}

885.2.1 = {
	holder = 1033753
}

894.2.1 = {
	holder = 1035075
}

899.2.1 = {
	holder = 1033701
}

900.2.1 = {
	holder = 1035710
}

903.2.1 = {
	holder = 1035729
}

915.2.1 = {
	holder = 1035624
}

921.2.1 = {
	holder = 1036665
}

935.2.1 = {
	holder = 1036770
}

940.2.1 = {
	holder = 1034811
}

941.2.1 = {
	holder = 1037591
}

991.2.1 = {
	holder = 1037643
}

1006.2.1 = {
	holder = 1040245
}

1014.2.1 = {
	holder = 1041066
}

