200.2.1 = {
	holder = 1000014
	law = succ_elective_gavelkind
	law = agnatic_succession
}

200.2.2 = {
	holder = 1000917
	law = succ_elective_gavelkind
	law = agnatic_succession
}

200.2.3 = {
	liege = d_ekuraga
}

200.2.4 = {
	holder = 1000918
	law = succ_elective_gavelkind
	law = agnatic_succession
}

200.2.5 = {
	holder = 1000915
	law = succ_elective_gavelkind
	law = agnatic_succession
}

211.2.1 = {
	holder = 1000895
}

211.2.2 = {
	holder = 1003745
}

244.2.1 = {
	holder = 1003973
}

280.2.1 = {
	holder = 1006883
}

288.2.1 = {
	holder = 1008725
}

322.2.1 = {
	holder = 1010063
}

357.2.1 = {
	holder = 1011651
}

369.2.1 = {
	holder = 1013589
}

391.2.1 = {
	holder = 1015180
}

448.2.1 = {
	holder = 1016322
}

462.2.1 = {
	holder = 1020296
}

472.2.1 = {
	holder = 1018766
}

474.2.1 = {
	holder = 1020618
}

475.2.1 = {
	holder = 1021384
}

514.2.1 = {
	holder = 1021647
}

515.2.1 = {
	holder = 1023922
}

516.2.1 = {
	holder = 1022003
}

516.2.2 = {
	holder = 1024014
}

547.2.1 = {
	holder = 1024224
}

555.2.1 = {
	holder = 1026156
}

557.2.1 = {
	holder = 1026326
}

558.2.1 = {
	holder = 1026696
}

569.2.1 = {
	holder = 1026890
}

584.2.1 = {
	holder = 1025564
}

585.2.1 = {
	holder = 1028433
}

610.2.1 = {
	holder = 1028567
}

629.2.1 = {
	holder = 1028180
}

631.2.1 = {
	holder = 1029546
}

632.2.1 = {
	holder = 1030257
}

633.2.1 = {
	holder = 1031552
}

712.2.1 = {
	holder = 1033175
}

718.2.1 = {
	holder = 1037005
}

735.2.1 = {
	holder = 1038277
}

744.2.1 = {
	holder = 1038308
}

757.2.1 = {
	holder = 1039355
}

758.2.1 = {
	holder = 1037369
}

759.2.1 = {
	holder = 1039750
}

774.2.1 = {
	holder = 1040775
}

779.2.1 = {
	holder = 1040811
}

821.2.1 = {
	holder = 1041986
}

855.2.1 = {
	holder = 1043941
}

857.2.1 = {
	holder = 1041984
}

858.2.1 = {
	holder = 1046206
}

