200.2.1 = {
	holder = 1000034
	law = succ_feudal_elective
	law = cognatic_succession
}

200.2.2 = {
	holder = 1001068
	law = succ_feudal_elective
	law = cognatic_succession
}

200.2.3 = {
	liege = d_walonrilg
}

200.2.4 = {
	holder = 1001066
	law = succ_feudal_elective
	law = cognatic_succession
}

229.2.1 = {
	holder = 1002580
}

295.2.1 = {
	holder = 1003719
}

300.2.1 = {
	holder = 1006681
}

306.2.1 = {
	holder = 1005129
}

320.2.1 = {
	holder = 1007008
}

321.2.1 = {
	holder = 1007793
}

500.2.1 = {
	holder = 1014661
}

525.2.1 = {
	holder = 1016345
}

538.2.1 = {
	holder = 1017727
}

546.2.1 = {
	holder = 1017237
}

549.2.1 = {
	holder = 1017535
}

580.2.1 = {
	holder = 1020336
}

589.2.1 = {
	holder = 1020345
}

631.2.1 = {
	holder = 1021202
}

661.2.1 = {
	holder = 1022950
}

688.2.1 = {
	holder = 1024575
}

733.2.1 = {
	holder = 1025577
}

747.2.1 = {
	holder = 1027661
}

778.2.1 = {
	holder = 1028560
}

808.2.1 = {
	holder = 1030954
}

813.2.1 = {
	holder = 1031620
}

822.2.1 = {
	holder = 1032050
}

847.2.1 = {
	holder = 1032147
}

858.2.1 = {
	holder = 1032186
}

873.2.1 = {
	holder = 1034410
}

915.2.1 = {
	holder = 1034701
}

934.2.1 = {
	holder = 1036470
}

969.2.1 = {
	holder = 1037569
}

1003.2.1 = {
	holder = 1039768
}

1003.2.2 = {
	holder = 1040566
}

1014.2.1 = {
	holder = 1040751
}

1021.2.1 = {
	holder = 1038340
}

1022.2.1 = {
	holder = 1041482
}

1058.2.1 = {
	holder = 1041712
}

