200.2.1 = {
	holder = 1000024
	law = succ_feudal_elective
	law = cognatic_succession
}

200.2.2 = {
	holder = 1001422
	law = succ_feudal_elective
	law = cognatic_succession
}

200.2.3 = {
	liege = d_abolava
}

200.2.4 = {
	holder = 1001421
	law = succ_feudal_elective
	law = cognatic_succession
}

245.2.1 = {
	holder = 1002851
}

254.2.1 = {
	holder = 1006343
}

315.2.1 = {
	holder = 1007534
}

320.2.1 = {
	holder = 1008370
}

326.2.1 = {
	holder = 1011104
}

361.2.1 = {
	holder = 1012198
}

397.2.1 = {
	holder = 1014496
}

424.2.1 = {
	holder = 1017012
}

425.2.1 = {
	holder = 1014402
}

426.2.1 = {
	holder = 1018184
}

443.2.1 = {
	holder = 1018296
}

501.2.1 = {
	holder = 1019868
}

502.2.1 = {
	holder = 1021637
}

509.2.1 = {
	holder = 1023023
}

518.2.1 = {
	holder = 1022438
}

544.2.1 = {
	holder = 1022494
}

544.2.2 = {
	holder = 1025820
}

562.2.1 = {
	holder = 1025972
}

587.2.1 = {
	holder = 1027456
}

592.2.1 = {
	holder = 1028689
}

640.2.1 = {
	holder = 1031110
}

678.2.1 = {
	holder = 1032820
}

701.2.1 = {
	holder = 1034649
}

746.2.1 = {
	holder = 1036344
}

757.2.1 = {
	holder = 1039298
}

806.2.1 = {
	holder = 1041753
}

810.2.1 = {
	holder = 1042855
}

818.2.1 = {
	holder = 1041814
}

818.2.2 = {
	holder = 1041230
}

846.2.1 = {
	holder = 1044609
}

897.2.1 = {
	holder = 1047584
}

