200.2.1 = {
	holder = 1000000
	law = succ_elective_gavelkind
	law = agnatic_succession
}

200.2.2 = {
	holder = 1000002
	law = succ_elective_gavelkind
	law = agnatic_succession
}

200.2.3 = {
	holder = 1000220
	law = succ_seniority
	law = cognatic_succession
}

200.2.4 = {
	liege = d_tahani
}

200.2.5 = {
	holder = 1000221
	law = succ_elective_gavelkind
	law = agnatic_succession
}

200.2.6 = {
	holder = 1000218
	law = succ_seniority
	law = cognatic_succession
}

243.2.1 = {
	holder = 1004181
}

262.2.1 = {
	holder = 1006157
}

273.2.1 = {
	holder = 1007426
}

287.2.1 = {
	holder = 1005285
}

291.2.1 = {
	holder = 1006740
}

306.2.1 = {
	holder = 1009248
}

308.2.1 = {
	holder = 1010292
}

329.2.1 = {
	holder = 1011041
}

337.2.1 = {
	holder = 1009248
}

341.2.1 = {
	holder = 1011122
}

342.2.1 = {
	holder = 1012556
}

388.2.1 = {
	holder = 1012736
}

400.2.1 = {
	holder = 1015661
}

404.2.1 = {
	holder = 1016041
}

421.2.1 = {
	holder = 1016467
}

422.2.1 = {
	holder = 1012791
}

500.2.1 = {
	holder = 1020597
}

500.2.2 = {
	holder = 1022901
}

600.2.1 = {
	holder = 1027680
}

600.2.2 = {
	holder = 1029328
}

700.2.1 = {
	holder = 1033696
}

705.2.1 = {
	holder = 1034321
}

732.2.1 = {
	holder = 1036451
}

767.2.1 = {
	holder = 1038139
}

786.2.1 = {
	holder = 1040974
}

806.2.1 = {
	holder = 1042565
}

814.2.1 = {
	holder = 1042759
}

815.2.1 = {
	holder = 1043413
}

900.2.1 = {
	holder = 1043414
}

900.2.2 = {
	holder = 1047790
}

