200.2.1 = {
	holder = 1000007
	law = succ_gavelkind
	law = agnatic_succession
}

200.2.2 = {
	holder = 1000332
	law = succ_gavelkind
	law = agnatic_succession
}

200.2.3 = {
	liege = d_ryoukan
}

200.2.4 = {
	holder = 1000331
	law = succ_gavelkind
	law = agnatic_succession
}

200.2.5 = {
	holder = 1001483
}

217.2.1 = {
	holder = 1002824
}

246.2.1 = {
	holder = 1003607
}

265.2.1 = {
	holder = 1004402
}

332.2.1 = {
	holder = 1006051
}

339.2.1 = {
	holder = 1008439
}

390.2.1 = {
	holder = 1009166
}

396.2.1 = {
	holder = 1009354
}

408.2.1 = {
	holder = 1011371
}

411.2.1 = {
	holder = 1010121
}

412.2.1 = {
	holder = 1012260
}

438.2.1 = {
	holder = 1012591
}

489.2.1 = {
	holder = 1013811
}

501.2.1 = {
	holder = 1014958
}

502.2.1 = {
	holder = 1016559
}

536.2.1 = {
	holder = 1016846
}

542.2.1 = {
	holder = 1018099
}

545.2.1 = {
	holder = 1018657
}

575.2.1 = {
	holder = 1019246
}

582.2.1 = {
	holder = 1020270
}

631.2.1 = {
	holder = 1020225
}

632.2.1 = {
	holder = 1022806
}

669.2.1 = {
	holder = 1023300
}

681.2.1 = {
	holder = 1024702
}

689.2.1 = {
	holder = 1023385
}

690.2.1 = {
	holder = 1025548
}

707.2.1 = {
	holder = 1023524
}

709.2.1 = {
	holder = 1025550
}

716.2.1 = {
	holder = 1024092
}

716.2.2 = {
	holder = 1026875
}

763.2.1 = {
	holder = 1027039
}

776.2.1 = {
	holder = 1029056
}

794.2.1 = {
	holder = 1030604
}

830.2.1 = {
	holder = 1030695
}

839.2.1 = {
	holder = 1031647
}

848.2.1 = {
	holder = 1033218
}

849.2.1 = {
	holder = 1033276
}

859.2.1 = {
	holder = 1031861
}

859.2.2 = {
	holder = 1033747
}

884.2.1 = {
	holder = 1034270
}

932.2.1 = {
	holder = 1035533
}

934.2.1 = {
	holder = 1037187
}

953.2.1 = {
	holder = 1038119
}

955.2.1 = {
	holder = 1036719
}

974.2.1 = {
	holder = 1039122
}

988.2.1 = {
	holder = 1039181
}

1014.2.1 = {
	holder = 1040140
}

1027.2.1 = {
	holder = 1041282
}

1037.2.1 = {
	holder = 1040727
}

1038.2.1 = {
	holder = 1042262
}

1042.2.1 = {
	holder = 1042318
}

