200.2.1 = {
	holder = 1000001
	law = succ_tanistry
	law = agnatic_succession
}

200.2.2 = {
	holder = 1000196
	law = succ_tanistry
	law = agnatic_succession
}

200.2.3 = {
	liege = d_erogid
}

200.2.4 = {
	holder = 1000197
	law = succ_elective_gavelkind
	law = agnatic_succession
}

200.2.5 = {
	liege = d_logelen
}

200.2.6 = {
	holder = 1000198
	law = succ_tanistry
	law = agnatic_succession
}

225.2.1 = {
	holder = 1002915
}

255.2.1 = {
	holder = 1006156
}

300.2.1 = {
	holder = 1007355
}

334.2.1 = {
	holder = 1009767
}

346.2.1 = {
	holder = 1012445
}

404.2.1 = {
	holder = 1013779
}

435.2.1 = {
	holder = 1018123
}

478.2.1 = {
	holder = 1019580
}

501.2.1 = {
	holder = 1021733
}

512.2.1 = {
	holder = 1023083
}

523.2.1 = {
	holder = 1024267
}

546.2.1 = {
	holder = 1025481
}

575.2.1 = {
	holder = 1026608
}

583.2.1 = {
	holder = 1028092
}

635.2.1 = {
	holder = 1029106
}

660.2.1 = {
	holder = 1031788
}

667.2.1 = {
	holder = 1032118
}

687.2.1 = {
	holder = 1033309
}

705.2.1 = {
	holder = 1034991
}

705.2.2 = {
	holder = 1036319
}

743.2.1 = {
	holder = 1036652
}

771.2.1 = {
	holder = 1038798
}

804.2.1 = {
	holder = 1041136
}

822.2.1 = {
	holder = 1042761
}

823.2.1 = {
	holder = 1043416
}

846.2.1 = {
	holder = 1045384
}

856.2.1 = {
	holder = 1041411
}

856.2.2 = {
	holder = 1046086
}

874.2.1 = {
	holder = 1044727
}

878.2.1 = {
	holder = 1045383
}

880.2.1 = {
	holder = 1046308
}

885.2.1 = {
	holder = 1047793
}

