200.2.1 = {
	holder = 1000004
	law = succ_seniority
	law = cognatic_succession
}

200.2.2 = {
	holder = 1000005
	law = succ_elective_gavelkind
	law = agnatic_succession
}

200.2.3 = {
	holder = 1000505
	law = succ_tanistry
	law = cognatic_succession
}

200.2.4 = {
	liege = d_bomade
}

200.2.5 = {
	holder = 1000506
	law = succ_elective_gavelkind
	law = agnatic_succession
}

200.2.6 = {
	holder = 1000503
	law = succ_tanistry
	law = cognatic_succession
}

209.2.1 = {
	holder = 1002149
}

214.2.1 = {
	holder = 1000527
}

227.2.1 = {
	holder = 1002155
}

238.2.1 = {
	holder = 1005299
}

244.2.1 = {
	holder = 1005800
}

249.2.1 = {
	holder = 1005151
}

256.2.1 = {
	holder = 1006734
}

293.2.1 = {
	holder = 1008133
}

329.2.1 = {
	holder = 1009264
}

347.2.1 = {
	holder = 1011967
}

366.2.1 = {
	holder = 1013215
}

399.2.1 = {
	holder = 1014769
}

426.2.1 = {
	holder = 1017452
}

475.2.1 = {
	holder = 1019522
}

505.2.1 = {
	holder = 1021737
}

551.2.1 = {
	holder = 1023530
}

566.2.1 = {
	holder = 1026319
}

605.2.1 = {
	holder = 1027385
}

635.2.1 = {
	holder = 1029350
}

637.2.1 = {
	holder = 1029791
}

643.2.1 = {
	holder = 1028241
}

643.2.2 = {
	holder = 1028421
}

654.2.1 = {
	holder = 1032271
}

657.2.1 = {
	holder = 1031451
}

692.2.1 = {
	holder = 1033165
}

711.2.1 = {
	holder = 1036180
}

737.2.1 = {
	holder = 1037125
}

738.2.1 = {
	holder = 1038430
}

743.2.1 = {
	holder = 1038429
}

757.2.1 = {
	holder = 1039284
}

800.2.1 = {
	holder = 1042350
}

824.2.1 = {
	holder = 1042996
}

827.2.1 = {
	holder = 1041029
}

829.2.1 = {
	holder = 1044068
}

830.2.1 = {
	holder = 1044378
}

866.2.1 = {
	holder = 1044589
}

892.2.1 = {
	holder = 1047015
}

