200.2.1 = {
	holder = 1000005
	law = succ_tanistry
	law = cognatic_succession
}

200.2.2 = {
	holder = 1000490
	law = succ_tanistry
	law = cognatic_succession
}

200.2.3 = {
	liege = d_romade
}

200.2.4 = {
	holder = 1000491
	law = succ_elective_gavelkind
	law = agnatic_succession
}

200.2.5 = {
	holder = 1000487
	law = succ_tanistry
	law = cognatic_succession
}

201.2.1 = {
	holder = 1001999
}

201.2.2 = {
	holder = 1002748
}

252.2.1 = {
	holder = 1002896
}

262.2.1 = {
	holder = 1006495
}

263.2.1 = {
	holder = 1005876
}

275.2.1 = {
	holder = 1008055
}

317.2.1 = {
	holder = 1008646
}

326.2.1 = {
	holder = 1011199
}

357.2.1 = {
	holder = 1013450
}

368.2.1 = {
	holder = 1012716
}

402.2.1 = {
	holder = 1016528
}

422.2.1 = {
	holder = 1017036
}

447.2.1 = {
	holder = 1018532
}

450.2.1 = {
	holder = 1019806
}

488.2.1 = {
	holder = 1020355
}

520.2.1 = {
	holder = 1022436
}

556.2.1 = {
	holder = 1025818
}

559.2.1 = {
	holder = 1024040
}

559.2.2 = {
	holder = 1021781
}

567.2.1 = {
	holder = 1024040
}

567.2.2 = {
	holder = 1027256
}

585.2.1 = {
	holder = 1027384
}

594.2.1 = {
	holder = 1028979
}

610.2.1 = {
	holder = 1030052
}

636.2.1 = {
	holder = 1031146
}

637.2.1 = {
	holder = 1028163
}

638.2.1 = {
	holder = 1031857
}

677.2.1 = {
	holder = 1032194
}

696.2.1 = {
	holder = 1034817
}

738.2.1 = {
	holder = 1036095
}

757.2.1 = {
	holder = 1038544
}

802.2.1 = {
	holder = 1039782
}

819.2.1 = {
	holder = 1040075
}

832.2.1 = {
	holder = 1041334
}

848.2.1 = {
	holder = 1044699
}

873.2.1 = {
	holder = 1046168
}

