200.2.1 = {
	holder = 1000021
	law = succ_open_elective
	law = agnatic_succession
}

200.2.2 = {
	holder = 1000022
	law = succ_elective_gavelkind
	law = agnatic_succession
}

200.2.3 = {
	liege = d_kanuber
}

200.2.4 = {
	liege = d_kanuber
}

200.2.5 = {
	holder = 1001371
	law = succ_tanistry
	law = agnatic_succession
}

218.2.1 = {
	holder = 1002847
}

223.2.1 = {
	holder = 1004274
}

253.2.1 = {
	holder = 1005404
}

279.2.1 = {
	holder = 1008324
}

318.2.1 = {
	holder = 1008550
}

324.2.1 = {
	holder = 1011443
}

335.2.1 = {
	holder = 1012111
}

351.2.1 = {
	holder = 1012991
}

351.2.2 = {
	holder = 1013196
}

378.2.1 = {
	holder = 1012961
}

379.2.1 = {
	holder = 1014345
}

400.2.1 = {
	holder = 1012074
}

421.2.1 = {
	holder = 1016861
}

437.2.1 = {
	holder = 1015888
}

437.2.2 = {
	holder = 1018946
}

480.2.1 = {
	holder = 1019145
}

498.2.1 = {
	holder = 1021803
}

524.2.1 = {
	holder = 1022407
}

540.2.1 = {
	holder = 1023741
}

546.2.1 = {
	holder = 1025644
}

582.2.1 = {
	holder = 1028121
}

583.2.1 = {
	holder = 1027142
}

584.2.1 = {
	holder = 1028382
}

653.2.1 = {
	holder = 1028577
}

656.2.1 = {
	holder = 1031293
}

657.2.1 = {
	holder = 1033126
}

675.2.1 = {
	holder = 1031293
}

676.2.1 = {
	holder = 1034345
}

693.2.1 = {
	holder = 1035486
}

717.2.1 = {
	holder = 1037088
}

719.2.1 = {
	holder = 1036138
}

733.2.1 = {
	holder = 1037921
}

794.2.1 = {
	holder = 1041992
}

806.2.1 = {
	holder = 1041046
}

814.2.1 = {
	holder = 1043376
}

826.2.1 = {
	holder = 1043444
}

864.2.1 = {
	holder = 1044538
}

874.2.1 = {
	holder = 1046903
}

