200.2.1 = {
	holder = 1000033
	law = succ_open_elective
	law = cognatic_succession
}

200.2.2 = {
	holder = 1000915
	law = succ_open_elective
	law = cognatic_succession
}

200.2.3 = {
	liege = d_togorgo
}

200.2.4 = {
	holder = 1000913
	law = succ_open_elective
	law = cognatic_succession
}

217.2.1 = {
	holder = 1002124
}

244.2.1 = {
	holder = 1003452
}

293.2.1 = {
	holder = 1006447
}

299.2.1 = {
	holder = 1006542
}

305.2.1 = {
	holder = 1006716
}

305.2.2 = {
	holder = 1007015
}

400.2.1 = {
	holder = 1011242
}

408.2.1 = {
	holder = 1011142
}

426.2.1 = {
	holder = 1011442
}

440.2.1 = {
	holder = 1013332
}

455.2.1 = {
	holder = 1014154
}

485.2.1 = {
	holder = 1014986
}

494.2.1 = {
	holder = 1014199
}

510.2.1 = {
	holder = 1016155
}

522.2.1 = {
	holder = 1016819
}

523.2.1 = {
	holder = 1017588
}

534.2.1 = {
	holder = 1017828
}

581.2.1 = {
	holder = 1019177
}

619.2.1 = {
	holder = 1021163
}

638.2.1 = {
	holder = 1021476
}

638.2.2 = {
	holder = 1023132
}

688.2.1 = {
	holder = 1023224
}

691.2.1 = {
	holder = 1024719
}

742.2.1 = {
	holder = 1026328
}

753.2.1 = {
	holder = 1028614
}

793.2.1 = {
	holder = 1029466
}

822.2.1 = {
	holder = 1031289
}

864.2.1 = {
	holder = 1032185
}

880.2.1 = {
	holder = 1034409
}

894.2.1 = {
	holder = 1034286
}

894.2.2 = {
	holder = 1035370
}

1000.2.1 = {
	holder = 1035679
}

1000.2.2 = {
	holder = 1038086
}

1000.2.3 = {
	holder = 1038481
}

1019.2.1 = {
	holder = 1040563
}

1045.2.1 = {
	holder = 1041478
}

1054.2.1 = {
	holder = 1042683
}

