200.2.1 = {
	holder = 1000046
	law = succ_open_elective
	law = agnatic_succession
}

200.2.2 = {
	holder = 1001884
	law = succ_open_elective
	law = agnatic_succession
}

200.2.3 = {
	liege = d_sofara
}

200.2.4 = {
	holder = 1001882
	law = succ_open_elective
	law = agnatic_succession
}

207.2.1 = {
	holder = 1002036
}

234.2.1 = {
	holder = 1002765
}

266.2.1 = {
	holder = 1005356
}

289.2.1 = {
	holder = 1008986
}

322.2.1 = {
	holder = 1010963
}

334.2.1 = {
	holder = 1012077
}

344.2.1 = {
	holder = 1011835
}

381.2.1 = {
	holder = 1012929
}

392.2.1 = {
	holder = 1015525
}

421.2.1 = {
	holder = 1017832
}

441.2.1 = {
	holder = 1018244
}

450.2.1 = {
	holder = 1019439
}

457.2.1 = {
	holder = 1020273
}

492.2.1 = {
	holder = 1020511
}

526.2.1 = {
	holder = 1022574
}

556.2.1 = {
	holder = 1024675
}

563.2.1 = {
	holder = 1026589
}

564.2.1 = {
	holder = 1027103
}

700.2.1 = {
	holder = 1033868
}

717.2.1 = {
	holder = 1034062
}

736.2.1 = {
	holder = 1038046
}

741.2.1 = {
	holder = 1037105
}

756.2.1 = {
	holder = 1037699
}

787.2.1 = {
	holder = 1039980
}

832.2.1 = {
	holder = 1042971
}

839.2.1 = {
	holder = 1044762
}

846.2.1 = {
	holder = 1045439
}

892.2.1 = {
	holder = 1045568
}

