200.2.1 = {
	holder = 1000005
	law = succ_open_elective
	law = cognatic_succession
}

200.2.2 = {
	liege = d_awinudah
}

200.2.3 = {
	liege = d_awinudah
}

200.2.4 = {
	holder = 1000302
	law = succ_primogeniture
	law = cognatic_succession
}

229.2.1 = {
	holder = 1003059
}

242.2.1 = {
	holder = 1003807
}

245.2.1 = {
	holder = 1003097
}

245.2.2 = {
	holder = 1004185
}

293.2.1 = {
	holder = 1004355
}

294.2.1 = {
	holder = 1003651
}

294.2.2 = {
	holder = 1006469
}

323.2.1 = {
	holder = 1006570
}

341.2.1 = {
	holder = 1006569
}

342.2.1 = {
	holder = 1008792
}

344.2.1 = {
	holder = 1007774
}

347.2.1 = {
	holder = 1007809
}

348.2.1 = {
	holder = 1009057
}

348.2.2 = {
	holder = 1009062
}

349.2.1 = {
	holder = 1007809
}

350.2.1 = {
	holder = 1009158
}

375.2.1 = {
	holder = 1009649
}

398.2.1 = {
	holder = 1010602
}

408.2.1 = {
	holder = 1010121
}

409.2.1 = {
	holder = 1009485
}

417.2.1 = {
	holder = 1008964
}

420.2.1 = {
	holder = 1012550
}

424.2.1 = {
	holder = 1012259
}

424.2.2 = {
	holder = 1012813
}

471.2.1 = {
	holder = 1013397
}

487.2.1 = {
	holder = 1015214
}

506.2.1 = {
	holder = 1015147
}

506.2.2 = {
	holder = 1016774
}

515.2.1 = {
	holder = 1016793
}

559.2.1 = {
	holder = 1017761
}

582.2.1 = {
	holder = 1019408
}

606.2.1 = {
	holder = 1020724
}

619.2.1 = {
	holder = 1021594
}

625.2.1 = {
	holder = 1022348
}

632.2.1 = {
	holder = 1020906
}

632.2.2 = {
	holder = 1022851
}

647.2.1 = {
	holder = 1022159
}

648.2.1 = {
	holder = 1023592
}

660.2.1 = {
	holder = 1023798
}

662.2.1 = {
	holder = 1024246
}

704.2.1 = {
	holder = 1024259
}

726.2.1 = {
	holder = 1026480
}

732.2.1 = {
	holder = 1027553
}

756.2.1 = {
	holder = 1028302
}

765.2.1 = {
	holder = 1029097
}

785.2.1 = {
	holder = 1028650
}

791.2.1 = {
	holder = 1029694
}

802.2.1 = {
	holder = 1030987
}

802.2.2 = {
	holder = 1030649
}

808.2.1 = {
	holder = 1029589
}

808.2.2 = {
	holder = 1031356
}

846.2.1 = {
	holder = 1031423
}

867.2.1 = {
	holder = 1033470
}

884.2.1 = {
	holder = 1034622
}

901.2.1 = {
	holder = 1035646
}

904.2.1 = {
	holder = 1034761
}

905.2.1 = {
	holder = 1035907
}

915.2.1 = {
	holder = 1035955
}

933.2.1 = {
	holder = 1035529
}

945.2.1 = {
	holder = 1037768
}

969.2.1 = {
	holder = 1037850
}

1001.2.1 = {
	holder = 1040426
}

1028.2.1 = {
	holder = 1040636
}

1057.2.1 = {
	holder = 1041998
}

