200.2.1 = {
	holder = 1000017
	law = succ_primogeniture
	law = agnatic_succession
}

200.2.2 = {
	holder = 1001184
	law = succ_primogeniture
	law = agnatic_succession
}

200.2.3 = {
	liege = d_tamarao
}

200.2.4 = {
	liege = d_natita
}

200.2.5 = {
	holder = 1001132
	law = succ_primogeniture
	law = agnatic_succession
}

204.2.1 = {
	holder = 1003095
}

206.2.1 = {
	holder = 1002018
}

206.2.2 = {
	holder = 1003349
}

225.2.1 = {
	holder = 1002759
}

253.2.1 = {
	holder = 1005086
}

287.2.1 = {
	holder = 1007990
}

289.2.1 = {
	holder = 1007663
}

290.2.1 = {
	holder = 1009032
}

309.2.1 = {
	holder = 1009064
}

310.2.1 = {
	holder = 1007447
}

343.2.1 = {
	holder = 1011069
}

359.2.1 = {
	holder = 1012682
}

398.2.1 = {
	holder = 1013738
}

419.2.1 = {
	holder = 1015374
}

419.2.2 = {
	holder = 1015431
}

433.2.1 = {
	holder = 1018664
}

453.2.1 = {
	holder = 1019599
}

508.2.1 = {
	holder = 1022153
}

525.2.1 = {
	holder = 1023677
}

554.2.1 = {
	holder = 1023142
}

554.2.2 = {
	holder = 1021868
}

555.2.1 = {
	holder = 1026096
}

569.2.1 = {
	holder = 1026754
}

614.2.1 = {
	holder = 1027778
}

636.2.1 = {
	holder = 1030396
}

650.2.1 = {
	holder = 1030796
}

651.2.1 = {
	holder = 1032780
}

686.2.1 = {
	holder = 1033713
}

692.2.1 = {
	holder = 1035438
}

718.2.1 = {
	holder = 1036135
}

761.2.1 = {
	holder = 1037679
}

763.2.1 = {
	holder = 1040030
}

781.2.1 = {
	holder = 1037914
}

781.2.2 = {
	holder = 1037983
}

792.2.1 = {
	holder = 1041222
}

833.2.1 = {
	holder = 1043871
}

844.2.1 = {
	holder = 1042323
}

848.2.1 = {
	holder = 1043903
}

882.2.1 = {
	holder = 1047098
}

883.2.1 = {
	holder = 1047781
}

