200.2.1 = {
	holder = 1000013
	law = succ_gavelkind
	law = cognatic_succession
}

200.2.2 = {
	liege = d_roltaray
}

200.2.3 = {
	liege = d_narin
}

200.2.4 = {
	holder = 1000376
	law = succ_gavelkind
	law = cognatic_succession
}

200.2.5 = {
	holder = 1001386
}

252.2.1 = {
	holder = 1001902
}

265.2.1 = {
	holder = 1005149
}

272.2.1 = {
	holder = 1005457
}

282.2.1 = {
	holder = 1005940
}

286.2.1 = {
	holder = 1006117
}

315.2.1 = {
	holder = 1006299
}

320.2.1 = {
	holder = 1007759
}

321.2.1 = {
	holder = 1007810
}

356.2.1 = {
	holder = 1008039
}

378.2.1 = {
	holder = 1009488
}

398.2.1 = {
	holder = 1008586
}

398.2.2 = {
	holder = 1009045
}

402.2.1 = {
	holder = 1010838
}

403.2.1 = {
	holder = 1011842
}

461.2.1 = {
	holder = 1012147
}

466.2.1 = {
	holder = 1014793
}

481.2.1 = {
	holder = 1015557
}

491.2.1 = {
	holder = 1014136
}

509.2.1 = {
	holder = 1015557
}

509.2.2 = {
	holder = 1016929
}

544.2.1 = {
	holder = 1017119
}

550.2.1 = {
	holder = 1018530
}

553.2.1 = {
	holder = 1018797
}

553.2.2 = {
	holder = 1019091
}

582.2.1 = {
	holder = 1019248
}

614.2.1 = {
	holder = 1020565
}

614.2.2 = {
	holder = 1021973
}

654.2.1 = {
	holder = 1022220
}

673.2.1 = {
	holder = 1024056
}

707.2.1 = {
	holder = 1025854
}

713.2.1 = {
	holder = 1025888
}

713.2.2 = {
	holder = 1026712
}

737.2.1 = {
	holder = 1026841
}

749.2.1 = {
	holder = 1028154
}

761.2.1 = {
	holder = 1028233
}

761.2.2 = {
	holder = 1029035
}

775.2.1 = {
	holder = 1029247
}

818.2.1 = {
	holder = 1028653
}

835.2.1 = {
	holder = 1032613
}

835.2.2 = {
	holder = 1032621
}

880.2.1 = {
	holder = 1032869
}

901.2.1 = {
	holder = 1034763
}

933.2.1 = {
	holder = 1034809
}

944.2.1 = {
	holder = 1035911
}

964.2.1 = {
	holder = 1037777
}

1010.2.1 = {
	holder = 1039029
}

1010.2.2 = {
	holder = 1040876
}

1010.2.3 = {
	holder = 1040880
}

1049.2.1 = {
	holder = 1041063
}

1065.2.1 = {
	holder = 1042960
}

