200.2.1 = {
	holder = 1000033
	law = succ_elective_gavelkind
	law = agnatic_succession
}

200.2.2 = {
	holder = 1001621
	law = succ_tanistry
	law = cognatic_succession
}

200.2.3 = {
	liege = d_leutega
}

200.2.4 = {
	holder = 1001619
	law = succ_tanistry
	law = cognatic_succession
}

235.2.1 = {
	holder = 1002426
}

246.2.1 = {
	holder = 1005904
}

248.2.1 = {
	holder = 1003116
}

248.2.2 = {
	holder = 1006126
}

277.2.1 = {
	holder = 1006629
}

290.2.1 = {
	holder = 1007742
}

291.2.1 = {
	holder = 1009080
}

326.2.1 = {
	holder = 1011230
}

340.2.1 = {
	holder = 1009356
}

340.2.2 = {
	holder = 1012421
}

353.2.1 = {
	holder = 1012695
}

377.2.1 = {
	holder = 1014129
}

383.2.1 = {
	holder = 1015260
}

426.2.1 = {
	holder = 1017195
}

470.2.1 = {
	holder = 1019077
}

487.2.1 = {
	holder = 1021335
}

522.2.1 = {
	holder = 1022348
}

541.2.1 = {
	holder = 1025026
}

562.2.1 = {
	holder = 1026113
}

612.2.1 = {
	holder = 1027406
}

629.2.1 = {
	holder = 1031242
}

649.2.1 = {
	holder = 1031173
}

650.2.1 = {
	holder = 1032674
}

699.2.1 = {
	holder = 1032951
}

711.2.1 = {
	holder = 1036486
}

762.2.1 = {
	holder = 1037511
}

765.2.1 = {
	holder = 1040045
}

772.2.1 = {
	holder = 1037585
}

778.2.1 = {
	holder = 1038710
}

795.2.1 = {
	holder = 1041449
}

800.2.1 = {
	holder = 1040322
}

900.2.1 = {
	holder = 1047088
}

