200.2.1 = {
	holder = 1000006
	law = succ_primogeniture
	law = cognatic_succession
}

200.2.2 = {
	holder = 1000007
	law = succ_primogeniture
	law = cognatic_succession
}

200.2.3 = {
	liege = d_rezojan
}

200.2.4 = {
	liege = d_katudah
}

200.2.5 = {
	holder = 1000286
	law = succ_primogeniture
	law = cognatic_succession
}

230.2.1 = {
	holder = 1002245
}

259.2.1 = {
	holder = 1004005
}

295.2.1 = {
	holder = 1005114
}

328.2.1 = {
	holder = 1006618
}

358.2.1 = {
	holder = 1008198
}

367.2.1 = {
	holder = 1009617
}

379.2.1 = {
	holder = 1010461
}

402.2.1 = {
	holder = 1009354
}

402.2.2 = {
	holder = 1011744
}

444.2.1 = {
	holder = 1012051
}

453.2.1 = {
	holder = 1013858
}

480.2.1 = {
	holder = 1014130
}

480.2.2 = {
	holder = 1015460
}

549.2.1 = {
	holder = 1015769
}

551.2.1 = {
	holder = 1018528
}

600.2.1 = {
	holder = 1021270
}

603.2.1 = {
	holder = 1021095
}

603.2.2 = {
	holder = 1019157
}

607.2.1 = {
	holder = 1021547
}

617.2.1 = {
	holder = 1020225
}

632.2.1 = {
	holder = 1022807
}

646.2.1 = {
	holder = 1023385
}

694.2.1 = {
	holder = 1025760
}

737.2.1 = {
	holder = 1026106
}

762.2.1 = {
	holder = 1029056
}

800.2.1 = {
	holder = 1029242
}

805.2.1 = {
	holder = 1030045
}

805.2.2 = {
	holder = 1031151
}

854.2.1 = {
	holder = 1033517
}

890.2.1 = {
	holder = 1034268
}

896.2.1 = {
	holder = 1035391
}

921.2.1 = {
	holder = 1035529
}

934.2.1 = {
	holder = 1037235
}

975.2.1 = {
	holder = 1037283
}

988.2.1 = {
	holder = 1038374
}

1004.2.1 = {
	holder = 1039925
}

1005.2.1 = {
	holder = 1040635
}

1029.2.1 = {
	holder = 1041815
}

1062.2.1 = {
	holder = 1042155
}

