200.2.1 = {
	holder = 1000005
	law = succ_open_elective
	law = cognatic_succession
}

200.2.2 = {
	holder = 1000284
	law = succ_open_elective
	law = cognatic_succession
}

200.2.3 = {
	liege = d_nelajka
}

200.2.4 = {
	holder = 1000285
	law = succ_primogeniture
	law = cognatic_succession
}

200.2.5 = {
	liege = d_renadeth
}

200.2.6 = {
	holder = 1000258
	law = succ_open_elective
	law = cognatic_succession
}

200.2.7 = {
	holder = 1001382
}

225.2.1 = {
	holder = 1001987
}

231.2.1 = {
	holder = 1003514
}

276.2.1 = {
	holder = 1004184
}

277.2.1 = {
	holder = 1005679
}

400.2.1 = {
	holder = 1011451
}

416.2.1 = {
	holder = 1012452
}

419.2.1 = {
	holder = 1010195
}

419.2.2 = {
	holder = 1012626
}

419.2.3 = {
	holder = 1012146
}

420.2.1 = {
	holder = 1012657
}

442.2.1 = {
	holder = 1013301
}

468.2.1 = {
	holder = 1014884
}

488.2.1 = {
	holder = 1015147
}

512.2.1 = {
	holder = 1015993
}

513.2.1 = {
	holder = 1017105
}

524.2.1 = {
	holder = 1015908
}

564.2.1 = {
	holder = 1017310
}

568.2.1 = {
	holder = 1019783
}

576.2.1 = {
	holder = 1019897
}

625.2.1 = {
	holder = 1020965
}

661.2.1 = {
	holder = 1022592
}

688.2.1 = {
	holder = 1024784
}

723.2.1 = {
	holder = 1025693
}

740.2.1 = {
	holder = 1025504
}

756.2.1 = {
	holder = 1028650
}

791.2.1 = {
	holder = 1029694
}

802.2.1 = {
	holder = 1030649
}

808.2.1 = {
	holder = 1029589
}

808.2.2 = {
	holder = 1031355
}

851.2.1 = {
	holder = 1031593
}

862.2.1 = {
	holder = 1033605
}

909.2.1 = {
	holder = 1034529
}

918.2.1 = {
	holder = 1034181
}

918.2.2 = {
	holder = 1034939
}

1000.2.1 = {
	holder = 1038057
}

1066.2.1 = {
	holder = 1041812
}

