200.2.1 = {
	holder = 1000025
	law = succ_elective_gavelkind
	law = agnatic_succession
}

200.2.2 = {
	holder = 1001455
	law = succ_elective_gavelkind
	law = agnatic_succession
}

200.2.3 = {
	liege = d_revoga
}

200.2.4 = {
	holder = 1001453
	law = succ_elective_gavelkind
	law = agnatic_succession
}

212.2.1 = {
	holder = 1003578
}

235.2.1 = {
	holder = 1004838
}

249.2.1 = {
	holder = 1005127
}

262.2.1 = {
	holder = 1005755
}

263.2.1 = {
	holder = 1007202
}

312.2.1 = {
	holder = 1007257
}

321.2.1 = {
	holder = 1010870
}

324.2.1 = {
	holder = 1009626
}

342.2.1 = {
	holder = 1009714
}

361.2.1 = {
	holder = 1013177
}

368.2.1 = {
	holder = 1011661
}

369.2.1 = {
	holder = 1014346
}

416.2.1 = {
	holder = 1014472
}

423.2.1 = {
	holder = 1017549
}

427.2.1 = {
	holder = 1016068
}

428.2.1 = {
	holder = 1018298
}

482.2.1 = {
	holder = 1018645
}

485.2.1 = {
	holder = 1022016
}

527.2.1 = {
	holder = 1021216
}

528.2.1 = {
	holder = 1020381
}

531.2.1 = {
	holder = 1024890
}

544.2.1 = {
	holder = 1024954
}

545.2.1 = {
	holder = 1025922
}

554.2.1 = {
	holder = 1026285
}

556.2.1 = {
	holder = 1026185
}

569.2.1 = {
	holder = 1026649
}

592.2.1 = {
	holder = 1027580
}

610.2.1 = {
	holder = 1027845
}

611.2.1 = {
	holder = 1030169
}

615.2.1 = {
	holder = 1027782
}

616.2.1 = {
	holder = 1030491
}

648.2.1 = {
	holder = 1030997
}

678.2.1 = {
	holder = 1032941
}

688.2.1 = {
	holder = 1034579
}

706.2.1 = {
	holder = 1034115
}

722.2.1 = {
	holder = 1037433
}

724.2.1 = {
	holder = 1033788
}

728.2.1 = {
	holder = 1034173
}

729.2.1 = {
	holder = 1037874
}

751.2.1 = {
	holder = 1038104
}

773.2.1 = {
	holder = 1039988
}

773.2.2 = {
	holder = 1040721
}

815.2.1 = {
	holder = 1040177
}

821.2.1 = {
	holder = 1043825
}

824.2.1 = {
	holder = 1043883
}

864.2.1 = {
	holder = 1045177
}

873.2.1 = {
	holder = 1043827
}

882.2.1 = {
	holder = 1046821
}

