200.2.1 = {
	holder = 1000014
	law = succ_elective_gavelkind
	law = agnatic_succession
}

200.2.2 = {
	holder = 1000973
	law = succ_elective_gavelkind
	law = agnatic_succession
}

200.2.3 = {
	liege = d_ranuyasa
}

200.2.4 = {
	holder = 1000971
	law = succ_elective_gavelkind
	law = agnatic_succession
}

202.2.1 = {
	holder = 1002262
}

210.2.1 = {
	holder = 1002959
}

228.2.1 = {
	holder = 1002754
}

228.2.2 = {
	holder = 1004794
}

253.2.1 = {
	holder = 1006109
}

276.2.1 = {
	holder = 1005036
}

287.2.1 = {
	holder = 1007764
}

322.2.1 = {
	holder = 1009587
}

329.2.1 = {
	holder = 1010130
}

378.2.1 = {
	holder = 1011795
}

382.2.1 = {
	holder = 1014974
}

437.2.1 = {
	holder = 1016118
}

459.2.1 = {
	holder = 1019471
}

484.2.1 = {
	holder = 1020552
}

489.2.1 = {
	holder = 1020551
}

489.2.2 = {
	holder = 1017098
}

501.2.1 = {
	holder = 1022176
}

502.2.1 = {
	holder = 1023101
}

539.2.1 = {
	holder = 1023289
}

544.2.1 = {
	holder = 1025837
}

570.2.1 = {
	holder = 1026821
}

589.2.1 = {
	holder = 1028436
}

619.2.1 = {
	holder = 1029547
}

659.2.1 = {
	holder = 1031227
}

662.2.1 = {
	holder = 1033000
}

662.2.2 = {
	holder = 1033468
}

708.2.1 = {
	holder = 1033977
}

726.2.1 = {
	holder = 1036955
}

775.2.1 = {
	holder = 1040813
}

798.2.1 = {
	holder = 1041494
}

807.2.1 = {
	holder = 1042845
}

815.2.1 = {
	holder = 1043157
}

866.2.1 = {
	holder = 1041688
}

874.2.1 = {
	holder = 1047024
}

877.2.1 = {
	holder = 1045476
}

885.2.1 = {
	holder = 1047905
}

892.2.1 = {
	holder = 1048172
}

