200.2.1 = {
	holder = 1000016
	law = succ_elective_gavelkind
	law = agnatic_succession
}

200.2.2 = {
	holder = 1001084
	law = succ_elective_gavelkind
	law = agnatic_succession
}

200.2.3 = {
	liege = d_naigone
}

200.2.4 = {
	holder = 1001083
	law = succ_elective_gavelkind
	law = agnatic_succession
}

217.2.1 = {
	holder = 1002290
}

252.2.1 = {
	holder = 1004196
}

278.2.1 = {
	holder = 1006541
}

305.2.1 = {
	holder = 1008729
}

319.2.1 = {
	holder = 1010204
}

374.2.1 = {
	holder = 1011656
}

385.2.1 = {
	holder = 1014718
}

396.2.1 = {
	holder = 1015371
}

425.2.1 = {
	holder = 1014305
}

425.2.2 = {
	holder = 1018115
}

433.2.1 = {
	holder = 1018668
}

435.2.1 = {
	holder = 1018707
}

493.2.1 = {
	holder = 1020623
}

495.2.1 = {
	holder = 1021570
}

534.2.1 = {
	holder = 1023479
}

541.2.1 = {
	holder = 1025641
}

580.2.1 = {
	holder = 1026702
}

621.2.1 = {
	holder = 1030394
}

670.2.1 = {
	holder = 1031882
}

686.2.1 = {
	holder = 1034105
}

724.2.1 = {
	holder = 1035179
}

738.2.1 = {
	holder = 1036410
}

738.2.2 = {
	holder = 1038441
}

785.2.1 = {
	holder = 1038955
}

801.2.1 = {
	holder = 1042293
}

852.2.1 = {
	holder = 1043641
}

871.2.1 = {
	holder = 1046597
}

891.2.1 = {
	holder = 1047845
}

900.2.1 = {
	holder = 1048903
}

