200.2.1 = {
	holder = 1000008
	law = succ_gavelkind
	law = agnatic_succession
}

200.2.2 = {
	liege = d_lulo
}

200.2.3 = {
	liege = d_lulo
}

200.2.4 = {
	holder = 1000752
	law = succ_elective_gavelkind
	law = agnatic_succession
}

238.2.1 = {
	holder = 1002658
}

242.2.1 = {
	holder = 1005518
}

264.2.1 = {
	holder = 1007282
}

310.2.1 = {
	holder = 1009443
}

317.2.1 = {
	holder = 1010910
}

342.2.1 = {
	holder = 1012568
}

365.2.1 = {
	holder = 1012826
}

402.2.1 = {
	holder = 1014337
}

417.2.1 = {
	holder = 1016775
}

437.2.1 = {
	holder = 1017861
}

456.2.1 = {
	holder = 1019279
}

485.2.1 = {
	holder = 1022038
}

526.2.1 = {
	holder = 1022733
}

538.2.1 = {
	holder = 1024791
}

547.2.1 = {
	holder = 1025721
}

547.2.2 = {
	holder = 1026016
}

562.2.1 = {
	holder = 1026083
}

563.2.1 = {
	holder = 1027027
}

589.2.1 = {
	holder = 1027763
}

593.2.1 = {
	holder = 1028959
}

601.2.1 = {
	holder = 1029266
}

608.2.1 = {
	holder = 1026889
}

629.2.1 = {
	holder = 1031261
}

630.2.1 = {
	holder = 1028796
}

637.2.1 = {
	holder = 1030385
}

644.2.1 = {
	holder = 1029997
}

667.2.1 = {
	holder = 1032281
}

678.2.1 = {
	holder = 1034156
}

715.2.1 = {
	holder = 1035535
}

723.2.1 = {
	holder = 1037078
}

724.2.1 = {
	holder = 1037551
}

731.2.1 = {
	holder = 1037862
}

732.2.1 = {
	holder = 1038018
}

742.2.1 = {
	holder = 1038233
}

770.2.1 = {
	holder = 1039479
}

791.2.1 = {
	holder = 1040641
}

813.2.1 = {
	holder = 1041918
}

842.2.1 = {
	holder = 1043360
}

893.2.1 = {
	holder = 1045744
}

