200.2.1 = {
	holder = 1000037
	law = succ_primogeniture
	law = cognatic_succession
}

200.2.2 = {
	holder = 1001155
	law = succ_primogeniture
	law = cognatic_succession
}

200.2.3 = {
	liege = d_sanara
}

200.2.4 = {
	holder = 1001154
	law = succ_primogeniture
	law = cognatic_succession
}

234.2.1 = {
	holder = 1003631
}

264.2.1 = {
	holder = 1003835
}

271.2.1 = {
	holder = 1004943
}

289.2.1 = {
	holder = 1005491
}

306.2.1 = {
	holder = 1006449
}

307.2.1 = {
	holder = 1004475
}

307.2.2 = {
	holder = 1007108
}

359.2.1 = {
	holder = 1007297
}

372.2.1 = {
	holder = 1009631
}

405.2.1 = {
	holder = 1010633
}

473.2.1 = {
	holder = 1015104
}

547.2.1 = {
	holder = 1015939
}

547.2.2 = {
	holder = 1018788
}

584.2.1 = {
	holder = 1018944
}

604.2.1 = {
	holder = 1020850
}

632.2.1 = {
	holder = 1022109
}

650.2.1 = {
	holder = 1022952
}

678.2.1 = {
	holder = 1023699
}

703.2.1 = {
	holder = 1025525
}

748.2.1 = {
	holder = 1026756
}

763.2.1 = {
	holder = 1028569
}

822.2.1 = {
	holder = 1029478
}

832.2.1 = {
	holder = 1032277
}

894.2.1 = {
	holder = 1033161
}

942.2.1 = {
	holder = 1035048
}

947.2.1 = {
	holder = 1036477
}

948.2.1 = {
	holder = 1036020
}

1066.2.1 = {
	holder = 1042616
}

