200.2.1 = {
	holder = 1000014
	law = succ_elective_gavelkind
	law = agnatic_succession
}

200.2.2 = {
	holder = 1000966
	law = succ_elective_gavelkind
	law = agnatic_succession
}

200.2.3 = {
	liege = d_dosasd
}

200.2.4 = {
	holder = 1000964
	law = succ_elective_gavelkind
	law = agnatic_succession
}

210.2.1 = {
	holder = 1000933
}

238.2.1 = {
	holder = 1004442
}

243.2.1 = {
	holder = 1005460
}

272.2.1 = {
	holder = 1007805
}

297.2.1 = {
	holder = 1007956
}

337.2.1 = {
	holder = 1009613
}

349.2.1 = {
	holder = 1012294
}

375.2.1 = {
	holder = 1013462
}

414.2.1 = {
	holder = 1016882
}

414.2.2 = {
	holder = 1013086
}

417.2.1 = {
	holder = 1015180
}

418.2.1 = {
	holder = 1017593
}

423.2.1 = {
	holder = 1017799
}

477.2.1 = {
	holder = 1019132
}

484.2.1 = {
	holder = 1021648
}

547.2.1 = {
	holder = 1022742
}

562.2.1 = {
	holder = 1025639
}

563.2.1 = {
	holder = 1027030
}

574.2.1 = {
	holder = 1027200
}

580.2.1 = {
	holder = 1025564
}

581.2.1 = {
	holder = 1028181
}

615.2.1 = {
	holder = 1029058
}

619.2.1 = {
	holder = 1030257
}

658.2.1 = {
	holder = 1031744
}

658.2.2 = {
	holder = 1033177
}

682.2.1 = {
	holder = 1033461
}

696.2.1 = {
	holder = 1033111
}

697.2.1 = {
	holder = 1035763
}

726.2.1 = {
	holder = 1035870
}

756.2.1 = {
	holder = 1038370
}

796.2.1 = {
	holder = 1040095
}

807.2.1 = {
	holder = 1042238
}

815.2.1 = {
	holder = 1040302
}

821.2.1 = {
	holder = 1043841
}

849.2.1 = {
	holder = 1045161
}

879.2.1 = {
	holder = 1046786
}

