200.2.1 = {
	holder = 1000025
	law = succ_elective_gavelkind
	law = agnatic_succession
}

200.2.2 = {
	holder = 1001466
	law = succ_elective_gavelkind
	law = agnatic_succession
}

200.2.3 = {
	liege = d_ehifon
}

200.2.4 = {
	holder = 1001464
	law = succ_elective_gavelkind
	law = agnatic_succession
}

270.2.1 = {
	holder = 1003501
}

271.2.1 = {
	holder = 1004894
}

271.2.2 = {
	holder = 1005326
}

400.2.1 = {
	holder = 1013360
}

420.2.1 = {
	holder = 1014608
}

425.2.1 = {
	holder = 1016341
}

425.2.2 = {
	holder = 1018118
}

450.2.1 = {
	holder = 1018300
}

454.2.1 = {
	holder = 1018361
}

461.2.1 = {
	holder = 1020500
}

496.2.1 = {
	holder = 1020757
}

516.2.1 = {
	holder = 1023691
}

521.2.1 = {
	holder = 1022682
}

533.2.1 = {
	holder = 1024436
}

534.2.1 = {
	holder = 1024954
}

535.2.1 = {
	holder = 1025249
}

585.2.1 = {
	holder = 1025645
}

598.2.1 = {
	holder = 1028505
}

619.2.1 = {
	holder = 1029817
}

632.2.1 = {
	holder = 1030938
}

644.2.1 = {
	holder = 1032088
}

674.2.1 = {
	holder = 1033132
}

696.2.1 = {
	holder = 1034713
}

749.2.1 = {
	holder = 1036205
}

773.2.1 = {
	holder = 1040534
}

810.2.1 = {
	holder = 1040948
}

818.2.1 = {
	holder = 1043650
}

864.2.1 = {
	holder = 1045178
}

864.2.2 = {
	holder = 1046606
}

881.2.1 = {
	holder = 1046735
}

886.2.1 = {
	holder = 1047158
}

