200.2.1 = {
	holder = 1000001
	law = succ_tanistry
	law = agnatic_succession
}

200.2.2 = {
	liege = d_tilla
}

200.2.3 = {
	liege = d_nicalan
}

200.2.4 = {
	holder = 1000146
	law = succ_tanistry
	law = agnatic_succession
}

252.2.1 = {
	holder = 1002613
}

260.2.1 = {
	holder = 1004233
}

260.2.2 = {
	holder = 1006968
}

266.2.1 = {
	holder = 1004233
}

266.2.2 = {
	holder = 1007412
}

280.2.1 = {
	holder = 1008123
}

289.2.1 = {
	holder = 1005811
}

289.2.2 = {
	holder = 1008924
}

315.2.1 = {
	holder = 1010761
}

330.2.1 = {
	holder = 1008345
}

330.2.2 = {
	holder = 1011788
}

339.2.1 = {
	holder = 1012156
}

364.2.1 = {
	holder = 1013500
}

368.2.1 = {
	holder = 1010616
}

368.2.2 = {
	holder = 1014294
}

382.2.1 = {
	holder = 1013763
}

383.2.1 = {
	holder = 1015272
}

398.2.1 = {
	holder = 1013279
}

399.2.1 = {
	holder = 1016264
}

411.2.1 = {
	holder = 1015776
}

413.2.1 = {
	holder = 1015083
}

414.2.1 = {
	holder = 1014241
}

429.2.1 = {
	holder = 1017521
}

434.2.1 = {
	holder = 1016175
}

469.2.1 = {
	holder = 1017936
}

475.2.1 = {
	holder = 1020023
}

500.2.1 = {
	holder = 1022908
}

511.2.1 = {
	holder = 1022189
}

512.2.1 = {
	holder = 1023710
}

527.2.1 = {
	holder = 1024026
}

529.2.1 = {
	holder = 1023776
}

529.2.2 = {
	holder = 1024855
}

530.2.1 = {
	holder = 1022842
}

541.2.1 = {
	holder = 1025629
}

578.2.1 = {
	holder = 1026258
}

583.2.1 = {
	holder = 1028280
}

585.2.1 = {
	holder = 1027682
}

586.2.1 = {
	holder = 1028478
}

601.2.1 = {
	holder = 1028845
}

631.2.1 = {
	holder = 1030645
}

632.2.1 = {
	holder = 1028842
}

646.2.1 = {
	holder = 1032402
}

663.2.1 = {
	holder = 1032522
}

711.2.1 = {
	holder = 1033813
}

733.2.1 = {
	holder = 1036867
}

774.2.1 = {
	holder = 1038986
}

791.2.1 = {
	holder = 1041133
}

808.2.1 = {
	holder = 1042436
}

846.2.1 = {
	holder = 1043544
}

866.2.1 = {
	holder = 1046702
}

878.2.1 = {
	holder = 1046932
}

