200.2.1 = {
	holder = 1000004
	law = succ_seniority
	law = cognatic_succession
}

200.2.2 = {
	liege = d_sorla
}

200.2.3 = {
	liege = d_sorla
}

200.2.4 = {
	holder = 1000415
	law = succ_seniority
	law = cognatic_succession
}

200.2.5 = {
	holder = 1001997
}

200.2.6 = {
	holder = 1002546
}

300.2.1 = {
	holder = 1008595
}

345.2.1 = {
	holder = 1010185
}

376.2.1 = {
	holder = 1013001
}

412.2.1 = {
	holder = 1015413
}

434.2.1 = {
	holder = 1017711
}

434.2.2 = {
	holder = 1018738
}

460.2.1 = {
	holder = 1018754
}

477.2.1 = {
	holder = 1017711
}

477.2.2 = {
	holder = 1021538
}

513.2.1 = {
	holder = 1022881
}

513.2.2 = {
	holder = 1023827
}

537.2.1 = {
	holder = 1023267
}

538.2.1 = {
	holder = 1025465
}

544.2.1 = {
	holder = 1023527
}

545.2.1 = {
	holder = 1025932
}

570.2.1 = {
	holder = 1025933
}

571.2.1 = {
	holder = 1027525
}

605.2.1 = {
	holder = 1027731
}

631.2.1 = {
	holder = 1029836
}

637.2.1 = {
	holder = 1031642
}

646.2.1 = {
	holder = 1032455
}

653.2.1 = {
	holder = 1032564
}

676.2.1 = {
	holder = 1033801
}

703.2.1 = {
	holder = 1036224
}

707.2.1 = {
	holder = 1035089
}

708.2.1 = {
	holder = 1036567
}

721.2.1 = {
	holder = 1036636
}

726.2.1 = {
	holder = 1037652
}

737.2.1 = {
	holder = 1034690
}

744.2.1 = {
	holder = 1036587
}

747.2.1 = {
	holder = 1039025
}

757.2.1 = {
	holder = 1039644
}

775.2.1 = {
	holder = 1039846
}

778.2.1 = {
	holder = 1041009
}

780.2.1 = {
	holder = 1038473
}

781.2.1 = {
	holder = 1041179
}

817.2.1 = {
	holder = 1041206
}

839.2.1 = {
	holder = 1044001
}

849.2.1 = {
	holder = 1045033
}

862.2.1 = {
	holder = 1043184
}

862.2.2 = {
	holder = 1046505
}

870.2.1 = {
	holder = 1043067
}

871.2.1 = {
	holder = 1047009
}

884.2.1 = {
	holder = 1047012
}

889.2.1 = {
	holder = 1046866
}

889.2.2 = {
	holder = 1048195
}

