200.2.1 = {
	holder = 1000006
	law = succ_primogeniture
	law = agnatic_succession
}

200.2.2 = {
	holder = 1000584
	law = succ_primogeniture
	law = agnatic_succession
}

200.2.3 = {
	liege = d_nacedda
}

200.2.4 = {
	holder = 1000583
	law = succ_primogeniture
	law = agnatic_succession
}

200.2.5 = {
	holder = 1002002
}

214.2.1 = {
	holder = 1003015
}

219.2.1 = {
	holder = 1004223
}

265.2.1 = {
	holder = 1005709
}

281.2.1 = {
	holder = 1007986
}

293.2.1 = {
	holder = 1004933
}

295.2.1 = {
	holder = 1006874
}

328.2.1 = {
	holder = 1010952
}

329.2.1 = {
	holder = 1011750
}

355.2.1 = {
	holder = 1012166
}

356.2.1 = {
	holder = 1012982
}

356.2.2 = {
	holder = 1013481
}

400.2.1 = {
	holder = 1016371
}

500.2.1 = {
	holder = 1021414
}

500.2.2 = {
	holder = 1022988
}

600.2.1 = {
	holder = 1029311
}

622.2.1 = {
	holder = 1029470
}

624.2.1 = {
	holder = 1027558
}

634.2.1 = {
	holder = 1029276
}

636.2.1 = {
	holder = 1031775
}

650.2.1 = {
	holder = 1031864
}

675.2.1 = {
	holder = 1033452
}

715.2.1 = {
	holder = 1033103
}

718.2.1 = {
	holder = 1034558
}

720.2.1 = {
	holder = 1037063
}

748.2.1 = {
	holder = 1038226
}

782.2.1 = {
	holder = 1039473
}

794.2.1 = {
	holder = 1042009
}

806.2.1 = {
	holder = 1042029
}

815.2.1 = {
	holder = 1043295
}

826.2.1 = {
	holder = 1041539
}

826.2.2 = {
	holder = 1044184
}

901.2.1 = {
	holder = 1046755
}

