200.2.1 = {
	holder = 1000017
	law = succ_tanistry
	law = cognatic_succession
}

200.2.2 = {
	holder = 1000556
	law = succ_tanistry
	law = cognatic_succession
}

200.2.3 = {
	liege = d_lesepan
}

200.2.4 = {
	holder = 1000553
	law = succ_tanistry
	law = cognatic_succession
}

234.2.1 = {
	holder = 1003642
}

272.2.1 = {
	holder = 1003874
}

272.2.2 = {
	holder = 1005458
}

307.2.1 = {
	holder = 1005856
}

331.2.1 = {
	holder = 1008330
}

370.2.1 = {
	holder = 1008445
}

395.2.1 = {
	holder = 1010217
}

410.2.1 = {
	holder = 1011699
}

431.2.1 = {
	holder = 1012514
}

444.2.1 = {
	holder = 1013316
}

447.2.1 = {
	holder = 1011641
}

447.2.2 = {
	holder = 1013933
}

449.2.1 = {
	holder = 1013315
}

472.2.1 = {
	holder = 1014325
}

474.2.1 = {
	holder = 1013257
}

474.2.2 = {
	holder = 1013384
}

499.2.1 = {
	holder = 1015759
}

520.2.1 = {
	holder = 1017086
}

544.2.1 = {
	holder = 1018431
}

545.2.1 = {
	holder = 1018703
}

563.2.1 = {
	holder = 1018822
}

574.2.1 = {
	holder = 1018431
}

574.2.2 = {
	holder = 1020078
}

576.2.1 = {
	holder = 1020091
}

583.2.1 = {
	holder = 1018431
}

583.2.2 = {
	holder = 1019790
}

597.2.1 = {
	holder = 1020910
}

611.2.1 = {
	holder = 1021721
}

623.2.1 = {
	holder = 1020128
}

624.2.1 = {
	holder = 1022439
}

635.2.1 = {
	holder = 1022560
}

642.2.1 = {
	holder = 1023289
}

642.2.2 = {
	holder = 1019981
}

644.2.1 = {
	holder = 1023288
}

680.2.1 = {
	holder = 1023303
}

689.2.1 = {
	holder = 1025116
}

742.2.1 = {
	holder = 1025988
}

751.2.1 = {
	holder = 1027134
}

751.2.2 = {
	holder = 1028516
}

756.2.1 = {
	holder = 1026804
}

779.2.1 = {
	holder = 1028736
}

790.2.1 = {
	holder = 1030456
}

835.2.1 = {
	holder = 1030481
}

842.2.1 = {
	holder = 1032719
}

853.2.1 = {
	holder = 1033479
}

889.2.1 = {
	holder = 1034500
}

899.2.1 = {
	holder = 1035486
}

924.2.1 = {
	holder = 1036403
}

977.2.1 = {
	holder = 1037646
}

995.2.1 = {
	holder = 1039383
}

999.2.1 = {
	holder = 1039275
}

1019.2.1 = {
	holder = 1039316
}

1033.2.1 = {
	holder = 1041373
}

1043.2.1 = {
	holder = 1042418
}

