200.2.1 = {
	holder = 1000020
	law = succ_open_elective
	law = cognatic_succession
}

200.2.2 = {
	holder = 1001300
	law = succ_open_elective
	law = cognatic_succession
}

200.2.3 = {
	liege = d_nana
}

200.2.4 = {
	holder = 1001298
	law = succ_open_elective
	law = cognatic_succession
}

238.2.1 = {
	holder = 1005010
}

269.2.1 = {
	holder = 1007254
}

272.2.1 = {
	holder = 1007833
}

307.2.1 = {
	holder = 1008293
}

312.2.1 = {
	holder = 1008337
}

313.2.1 = {
	holder = 1010609
}

335.2.1 = {
	holder = 1010929
}

377.2.1 = {
	holder = 1012471
}

377.2.2 = {
	holder = 1014862
}

397.2.1 = {
	holder = 1015624
}

418.2.1 = {
	holder = 1017339
}

427.2.1 = {
	holder = 1015909
}

428.2.1 = {
	holder = 1018268
}

464.2.1 = {
	holder = 1019221
}

510.2.1 = {
	holder = 1021264
}

536.2.1 = {
	holder = 1023931
}

550.2.1 = {
	holder = 1025439
}

594.2.1 = {
	holder = 1027709
}

604.2.1 = {
	holder = 1027254
}

618.2.1 = {
	holder = 1029538
}

654.2.1 = {
	holder = 1030971
}

676.2.1 = {
	holder = 1033163
}

679.2.1 = {
	holder = 1032748
}

680.2.1 = {
	holder = 1033786
}

681.2.1 = {
	holder = 1033434
}

709.2.1 = {
	holder = 1034448
}

725.2.1 = {
	holder = 1037112
}

780.2.1 = {
	holder = 1038275
}

784.2.1 = {
	holder = 1040819
}

834.2.1 = {
	holder = 1042194
}

860.2.1 = {
	holder = 1045321
}

887.2.1 = {
	holder = 1047041
}

