200.2.1 = {
	holder = 1000010
	law = succ_elective_gavelkind
	law = agnatic_succession
}

200.2.2 = {
	holder = 1000741
	law = succ_elective_gavelkind
	law = agnatic_succession
}

200.2.3 = {
	liege = d_qat
}

200.2.4 = {
	holder = 1000740
	law = succ_elective_gavelkind
	law = agnatic_succession
}

239.2.1 = {
	holder = 1004033
}

270.2.1 = {
	holder = 1005666
}

294.2.1 = {
	holder = 1008079
}

301.2.1 = {
	holder = 1009546
}

327.2.1 = {
	holder = 1010851
}

333.2.1 = {
	holder = 1010616
}

333.2.2 = {
	holder = 1012011
}

382.2.1 = {
	holder = 1012041
}

387.2.1 = {
	holder = 1015476
}

392.2.1 = {
	holder = 1012022
}

393.2.1 = {
	holder = 1015833
}

420.2.1 = {
	holder = 1016694
}

442.2.1 = {
	holder = 1017793
}

484.2.1 = {
	holder = 1019403
}

507.2.1 = {
	holder = 1022266
}

534.2.1 = {
	holder = 1023610
}

545.2.1 = {
	holder = 1025828
}

549.2.1 = {
	holder = 1024564
}

549.2.2 = {
	holder = 1026152
}

554.2.1 = {
	holder = 1023029
}

558.2.1 = {
	holder = 1025607
}

560.2.1 = {
	holder = 1024678
}

564.2.1 = {
	holder = 1026814
}

580.2.1 = {
	holder = 1027896
}

613.2.1 = {
	holder = 1028987
}

645.2.1 = {
	holder = 1028842
}

654.2.1 = {
	holder = 1032118
}

668.2.1 = {
	holder = 1033812
}

677.2.1 = {
	holder = 1030915
}

685.2.1 = {
	holder = 1032056
}

702.2.1 = {
	holder = 1034991
}

705.2.1 = {
	holder = 1036320
}

727.2.1 = {
	holder = 1037741
}

765.2.1 = {
	holder = 1038164
}

791.2.1 = {
	holder = 1041683
}

842.2.1 = {
	holder = 1042717
}

864.2.1 = {
	holder = 1045537
}

