200.2.1 = {
	holder = 1000003
	law = succ_gavelkind
	law = cognatic_succession
}

200.2.2 = {
	liege = d_werier
}

200.2.3 = {
	liege = d_werier
}

200.2.4 = {
	holder = 1000188
	law = succ_elective_gavelkind
	law = agnatic_succession
}

206.2.1 = {
	holder = 1000262
}

243.2.1 = {
	holder = 1001820
}

248.2.1 = {
	holder = 1003484
}

250.2.1 = {
	holder = 1004295
}

251.2.1 = {
	holder = 1004452
}

400.2.1 = {
	holder = 1011605
}

500.2.1 = {
	holder = 1014797
}

517.2.1 = {
	holder = 1015816
}

528.2.1 = {
	holder = 1017647
}

586.2.1 = {
	holder = 1019102
}

610.2.1 = {
	holder = 1020675
}

663.2.1 = {
	holder = 1022695
}

666.2.1 = {
	holder = 1024375
}

701.2.1 = {
	holder = 1025198
}

702.2.1 = {
	holder = 1026148
}

800.2.1 = {
	holder = 1029440
}

809.2.1 = {
	holder = 1029903
}

822.2.1 = {
	holder = 1031592
}

870.2.1 = {
	holder = 1032473
}

894.2.1 = {
	holder = 1034675
}

919.2.1 = {
	holder = 1036243
}

920.2.1 = {
	holder = 1036578
}

1066.2.1 = {
	holder = 1043563
}

