200.2.1 = {
	holder = 1000034
	law = succ_elective_gavelkind
	law = cognatic_succession
}

200.2.2 = {
	holder = 1001744
	law = succ_elective_gavelkind
	law = cognatic_succession
}

200.2.3 = {
	liege = d_lonaic
}

200.2.4 = {
	holder = 1001742
	law = succ_elective_gavelkind
	law = cognatic_succession
}

203.2.1 = {
	holder = 1002034
}

203.2.2 = {
	holder = 1003030
}

300.2.1 = {
	holder = 1005136
}

305.2.1 = {
	holder = 1009430
}

328.2.1 = {
	holder = 1011183
}

368.2.1 = {
	holder = 1014309
}

405.2.1 = {
	holder = 1015319
}

410.2.1 = {
	holder = 1014409
}

410.2.2 = {
	holder = 1017063
}

462.2.1 = {
	holder = 1017278
}

477.2.1 = {
	holder = 1021284
}

485.2.1 = {
	holder = 1020507
}

485.2.2 = {
	holder = 1022048
}

502.2.1 = {
	holder = 1020700
}

503.2.1 = {
	holder = 1023188
}

600.2.1 = {
	holder = 1026401
}

605.2.1 = {
	holder = 1029750
}

651.2.1 = {
	holder = 1030155
}

673.2.1 = {
	holder = 1032957
}

701.2.1 = {
	holder = 1034433
}

716.2.1 = {
	holder = 1036216
}

768.2.1 = {
	holder = 1037929
}

771.2.1 = {
	holder = 1040606
}

830.2.1 = {
	holder = 1041822
}

861.2.1 = {
	holder = 1044831
}

880.2.1 = {
	holder = 1046556
}

