200.2.1 = {
	holder = 1000008
	law = succ_gavelkind
	law = agnatic_succession
}

200.2.2 = {
	holder = 1000009
	law = succ_elective_gavelkind
	law = agnatic_succession
}

200.2.3 = {
	holder = 1000699
	law = succ_open_elective
	law = agnatic_succession
}

200.2.4 = {
	liege = d_koda
}

200.2.5 = {
	holder = 1000698
	law = succ_open_elective
	law = agnatic_succession
}

244.2.1 = {
	holder = 1005844
}

247.2.1 = {
	holder = 1005806
}

262.2.1 = {
	holder = 1003871
}

266.2.1 = {
	holder = 1006753
}

267.2.1 = {
	holder = 1003963
}

268.2.1 = {
	holder = 1007507
}

311.2.1 = {
	holder = 1007799
}

313.2.1 = {
	holder = 1010534
}

344.2.1 = {
	holder = 1012373
}

365.2.1 = {
	holder = 1010124
}

369.2.1 = {
	holder = 1014053
}

409.2.1 = {
	holder = 1015355
}

412.2.1 = {
	holder = 1015704
}

412.2.2 = {
	holder = 1017211
}

415.2.1 = {
	holder = 1017320
}

489.2.1 = {
	holder = 1018973
}

500.2.1 = {
	holder = 1022388
}

551.2.1 = {
	holder = 1025232
}

593.2.1 = {
	holder = 1026479
}

609.2.1 = {
	holder = 1027618
}

610.2.1 = {
	holder = 1030057
}

652.2.1 = {
	holder = 1030335
}

669.2.1 = {
	holder = 1032861
}

713.2.1 = {
	holder = 1034096
}

726.2.1 = {
	holder = 1036434
}

726.2.2 = {
	holder = 1037704
}

900.2.1 = {
	holder = 1047565
}

