200.2.1 = {
	holder = 1000003
	law = succ_gavelkind
	law = cognatic_succession
}

200.2.2 = {
	holder = 1000173
	law = succ_gavelkind
	law = cognatic_succession
}

200.2.3 = {
	liege = d_lagyata
}

200.2.4 = {
	holder = 1000172
	law = succ_gavelkind
	law = cognatic_succession
}

224.2.1 = {
	holder = 1001444
}

240.2.1 = {
	holder = 1003647
}

251.2.1 = {
	holder = 1002860
}

285.2.1 = {
	holder = 1005001
}

300.2.1 = {
	holder = 1006411
}

301.2.1 = {
	holder = 1006832
}

400.2.1 = {
	holder = 1009677
}

404.2.1 = {
	holder = 1010118
}

421.2.1 = {
	holder = 1012103
}

478.2.1 = {
	holder = 1013451
}

497.2.1 = {
	holder = 1015607
}

519.2.1 = {
	holder = 1016605
}

520.2.1 = {
	holder = 1017438
}

700.2.1 = {
	holder = 1025190
}

739.2.1 = {
	holder = 1025640
}

746.2.1 = {
	holder = 1028094
}

780.2.1 = {
	holder = 1029548
}

803.2.1 = {
	holder = 1030467
}

847.2.1 = {
	holder = 1031366
}

850.2.1 = {
	holder = 1033268
}

856.2.1 = {
	holder = 1031735
}

856.2.2 = {
	holder = 1033644
}

895.2.1 = {
	holder = 1034802
}

900.2.1 = {
	holder = 1035582
}

912.2.1 = {
	holder = 1033375
}

919.2.1 = {
	holder = 1034759
}

935.2.1 = {
	holder = 1036671
}

952.2.1 = {
	holder = 1038101
}

988.2.1 = {
	holder = 1038116
}

995.2.1 = {
	holder = 1039873
}

1020.2.1 = {
	holder = 1040853
}

