200.2.1 = {
	holder = 1000010
	law = succ_elective_gavelkind
	law = agnatic_succession
}

200.2.2 = {
	holder = 1000720
	law = succ_elective_gavelkind
	law = agnatic_succession
}

200.2.3 = {
	liege = d_koviel
}

200.2.4 = {
	holder = 1000719
	law = succ_elective_gavelkind
	law = agnatic_succession
}

225.2.1 = {
	holder = 1003692
}

242.2.1 = {
	holder = 1000746
}

242.2.2 = {
	holder = 1002808
}

244.2.1 = {
	holder = 1005809
}

400.2.1 = {
	holder = 1012275
}

403.2.1 = {
	holder = 1013524
}

403.2.2 = {
	holder = 1016573
}

500.2.1 = {
	holder = 1021741
}

544.2.1 = {
	holder = 1024788
}

584.2.1 = {
	holder = 1026011
}

602.2.1 = {
	holder = 1028674
}

624.2.1 = {
	holder = 1029995
}

630.2.1 = {
	holder = 1028842
}

631.2.1 = {
	holder = 1031388
}

666.2.1 = {
	holder = 1031537
}

685.2.1 = {
	holder = 1033898
}

723.2.1 = {
	holder = 1035671
}

748.2.1 = {
	holder = 1037967
}

759.2.1 = {
	holder = 1039538
}

789.2.1 = {
	holder = 1040639
}

809.2.1 = {
	holder = 1042153
}

829.2.1 = {
	holder = 1043753
}

837.2.1 = {
	holder = 1044800
}

873.2.1 = {
	holder = 1046141
}

