200.2.1 = {
	holder = 1000003
	law = succ_tanistry
	law = cognatic_succession
}

200.2.2 = {
	liege = d_byilage
}

200.2.3 = {
	liege = d_byilage
}

200.2.4 = {
	holder = 1000641
	law = succ_gavelkind
	law = agnatic_succession
}

238.2.1 = {
	holder = 1000636
}

245.2.1 = {
	holder = 1003186
}

254.2.1 = {
	holder = 1005982
}

260.2.1 = {
	holder = 1006972
}

288.2.1 = {
	holder = 1008752
}

293.2.1 = {
	holder = 1007309
}

297.2.1 = {
	holder = 1009508
}

301.2.1 = {
	holder = 1006004
}

306.2.1 = {
	holder = 1008913
}

315.2.1 = {
	holder = 1010576
}

373.2.1 = {
	holder = 1012792
}

417.2.1 = {
	holder = 1015072
}

427.2.1 = {
	holder = 1017711
}

480.2.1 = {
	holder = 1020073
}

499.2.1 = {
	holder = 1022881
}

537.2.1 = {
	holder = 1023267
}

544.2.1 = {
	holder = 1023527
}

570.2.1 = {
	holder = 1025933
}

605.2.1 = {
	holder = 1027731
}

631.2.1 = {
	holder = 1029836
}

637.2.1 = {
	holder = 1031642
}

646.2.1 = {
	holder = 1032455
}

653.2.1 = {
	holder = 1032564
}

676.2.1 = {
	holder = 1033801
}

707.2.1 = {
	holder = 1035089
}

721.2.1 = {
	holder = 1036636
}

726.2.1 = {
	holder = 1037652
}

737.2.1 = {
	holder = 1034690
}

744.2.1 = {
	holder = 1036587
}

747.2.1 = {
	holder = 1039025
}

757.2.1 = {
	holder = 1039644
}

775.2.1 = {
	holder = 1039846
}

778.2.1 = {
	holder = 1041009
}

780.2.1 = {
	holder = 1038473
}

786.2.1 = {
	holder = 1038933
}

798.2.1 = {
	holder = 1041647
}

841.2.1 = {
	holder = 1043184
}

865.2.1 = {
	holder = 1044376
}

883.2.1 = {
	holder = 1046866
}

