200.2.1 = {
	holder = 1000001
	law = succ_tanistry
	law = agnatic_succession
}

200.2.2 = {
	liege = d_dolio
}

200.2.3 = {
	liege = d_nogepin
}

200.2.4 = {
	holder = 1000184
	law = succ_tanistry
	law = agnatic_succession
}

201.2.1 = {
	holder = 1000737
}

203.2.1 = {
	holder = 1000117
}

204.2.1 = {
	holder = 1003046
}

205.2.1 = {
	holder = 1001987
}

210.2.1 = {
	holder = 1003654
}

230.2.1 = {
	holder = 1003859
}

270.2.1 = {
	holder = 1004983
}

288.2.1 = {
	holder = 1008210
}

326.2.1 = {
	holder = 1009995
}

345.2.1 = {
	holder = 1010597
}

354.2.1 = {
	holder = 1012809
}

357.2.1 = {
	holder = 1013065
}

396.2.1 = {
	holder = 1013524
}

403.2.1 = {
	holder = 1016572
}

452.2.1 = {
	holder = 1019579
}

508.2.1 = {
	holder = 1020720
}

517.2.1 = {
	holder = 1023776
}

529.2.1 = {
	holder = 1022123
}

541.2.1 = {
	holder = 1022708
}

541.2.2 = {
	holder = 1024564
}

585.2.1 = {
	holder = 1025068
}

585.2.2 = {
	holder = 1027186
}

596.2.1 = {
	holder = 1029117
}

605.2.1 = {
	holder = 1029458
}

629.2.1 = {
	holder = 1030839
}

675.2.1 = {
	holder = 1032184
}

694.2.1 = {
	holder = 1035564
}

708.2.1 = {
	holder = 1035578
}

756.2.1 = {
	holder = 1037367
}

774.2.1 = {
	holder = 1040735
}

777.2.1 = {
	holder = 1040790
}

787.2.1 = {
	holder = 1040234
}

787.2.2 = {
	holder = 1041544
}

826.2.1 = {
	holder = 1041958
}

853.2.1 = {
	holder = 1045025
}

859.2.1 = {
	holder = 1044727
}

860.2.1 = {
	holder = 1046308
}

885.2.1 = {
	holder = 1047793
}

885.2.2 = {
	holder = 1042915
}

888.2.1 = {
	holder = 1045983
}

900.2.1 = {
	holder = 1046532
}

