200.2.1 = {
	holder = 1000015
	law = succ_tanistry
	law = agnatic_succession
}

200.2.2 = {
	holder = 1000982
	law = succ_tanistry
	law = agnatic_succession
}

200.2.3 = {
	liege = d_aponse
}

200.2.4 = {
	holder = 1000983
	law = succ_elective_gavelkind
	law = agnatic_succession
}

200.2.5 = {
	liege = d_qaronse
}

200.2.6 = {
	holder = 1001066
	law = succ_tanistry
	law = agnatic_succession
}

238.2.1 = {
	holder = 1002285
}

269.2.1 = {
	holder = 1005607
}

309.2.1 = {
	holder = 1007662
}

330.2.1 = {
	holder = 1009481
}

332.2.1 = {
	holder = 1010230
}

334.2.1 = {
	holder = 1012070
}

399.2.1 = {
	holder = 1012403
}

422.2.1 = {
	holder = 1016989
}

459.2.1 = {
	holder = 1019135
}

460.2.1 = {
	holder = 1018845
}

464.2.1 = {
	holder = 1020299
}

494.2.1 = {
	holder = 1021319
}

498.2.1 = {
	holder = 1022673
}

525.2.1 = {
	holder = 1023793
}

555.2.1 = {
	holder = 1024940
}

586.2.1 = {
	holder = 1028251
}

600.2.1 = {
	holder = 1029369
}

641.2.1 = {
	holder = 1029806
}

641.2.2 = {
	holder = 1032074
}

641.2.3 = {
	holder = 1030540
}

642.2.1 = {
	holder = 1029548
}

679.2.1 = {
	holder = 1032744
}

680.2.1 = {
	holder = 1034640
}

707.2.1 = {
	holder = 1035002
}

720.2.1 = {
	holder = 1036541
}

738.2.1 = {
	holder = 1037865
}

767.2.1 = {
	holder = 1039007
}

800.2.1 = {
	holder = 1040450
}

802.2.1 = {
	holder = 1040094
}

803.2.1 = {
	holder = 1042597
}

841.2.1 = {
	holder = 1042726
}

845.2.1 = {
	holder = 1043007
}

859.2.1 = {
	holder = 1044020
}

859.2.2 = {
	holder = 1046299
}

