200.2.1 = {
	holder = 1000001
	law = succ_elective_gavelkind
	law = cognatic_succession
}

200.2.2 = {
	holder = 1000082
	law = succ_elective_gavelkind
	law = cognatic_succession
}

200.2.3 = {
	liege = d_kajarnas
}

200.2.4 = {
	holder = 1000081
	law = succ_elective_gavelkind
	law = cognatic_succession
}

203.2.1 = {
	holder = 1001424
}

225.2.1 = {
	holder = 1000086
}

225.2.2 = {
	holder = 1003212
}

245.2.1 = {
	holder = 1001414
}

246.2.1 = {
	holder = 1001986
}

253.2.1 = {
	holder = 1001377
}

253.2.2 = {
	holder = 1004579
}

256.2.1 = {
	holder = 1003480
}

261.2.1 = {
	holder = 1004894
}

292.2.1 = {
	holder = 1004896
}

299.2.1 = {
	holder = 1006461
}

327.2.1 = {
	holder = 1007214
}

353.2.1 = {
	holder = 1008247
}

363.2.1 = {
	holder = 1009257
}

363.2.2 = {
	holder = 1009731
}

500.2.1 = {
	holder = 1015212
}

506.2.1 = {
	holder = 1016223
}

551.2.1 = {
	holder = 1018423
}

591.2.1 = {
	holder = 1019240
}

624.2.1 = {
	holder = 1021041
}

626.2.1 = {
	holder = 1021723
}

626.2.2 = {
	holder = 1022488
}

629.2.1 = {
	holder = 1021723
}

649.2.1 = {
	holder = 1021729
}

662.2.1 = {
	holder = 1023904
}

716.2.1 = {
	holder = 1025052
}

743.2.1 = {
	holder = 1027033
}

772.2.1 = {
	holder = 1028586
}

773.2.1 = {
	holder = 1029593
}

788.2.1 = {
	holder = 1030221
}

788.2.2 = {
	holder = 1026663
}

801.2.1 = {
	holder = 1030462
}

824.2.1 = {
	holder = 1030132
}

829.2.1 = {
	holder = 1030979
}

830.2.1 = {
	holder = 1032378
}

842.2.1 = {
	holder = 1032653
}

848.2.1 = {
	holder = 1030979
}

849.2.1 = {
	holder = 1033263
}

866.2.1 = {
	holder = 1033330
}

904.2.1 = {
	holder = 1034188
}

920.2.1 = {
	holder = 1035904
}

938.2.1 = {
	holder = 1036617
}

942.2.1 = {
	holder = 1037546
}

975.2.1 = {
	holder = 1038421
}

1022.2.1 = {
	holder = 1039666
}

