200.2.1 = {
	holder = 1000002
	law = succ_seniority
	law = cognatic_succession
}

200.2.2 = {
	holder = 1000272
	law = succ_seniority
	law = cognatic_succession
}

200.2.3 = {
	liege = d_ruula
}

200.2.4 = {
	holder = 1000273
	law = succ_elective_gavelkind
	law = agnatic_succession
}

200.2.5 = {
	holder = 1000270
	law = succ_seniority
	law = cognatic_succession
}

208.2.1 = {
	holder = 1002922
}

259.2.1 = {
	holder = 1005729
}

279.2.1 = {
	holder = 1006417
}

307.2.1 = {
	holder = 1006929
}

308.2.1 = {
	holder = 1010248
}

337.2.1 = {
	holder = 1011772
}

342.2.1 = {
	holder = 1010001
}

343.2.1 = {
	holder = 1010883
}

352.2.1 = {
	holder = 1012714
}

359.2.1 = {
	holder = 1012640
}

360.2.1 = {
	holder = 1013764
}

406.2.1 = {
	holder = 1014248
}

407.2.1 = {
	holder = 1012740
}

410.2.1 = {
	holder = 1015345
}

451.2.1 = {
	holder = 1018876
}

463.2.1 = {
	holder = 1020650
}

479.2.1 = {
	holder = 1021503
}

497.2.1 = {
	holder = 1022542
}

549.2.1 = {
	holder = 1023718
}

568.2.1 = {
	holder = 1026313
}

578.2.1 = {
	holder = 1028000
}

604.2.1 = {
	holder = 1028029
}

629.2.1 = {
	holder = 1030046
}

663.2.1 = {
	holder = 1032333
}

697.2.1 = {
	holder = 1033760
}

713.2.1 = {
	holder = 1034813
}

713.2.2 = {
	holder = 1036876
}

800.2.1 = {
	holder = 1038994
}

806.2.1 = {
	holder = 1041725
}

843.2.1 = {
	holder = 1044061
}

880.2.1 = {
	holder = 1045389
}

