200.2.1 = {
	holder = 1000014
	law = succ_seniority
	law = cognatic_succession
}

200.2.2 = {
	holder = 1000400
	law = succ_seniority
	law = cognatic_succession
}

200.2.3 = {
	liege = d_danaal
}

200.2.4 = {
	holder = 1000398
	law = succ_seniority
	law = cognatic_succession
}

252.2.1 = {
	holder = 1002641
}

283.2.1 = {
	holder = 1004596
}

288.2.1 = {
	holder = 1004581
}

289.2.1 = {
	holder = 1006212
}

319.2.1 = {
	holder = 1007227
}

345.2.1 = {
	holder = 1008947
}

356.2.1 = {
	holder = 1007133
}

364.2.1 = {
	holder = 1007686
}

365.2.1 = {
	holder = 1008966
}

366.2.1 = {
	holder = 1009912
}

387.2.1 = {
	holder = 1010464
}

387.2.2 = {
	holder = 1010956
}

500.2.1 = {
	holder = 1014854
}

518.2.1 = {
	holder = 1014900
}

523.2.1 = {
	holder = 1017359
}

535.2.1 = {
	holder = 1018177
}

541.2.1 = {
	holder = 1018271
}

553.2.1 = {
	holder = 1017359
}

554.2.1 = {
	holder = 1019117
}

569.2.1 = {
	holder = 1019161
}

606.2.1 = {
	holder = 1020053
}

608.2.1 = {
	holder = 1020191
}

608.2.2 = {
	holder = 1021640
}

666.2.1 = {
	holder = 1021737
}

669.2.1 = {
	holder = 1024503
}

691.2.1 = {
	holder = 1025599
}

704.2.1 = {
	holder = 1024786
}

704.2.2 = {
	holder = 1026302
}

727.2.1 = {
	holder = 1026400
}

759.2.1 = {
	holder = 1027713
}

774.2.1 = {
	holder = 1029639
}

787.2.1 = {
	holder = 1029699
}

787.2.2 = {
	holder = 1030263
}

806.2.1 = {
	holder = 1030353
}

825.2.1 = {
	holder = 1031269
}

854.2.1 = {
	holder = 1032483
}

886.2.1 = {
	holder = 1034273
}

920.2.1 = {
	holder = 1035359
}

956.2.1 = {
	holder = 1036724
}

987.2.1 = {
	holder = 1038596
}

1024.2.1 = {
	holder = 1039929
}

1033.2.1 = {
	holder = 1041752
}

1038.2.1 = {
	holder = 1042004
}

1038.2.2 = {
	holder = 1042271
}

1045.2.1 = {
	holder = 1042323
}

