200.2.1 = {
	holder = 1000046
	law = succ_open_elective
	law = agnatic_succession
}

200.2.2 = {
	holder = 1001911
	law = succ_open_elective
	law = agnatic_succession
}

200.2.3 = {
	liege = d_kajeri
}

200.2.4 = {
	holder = 1001907
	law = succ_open_elective
	law = agnatic_succession
}

230.2.1 = {
	holder = 1003335
}

246.2.1 = {
	holder = 1003893
}

266.2.1 = {
	holder = 1005695
}

274.2.1 = {
	holder = 1007609
}

276.2.1 = {
	holder = 1005209
}

288.2.1 = {
	holder = 1008889
}

312.2.1 = {
	holder = 1009089
}

350.2.1 = {
	holder = 1013112
}

358.2.1 = {
	holder = 1013121
}

365.2.1 = {
	holder = 1011024
}

377.2.1 = {
	holder = 1014486
}

437.2.1 = {
	holder = 1016255
}

442.2.1 = {
	holder = 1019305
}

458.2.1 = {
	holder = 1019567
}

458.2.2 = {
	holder = 1020341
}

460.2.1 = {
	holder = 1019567
}

462.2.1 = {
	holder = 1018326
}

469.2.1 = {
	holder = 1018368
}

478.2.1 = {
	holder = 1021099
}

534.2.1 = {
	holder = 1022181
}

541.2.1 = {
	holder = 1025532
}

571.2.1 = {
	holder = 1027531
}

579.2.1 = {
	holder = 1027601
}

585.2.1 = {
	holder = 1026583
}

601.2.1 = {
	holder = 1026723
}

616.2.1 = {
	holder = 1027727
}

617.2.1 = {
	holder = 1030562
}

619.2.1 = {
	holder = 1027593
}

625.2.1 = {
	holder = 1030366
}

640.2.1 = {
	holder = 1030499
}

640.2.2 = {
	holder = 1032018
}

686.2.1 = {
	holder = 1032022
}

693.2.1 = {
	holder = 1034368
}

738.2.1 = {
	holder = 1037330
}

774.2.1 = {
	holder = 1038842
}

799.2.1 = {
	holder = 1041058
}

844.2.1 = {
	holder = 1042740
}

851.2.1 = {
	holder = 1045770
}

865.2.1 = {
	holder = 1045920
}

869.2.1 = {
	holder = 1042740
}

870.2.1 = {
	holder = 1043887
}

873.2.1 = {
	holder = 1045769
}

874.2.1 = {
	holder = 1043588
}

