200.2.1 = {
	holder = 1000033
	law = succ_open_elective
	law = cognatic_succession
}

200.2.2 = {
	holder = 1000969
	law = succ_open_elective
	law = cognatic_succession
}

200.2.3 = {
	liege = d_wogoan
}

200.2.4 = {
	holder = 1000968
	law = succ_open_elective
	law = cognatic_succession
}

231.2.1 = {
	holder = 1001646
}

251.2.1 = {
	holder = 1002939
}

276.2.1 = {
	holder = 1002845
}

277.2.1 = {
	holder = 1005664
}

400.2.1 = {
	holder = 1009122
}

406.2.1 = {
	holder = 1010769
}

429.2.1 = {
	holder = 1012330
}

431.2.1 = {
	holder = 1013140
}

497.2.1 = {
	holder = 1013937
}

508.2.1 = {
	holder = 1014038
}

521.2.1 = {
	holder = 1016985
}

533.2.1 = {
	holder = 1017746
}

547.2.1 = {
	holder = 1018804
}

591.2.1 = {
	holder = 1019215
}

602.2.1 = {
	holder = 1020290
}

602.2.2 = {
	holder = 1021400
}

617.2.1 = {
	holder = 1021614
}

623.2.1 = {
	holder = 1020290
}

625.2.1 = {
	holder = 1022469
}

672.2.1 = {
	holder = 1022517
}

690.2.1 = {
	holder = 1025025
}

704.2.1 = {
	holder = 1024575
}

704.2.2 = {
	holder = 1026292
}

750.2.1 = {
	holder = 1026500
}

752.2.1 = {
	holder = 1025782
}

753.2.1 = {
	holder = 1028617
}

900.2.1 = {
	holder = 1033874
}

918.2.1 = {
	holder = 1035602
}

974.2.1 = {
	holder = 1036604
}

988.2.1 = {
	holder = 1039688
}

1017.2.1 = {
	holder = 1040660
}

1060.2.1 = {
	holder = 1041839
}

1061.2.1 = {
	holder = 1040661
}

1065.2.1 = {
	holder = 1042220
}

