200.2.1 = {
	holder = 1000016
	law = succ_primogeniture
	law = cognatic_succession
}

200.2.2 = {
	holder = 1000512
	law = succ_tanistry
	law = agnatic_succession
}

200.2.3 = {
	liege = d_kenogay
}

200.2.4 = {
	holder = 1000510
	law = succ_tanistry
	law = agnatic_succession
}

219.2.1 = {
	holder = 1002391
}

261.2.1 = {
	holder = 1004053
}

295.2.1 = {
	holder = 1006007
}

296.2.1 = {
	holder = 1006573
}

341.2.1 = {
	holder = 1008353
}

363.2.1 = {
	holder = 1007133
}

373.2.1 = {
	holder = 1009359
}

374.2.1 = {
	holder = 1010308
}

500.2.1 = {
	holder = 1015775
}

504.2.1 = {
	holder = 1015166
}

512.2.1 = {
	holder = 1017051
}

519.2.1 = {
	holder = 1017082
}

564.2.1 = {
	holder = 1018276
}

577.2.1 = {
	holder = 1019619
}

584.2.1 = {
	holder = 1020528
}

585.2.1 = {
	holder = 1017359
}

586.2.1 = {
	holder = 1020621
}

700.2.1 = {
	holder = 1020622
}

700.2.2 = {
	holder = 1024608
}

718.2.1 = {
	holder = 1025119
}

743.2.1 = {
	holder = 1027516
}

789.2.1 = {
	holder = 1028945
}

806.2.1 = {
	holder = 1030876
}

837.2.1 = {
	holder = 1030551
}

837.2.2 = {
	holder = 1032752
}

863.2.1 = {
	holder = 1033063
}

894.2.1 = {
	holder = 1032608
}

898.2.1 = {
	holder = 1033701
}

899.2.1 = {
	holder = 1035622
}

900.2.1 = {
	holder = 1033701
}

900.2.2 = {
	holder = 1035711
}

1000.2.1 = {
	holder = 1038655
}

1012.2.1 = {
	holder = 1039574
}

1052.2.1 = {
	holder = 1042004
}

