200.2.1 = {
	holder = 1000011
	law = succ_primogeniture
	law = agnatic_succession
}

200.2.2 = {
	holder = 1000819
	law = succ_primogeniture
	law = agnatic_succession
}

200.2.3 = {
	liege = d_baugala
}

200.2.4 = {
	holder = 1000820
	law = succ_elective_gavelkind
	law = agnatic_succession
}

200.2.5 = {
	holder = 1000817
	law = succ_primogeniture
	law = agnatic_succession
}

239.2.1 = {
	holder = 1003762
}

242.2.1 = {
	holder = 1005600
}

281.2.1 = {
	holder = 1007007
}

312.2.1 = {
	holder = 1008535
}

345.2.1 = {
	holder = 1010622
}

357.2.1 = {
	holder = 1010419
}

358.2.1 = {
	holder = 1013585
}

392.2.1 = {
	holder = 1013866
}

421.2.1 = {
	holder = 1015852
}

455.2.1 = {
	holder = 1017937
}

479.2.1 = {
	holder = 1020679
}

500.2.1 = {
	holder = 1022328
}

543.2.1 = {
	holder = 1024487
}

561.2.1 = {
	holder = 1026014
}

613.2.1 = {
	holder = 1027190
}

638.2.1 = {
	holder = 1030664
}

657.2.1 = {
	holder = 1032735
}

704.2.1 = {
	holder = 1033899
}

720.2.1 = {
	holder = 1036857
}

730.2.1 = {
	holder = 1037885
}

740.2.1 = {
	holder = 1036100
}

745.2.1 = {
	holder = 1038913
}

761.2.1 = {
	holder = 1039165
}

800.2.1 = {
	holder = 1040369
}

812.2.1 = {
	holder = 1043081
}

814.2.1 = {
	holder = 1040515
}

834.2.1 = {
	holder = 1043469
}

840.2.1 = {
	holder = 1044909
}

871.2.1 = {
	holder = 1046298
}

900.2.1 = {
	holder = 1047343
}

