200.2.1 = {
	holder = 1000035
	law = succ_primogeniture
	law = cognatic_succession
}

200.2.2 = {
	holder = 1001080
	law = succ_primogeniture
	law = cognatic_succession
}

200.2.3 = {
	liege = d_suhapa
}

200.2.4 = {
	holder = 1001079
	law = succ_primogeniture
	law = cognatic_succession
}

220.2.1 = {
	holder = 1001679
}

273.2.1 = {
	holder = 1003084
}

283.2.1 = {
	holder = 1005922
}

284.2.1 = {
	holder = 1006024
}

320.2.1 = {
	holder = 1006187
}

341.2.1 = {
	holder = 1007851
}

345.2.1 = {
	holder = 1008858
}

376.2.1 = {
	holder = 1009594
}

388.2.1 = {
	holder = 1010483
}

428.2.1 = {
	holder = 1012608
}

463.2.1 = {
	holder = 1013731
}

507.2.1 = {
	holder = 1015484
}

526.2.1 = {
	holder = 1017728
}

549.2.1 = {
	holder = 1018248
}

594.2.1 = {
	holder = 1019142
}

605.2.1 = {
	holder = 1021520
}

606.2.1 = {
	holder = 1021569
}

646.2.1 = {
	holder = 1021912
}

682.2.1 = {
	holder = 1024029
}

709.2.1 = {
	holder = 1025381
}

714.2.1 = {
	holder = 1026602
}

732.2.1 = {
	holder = 1027398
}

756.2.1 = {
	holder = 1028221
}

780.2.1 = {
	holder = 1029266
}

781.2.1 = {
	holder = 1030019
}

796.2.1 = {
	holder = 1030209
}

799.2.1 = {
	holder = 1030845
}

802.2.1 = {
	holder = 1030897
}

864.2.1 = {
	holder = 1031786
}

877.2.1 = {
	holder = 1033033
}

892.2.1 = {
	holder = 1034648
}

931.2.1 = {
	holder = 1037108
}

964.2.1 = {
	holder = 1037155
}

998.2.1 = {
	holder = 1038907
}

1020.2.1 = {
	holder = 1040799
}

1045.2.1 = {
	holder = 1041933
}

