200.2.1 = {
	holder = 1000000
	law = succ_elective_gavelkind
	law = agnatic_succession
}

200.2.2 = {
	holder = 1000002
	law = succ_elective_gavelkind
	law = agnatic_succession
}

200.2.3 = {
	holder = 1000254
	law = succ_seniority
	law = cognatic_succession
}

200.2.4 = {
	liege = d_kasati
}

200.2.5 = {
	holder = 1000255
	law = succ_elective_gavelkind
	law = agnatic_succession
}

200.2.6 = {
	liege = d_rekiisa
}

200.2.7 = {
	holder = 1000057
	law = succ_elective_gavelkind
	law = agnatic_succession
}

228.2.1 = {
	holder = 1002909
}

261.2.1 = {
	holder = 1006666
}

328.2.1 = {
	holder = 1008520
}

334.2.1 = {
	holder = 1010179
}

334.2.2 = {
	holder = 1012023
}

393.2.1 = {
	holder = 1012272
}

397.2.1 = {
	holder = 1015896
}

403.2.1 = {
	holder = 1015535
}

403.2.2 = {
	holder = 1016541
}

404.2.1 = {
	holder = 1014644
}

404.2.2 = {
	holder = 1016612
}

408.2.1 = {
	holder = 1015084
}

409.2.1 = {
	holder = 1016966
}

424.2.1 = {
	holder = 1016824
}

425.2.1 = {
	holder = 1018053
}

426.2.1 = {
	holder = 1016824
}

427.2.1 = {
	holder = 1015082
}

428.2.1 = {
	holder = 1018315
}

489.2.1 = {
	holder = 1018543
}

520.2.1 = {
	holder = 1022718
}

556.2.1 = {
	holder = 1024397
}

578.2.1 = {
	holder = 1026935
}

610.2.1 = {
	holder = 1029710
}

618.2.1 = {
	holder = 1028712
}

620.2.1 = {
	holder = 1030694
}

621.2.1 = {
	holder = 1030763
}

636.2.1 = {
	holder = 1030961
}

679.2.1 = {
	holder = 1032117
}

701.2.1 = {
	holder = 1033696
}

701.2.2 = {
	holder = 1036035
}

705.2.1 = {
	holder = 1036306
}

719.2.1 = {
	holder = 1036442
}

761.2.1 = {
	holder = 1037656
}

767.2.1 = {
	holder = 1040288
}

803.2.1 = {
	holder = 1040783
}

813.2.1 = {
	holder = 1043276
}

858.2.1 = {
	holder = 1043539
}

883.2.1 = {
	holder = 1046253
}

