200.2.1 = {
	holder = 1000001
	law = succ_tanistry
	law = agnatic_succession
}

200.2.2 = {
	holder = 1000002
	law = succ_elective_gavelkind
	law = agnatic_succession
}

200.2.3 = {
	holder = 1000267
	law = succ_seniority
	law = cognatic_succession
}

200.2.4 = {
	liege = d_tafugr
}

200.2.5 = {
	holder = 1000265
	law = succ_seniority
	law = cognatic_succession
}

203.2.1 = {
	holder = 1001990
}

221.2.1 = {
	holder = 1003525
}

237.2.1 = {
	holder = 1002782
}

259.2.1 = {
	holder = 1004110
}

262.2.1 = {
	holder = 1005421
}

307.2.1 = {
	holder = 1005507
}

308.2.1 = {
	holder = 1007427
}

327.2.1 = {
	holder = 1008850
}

328.2.1 = {
	holder = 1007629
}

400.2.1 = {
	holder = 1015837
}

423.2.1 = {
	holder = 1017026
}

460.2.1 = {
	holder = 1017986
}

468.2.1 = {
	holder = 1020835
}

469.2.1 = {
	holder = 1021025
}

600.2.1 = {
	holder = 1027552
}

601.2.1 = {
	holder = 1026669
}

601.2.2 = {
	holder = 1029512
}

647.2.1 = {
	holder = 1030451
}

672.2.1 = {
	holder = 1033239
}

685.2.1 = {
	holder = 1034866
}

689.2.1 = {
	holder = 1032960
}

689.2.2 = {
	holder = 1035205
}

698.2.1 = {
	holder = 1035579
}

717.2.1 = {
	holder = 1036805
}

744.2.1 = {
	holder = 1038560
}

802.2.1 = {
	holder = 1039665
}

819.2.1 = {
	holder = 1042763
}

823.2.1 = {
	holder = 1043971
}

824.2.1 = {
	holder = 1042763
}

824.2.2 = {
	holder = 1044048
}

842.2.1 = {
	holder = 1044205
}

852.2.1 = {
	holder = 1045782
}

852.2.2 = {
	holder = 1045854
}

869.2.1 = {
	holder = 1046919
}

