200.2.1 = {
	holder = 1000015
	law = succ_tanistry
	law = agnatic_succession
}

200.2.2 = {
	holder = 1000976
	law = succ_tanistry
	law = agnatic_succession
}

200.2.3 = {
	liege = d_lovamur
}

200.2.4 = {
	holder = 1000977
	law = succ_elective_gavelkind
	law = agnatic_succession
}

200.2.5 = {
	holder = 1000974
	law = succ_tanistry
	law = agnatic_succession
}

200.2.6 = {
	holder = 1002017
}

204.2.1 = {
	holder = 1003023
}

213.2.1 = {
	holder = 1003851
}

228.2.1 = {
	holder = 1004298
}

230.2.1 = {
	holder = 1004044
}

258.2.1 = {
	holder = 1004195
}

281.2.1 = {
	holder = 1007118
}

301.2.1 = {
	holder = 1008760
}

320.2.1 = {
	holder = 1010359
}

370.2.1 = {
	holder = 1012795
}

409.2.1 = {
	holder = 1017018
}

426.2.1 = {
	holder = 1017510
}

437.2.1 = {
	holder = 1017685
}

438.2.1 = {
	holder = 1018985
}

600.2.1 = {
	holder = 1019133
}

600.2.2 = {
	holder = 1026867
}

608.2.1 = {
	holder = 1026893
}

682.2.1 = {
	holder = 1034744
}

705.2.1 = {
	holder = 1035122
}

714.2.1 = {
	holder = 1036538
}

734.2.1 = {
	holder = 1037748
}

787.2.1 = {
	holder = 1040615
}

826.2.1 = {
	holder = 1041802
}

826.2.2 = {
	holder = 1044151
}

834.2.1 = {
	holder = 1044530
}

871.2.1 = {
	holder = 1045826
}

