200.2.1 = {
	holder = 1000025
	law = succ_elective_gavelkind
	law = agnatic_succession
}

200.2.2 = {
	holder = 1001447
	law = succ_elective_gavelkind
	law = agnatic_succession
}

200.2.3 = {
	liege = d_datusha
}

200.2.4 = {
	holder = 1001448
	law = succ_elective_gavelkind
	law = agnatic_succession
}

200.2.5 = {
	holder = 1001445
	law = succ_elective_gavelkind
	law = agnatic_succession
}

203.2.1 = {
	holder = 1002376
}

235.2.1 = {
	holder = 1004652
}

249.2.1 = {
	holder = 1004838
}

249.2.2 = {
	holder = 1005127
}

249.2.3 = {
	holder = 1006226
}

285.2.1 = {
	holder = 1006225
}

286.2.1 = {
	holder = 1008737
}

322.2.1 = {
	holder = 1010153
}

327.2.1 = {
	holder = 1009832
}

327.2.2 = {
	holder = 1011605
}

349.2.1 = {
	holder = 1011661
}

390.2.1 = {
	holder = 1013679
}

397.2.1 = {
	holder = 1015865
}

406.2.1 = {
	holder = 1015056
}

406.2.2 = {
	holder = 1016787
}

453.2.1 = {
	holder = 1016996
}

469.2.1 = {
	holder = 1020820
}

496.2.1 = {
	holder = 1022682
}

533.2.1 = {
	holder = 1024436
}

534.2.1 = {
	holder = 1024954
}

549.2.1 = {
	holder = 1026186
}

589.2.1 = {
	holder = 1026339
}

617.2.1 = {
	holder = 1028936
}

618.2.1 = {
	holder = 1027782
}

634.2.1 = {
	holder = 1031621
}

650.2.1 = {
	holder = 1031690
}

654.2.1 = {
	holder = 1029133
}

658.2.1 = {
	holder = 1031950
}

686.2.1 = {
	holder = 1034173
}

737.2.1 = {
	holder = 1035264
}

752.2.1 = {
	holder = 1039012
}

762.2.1 = {
	holder = 1039961
}

771.2.1 = {
	holder = 1038104
}

771.2.2 = {
	holder = 1036273
}

778.2.1 = {
	holder = 1040967
}

780.2.1 = {
	holder = 1041103
}

821.2.1 = {
	holder = 1040177
}

821.2.2 = {
	holder = 1040757
}

900.2.1 = {
	holder = 1047924
}

