200.2.1 = {
	holder = 1000016
	law = succ_tanistry
	law = agnatic_succession
}

200.2.2 = {
	holder = 1000477
	law = succ_tanistry
	law = agnatic_succession
}

200.2.3 = {
	liege = d_rikasan
}

200.2.4 = {
	holder = 1000476
	law = succ_tanistry
	law = agnatic_succession
}

200.2.5 = {
	holder = 1001390
}

220.2.1 = {
	holder = 1001903
}

232.2.1 = {
	holder = 1003551
}

244.2.1 = {
	holder = 1003872
}

249.2.1 = {
	holder = 1001903
}

264.2.1 = {
	holder = 1003101
}

270.2.1 = {
	holder = 1004905
}

281.2.1 = {
	holder = 1005416
}

282.2.1 = {
	holder = 1005941
}

285.2.1 = {
	holder = 1005416
}

285.2.2 = {
	holder = 1006084
}

328.2.1 = {
	holder = 1006270
}

347.2.1 = {
	holder = 1008748
}

352.2.1 = {
	holder = 1007732
}

378.2.1 = {
	holder = 1008921
}

379.2.1 = {
	holder = 1010562
}

500.2.1 = {
	holder = 1013815
}

504.2.1 = {
	holder = 1016323
}

564.2.1 = {
	holder = 1017223
}

569.2.1 = {
	holder = 1019705
}

579.2.1 = {
	holder = 1020274
}

600.2.1 = {
	holder = 1020475
}

630.2.1 = {
	holder = 1022557
}

685.2.1 = {
	holder = 1023652
}

717.2.1 = {
	holder = 1025769
}

723.2.1 = {
	holder = 1027201
}

748.2.1 = {
	holder = 1028347
}

775.2.1 = {
	holder = 1028400
}

785.2.1 = {
	holder = 1029764
}

821.2.1 = {
	holder = 1030831
}

835.2.1 = {
	holder = 1032212
}

908.2.1 = {
	holder = 1033368
}

912.2.1 = {
	holder = 1033172
}

919.2.1 = {
	holder = 1036542
}

988.2.1 = {
	holder = 1037559
}

991.2.1 = {
	holder = 1039933
}

1013.2.1 = {
	holder = 1040023
}

1032.2.1 = {
	holder = 1041424
}

1038.2.1 = {
	holder = 1042272
}

