200.2.1 = {
	holder = 1000019
	law = succ_primogeniture
	law = agnatic_succession
}

200.2.2 = {
	holder = 1000680
	law = succ_primogeniture
	law = agnatic_succession
}

200.2.3 = {
	liege = d_kinello
}

200.2.4 = {
	holder = 1000681
	law = succ_primogeniture
	law = cognatic_succession
}

200.2.5 = {
	liege = d_kinello
}

200.2.6 = {
	holder = 1000676
	law = succ_primogeniture
	law = agnatic_succession
}

252.2.1 = {
	holder = 1002179
}

273.2.1 = {
	holder = 1004558
}

274.2.1 = {
	holder = 1004340
}

274.2.2 = {
	holder = 1005541
}

307.2.1 = {
	holder = 1005759
}

307.2.2 = {
	holder = 1007099
}

337.2.1 = {
	holder = 1005709
}

343.2.1 = {
	holder = 1008674
}

349.2.1 = {
	holder = 1009023
}

371.2.1 = {
	holder = 1009111
}

372.2.1 = {
	holder = 1010222
}

395.2.1 = {
	holder = 1010273
}

431.2.1 = {
	holder = 1013167
}

477.2.1 = {
	holder = 1015364
}

509.2.1 = {
	holder = 1016934
}

510.2.1 = {
	holder = 1015125
}

525.2.1 = {
	holder = 1017369
}

527.2.1 = {
	holder = 1017397
}

528.2.1 = {
	holder = 1017819
}

591.2.1 = {
	holder = 1018184
}

596.2.1 = {
	holder = 1018183
}

603.2.1 = {
	holder = 1019864
}

611.2.1 = {
	holder = 1021604
}

659.2.1 = {
	holder = 1022505
}

660.2.1 = {
	holder = 1024120
}

667.2.1 = {
	holder = 1024177
}

723.2.1 = {
	holder = 1025016
}

730.2.1 = {
	holder = 1026638
}

733.2.1 = {
	holder = 1027649
}

735.2.1 = {
	holder = 1027383
}

767.2.1 = {
	holder = 1029314
}

789.2.1 = {
	holder = 1029651
}

798.2.1 = {
	holder = 1030370
}

799.2.1 = {
	holder = 1030834
}

813.2.1 = {
	holder = 1029313
}

815.2.1 = {
	holder = 1030705
}

816.2.1 = {
	holder = 1031768
}

835.2.1 = {
	holder = 1032079
}

837.2.1 = {
	holder = 1030571
}

838.2.1 = {
	holder = 1029652
}

840.2.1 = {
	holder = 1030705
}

841.2.1 = {
	holder = 1032931
}

880.2.1 = {
	holder = 1033068
}

889.2.1 = {
	holder = 1034858
}

951.2.1 = {
	holder = 1036047
}

969.2.1 = {
	holder = 1038127
}

987.2.1 = {
	holder = 1039484
}

996.2.1 = {
	holder = 1037821
}

996.2.2 = {
	holder = 1040156
}

1031.2.1 = {
	holder = 1040252
}

1045.2.1 = {
	holder = 1041971
}

