200.2.1 = {
	holder = 1000014
	law = succ_elective_gavelkind
	law = agnatic_succession
}

200.2.2 = {
	holder = 1000015
	law = succ_elective_gavelkind
	law = agnatic_succession
}

200.2.3 = {
	holder = 1001058
	law = succ_tanistry
	law = agnatic_succession
}

200.2.4 = {
	liege = d_tarulay
}

200.2.5 = {
	holder = 1001057
	law = succ_tanistry
	law = agnatic_succession
}

236.2.1 = {
	holder = 1003200
}

256.2.1 = {
	holder = 1005395
}

286.2.1 = {
	holder = 1006885
}

297.2.1 = {
	holder = 1007764
}

297.2.2 = {
	holder = 1009513
}

321.2.1 = {
	holder = 1009697
}

354.2.1 = {
	holder = 1010856
}

361.2.1 = {
	holder = 1012865
}

386.2.1 = {
	holder = 1013347
}

395.2.1 = {
	holder = 1015991
}

402.2.1 = {
	holder = 1015999
}

461.2.1 = {
	holder = 1018076
}

479.2.1 = {
	holder = 1020690
}

518.2.1 = {
	holder = 1023618
}

558.2.1 = {
	holder = 1025186
}

566.2.1 = {
	holder = 1026897
}

589.2.1 = {
	holder = 1027910
}

600.2.1 = {
	holder = 1029064
}

630.2.1 = {
	holder = 1030541
}

659.2.1 = {
	holder = 1033000
}

672.2.1 = {
	holder = 1033403
}

680.2.1 = {
	holder = 1034632
}

726.2.1 = {
	holder = 1035125
}

740.2.1 = {
	holder = 1037812
}

744.2.1 = {
	holder = 1037979
}

760.2.1 = {
	holder = 1039052
}

774.2.1 = {
	holder = 1040736
}

800.2.1 = {
	holder = 1040741
}

827.2.1 = {
	holder = 1043438
}

833.2.1 = {
	holder = 1043006
}

834.2.1 = {
	holder = 1044673
}

868.2.1 = {
	holder = 1044807
}

892.2.1 = {
	holder = 1046896
}

