200.2.1 = {
	holder = 1000033
	law = succ_tanistry
	law = cognatic_succession
}

200.2.2 = {
	holder = 1001629
	law = succ_tanistry
	law = cognatic_succession
}

200.2.3 = {
	liege = d_esularn
}

200.2.4 = {
	holder = 1001628
	law = succ_tanistry
	law = cognatic_succession
}

200.2.5 = {
	holder = 1002033
}

224.2.1 = {
	holder = 1002903
}

259.2.1 = {
	holder = 1005222
}

268.2.1 = {
	holder = 1003722
}

273.2.1 = {
	holder = 1007680
}

301.2.1 = {
	holder = 1009837
}

343.2.1 = {
	holder = 1010723
}

369.2.1 = {
	holder = 1013247
}

401.2.1 = {
	holder = 1015628
}

402.2.1 = {
	holder = 1014357
}

419.2.1 = {
	holder = 1017693
}

448.2.1 = {
	holder = 1017960
}

482.2.1 = {
	holder = 1019230
}

483.2.1 = {
	holder = 1018023
}

483.2.2 = {
	holder = 1021887
}

517.2.1 = {
	holder = 1022963
}

528.2.1 = {
	holder = 1022235
}

528.2.2 = {
	holder = 1024826
}

532.2.1 = {
	holder = 1023191
}

532.2.2 = {
	holder = 1025095
}

566.2.1 = {
	holder = 1027242
}

602.2.1 = {
	holder = 1027460
}

631.2.1 = {
	holder = 1029749
}

650.2.1 = {
	holder = 1030498
}

651.2.1 = {
	holder = 1032763
}

675.2.1 = {
	holder = 1033202
}

676.2.1 = {
	holder = 1031174
}

676.2.2 = {
	holder = 1034364
}

721.2.1 = {
	holder = 1037199
}

753.2.1 = {
	holder = 1038530
}

756.2.1 = {
	holder = 1035979
}

756.2.2 = {
	holder = 1039563
}

771.2.1 = {
	holder = 1040465
}

789.2.1 = {
	holder = 1038903
}

795.2.1 = {
	holder = 1040465
}

813.2.1 = {
	holder = 1041878
}

816.2.1 = {
	holder = 1043519
}

817.2.1 = {
	holder = 1043584
}

823.2.1 = {
	holder = 1043889
}

824.2.1 = {
	holder = 1041573
}

826.2.1 = {
	holder = 1043579
}

828.2.1 = {
	holder = 1044294
}

863.2.1 = {
	holder = 1045633
}

869.2.1 = {
	holder = 1046739
}

876.2.1 = {
	holder = 1047088
}

885.2.1 = {
	holder = 1047933
}

