200.2.1 = {
	holder = 1000000
	law = succ_elective_gavelkind
	law = agnatic_succession
}

200.2.2 = {
	liege = d_belia
}

200.2.3 = {
	liege = d_kakinik
}

200.2.4 = {
	holder = 1000065
	law = succ_elective_gavelkind
	law = agnatic_succession
}

205.2.1 = {
	holder = 1000107
}

206.2.1 = {
	holder = 1003339
}

208.2.1 = {
	holder = 1003359
}

233.2.1 = {
	holder = 1000107
}

265.2.1 = {
	holder = 1002771
}

273.2.1 = {
	holder = 1007411
}

299.2.1 = {
	holder = 1009641
}

306.2.1 = {
	holder = 1007411
}

334.2.1 = {
	holder = 1011261
}

335.2.1 = {
	holder = 1012135
}

354.2.1 = {
	holder = 1012653
}

359.2.1 = {
	holder = 1012372
}

369.2.1 = {
	holder = 1012729
}

399.2.1 = {
	holder = 1014433
}

411.2.1 = {
	holder = 1015519
}

433.2.1 = {
	holder = 1018660
}

468.2.1 = {
	holder = 1019559
}

468.2.2 = {
	holder = 1020958
}

509.2.1 = {
	holder = 1021232
}

514.2.1 = {
	holder = 1022173
}

514.2.2 = {
	holder = 1023882
}

535.2.1 = {
	holder = 1024082
}

575.2.1 = {
	holder = 1025541
}

585.2.1 = {
	holder = 1028350
}

613.2.1 = {
	holder = 1030240
}

662.2.1 = {
	holder = 1032169
}

662.2.2 = {
	holder = 1030814
}

800.2.1 = {
	holder = 1030892
}

800.2.2 = {
	holder = 1040211
}

801.2.1 = {
	holder = 1041469
}

806.2.1 = {
	holder = 1042759
}

845.2.1 = {
	holder = 1043127
}

846.2.1 = {
	holder = 1044113
}

846.2.2 = {
	holder = 1045444
}

858.2.1 = {
	holder = 1045662
}

896.2.1 = {
	holder = 1048256
}

896.2.2 = {
	holder = 1048666
}

