200.2.1 = {
	holder = 1000026
	law = succ_gavelkind
	law = agnatic_succession
}

200.2.2 = {
	holder = 1001484
	law = succ_gavelkind
	law = agnatic_succession
}

200.2.3 = {
	liege = d_enikofan
}

200.2.4 = {
	holder = 1001483
	law = succ_gavelkind
	law = agnatic_succession
}

213.2.1 = {
	holder = 1003832
}

259.2.1 = {
	holder = 1004894
}

275.2.1 = {
	holder = 1006225
}

277.2.1 = {
	holder = 1008164
}

296.2.1 = {
	holder = 1009177
}

296.2.2 = {
	holder = 1009453
}

318.2.1 = {
	holder = 1009492
}

354.2.1 = {
	holder = 1011661
}

355.2.1 = {
	holder = 1013411
}

500.2.1 = {
	holder = 1021653
}

519.2.1 = {
	holder = 1022862
}

555.2.1 = {
	holder = 1024506
}

582.2.1 = {
	holder = 1026563
}

611.2.1 = {
	holder = 1027845
}

639.2.1 = {
	holder = 1030437
}

641.2.1 = {
	holder = 1031894
}

642.2.1 = {
	holder = 1027039
}

645.2.1 = {
	holder = 1032172
}

646.2.1 = {
	holder = 1030270
}

646.2.2 = {
	holder = 1029843
}

661.2.1 = {
	holder = 1032486
}

669.2.1 = {
	holder = 1033669
}

677.2.1 = {
	holder = 1031950
}

678.2.1 = {
	holder = 1034512
}

708.2.1 = {
	holder = 1034898
}

722.2.1 = {
	holder = 1036617
}

723.2.1 = {
	holder = 1035263
}

724.2.1 = {
	holder = 1037572
}

737.2.1 = {
	holder = 1038034
}

738.2.1 = {
	holder = 1034581
}

747.2.1 = {
	holder = 1034954
}

763.2.1 = {
	holder = 1037326
}

785.2.1 = {
	holder = 1040314
}

803.2.1 = {
	holder = 1042629
}

846.2.1 = {
	holder = 1043014
}

851.2.1 = {
	holder = 1045559
}

880.2.1 = {
	holder = 1044702
}

886.2.1 = {
	holder = 1044818
}

890.2.1 = {
	holder = 1047647
}

