200.2.1 = {
	holder = 1000007
	law = succ_gavelkind
	law = agnatic_succession
}

200.2.2 = {
	holder = 1000314
	law = succ_gavelkind
	law = agnatic_succession
}

200.2.3 = {
	liege = d_temenes
}

200.2.4 = {
	holder = 1000315
	law = succ_primogeniture
	law = cognatic_succession
}

200.2.5 = {
	holder = 1000312
	law = succ_gavelkind
	law = agnatic_succession
}

200.2.6 = {
	holder = 1001378
}

211.2.1 = {
	holder = 1001893
}

220.2.1 = {
	holder = 1002996
}

222.2.1 = {
	holder = 1003095
}

262.2.1 = {
	holder = 1003155
}

283.2.1 = {
	holder = 1005099
}

297.2.1 = {
	holder = 1006249
}

329.2.1 = {
	holder = 1007352
}

363.2.1 = {
	holder = 1009676
}

378.2.1 = {
	holder = 1008239
}

379.2.1 = {
	holder = 1009676
}

381.2.1 = {
	holder = 1010500
}

400.2.1 = {
	holder = 1011669
}

433.2.1 = {
	holder = 1012753
}

441.2.1 = {
	holder = 1013643
}

442.2.1 = {
	holder = 1013681
}

445.2.1 = {
	holder = 1013643
}

449.2.1 = {
	holder = 1010640
}

462.2.1 = {
	holder = 1014175
}

470.2.1 = {
	holder = 1013851
}

493.2.1 = {
	holder = 1016097
}

518.2.1 = {
	holder = 1016612
}

521.2.1 = {
	holder = 1016771
}

521.2.2 = {
	holder = 1017495
}

554.2.1 = {
	holder = 1018117
}

565.2.1 = {
	holder = 1018711
}

566.2.1 = {
	holder = 1018816
}

577.2.1 = {
	holder = 1019697
}

578.2.1 = {
	holder = 1018362
}

581.2.1 = {
	holder = 1020402
}

587.2.1 = {
	holder = 1018362
}

587.2.2 = {
	holder = 1020709
}

602.2.1 = {
	holder = 1021046
}

630.2.1 = {
	holder = 1020270
}

631.2.1 = {
	holder = 1020225
}

635.2.1 = {
	holder = 1021106
}

643.2.1 = {
	holder = 1023201
}

659.2.1 = {
	holder = 1024003
}

660.2.1 = {
	holder = 1024106
}

693.2.1 = {
	holder = 1024161
}

715.2.1 = {
	holder = 1026107
}

753.2.1 = {
	holder = 1027192
}

766.2.1 = {
	holder = 1028799
}

773.2.1 = {
	holder = 1029599
}

789.2.1 = {
	holder = 1028592
}

790.2.1 = {
	holder = 1030408
}

813.2.1 = {
	holder = 1030518
}

825.2.1 = {
	holder = 1031754
}

829.2.1 = {
	holder = 1031647
}

840.2.1 = {
	holder = 1032863
}

843.2.1 = {
	holder = 1030985
}

844.2.1 = {
	holder = 1031096
}

859.2.1 = {
	holder = 1031861
}

859.2.2 = {
	holder = 1032167
}

869.2.1 = {
	holder = 1033810
}

925.2.1 = {
	holder = 1034531
}

929.2.1 = {
	holder = 1036897
}

934.2.1 = {
	holder = 1036500
}

939.2.1 = {
	holder = 1037504
}

941.2.1 = {
	holder = 1037235
}

975.2.1 = {
	holder = 1037283
}

975.2.2 = {
	holder = 1039178
}

979.2.1 = {
	holder = 1039370
}

985.2.1 = {
	holder = 1039702
}

1038.2.1 = {
	holder = 1039716
}

1045.2.1 = {
	holder = 1040475
}

1045.2.2 = {
	holder = 1042610
}

1064.2.1 = {
	holder = 1042625
}

