200.2.1 = {
	holder = 1000025
	law = succ_elective_gavelkind
	law = agnatic_succession
}

200.2.2 = {
	holder = 1001463
	law = succ_elective_gavelkind
	law = agnatic_succession
}

200.2.3 = {
	liege = d_kevifon
}

200.2.4 = {
	holder = 1001461
	law = succ_elective_gavelkind
	law = agnatic_succession
}

212.2.1 = {
	holder = 1003639
}

232.2.1 = {
	holder = 1004839
}

282.2.1 = {
	holder = 1006047
}

292.2.1 = {
	holder = 1008810
}

353.2.1 = {
	holder = 1011182
}

361.2.1 = {
	holder = 1011319
}

368.2.1 = {
	holder = 1014152
}

369.2.1 = {
	holder = 1013358
}

414.2.1 = {
	holder = 1014753
}

423.2.1 = {
	holder = 1016341
}

455.2.1 = {
	holder = 1018460
}

462.2.1 = {
	holder = 1020523
}

519.2.1 = {
	holder = 1021772
}

537.2.1 = {
	holder = 1024391
}

548.2.1 = {
	holder = 1024954
}

572.2.1 = {
	holder = 1025973
}

573.2.1 = {
	holder = 1026649
}

592.2.1 = {
	holder = 1027580
}

610.2.1 = {
	holder = 1027845
}

639.2.1 = {
	holder = 1030437
}

641.2.1 = {
	holder = 1031894
}

661.2.1 = {
	holder = 1031946
}

690.2.1 = {
	holder = 1034117
}

714.2.1 = {
	holder = 1035010
}

751.2.1 = {
	holder = 1037164
}

756.2.1 = {
	holder = 1038644
}

759.2.1 = {
	holder = 1037873
}

767.2.1 = {
	holder = 1039988
}

776.2.1 = {
	holder = 1036614
}

779.2.1 = {
	holder = 1041069
}

781.2.1 = {
	holder = 1040967
}

802.2.1 = {
	holder = 1040314
}

809.2.1 = {
	holder = 1042054
}

830.2.1 = {
	holder = 1043537
}

833.2.1 = {
	holder = 1043651
}

855.2.1 = {
	holder = 1043827
}

882.2.1 = {
	holder = 1046821
}

