200.2.1 = {
	holder = 1000020
	law = succ_open_elective
	law = cognatic_succession
}

200.2.2 = {
	holder = 1000021
	law = succ_elective_gavelkind
	law = agnatic_succession
}

200.2.3 = {
	holder = 1001330
	law = succ_open_elective
	law = agnatic_succession
}

200.2.4 = {
	liege = d_riaria
}

200.2.5 = {
	holder = 1001331
	law = succ_elective_gavelkind
	law = agnatic_succession
}

200.2.6 = {
	holder = 1001328
	law = succ_open_elective
	law = agnatic_succession
}

229.2.1 = {
	holder = 1003573
}

251.2.1 = {
	holder = 1005257
}

265.2.1 = {
	holder = 1006550
}

296.2.1 = {
	holder = 1009229
}

296.2.2 = {
	holder = 1009442
}

331.2.1 = {
	holder = 1009799
}

345.2.1 = {
	holder = 1011937
}

356.2.1 = {
	holder = 1010414
}

356.2.2 = {
	holder = 1013483
}

394.2.1 = {
	holder = 1014121
}

400.2.1 = {
	holder = 1016126
}

407.2.1 = {
	holder = 1016880
}

438.2.1 = {
	holder = 1016128
}

450.2.1 = {
	holder = 1019142
}

460.2.1 = {
	holder = 1020180
}

498.2.1 = {
	holder = 1021574
}

518.2.1 = {
	holder = 1023553
}

563.2.1 = {
	holder = 1026517
}

568.2.1 = {
	holder = 1027110
}

574.2.1 = {
	holder = 1027733
}

595.2.1 = {
	holder = 1028270
}

635.2.1 = {
	holder = 1029588
}

668.2.1 = {
	holder = 1032567
}

700.2.1 = {
	holder = 1034529
}

718.2.1 = {
	holder = 1036704
}

762.2.1 = {
	holder = 1037884
}

779.2.1 = {
	holder = 1040331
}

799.2.1 = {
	holder = 1042262
}

847.2.1 = {
	holder = 1045513
}

888.2.1 = {
	holder = 1045627
}

