200.2.1 = {
	holder = 1000015
	law = succ_seniority
	law = cognatic_succession
}

200.2.2 = {
	holder = 1000426
	law = succ_seniority
	law = cognatic_succession
}

200.2.3 = {
	liege = d_sarudra
}

200.2.4 = {
	holder = 1000427
	law = succ_primogeniture
	law = cognatic_succession
}

200.2.5 = {
	holder = 1000424
	law = succ_seniority
	law = cognatic_succession
}

208.2.1 = {
	holder = 1000530
}

236.2.1 = {
	holder = 1002322
}

238.2.1 = {
	holder = 1003422
}

248.2.1 = {
	holder = 1003915
}

249.2.1 = {
	holder = 1003292
}

249.2.2 = {
	holder = 1004389
}

297.2.1 = {
	holder = 1005025
}

307.2.1 = {
	holder = 1006663
}

330.2.1 = {
	holder = 1007683
}

375.2.1 = {
	holder = 1010022
}

375.2.2 = {
	holder = 1010357
}

390.2.1 = {
	holder = 1010464
}

390.2.2 = {
	holder = 1011114
}

397.2.1 = {
	holder = 1010465
}

423.2.1 = {
	holder = 1010905
}

448.2.1 = {
	holder = 1012819
}

463.2.1 = {
	holder = 1014074
}

464.2.1 = {
	holder = 1014322
}

465.2.1 = {
	holder = 1014715
}

465.2.2 = {
	holder = 1014441
}

501.2.1 = {
	holder = 1014575
}

600.2.1 = {
	holder = 1021010
}

629.2.1 = {
	holder = 1021985
}

657.2.1 = {
	holder = 1022811
}

659.2.1 = {
	holder = 1022041
}

659.2.2 = {
	holder = 1024061
}

660.2.1 = {
	holder = 1024114
}

715.2.1 = {
	holder = 1025361
}

721.2.1 = {
	holder = 1026989
}

739.2.1 = {
	holder = 1027799
}

778.2.1 = {
	holder = 1028655
}

794.2.1 = {
	holder = 1030091
}

833.2.1 = {
	holder = 1031049
}

855.2.1 = {
	holder = 1032578
}

862.2.1 = {
	holder = 1033814
}

866.2.1 = {
	holder = 1031652
}

866.2.2 = {
	holder = 1031098
}

1000.2.1 = {
	holder = 1038702
}

1013.2.1 = {
	holder = 1040090
}

1017.2.1 = {
	holder = 1041125
}

1021.2.1 = {
	holder = 1041046
}

1040.2.1 = {
	holder = 1041945
}

1041.2.1 = {
	holder = 1042440
}

