200.2.1 = {
	holder = 1000029
	law = succ_gavelkind
	law = cognatic_succession
}

200.2.2 = {
	holder = 1001512
	law = succ_gavelkind
	law = cognatic_succession
}

200.2.3 = {
	liege = d_tiutn
}

200.2.4 = {
	holder = 1001511
	law = succ_gavelkind
	law = cognatic_succession
}

200.2.5 = {
	holder = 1002031
}

223.2.1 = {
	holder = 1002764
}

237.2.1 = {
	holder = 1004974
}

252.2.1 = {
	holder = 1006425
}

282.2.1 = {
	holder = 1008440
}

304.2.1 = {
	holder = 1009594
}

363.2.1 = {
	holder = 1010959
}

372.2.1 = {
	holder = 1014574
}

385.2.1 = {
	holder = 1015126
}

392.2.1 = {
	holder = 1014798
}

415.2.1 = {
	holder = 1017432
}

435.2.1 = {
	holder = 1017955
}

439.2.1 = {
	holder = 1019094
}

457.2.1 = {
	holder = 1019363
}

481.2.1 = {
	holder = 1020383
}

496.2.1 = {
	holder = 1019423
}

498.2.1 = {
	holder = 1022286
}

526.2.1 = {
	holder = 1023355
}

538.2.1 = {
	holder = 1025025
}

582.2.1 = {
	holder = 1026110
}

600.2.1 = {
	holder = 1028450
}

648.2.1 = {
	holder = 1030867
}

649.2.1 = {
	holder = 1028692
}

649.2.2 = {
	holder = 1032609
}

800.2.1 = {
	holder = 1039965
}

817.2.1 = {
	holder = 1041293
}

833.2.1 = {
	holder = 1042906
}

833.2.2 = {
	holder = 1044613
}

901.2.1 = {
	holder = 1045904
}

