200.2.1 = {
	holder = 1000012
	law = succ_open_elective
	law = cognatic_succession
}

200.2.2 = {
	liege = d_nokilla
}

236.2.1 = {
	holder = 1002220
}

246.2.1 = {
	holder = 1004032
}

247.2.1 = {
	holder = 1004273
}

264.2.1 = {
	holder = 1004425
}

277.2.1 = {
	holder = 1005233
}

329.2.1 = {
	holder = 1006033
}

348.2.1 = {
	holder = 1008416
}

385.2.1 = {
	holder = 1009298
}

404.2.1 = {
	holder = 1011552
}

420.2.1 = {
	holder = 1012655
}

424.2.1 = {
	holder = 1012747
}

456.2.1 = {
	holder = 1014210
}

501.2.1 = {
	holder = 1015497
}

512.2.1 = {
	holder = 1016601
}

527.2.1 = {
	holder = 1017799
}

571.2.1 = {
	holder = 1018596
}

575.2.1 = {
	holder = 1019977
}

581.2.1 = {
	holder = 1020401
}

609.2.1 = {
	holder = 1020452
}

620.2.1 = {
	holder = 1021972
}

627.2.1 = {
	holder = 1022582
}

662.2.1 = {
	holder = 1022625
}

676.2.1 = {
	holder = 1024409
}

683.2.1 = {
	holder = 1025229
}

732.2.1 = {
	holder = 1025733
}

746.2.1 = {
	holder = 1027967
}

798.2.1 = {
	holder = 1029140
}

801.2.1 = {
	holder = 1030962
}

816.2.1 = {
	holder = 1031132
}

818.2.1 = {
	holder = 1031895
}

849.2.1 = {
	holder = 1032019
}

872.2.1 = {
	holder = 1033412
}

927.2.1 = {
	holder = 1034708
}

945.2.1 = {
	holder = 1037799
}

967.2.1 = {
	holder = 1038205
}

996.2.1 = {
	holder = 1039104
}

1029.2.1 = {
	holder = 1040472
}

1061.2.1 = {
	holder = 1042244
}

