200.2.1 = {
	holder = 1000010
	law = succ_elective_gavelkind
	law = agnatic_succession
}

200.2.2 = {
	holder = 1000744
	law = succ_elective_gavelkind
	law = agnatic_succession
}

200.2.3 = {
	liege = d_qat
}

200.2.4 = {
	holder = 1000745
	law = succ_elective_gavelkind
	law = agnatic_succession
}

200.2.5 = {
	liege = d_bahes
}

200.2.6 = {
	holder = 1000737
	law = succ_elective_gavelkind
	law = agnatic_succession
}

203.2.1 = {
	holder = 1000117
}

210.2.1 = {
	holder = 1002773
}

219.2.1 = {
	holder = 1000159
}

225.2.1 = {
	holder = 1002064
}

243.2.1 = {
	holder = 1005724
}

276.2.1 = {
	holder = 1007982
}

283.2.1 = {
	holder = 1008572
}

290.2.1 = {
	holder = 1008573
}

295.2.1 = {
	holder = 1009118
}

332.2.1 = {
	holder = 1011913
}

356.2.1 = {
	holder = 1012011
}

367.2.1 = {
	holder = 1014187
}

370.2.1 = {
	holder = 1010678
}

379.2.1 = {
	holder = 1013279
}

399.2.1 = {
	holder = 1016262
}

447.2.1 = {
	holder = 1017040
}

459.2.1 = {
	holder = 1019659
}

504.2.1 = {
	holder = 1021195
}

523.2.1 = {
	holder = 1023730
}

565.2.1 = {
	holder = 1025068
}

585.2.1 = {
	holder = 1027186
}

605.2.1 = {
	holder = 1028916
}

627.2.1 = {
	holder = 1030915
}

685.2.1 = {
	holder = 1032056
}

702.2.1 = {
	holder = 1034991
}

719.2.1 = {
	holder = 1036322
}

732.2.1 = {
	holder = 1037398
}

733.2.1 = {
	holder = 1036798
}

734.2.1 = {
	holder = 1038191
}

783.2.1 = {
	holder = 1038686
}

802.2.1 = {
	holder = 1041411
}

856.2.1 = {
	holder = 1043000
}

863.2.1 = {
	holder = 1046531
}

876.2.1 = {
	holder = 1045800
}

877.2.1 = {
	holder = 1042438
}

880.2.1 = {
	holder = 1044782
}

883.2.1 = {
	holder = 1047546
}

884.2.1 = {
	holder = 1047793
}

