200.2.1 = {
	holder = 1000039
	law = succ_feudal_elective
	law = cognatic_succession
}

200.2.2 = {
	liege = d_qenese
}

200.2.3 = {
	liege = d_raldis
}

200.2.4 = {
	holder = 1001242
	law = succ_feudal_elective
	law = cognatic_succession
}

200.2.5 = {
	holder = 1001407
}

208.2.1 = {
	holder = 1002302
}

209.2.1 = {
	holder = 1002487
}

210.2.1 = {
	holder = 1002532
}

221.2.1 = {
	holder = 1002848
}

235.2.1 = {
	holder = 1003685
}

236.2.1 = {
	holder = 1003729
}

243.2.1 = {
	holder = 1002848
}

250.2.1 = {
	holder = 1004438
}

289.2.1 = {
	holder = 1004655
}

298.2.1 = {
	holder = 1004878
}

308.2.1 = {
	holder = 1006888
}

326.2.1 = {
	holder = 1008081
}

351.2.1 = {
	holder = 1008319
}

381.2.1 = {
	holder = 1009376
}

406.2.1 = {
	holder = 1011972
}

410.2.1 = {
	holder = 1012201
}

413.2.1 = {
	holder = 1012202
}

413.2.2 = {
	holder = 1009719
}

418.2.1 = {
	holder = 1012202
}

418.2.2 = {
	holder = 1012585
}

460.2.1 = {
	holder = 1012698
}

476.2.1 = {
	holder = 1013171
}

476.2.2 = {
	holder = 1015307
}

528.2.1 = {
	holder = 1015554
}

532.2.1 = {
	holder = 1016170
}

547.2.1 = {
	holder = 1017203
}

570.2.1 = {
	holder = 1019188
}

602.2.1 = {
	holder = 1019971
}

626.2.1 = {
	holder = 1021575
}

630.2.1 = {
	holder = 1022734
}

662.2.1 = {
	holder = 1023551
}

700.2.1 = {
	holder = 1024528
}

706.2.1 = {
	holder = 1024416
}

706.2.2 = {
	holder = 1026389
}

727.2.1 = {
	holder = 1025976
}

738.2.1 = {
	holder = 1027498
}

765.2.1 = {
	holder = 1028293
}

771.2.1 = {
	holder = 1029543
}

801.2.1 = {
	holder = 1029582
}

850.2.1 = {
	holder = 1031184
}

853.2.1 = {
	holder = 1033408
}

862.2.1 = {
	holder = 1033795
}

862.2.2 = {
	holder = 1033927
}

885.2.1 = {
	holder = 1034569
}

895.2.1 = {
	holder = 1035427
}

912.2.1 = {
	holder = 1035508
}

953.2.1 = {
	holder = 1036288
}

969.2.1 = {
	holder = 1038529
}

990.2.1 = {
	holder = 1039602
}

996.2.1 = {
	holder = 1039407
}

1039.2.1 = {
	holder = 1040168
}

1057.2.1 = {
	holder = 1042742
}

