200.2.1 = {
	holder = 1000033
	law = succ_open_elective
	law = cognatic_succession
}

200.2.2 = {
	holder = 1000943
	law = succ_open_elective
	law = cognatic_succession
}

200.2.3 = {
	liege = d_remanjor
}

200.2.4 = {
	holder = 1000941
	law = succ_open_elective
	law = cognatic_succession
}

242.2.1 = {
	holder = 1001963
}

264.2.1 = {
	holder = 1003776
}

299.2.1 = {
	holder = 1006184
}

316.2.1 = {
	holder = 1004710
}

316.2.2 = {
	holder = 1007567
}

324.2.1 = {
	holder = 1007032
}

324.2.2 = {
	holder = 1004757
}

337.2.1 = {
	holder = 1008264
}

367.2.1 = {
	holder = 1008984
}

377.2.1 = {
	holder = 1010279
}

437.2.1 = {
	holder = 1013438
}

461.2.1 = {
	holder = 1013935
}

504.2.1 = {
	holder = 1014924
}

536.2.1 = {
	holder = 1016915
}

544.2.1 = {
	holder = 1018392
}

545.2.1 = {
	holder = 1018705
}

562.2.1 = {
	holder = 1018445
}

563.2.1 = {
	holder = 1019552
}

572.2.1 = {
	holder = 1019586
}

624.2.1 = {
	holder = 1020436
}

643.2.1 = {
	holder = 1022857
}

692.2.1 = {
	holder = 1024249
}

716.2.1 = {
	holder = 1026881
}

724.2.1 = {
	holder = 1027004
}

726.2.1 = {
	holder = 1026346
}

726.2.2 = {
	holder = 1027362
}

739.2.1 = {
	holder = 1026346
}

759.2.1 = {
	holder = 1027497
}

774.2.1 = {
	holder = 1029686
}

798.2.1 = {
	holder = 1030061
}

825.2.1 = {
	holder = 1031062
}

859.2.1 = {
	holder = 1032672
}

908.2.1 = {
	holder = 1033829
}

912.2.1 = {
	holder = 1036222
}

920.2.1 = {
	holder = 1036613
}

921.2.1 = {
	holder = 1036222
}

921.2.2 = {
	holder = 1036668
}

960.2.1 = {
	holder = 1036870
}

978.2.1 = {
	holder = 1038521
}

1010.2.1 = {
	holder = 1039804
}

1026.2.1 = {
	holder = 1040990
}

1030.2.1 = {
	holder = 1041050
}

1030.2.2 = {
	holder = 1039987
}

1052.2.1 = {
	holder = 1042218
}

1057.2.1 = {
	holder = 1043102
}

