200.2.1 = {
	holder = 1000005
	law = succ_tanistry
	law = cognatic_succession
}

200.2.2 = {
	holder = 1000470
	law = succ_tanistry
	law = cognatic_succession
}

200.2.3 = {
	liege = d_bavid
}

200.2.4 = {
	holder = 1000469
	law = succ_tanistry
	law = cognatic_succession
}

215.2.1 = {
	holder = 1002141
}

232.2.1 = {
	holder = 1004564
}

277.2.1 = {
	holder = 1005872
}

309.2.1 = {
	holder = 1008338
}

315.2.1 = {
	holder = 1008318
}

348.2.1 = {
	holder = 1011198
}

363.2.1 = {
	holder = 1013925
}

408.2.1 = {
	holder = 1014045
}

423.2.1 = {
	holder = 1017783
}

435.2.1 = {
	holder = 1014704
}

436.2.1 = {
	holder = 1018819
}

445.2.1 = {
	holder = 1018825
}

478.2.1 = {
	holder = 1020413
}

516.2.1 = {
	holder = 1021639
}

522.2.1 = {
	holder = 1024282
}

545.2.1 = {
	holder = 1024414
}

584.2.1 = {
	holder = 1026147
}

591.2.1 = {
	holder = 1028670
}

635.2.1 = {
	holder = 1030250
}

652.2.1 = {
	holder = 1032198
}

688.2.1 = {
	holder = 1034281
}

705.2.1 = {
	holder = 1035324
}

727.2.1 = {
	holder = 1036659
}

762.2.1 = {
	holder = 1037901
}

783.2.1 = {
	holder = 1040075
}

820.2.1 = {
	holder = 1039410
}

831.2.1 = {
	holder = 1040075
}

831.2.2 = {
	holder = 1044494
}

879.2.1 = {
	holder = 1044975
}

880.2.1 = {
	holder = 1046168
}

880.2.2 = {
	holder = 1047601
}

