200.2.1 = {
	holder = 1000033
	law = succ_tanistry
	law = cognatic_succession
}

200.2.2 = {
	holder = 1001678
	law = succ_tanistry
	law = cognatic_succession
}

200.2.3 = {
	liege = d_natay
}

200.2.4 = {
	holder = 1001676
	law = succ_tanistry
	law = cognatic_succession
}

235.2.1 = {
	holder = 1002441
}

261.2.1 = {
	holder = 1005338
}

282.2.1 = {
	holder = 1007176
}

296.2.1 = {
	holder = 1009156
}

356.2.1 = {
	holder = 1010343
}

369.2.1 = {
	holder = 1013684
}

416.2.1 = {
	holder = 1014803
}

437.2.1 = {
	holder = 1017963
}

458.2.1 = {
	holder = 1019552
}

475.2.1 = {
	holder = 1019155
}

477.2.1 = {
	holder = 1017753
}

477.2.2 = {
	holder = 1021529
}

482.2.1 = {
	holder = 1017753
}

493.2.1 = {
	holder = 1021334
}

513.2.1 = {
	holder = 1023803
}

565.2.1 = {
	holder = 1023870
}

580.2.1 = {
	holder = 1027790
}

612.2.1 = {
	holder = 1029190
}

628.2.1 = {
	holder = 1030745
}

651.2.1 = {
	holder = 1029567
}

663.2.1 = {
	holder = 1032231
}

664.2.1 = {
	holder = 1033423
}

664.2.2 = {
	holder = 1030280
}

667.2.1 = {
	holder = 1033200
}

668.2.1 = {
	holder = 1033850
}

715.2.1 = {
	holder = 1033854
}

719.2.1 = {
	holder = 1034956
}

741.2.1 = {
	holder = 1038457
}

751.2.1 = {
	holder = 1035743
}

752.2.1 = {
	holder = 1039305
}

759.2.1 = {
	holder = 1038966
}

760.2.1 = {
	holder = 1035419
}

771.2.1 = {
	holder = 1040182
}

783.2.1 = {
	holder = 1041296
}

826.2.1 = {
	holder = 1041575
}

836.2.1 = {
	holder = 1044239
}

838.2.1 = {
	holder = 1043727
}

839.2.1 = {
	holder = 1045006
}

876.2.1 = {
	holder = 1045009
}

888.2.1 = {
	holder = 1047513
}

