200.2.1 = {
	holder = 1000020
	law = succ_open_elective
	law = cognatic_succession
}

200.2.2 = {
	holder = 1001317
	law = succ_open_elective
	law = cognatic_succession
}

200.2.3 = {
	liege = d_bosiam
}

200.2.4 = {
	holder = 1001318
	law = succ_elective_gavelkind
	law = agnatic_succession
}

200.2.5 = {
	holder = 1001315
	law = succ_open_elective
	law = cognatic_succession
}

200.2.6 = {
	holder = 1002004
}

207.2.1 = {
	holder = 1003144
}

233.2.1 = {
	holder = 1004296
}

235.2.1 = {
	holder = 1005124
}

254.2.1 = {
	holder = 1006580
}

289.2.1 = {
	holder = 1006735
}

313.2.1 = {
	holder = 1009510
}

328.2.1 = {
	holder = 1011685
}

374.2.1 = {
	holder = 1012622
}

376.2.1 = {
	holder = 1014569
}

392.2.1 = {
	holder = 1014685
}

398.2.1 = {
	holder = 1015946
}

405.2.1 = {
	holder = 1016731
}

414.2.1 = {
	holder = 1017359
}

441.2.1 = {
	holder = 1018924
}

451.2.1 = {
	holder = 1017908
}

476.2.1 = {
	holder = 1019629
}

501.2.1 = {
	holder = 1023060
}

531.2.1 = {
	holder = 1023239
}

570.2.1 = {
	holder = 1025190
}

595.2.1 = {
	holder = 1027513
}

601.2.1 = {
	holder = 1026356
}

602.2.1 = {
	holder = 1029517
}

607.2.1 = {
	holder = 1029884
}

625.2.1 = {
	holder = 1031062
}

658.2.1 = {
	holder = 1033220
}

659.2.1 = {
	holder = 1030486
}

669.2.1 = {
	holder = 1033194
}

694.2.1 = {
	holder = 1034711
}

700.2.1 = {
	holder = 1033628
}

709.2.1 = {
	holder = 1034794
}

722.2.1 = {
	holder = 1036973
}

738.2.1 = {
	holder = 1034009
}

742.2.1 = {
	holder = 1038521
}

751.2.1 = {
	holder = 1036973
}

751.2.2 = {
	holder = 1039259
}

790.2.1 = {
	holder = 1039893
}

794.2.1 = {
	holder = 1041811
}

802.2.1 = {
	holder = 1040947
}

802.2.2 = {
	holder = 1042554
}

830.2.1 = {
	holder = 1042947
}

864.2.1 = {
	holder = 1044471
}

873.2.1 = {
	holder = 1046506
}

882.2.1 = {
	holder = 1047729
}

896.2.1 = {
	holder = 1048651
}

