200.2.1 = {
	holder = 1000011
	law = succ_primogeniture
	law = agnatic_succession
}

200.2.2 = {
	holder = 1000807
	law = succ_primogeniture
	law = agnatic_succession
}

200.2.3 = {
	liege = d_watratun
}

200.2.4 = {
	holder = 1000805
	law = succ_primogeniture
	law = agnatic_succession
}

236.2.1 = {
	holder = 1002662
}

241.2.1 = {
	holder = 1005520
}

263.2.1 = {
	holder = 1006942
}

266.2.1 = {
	holder = 1005983
}

295.2.1 = {
	holder = 1006366
}

315.2.1 = {
	holder = 1009445
}

328.2.1 = {
	holder = 1011176
}

357.2.1 = {
	holder = 1012793
}

375.2.1 = {
	holder = 1014303
}

401.2.1 = {
	holder = 1016375
}

455.2.1 = {
	holder = 1017820
}

486.2.1 = {
	holder = 1020337
}

533.2.1 = {
	holder = 1023373
}

559.2.1 = {
	holder = 1025271
}

562.2.1 = {
	holder = 1023469
}

571.2.1 = {
	holder = 1026484
}

618.2.1 = {
	holder = 1027606
}

624.2.1 = {
	holder = 1027394
}

636.2.1 = {
	holder = 1029545
}

647.2.1 = {
	holder = 1031834
}

649.2.1 = {
	holder = 1029172
}

661.2.1 = {
	holder = 1032060
}

697.2.1 = {
	holder = 1034012
}

702.2.1 = {
	holder = 1035827
}

707.2.1 = {
	holder = 1033899
}

720.2.1 = {
	holder = 1036857
}

730.2.1 = {
	holder = 1037885
}

740.2.1 = {
	holder = 1036100
}

763.2.1 = {
	holder = 1036397
}

770.2.1 = {
	holder = 1040411
}

784.2.1 = {
	holder = 1038817
}

808.2.1 = {
	holder = 1040515
}

834.2.1 = {
	holder = 1043469
}

840.2.1 = {
	holder = 1044909
}

871.2.1 = {
	holder = 1046298
}

900.2.1 = {
	holder = 1047343
}

