200.2.1 = {
	holder = 1000033
	law = succ_open_elective
	law = cognatic_succession
}

200.2.2 = {
	holder = 1001000
	law = succ_open_elective
	law = cognatic_succession
}

200.2.3 = {
	liege = d_estudis
}

200.2.4 = {
	holder = 1000999
	law = succ_open_elective
	law = cognatic_succession
}

206.2.1 = {
	holder = 1000894
}

207.2.1 = {
	holder = 1002333
}

300.2.1 = {
	holder = 1002334
}

300.2.2 = {
	holder = 1005919
}

328.2.1 = {
	holder = 1006695
}

336.2.1 = {
	holder = 1007896
}

348.2.1 = {
	holder = 1008949
}

350.2.1 = {
	holder = 1008624
}

352.2.1 = {
	holder = 1008590
}

362.2.1 = {
	holder = 1009727
}

371.2.1 = {
	holder = 1010185
}

390.2.1 = {
	holder = 1011145
}

403.2.1 = {
	holder = 1010183
}

404.2.1 = {
	holder = 1011863
}

500.2.1 = {
	holder = 1013938
}

507.2.1 = {
	holder = 1016817
}

522.2.1 = {
	holder = 1015922
}

523.2.1 = {
	holder = 1017590
}

561.2.1 = {
	holder = 1016822
}

561.2.2 = {
	holder = 1019427
}

700.2.1 = {
	holder = 1024917
}

737.2.1 = {
	holder = 1026002
}

760.2.1 = {
	holder = 1028174
}

764.2.1 = {
	holder = 1028217
}

765.2.1 = {
	holder = 1029212
}

900.2.1 = {
	holder = 1034159
}

920.2.1 = {
	holder = 1036465
}

943.2.1 = {
	holder = 1037305
}

957.2.1 = {
	holder = 1038338
}

983.2.1 = {
	holder = 1038616
}

1025.2.1 = {
	holder = 1039894
}

1046.2.1 = {
	holder = 1041781
}

