200.2.1 = {
	holder = 1000015
	law = succ_seniority
	law = cognatic_succession
}

200.2.2 = {
	holder = 1000440
	law = succ_seniority
	law = cognatic_succession
}

200.2.3 = {
	liege = d_rasaer
}

200.2.4 = {
	holder = 1000439
	law = succ_seniority
	law = cognatic_succession
}

204.2.1 = {
	holder = 1002013
}

209.2.1 = {
	holder = 1000527
}

209.2.2 = {
	holder = 1002449
}

214.2.1 = {
	holder = 1000530
}

214.2.2 = {
	holder = 1002689
}

279.2.1 = {
	holder = 1003019
}

293.2.1 = {
	holder = 1006007
}

304.2.1 = {
	holder = 1006900
}

354.2.1 = {
	holder = 1007994
}

369.2.1 = {
	holder = 1010022
}

377.2.1 = {
	holder = 1009359
}

377.2.2 = {
	holder = 1010464
}

390.2.1 = {
	holder = 1008921
}

390.2.2 = {
	holder = 1011116
}

410.2.1 = {
	holder = 1010354
}

411.2.1 = {
	holder = 1009436
}

446.2.1 = {
	holder = 1010564
}

447.2.1 = {
	holder = 1011420
}

455.2.1 = {
	holder = 1012165
}

455.2.2 = {
	holder = 1014326
}

468.2.1 = {
	holder = 1014856
}

502.2.1 = {
	holder = 1015165
}

510.2.1 = {
	holder = 1016947
}

519.2.1 = {
	holder = 1015558
}

519.2.2 = {
	holder = 1017394
}

545.2.1 = {
	holder = 1017854
}

576.2.1 = {
	holder = 1018920
}

586.2.1 = {
	holder = 1019397
}

586.2.2 = {
	holder = 1020661
}

700.2.1 = {
	holder = 1025857
}

736.2.1 = {
	holder = 1027198
}

785.2.1 = {
	holder = 1027941
}

798.2.1 = {
	holder = 1030264
}

814.2.1 = {
	holder = 1031373
}

858.2.1 = {
	holder = 1032256
}

859.2.1 = {
	holder = 1031652
}

866.2.1 = {
	holder = 1034106
}

905.2.1 = {
	holder = 1034534
}

926.2.1 = {
	holder = 1036083
}

955.2.1 = {
	holder = 1037288
}

987.2.1 = {
	holder = 1038554
}

1025.2.1 = {
	holder = 1040547
}

1060.2.1 = {
	holder = 1042369
}

