200.2.1 = {
	holder = 1000003
	law = succ_tanistry
	law = cognatic_succession
}

200.2.2 = {
	holder = 1000334
	law = succ_tanistry
	law = cognatic_succession
}

200.2.3 = {
	liege = d_nakuel
}

200.2.4 = {
	holder = 1000332
	law = succ_tanistry
	law = cognatic_succession
}

235.2.1 = {
	holder = 1003748
}

257.2.1 = {
	holder = 1005511
}

263.2.1 = {
	holder = 1006994
}

277.2.1 = {
	holder = 1006972
}

277.2.2 = {
	holder = 1008187
}

400.2.1 = {
	holder = 1008188
}

400.2.2 = {
	holder = 1015219
}

429.2.1 = {
	holder = 1015346
}

439.2.1 = {
	holder = 1018680
}

445.2.1 = {
	holder = 1017092
}

445.2.2 = {
	holder = 1019454
}

600.2.1 = {
	holder = 1027310
}

614.2.1 = {
	holder = 1029856
}

645.2.1 = {
	holder = 1030909
}

670.2.1 = {
	holder = 1032466
}

688.2.1 = {
	holder = 1034026
}

705.2.1 = {
	holder = 1035231
}

757.2.1 = {
	holder = 1036938
}

777.2.1 = {
	holder = 1039739
}

823.2.1 = {
	holder = 1041263
}

825.2.1 = {
	holder = 1042704
}

826.2.1 = {
	holder = 1044130
}

