200.2.1 = {
	holder = 1000008
	law = succ_gavelkind
	law = cognatic_succession
}

200.2.2 = {
	liege = d_ketekay
}

229.2.1 = {
	holder = 1001749
}

246.2.1 = {
	holder = 1003511
}

282.2.1 = {
	holder = 1004530
}

326.2.1 = {
	holder = 1005982
}

328.2.1 = {
	holder = 1008174
}

368.2.1 = {
	holder = 1008320
}

396.2.1 = {
	holder = 1010248
}

401.2.1 = {
	holder = 1011730
}

416.2.1 = {
	holder = 1011834
}

458.2.1 = {
	holder = 1012621
}

483.2.1 = {
	holder = 1015003
}

485.2.1 = {
	holder = 1015753
}

526.2.1 = {
	holder = 1017740
}

528.2.1 = {
	holder = 1017797
}

574.2.1 = {
	holder = 1018988
}

579.2.1 = {
	holder = 1020302
}

618.2.1 = {
	holder = 1020400
}

644.2.1 = {
	holder = 1023011
}

666.2.1 = {
	holder = 1023751
}

702.2.1 = {
	holder = 1024630
}

735.2.1 = {
	holder = 1026706
}

750.2.1 = {
	holder = 1028015
}

806.2.1 = {
	holder = 1028832
}

811.2.1 = {
	holder = 1031521
}

849.2.1 = {
	holder = 1033318
}

881.2.1 = {
	holder = 1033885
}

898.2.1 = {
	holder = 1034929
}

935.2.1 = {
	holder = 1037323
}

976.2.1 = {
	holder = 1037711
}

986.2.1 = {
	holder = 1039656
}

1039.2.1 = {
	holder = 1040393
}

1062.2.1 = {
	holder = 1042608
}

