200.2.1 = {
	holder = 1000016
	law = succ_tanistry
	law = agnatic_succession
}

200.2.2 = {
	holder = 1000486
	law = succ_tanistry
	law = agnatic_succession
}

200.2.3 = {
	liege = d_aemepan
}

200.2.4 = {
	holder = 1000485
	law = succ_tanistry
	law = agnatic_succession
}

200.2.5 = {
	holder = 1001387
}

221.2.1 = {
	holder = 1002153
}

242.2.1 = {
	holder = 1003292
}

249.2.1 = {
	holder = 1004388
}

253.2.1 = {
	holder = 1003292
}

275.2.1 = {
	holder = 1004133
}

295.2.1 = {
	holder = 1006168
}

309.2.1 = {
	holder = 1006318
}

310.2.1 = {
	holder = 1007260
}

324.2.1 = {
	holder = 1007732
}

378.2.1 = {
	holder = 1008921
}

394.2.1 = {
	holder = 1010564
}

447.2.1 = {
	holder = 1011420
}

455.2.1 = {
	holder = 1012165
}

455.2.2 = {
	holder = 1014328
}

491.2.1 = {
	holder = 1014767
}

511.2.1 = {
	holder = 1016055
}

513.2.1 = {
	holder = 1014399
}

514.2.1 = {
	holder = 1017122
}

521.2.1 = {
	holder = 1017126
}

534.2.1 = {
	holder = 1017359
}

553.2.1 = {
	holder = 1019055
}

572.2.1 = {
	holder = 1019201
}

583.2.1 = {
	holder = 1020275
}

608.2.1 = {
	holder = 1020179
}

608.2.2 = {
	holder = 1021673
}

626.2.1 = {
	holder = 1022131
}

654.2.1 = {
	holder = 1023081
}

688.2.1 = {
	holder = 1023861
}

694.2.1 = {
	holder = 1025556
}

701.2.1 = {
	holder = 1023651
}

701.2.2 = {
	holder = 1026138
}

800.2.1 = {
	holder = 1029798
}

820.2.1 = {
	holder = 1030001
}

835.2.1 = {
	holder = 1032036
}

856.2.1 = {
	holder = 1032827
}

877.2.1 = {
	holder = 1032608
}

877.2.2 = {
	holder = 1034607
}

891.2.1 = {
	holder = 1032608
}

892.2.1 = {
	holder = 1035295
}

897.2.1 = {
	holder = 1035436
}

959.2.1 = {
	holder = 1036729
}

978.2.1 = {
	holder = 1038270
}

979.2.1 = {
	holder = 1039376
}

1066.2.1 = {
	holder = 1041510
}

