200.2.1 = {
	holder = 1000005
	law = succ_open_elective
	law = cognatic_succession
}

200.2.2 = {
	liege = d_semitya
}

200.2.3 = {
	liege = d_semitya
}

200.2.4 = {
	holder = 1000322
	law = succ_gavelkind
	law = agnatic_succession
}

215.2.1 = {
	holder = 1002314
}

250.2.1 = {
	holder = 1003217
}

284.2.1 = {
	holder = 1004454
}

305.2.1 = {
	holder = 1006131
}

323.2.1 = {
	holder = 1007127
}

349.2.1 = {
	holder = 1008093
}

392.2.1 = {
	holder = 1009695
}

418.2.1 = {
	holder = 1012259
}

435.2.1 = {
	holder = 1012637
}

467.2.1 = {
	holder = 1014130
}

480.2.1 = {
	holder = 1015461
}

524.2.1 = {
	holder = 1015571
}

536.2.1 = {
	holder = 1018175
}

538.2.1 = {
	holder = 1018099
}

543.2.1 = {
	holder = 1015512
}

544.2.1 = {
	holder = 1018099
}

575.2.1 = {
	holder = 1020123
}

611.2.1 = {
	holder = 1020149
}

630.2.1 = {
	holder = 1021982
}

635.2.1 = {
	holder = 1022745
}

643.2.1 = {
	holder = 1022980
}

658.2.1 = {
	holder = 1022806
}

669.2.1 = {
	holder = 1023300
}

681.2.1 = {
	holder = 1024702
}

689.2.1 = {
	holder = 1023385
}

690.2.1 = {
	holder = 1025549
}

721.2.1 = {
	holder = 1026108
}

752.2.1 = {
	holder = 1028533
}

775.2.1 = {
	holder = 1028700
}

817.2.1 = {
	holder = 1030089
}

841.2.1 = {
	holder = 1031942
}

882.2.1 = {
	holder = 1033135
}

901.2.1 = {
	holder = 1034104
}

902.2.1 = {
	holder = 1035770
}

920.2.1 = {
	holder = 1035529
}

922.2.1 = {
	holder = 1034318
}

930.2.1 = {
	holder = 1036681
}

962.2.1 = {
	holder = 1037689
}

986.2.1 = {
	holder = 1038798
}

996.2.1 = {
	holder = 1039834
}

1040.2.1 = {
	holder = 1040975
}

