200.2.1 = {
	holder = 1000004
	law = succ_seniority
	law = cognatic_succession
}

200.2.2 = {
	liege = d_teluiba
}

200.2.3 = {
	liege = d_ralyan
}

200.2.4 = {
	holder = 1000650
	law = succ_gavelkind
	law = agnatic_succession
}

241.2.1 = {
	holder = 1003963
}

274.2.1 = {
	holder = 1005663
}

290.2.1 = {
	holder = 1006579
}

290.2.2 = {
	holder = 1009001
}

293.2.1 = {
	holder = 1009051
}

295.2.1 = {
	holder = 1007712
}

295.2.2 = {
	holder = 1009336
}

309.2.1 = {
	holder = 1010352
}

312.2.1 = {
	holder = 1008918
}

313.2.1 = {
	holder = 1010655
}

361.2.1 = {
	holder = 1010911
}

364.2.1 = {
	holder = 1010692
}

378.2.1 = {
	holder = 1014105
}

387.2.1 = {
	holder = 1014421
}

415.2.1 = {
	holder = 1014710
}

416.2.1 = {
	holder = 1015704
}

416.2.2 = {
	holder = 1017507
}

453.2.1 = {
	holder = 1017932
}

457.2.1 = {
	holder = 1020074
}

458.2.1 = {
	holder = 1020286
}

493.2.1 = {
	holder = 1020735
}

495.2.1 = {
	holder = 1020396
}

495.2.2 = {
	holder = 1022650
}

529.2.1 = {
	holder = 1022794
}

543.2.1 = {
	holder = 1022388
}

543.2.2 = {
	holder = 1021902
}

545.2.1 = {
	holder = 1024766
}

572.2.1 = {
	holder = 1025422
}

573.2.1 = {
	holder = 1027616
}

602.2.1 = {
	holder = 1027758
}

638.2.1 = {
	holder = 1031869
}

663.2.1 = {
	holder = 1032058
}

663.2.2 = {
	holder = 1033529
}

671.2.1 = {
	holder = 1033769
}

728.2.1 = {
	holder = 1034990
}

734.2.1 = {
	holder = 1037903
}

782.2.1 = {
	holder = 1039102
}

802.2.1 = {
	holder = 1041337
}

838.2.1 = {
	holder = 1043429
}

855.2.1 = {
	holder = 1045040
}

859.2.1 = {
	holder = 1045532
}

860.2.1 = {
	holder = 1046326
}

866.2.1 = {
	holder = 1046583
}

