200.2.1 = {
	holder = 1000006
	law = succ_primogeniture
	law = agnatic_succession
}

200.2.2 = {
	holder = 1000575
	law = succ_primogeniture
	law = agnatic_succession
}

200.2.3 = {
	liege = d_ecnaid
}

200.2.4 = {
	holder = 1000576
	law = succ_elective_gavelkind
	law = agnatic_succession
}

200.2.5 = {
	holder = 1000571
	law = succ_primogeniture
	law = agnatic_succession
}

237.2.1 = {
	holder = 1002642
}

259.2.1 = {
	holder = 1005657
}

280.2.1 = {
	holder = 1004672
}

285.2.1 = {
	holder = 1006217
}

310.2.1 = {
	holder = 1008756
}

339.2.1 = {
	holder = 1011105
}

368.2.1 = {
	holder = 1012921
}

371.2.1 = {
	holder = 1014376
}

377.2.1 = {
	holder = 1012437
}

385.2.1 = {
	holder = 1012454
}

389.2.1 = {
	holder = 1015640
}

435.2.1 = {
	holder = 1016268
}

446.2.1 = {
	holder = 1017855
}

448.2.1 = {
	holder = 1019056
}

492.2.1 = {
	holder = 1020336
}

516.2.1 = {
	holder = 1022774
}

554.2.1 = {
	holder = 1024459
}

575.2.1 = {
	holder = 1026596
}

608.2.1 = {
	holder = 1028006
}

643.2.1 = {
	holder = 1031063
}

666.2.1 = {
	holder = 1032506
}

670.2.1 = {
	holder = 1033876
}

692.2.1 = {
	holder = 1034923
}

735.2.1 = {
	holder = 1036018
}

738.2.1 = {
	holder = 1038480
}

770.2.1 = {
	holder = 1039646
}

814.2.1 = {
	holder = 1040960
}

829.2.1 = {
	holder = 1043186
}

845.2.1 = {
	holder = 1043210
}

861.2.1 = {
	holder = 1044721
}

866.2.1 = {
	holder = 1046563
}

