200.2.1 = {
	holder = 1000026
	law = succ_gavelkind
	law = agnatic_succession
}

200.2.2 = {
	liege = d_waba
}

200.2.3 = {
	holder = 1001491
	law = succ_gavelkind
	law = agnatic_succession
}

241.2.1 = {
	holder = 1002713
}

252.2.1 = {
	holder = 1005756
}

271.2.1 = {
	holder = 1007023
}

276.2.1 = {
	holder = 1006225
}

299.2.1 = {
	holder = 1007389
}

302.2.1 = {
	holder = 1009877
}

324.2.1 = {
	holder = 1008810
}

353.2.1 = {
	holder = 1011182
}

353.2.2 = {
	holder = 1013320
}

370.2.1 = {
	holder = 1011661
}

371.2.1 = {
	holder = 1014471
}

372.2.1 = {
	holder = 1011661
}

373.2.1 = {
	holder = 1014605
}

378.2.1 = {
	holder = 1011661
}

379.2.1 = {
	holder = 1014990
}

396.2.1 = {
	holder = 1015315
}

409.2.1 = {
	holder = 1016503
}

465.2.1 = {
	holder = 1018015
}

487.2.1 = {
	holder = 1020523
}

487.2.2 = {
	holder = 1022178
}

515.2.1 = {
	holder = 1022342
}

568.2.1 = {
	holder = 1024656
}

581.2.1 = {
	holder = 1027735
}

588.2.1 = {
	holder = 1027917
}

608.2.1 = {
	holder = 1029558
}

611.2.1 = {
	holder = 1027782
}

611.2.2 = {
	holder = 1030143
}

633.2.1 = {
	holder = 1027782
}

635.2.1 = {
	holder = 1029133
}

654.2.1 = {
	holder = 1032940
}

695.2.1 = {
	holder = 1032944
}

710.2.1 = {
	holder = 1035813
}

758.2.1 = {
	holder = 1037924
}

778.2.1 = {
	holder = 1038106
}

779.2.1 = {
	holder = 1041050
}

814.2.1 = {
	holder = 1041109
}

828.2.1 = {
	holder = 1044099
}

873.2.1 = {
	holder = 1045761
}

892.2.1 = {
	holder = 1047653
}

895.2.1 = {
	holder = 1048583
}

