200.2.1 = {
	holder = 1000006
	law = succ_elective_gavelkind
	law = agnatic_succession
}

200.2.2 = {
	holder = 1000593
	law = succ_primogeniture
	law = agnatic_succession
}

200.2.3 = {
	liege = d_rermun
}

200.2.4 = {
	holder = 1000592
	law = succ_primogeniture
	law = agnatic_succession
}

212.2.1 = {
	holder = 1003466
}

238.2.1 = {
	holder = 1004933
}

294.2.1 = {
	holder = 1009307
}

307.2.1 = {
	holder = 1009392
}

317.2.1 = {
	holder = 1006874
}

317.2.2 = {
	holder = 1010952
}

329.2.1 = {
	holder = 1011751
}

500.2.1 = {
	holder = 1021085
}

509.2.1 = {
	holder = 1021686
}

557.2.1 = {
	holder = 1023608
}

561.2.1 = {
	holder = 1024527
}

561.2.2 = {
	holder = 1024141
}

571.2.1 = {
	holder = 1027022
}

583.2.1 = {
	holder = 1028294
}

592.2.1 = {
	holder = 1027934
}

592.2.2 = {
	holder = 1028894
}

599.2.1 = {
	holder = 1027934
}

599.2.2 = {
	holder = 1029313
}

700.2.1 = {
	holder = 1033103
}

718.2.1 = {
	holder = 1034558
}

719.2.1 = {
	holder = 1037225
}

750.2.1 = {
	holder = 1037667
}

764.2.1 = {
	holder = 1039475
}

769.2.1 = {
	holder = 1038339
}

789.2.1 = {
	holder = 1039514
}

793.2.1 = {
	holder = 1039473
}

794.2.1 = {
	holder = 1042008
}

829.2.1 = {
	holder = 1043296
}

868.2.1 = {
	holder = 1044591
}

893.2.1 = {
	holder = 1046755
}

893.2.2 = {
	holder = 1048475
}

