200.2.1 = {
	holder = 1000016
	law = succ_tanistry
	law = agnatic_succession
}

200.2.2 = {
	holder = 1000496
	law = succ_tanistry
	law = agnatic_succession
}

200.2.3 = {
	liege = d_kenekel
}

200.2.4 = {
	holder = 1000492
	law = succ_tanistry
	law = agnatic_succession
}

236.2.1 = {
	holder = 1002686
}

270.2.1 = {
	holder = 1004244
}

278.2.1 = {
	holder = 1005431
}

280.2.1 = {
	holder = 1002641
}

281.2.1 = {
	holder = 1005851
}

283.2.1 = {
	holder = 1004596
}

288.2.1 = {
	holder = 1004581
}

292.2.1 = {
	holder = 1004960
}

323.2.1 = {
	holder = 1006434
}

354.2.1 = {
	holder = 1008966
}

372.2.1 = {
	holder = 1007732
}

372.2.2 = {
	holder = 1010211
}

417.2.1 = {
	holder = 1010354
}

418.2.1 = {
	holder = 1012556
}

421.2.1 = {
	holder = 1010167
}

437.2.1 = {
	holder = 1012165
}

437.2.2 = {
	holder = 1013402
}

460.2.1 = {
	holder = 1013456
}

464.2.1 = {
	holder = 1014574
}

517.2.1 = {
	holder = 1015726
}

528.2.1 = {
	holder = 1017360
}

537.2.1 = {
	holder = 1017255
}

537.2.2 = {
	holder = 1018317
}

584.2.1 = {
	holder = 1020405
}

626.2.1 = {
	holder = 1021057
}

643.2.1 = {
	holder = 1021818
}

643.2.2 = {
	holder = 1023375
}

654.2.1 = {
	holder = 1023605
}

660.2.1 = {
	holder = 1021818
}

662.2.1 = {
	holder = 1024247
}

701.2.1 = {
	holder = 1024506
}

724.2.1 = {
	holder = 1026315
}

769.2.1 = {
	holder = 1027319
}

780.2.1 = {
	holder = 1029602
}

790.2.1 = {
	holder = 1028736
}

793.2.1 = {
	holder = 1030597
}

810.2.1 = {
	holder = 1030618
}

849.2.1 = {
	holder = 1033231
}

883.2.1 = {
	holder = 1034109
}

885.2.1 = {
	holder = 1034945
}

902.2.1 = {
	holder = 1035029
}

918.2.1 = {
	holder = 1035917
}

970.2.1 = {
	holder = 1038930
}

980.2.1 = {
	holder = 1038981
}

1058.2.1 = {
	holder = 1039837
}

1061.2.1 = {
	holder = 1043189
}

1062.2.1 = {
	holder = 1043361
}

