200.2.1 = {
	holder = 1000003
	law = succ_tanistry
	law = cognatic_succession
}

200.2.2 = {
	holder = 1000328
	law = succ_tanistry
	law = cognatic_succession
}

200.2.3 = {
	liege = d_namutasia
}

200.2.4 = {
	holder = 1000327
	law = succ_tanistry
	law = cognatic_succession
}

250.2.1 = {
	holder = 1003612
}

261.2.1 = {
	holder = 1002624
}

262.2.1 = {
	holder = 1007056
}

400.2.1 = {
	holder = 1014369
}

400.2.2 = {
	holder = 1016369
}

500.2.1 = {
	holder = 1021973
}

503.2.1 = {
	holder = 1022433
}

521.2.1 = {
	holder = 1023660
}

559.2.1 = {
	holder = 1025225
}

566.2.1 = {
	holder = 1027014
}

574.2.1 = {
	holder = 1026237
}

574.2.2 = {
	holder = 1027730
}

585.2.1 = {
	holder = 1027949
}

630.2.1 = {
	holder = 1029273
}

642.2.1 = {
	holder = 1031656
}

676.2.1 = {
	holder = 1032977
}

693.2.1 = {
	holder = 1035048
}

731.2.1 = {
	holder = 1036586
}

735.2.1 = {
	holder = 1038218
}

760.2.1 = {
	holder = 1039338
}

793.2.1 = {
	holder = 1040978
}

797.2.1 = {
	holder = 1042022
}

804.2.1 = {
	holder = 1039314
}

811.2.1 = {
	holder = 1043183
}

852.2.1 = {
	holder = 1043422
}

886.2.1 = {
	holder = 1045876
}

