200.2.1 = {
	holder = 1000010
	law = succ_elective_gavelkind
	law = agnatic_succession
}

200.2.2 = {
	holder = 1000011
	law = succ_elective_gavelkind
	law = agnatic_succession
}

200.2.3 = {
	holder = 1000802
	law = succ_primogeniture
	law = agnatic_succession
}

200.2.4 = {
	liege = d_darua
}

200.2.5 = {
	holder = 1000801
	law = succ_primogeniture
	law = agnatic_succession
}

200.2.6 = {
	holder = 1002011
}

212.2.1 = {
	holder = 1000808
}

247.2.1 = {
	holder = 1002811
}

255.2.1 = {
	holder = 1006653
}

281.2.1 = {
	holder = 1006757
}

285.2.1 = {
	holder = 1003196
}

289.2.1 = {
	holder = 1007691
}

289.2.2 = {
	holder = 1008978
}

324.2.1 = {
	holder = 1009053
}

348.2.1 = {
	holder = 1011714
}

367.2.1 = {
	holder = 1011843
}

394.2.1 = {
	holder = 1015146
}

417.2.1 = {
	holder = 1017569
}

418.2.1 = {
	holder = 1015146
}

430.2.1 = {
	holder = 1017797
}

469.2.1 = {
	holder = 1019501
}

486.2.1 = {
	holder = 1022112
}

488.2.1 = {
	holder = 1022144
}

504.2.1 = {
	holder = 1020265
}

520.2.1 = {
	holder = 1022002
}

520.2.2 = {
	holder = 1024189
}

520.2.3 = {
	holder = 1024256
}

521.2.1 = {
	holder = 1020265
}

522.2.1 = {
	holder = 1021477
}

538.2.1 = {
	holder = 1020997
}

543.2.1 = {
	holder = 1025004
}

580.2.1 = {
	holder = 1026302
}

589.2.1 = {
	holder = 1028701
}

615.2.1 = {
	holder = 1028336
}

615.2.2 = {
	holder = 1030431
}

627.2.1 = {
	holder = 1028336
}

627.2.2 = {
	holder = 1031189
}

642.2.1 = {
	holder = 1031544
}

678.2.1 = {
	holder = 1034530
}

679.2.1 = {
	holder = 1031544
}

694.2.1 = {
	holder = 1032802
}

702.2.1 = {
	holder = 1036155
}

704.2.1 = {
	holder = 1032802
}

715.2.1 = {
	holder = 1035638
}

721.2.1 = {
	holder = 1034996
}

744.2.1 = {
	holder = 1038854
}

787.2.1 = {
	holder = 1039107
}

796.2.1 = {
	holder = 1042037
}

814.2.1 = {
	holder = 1043304
}

869.2.1 = {
	holder = 1046923
}

