200.2.1 = {
	holder = 1000025
	law = succ_elective_gavelkind
	law = agnatic_succession
}

200.2.2 = {
	holder = 1001480
	law = succ_elective_gavelkind
	law = agnatic_succession
}

200.2.3 = {
	liege = d_ebulalli
}

200.2.4 = {
	holder = 1001479
	law = succ_elective_gavelkind
	law = agnatic_succession
}

205.2.1 = {
	holder = 1002029
}

238.2.1 = {
	holder = 1003149
}

240.2.1 = {
	holder = 1005568
}

261.2.1 = {
	holder = 1005755
}

292.2.1 = {
	holder = 1009177
}

320.2.1 = {
	holder = 1011182
}

353.2.1 = {
	holder = 1013322
}

375.2.1 = {
	holder = 1013412
}

404.2.1 = {
	holder = 1015056
}

411.2.1 = {
	holder = 1016068
}

412.2.1 = {
	holder = 1014012
}

500.2.1 = {
	holder = 1020117
}

502.2.1 = {
	holder = 1021273
}

529.2.1 = {
	holder = 1023626
}

542.2.1 = {
	holder = 1025023
}

559.2.1 = {
	holder = 1026166
}

600.2.1 = {
	holder = 1027217
}

628.2.1 = {
	holder = 1030270
}

670.2.1 = {
	holder = 1032753
}

690.2.1 = {
	holder = 1034581
}

747.2.1 = {
	holder = 1034954
}

747.2.2 = {
	holder = 1039013
}

758.2.1 = {
	holder = 1039240
}

766.2.1 = {
	holder = 1038106
}

767.2.1 = {
	holder = 1040310
}

814.2.1 = {
	holder = 1040756
}

817.2.1 = {
	holder = 1040948
}

818.2.1 = {
	holder = 1043651
}

855.2.1 = {
	holder = 1043827
}

873.2.1 = {
	holder = 1047158
}

