200.2.1 = {
	holder = 1000026
	law = succ_elective_gavelkind
	law = agnatic_succession
}

200.2.2 = {
	holder = 1001486
	law = succ_gavelkind
	law = agnatic_succession
}

200.2.3 = {
	liege = d_enikofan
}

200.2.4 = {
	holder = 1001487
	law = succ_elective_gavelkind
	law = agnatic_succession
}

200.2.5 = {
	liege = d_tasharman
}

200.2.6 = {
	holder = 1001488
	law = succ_gavelkind
	law = agnatic_succession
}

224.2.1 = {
	holder = 1002712
}

255.2.1 = {
	holder = 1005325
}

269.2.1 = {
	holder = 1005755
}

269.2.2 = {
	holder = 1007625
}

291.2.1 = {
	holder = 1008096
}

303.2.1 = {
	holder = 1009570
}

370.2.1 = {
	holder = 1010719
}

376.2.1 = {
	holder = 1014791
}

391.2.1 = {
	holder = 1014546
}

402.2.1 = {
	holder = 1016068
}

412.2.1 = {
	holder = 1017188
}

439.2.1 = {
	holder = 1017954
}

459.2.1 = {
	holder = 1019420
}

461.2.1 = {
	holder = 1018361
}

465.2.1 = {
	holder = 1020015
}

466.2.1 = {
	holder = 1020817
}

479.2.1 = {
	holder = 1021274
}

497.2.1 = {
	holder = 1022628
}

529.2.1 = {
	holder = 1024507
}

569.2.1 = {
	holder = 1025648
}

590.2.1 = {
	holder = 1027977
}

626.2.1 = {
	holder = 1029746
}

638.2.1 = {
	holder = 1029133
}

639.2.1 = {
	holder = 1031949
}

639.2.2 = {
	holder = 1031894
}

661.2.1 = {
	holder = 1031946
}

690.2.1 = {
	holder = 1034117
}

714.2.1 = {
	holder = 1035010
}

751.2.1 = {
	holder = 1037164
}

756.2.1 = {
	holder = 1038644
}

757.2.1 = {
	holder = 1039653
}

769.2.1 = {
	holder = 1039763
}

827.2.1 = {
	holder = 1041108
}

839.2.1 = {
	holder = 1042629
}

846.2.1 = {
	holder = 1043014
}

851.2.1 = {
	holder = 1045559
}

880.2.1 = {
	holder = 1044702
}

881.2.1 = {
	holder = 1047646
}

885.2.1 = {
	holder = 1047653
}

