200.2.1 = {
	holder = 1000029
	law = succ_gavelkind
	law = cognatic_succession
}

200.2.2 = {
	holder = 1001521
	law = succ_gavelkind
	law = cognatic_succession
}

200.2.3 = {
	liege = d_tuballi
}

200.2.4 = {
	holder = 1001519
	law = succ_gavelkind
	law = cognatic_succession
}

225.2.1 = {
	holder = 1003580
}

227.2.1 = {
	holder = 1001545
}

231.2.1 = {
	holder = 1003325
}

232.2.1 = {
	holder = 1005013
}

400.2.1 = {
	holder = 1015282
}

404.2.1 = {
	holder = 1016505
}

405.2.1 = {
	holder = 1016738
}

430.2.1 = {
	holder = 1015685
}

430.2.2 = {
	holder = 1018430
}

434.2.1 = {
	holder = 1016131
}

435.2.1 = {
	holder = 1018805
}

449.2.1 = {
	holder = 1019151
}

469.2.1 = {
	holder = 1020384
}

490.2.1 = {
	holder = 1020908
}

496.2.1 = {
	holder = 1022689
}

516.2.1 = {
	holder = 1022956
}

523.2.1 = {
	holder = 1020782
}

523.2.2 = {
	holder = 1024467
}

543.2.1 = {
	holder = 1024589
}

562.2.1 = {
	holder = 1025924
}

563.2.1 = {
	holder = 1027041
}

608.2.1 = {
	holder = 1028063
}

624.2.1 = {
	holder = 1031013
}

658.2.1 = {
	holder = 1031048
}

688.2.1 = {
	holder = 1033555
}

716.2.1 = {
	holder = 1035416
}

732.2.1 = {
	holder = 1038036
}

784.2.1 = {
	holder = 1038109
}

785.2.1 = {
	holder = 1038263
}

785.2.2 = {
	holder = 1041438
}

823.2.1 = {
	holder = 1041872
}

826.2.1 = {
	holder = 1042304
}

826.2.2 = {
	holder = 1044166
}

