200.2.1 = {
	holder = 1000010
	law = succ_elective_gavelkind
	law = agnatic_succession
}

200.2.2 = {
	holder = 1000788
	law = succ_elective_gavelkind
	law = agnatic_succession
}

200.2.3 = {
	liege = d_qandalo
}

200.2.4 = {
	holder = 1000787
	law = succ_elective_gavelkind
	law = agnatic_succession
}

217.2.1 = {
	holder = 1001991
}

239.2.1 = {
	holder = 1003341
}

254.2.1 = {
	holder = 1005629
}

309.2.1 = {
	holder = 1009224
}

316.2.1 = {
	holder = 1010812
}

362.2.1 = {
	holder = 1012430
}

366.2.1 = {
	holder = 1014142
}

370.2.1 = {
	holder = 1014188
}

431.2.1 = {
	holder = 1017288
}

455.2.1 = {
	holder = 1020131
}

480.2.1 = {
	holder = 1021475
}

488.2.1 = {
	holder = 1022245
}

490.2.1 = {
	holder = 1022363
}

509.2.1 = {
	holder = 1022671
}

518.2.1 = {
	holder = 1022245
}

518.2.2 = {
	holder = 1024117
}

534.2.1 = {
	holder = 1024935
}

545.2.1 = {
	holder = 1024843
}

545.2.2 = {
	holder = 1021862
}

546.2.1 = {
	holder = 1024843
}

546.2.2 = {
	holder = 1025989
}

547.2.1 = {
	holder = 1024843
}

547.2.2 = {
	holder = 1026045
}

558.2.1 = {
	holder = 1026378
}

564.2.1 = {
	holder = 1024843
}

564.2.2 = {
	holder = 1026405
}

601.2.1 = {
	holder = 1027729
}

609.2.1 = {
	holder = 1028269
}

623.2.1 = {
	holder = 1028368
}

630.2.1 = {
	holder = 1031184
}

636.2.1 = {
	holder = 1031773
}

660.2.1 = {
	holder = 1033359
}

695.2.1 = {
	holder = 1034993
}

737.2.1 = {
	holder = 1037076
}

763.2.1 = {
	holder = 1040016
}

780.2.1 = {
	holder = 1041036
}

796.2.1 = {
	holder = 1038784
}

796.2.2 = {
	holder = 1037523
}

797.2.1 = {
	holder = 1038784
}

797.2.2 = {
	holder = 1042193
}

851.2.1 = {
	holder = 1043148
}

867.2.1 = {
	holder = 1043400
}

873.2.1 = {
	holder = 1044633
}

874.2.1 = {
	holder = 1047204
}

877.2.1 = {
	holder = 1046681
}

878.2.1 = {
	holder = 1047459
}

881.2.1 = {
	holder = 1046681
}

888.2.1 = {
	holder = 1046843
}

