200.2.1 = {
	holder = 1000029
	law = succ_gavelkind
	law = cognatic_succession
}

200.2.2 = {
	holder = 1001509
	law = succ_gavelkind
	law = cognatic_succession
}

200.2.3 = {
	liege = d_regalli
}

200.2.4 = {
	holder = 1001508
	law = succ_gavelkind
	law = cognatic_succession
}

200.2.5 = {
	holder = 1002030
}

214.2.1 = {
	holder = 1002763
}

218.2.1 = {
	holder = 1004097
}

259.2.1 = {
	holder = 1006122
}

260.2.1 = {
	holder = 1006983
}

272.2.1 = {
	holder = 1007093
}

302.2.1 = {
	holder = 1008877
}

362.2.1 = {
	holder = 1010338
}

374.2.1 = {
	holder = 1014670
}

376.2.1 = {
	holder = 1012902
}

376.2.2 = {
	holder = 1014794
}

500.2.1 = {
	holder = 1018228
}

603.2.1 = {
	holder = 1027041
}

608.2.1 = {
	holder = 1028063
}

609.2.1 = {
	holder = 1030011
}

700.2.1 = {
	holder = 1034208
}

700.2.2 = {
	holder = 1034901
}

736.2.1 = {
	holder = 1036422
}

738.2.1 = {
	holder = 1035195
}

755.2.1 = {
	holder = 1036900
}

767.2.1 = {
	holder = 1040315
}

776.2.1 = {
	holder = 1040886
}

781.2.1 = {
	holder = 1038263
}

781.2.2 = {
	holder = 1041168
}

782.2.1 = {
	holder = 1038263
}

808.2.1 = {
	holder = 1039902
}

814.2.1 = {
	holder = 1043383
}

841.2.1 = {
	holder = 1043764
}

876.2.1 = {
	holder = 1045631
}

