200.2.1 = {
	holder = 1000001
	law = succ_tanistry
	law = agnatic_succession
}

200.2.2 = {
	holder = 1000002
	law = succ_elective_gavelkind
	law = agnatic_succession
}

200.2.3 = {
	holder = 1000249
	law = succ_seniority
	law = cognatic_succession
}

200.2.4 = {
	liege = d_tarjtanaj
}

200.2.5 = {
	holder = 1000250
	law = succ_elective_gavelkind
	law = agnatic_succession
}

200.2.6 = {
	liege = d_qonolio
}

200.2.7 = {
	holder = 1000132
	law = succ_tanistry
	law = agnatic_succession
}

247.2.1 = {
	holder = 1002774
}

256.2.1 = {
	holder = 1006374
}

264.2.1 = {
	holder = 1006492
}

271.2.1 = {
	holder = 1006513
}

308.2.1 = {
	holder = 1010240
}

345.2.1 = {
	holder = 1010594
}

363.2.1 = {
	holder = 1011900
}

363.2.2 = {
	holder = 1013962
}

401.2.1 = {
	holder = 1014238
}

434.2.1 = {
	holder = 1016670
}

469.2.1 = {
	holder = 1018961
}

492.2.1 = {
	holder = 1021620
}

528.2.1 = {
	holder = 1022721
}

543.2.1 = {
	holder = 1025296
}

544.2.1 = {
	holder = 1023013
}

544.2.2 = {
	holder = 1022127
}

556.2.1 = {
	holder = 1025941
}

597.2.1 = {
	holder = 1027171
}

633.2.1 = {
	holder = 1030834
}

647.2.1 = {
	holder = 1031714
}

690.2.1 = {
	holder = 1033031
}

702.2.1 = {
	holder = 1035655
}

708.2.1 = {
	holder = 1034969
}

711.2.1 = {
	holder = 1036781
}

718.2.1 = {
	holder = 1036931
}

733.2.1 = {
	holder = 1034969
}

746.2.1 = {
	holder = 1036090
}

748.2.1 = {
	holder = 1036871
}

751.2.1 = {
	holder = 1038137
}

766.2.1 = {
	holder = 1039329
}

805.2.1 = {
	holder = 1040482
}

820.2.1 = {
	holder = 1042976
}

848.2.1 = {
	holder = 1045571
}

889.2.1 = {
	holder = 1046310
}

896.2.1 = {
	holder = 1048209
}

