200.2.1 = {
	holder = 1000001
	law = succ_tanistry
	law = agnatic_succession
}

200.2.2 = {
	holder = 1000002
	law = succ_elective_gavelkind
	law = agnatic_succession
}

200.2.3 = {
	holder = 1000208
	law = succ_seniority
	law = cognatic_succession
}

200.2.4 = {
	liege = d_abhara
}

200.2.5 = {
	holder = 1000207
	law = succ_seniority
	law = cognatic_succession
}

241.2.1 = {
	holder = 1002079
}

251.2.1 = {
	holder = 1005558
}

256.2.1 = {
	holder = 1006663
}

259.2.1 = {
	holder = 1004164
}

259.2.2 = {
	holder = 1006903
}

282.2.1 = {
	holder = 1006666
}

328.2.1 = {
	holder = 1008520
}

334.2.1 = {
	holder = 1010179
}

334.2.2 = {
	holder = 1012024
}

500.2.1 = {
	holder = 1020408
}

520.2.1 = {
	holder = 1022484
}

525.2.1 = {
	holder = 1024269
}

526.2.1 = {
	holder = 1021846
}

527.2.1 = {
	holder = 1024698
}

559.2.1 = {
	holder = 1024704
}

593.2.1 = {
	holder = 1026871
}

604.2.1 = {
	holder = 1029037
}

631.2.1 = {
	holder = 1030525
}

655.2.1 = {
	holder = 1031592
}

666.2.1 = {
	holder = 1033699
}

675.2.1 = {
	holder = 1033960
}

677.2.1 = {
	holder = 1030521
}

678.2.1 = {
	holder = 1034268
}

691.2.1 = {
	holder = 1032117
}

701.2.1 = {
	holder = 1033696
}

701.2.2 = {
	holder = 1036034
}

713.2.1 = {
	holder = 1036243
}

740.2.1 = {
	holder = 1037960
}

776.2.1 = {
	holder = 1039037
}

781.2.1 = {
	holder = 1040618
}

824.2.1 = {
	holder = 1041604
}

845.2.1 = {
	holder = 1044125
}

887.2.1 = {
	holder = 1045726
}

