200.2.1 = {
	holder = 1000014
	law = succ_seniority
	law = cognatic_succession
}

200.2.2 = {
	holder = 1000412
	law = succ_seniority
	law = cognatic_succession
}

200.2.3 = {
	liege = d_setira
}

200.2.4 = {
	holder = 1000411
	law = succ_seniority
	law = cognatic_succession
}

221.2.1 = {
	holder = 1002170
}

270.2.1 = {
	holder = 1004598
}

272.2.1 = {
	holder = 1002689
}

279.2.1 = {
	holder = 1003019
}

293.2.1 = {
	holder = 1006007
}

304.2.1 = {
	holder = 1006900
}

354.2.1 = {
	holder = 1007994
}

369.2.1 = {
	holder = 1010022
}

377.2.1 = {
	holder = 1009359
}

377.2.2 = {
	holder = 1010465
}

423.2.1 = {
	holder = 1010905
}

448.2.1 = {
	holder = 1012819
}

463.2.1 = {
	holder = 1014074
}

464.2.1 = {
	holder = 1014322
}

465.2.1 = {
	holder = 1014716
}

500.2.1 = {
	holder = 1014901
}

513.2.1 = {
	holder = 1016564
}

516.2.1 = {
	holder = 1015558
}

531.2.1 = {
	holder = 1017981
}

536.2.1 = {
	holder = 1017995
}

556.2.1 = {
	holder = 1018966
}

594.2.1 = {
	holder = 1020324
}

615.2.1 = {
	holder = 1021597
}

621.2.1 = {
	holder = 1021096
}

646.2.1 = {
	holder = 1022339
}

659.2.1 = {
	holder = 1024057
}

672.2.1 = {
	holder = 1022041
}

687.2.1 = {
	holder = 1023604
}

698.2.1 = {
	holder = 1025508
}

703.2.1 = {
	holder = 1024786
}

703.2.2 = {
	holder = 1026251
}

715.2.1 = {
	holder = 1026277
}

739.2.1 = {
	holder = 1027093
}

749.2.1 = {
	holder = 1028043
}

767.2.1 = {
	holder = 1028941
}

784.2.1 = {
	holder = 1029762
}

791.2.1 = {
	holder = 1030358
}

809.2.1 = {
	holder = 1030519
}

859.2.1 = {
	holder = 1031652
}

860.2.1 = {
	holder = 1033816
}

875.2.1 = {
	holder = 1034042
}

885.2.1 = {
	holder = 1032608
}

885.2.2 = {
	holder = 1034967
}

904.2.1 = {
	holder = 1035119
}

952.2.1 = {
	holder = 1036634
}

989.2.1 = {
	holder = 1038123
}

1007.2.1 = {
	holder = 1039930
}

1011.2.1 = {
	holder = 1040777
}

