200.2.1 = {
	holder = 1000033
	law = succ_open_elective
	law = cognatic_succession
}

200.2.2 = {
	liege = d_kurahib
}

200.2.3 = {
	liege = d_kurahib
}

200.2.4 = {
	holder = 1000964
	law = succ_open_elective
	law = cognatic_succession
}

204.2.1 = {
	holder = 1001401
}

204.2.2 = {
	holder = 1002156
}

208.2.1 = {
	holder = 1001800
}

226.2.1 = {
	holder = 1003253
}

228.2.1 = {
	holder = 1000894
}

246.2.1 = {
	holder = 1002194
}

258.2.1 = {
	holder = 1004812
}

278.2.1 = {
	holder = 1004921
}

279.2.1 = {
	holder = 1004371
}

280.2.1 = {
	holder = 1005808
}

311.2.1 = {
	holder = 1006281
}

328.2.1 = {
	holder = 1008008
}

364.2.1 = {
	holder = 1009506
}

367.2.1 = {
	holder = 1007489
}

367.2.2 = {
	holder = 1009988
}

368.2.1 = {
	holder = 1009281
}

401.2.1 = {
	holder = 1011712
}

403.2.1 = {
	holder = 1010183
}

404.2.1 = {
	holder = 1011861
}

412.2.1 = {
	holder = 1011907
}

467.2.1 = {
	holder = 1013283
}

502.2.1 = {
	holder = 1015922
}

541.2.1 = {
	holder = 1016761
}

569.2.1 = {
	holder = 1018938
}

619.2.1 = {
	holder = 1019923
}

629.2.1 = {
	holder = 1020262
}

630.2.1 = {
	holder = 1022713
}

644.2.1 = {
	holder = 1022991
}

653.2.1 = {
	holder = 1022765
}

659.2.1 = {
	holder = 1023543
}

673.2.1 = {
	holder = 1024282
}

679.2.1 = {
	holder = 1025028
}

697.2.1 = {
	holder = 1025077
}

744.2.1 = {
	holder = 1026227
}

748.2.1 = {
	holder = 1028217
}

772.2.1 = {
	holder = 1029262
}

775.2.1 = {
	holder = 1029020
}

782.2.1 = {
	holder = 1028278
}

820.2.1 = {
	holder = 1030953
}

854.2.1 = {
	holder = 1032003
}

871.2.1 = {
	holder = 1034008
}

881.2.1 = {
	holder = 1034742
}

890.2.1 = {
	holder = 1034163
}

900.2.1 = {
	holder = 1035684
}

1000.2.1 = {
	holder = 1037612
}

1003.2.1 = {
	holder = 1039942
}

1031.2.1 = {
	holder = 1041307
}

