200.2.1 = {
	holder = 1000038
	law = succ_tanistry
	law = cognatic_succession
}

200.2.2 = {
	holder = 1001188
	law = succ_tanistry
	law = cognatic_succession
}

200.2.3 = {
	liege = d_dolun
}

200.2.4 = {
	holder = 1001189
	law = succ_primogeniture
	law = cognatic_succession
}

200.2.5 = {
	holder = 1001186
	law = succ_tanistry
	law = cognatic_succession
}

201.2.1 = {
	holder = 1001190
}

201.2.2 = {
	holder = 1001875
}

203.2.1 = {
	holder = 1001704
}

227.2.1 = {
	holder = 1003328
}

255.2.1 = {
	holder = 1003587
}

288.2.1 = {
	holder = 1004989
}

320.2.1 = {
	holder = 1007110
}

325.2.1 = {
	holder = 1007598
}

345.2.1 = {
	holder = 1008953
}

351.2.1 = {
	holder = 1009192
}

407.2.1 = {
	holder = 1010537
}

425.2.1 = {
	holder = 1012529
}

430.2.1 = {
	holder = 1010881
}

436.2.1 = {
	holder = 1012618
}

440.2.1 = {
	holder = 1012792
}

441.2.1 = {
	holder = 1013630
}

456.2.1 = {
	holder = 1013737
}

475.2.1 = {
	holder = 1014509
}

491.2.1 = {
	holder = 1015439
}

500.2.1 = {
	holder = 1016302
}

530.2.1 = {
	holder = 1017244
}

533.2.1 = {
	holder = 1017935
}

540.2.1 = {
	holder = 1018450
}

540.2.2 = {
	holder = 1016468
}

563.2.1 = {
	holder = 1017291
}

572.2.1 = {
	holder = 1017924
}

575.2.1 = {
	holder = 1019721
}

579.2.1 = {
	holder = 1018144
}

579.2.2 = {
	holder = 1020297
}

617.2.1 = {
	holder = 1021170
}

618.2.1 = {
	holder = 1022150
}

648.2.1 = {
	holder = 1022190
}

657.2.1 = {
	holder = 1023743
}

672.2.1 = {
	holder = 1021857
}

673.2.1 = {
	holder = 1024729
}

709.2.1 = {
	holder = 1024872
}

719.2.1 = {
	holder = 1027012
}

730.2.1 = {
	holder = 1024975
}

743.2.1 = {
	holder = 1027482
}

780.2.1 = {
	holder = 1028970
}

818.2.1 = {
	holder = 1030035
}

849.2.1 = {
	holder = 1032235
}

890.2.1 = {
	holder = 1033536
}

930.2.1 = {
	holder = 1035852
}

950.2.1 = {
	holder = 1037162
}

973.2.1 = {
	holder = 1038201
}

1014.2.1 = {
	holder = 1039906
}

1019.2.1 = {
	holder = 1041259
}

1045.2.1 = {
	holder = 1042039
}

