200.2.1 = {
	holder = 1000004
	law = succ_seniority
	law = cognatic_succession
}

200.2.2 = {
	holder = 1000395
	law = succ_seniority
	law = cognatic_succession
}

200.2.3 = {
	liege = d_nusha
}

200.2.4 = {
	holder = 1000396
	law = succ_elective_gavelkind
	law = agnatic_succession
}

200.2.5 = {
	holder = 1000393
	law = succ_seniority
	law = cognatic_succession
}

204.2.1 = {
	holder = 1002124
}

260.2.1 = {
	holder = 1004754
}

264.2.1 = {
	holder = 1004185
}

273.2.1 = {
	holder = 1006747
}

281.2.1 = {
	holder = 1007221
}

306.2.1 = {
	holder = 1007301
}

307.2.1 = {
	holder = 1008078
}

307.2.2 = {
	holder = 1010189
}

321.2.1 = {
	holder = 1010524
}

328.2.1 = {
	holder = 1010577
}

363.2.1 = {
	holder = 1011749
}

366.2.1 = {
	holder = 1010185
}

367.2.1 = {
	holder = 1014166
}

388.2.1 = {
	holder = 1011779
}

388.2.2 = {
	holder = 1012564
}

394.2.1 = {
	holder = 1015905
}

430.2.1 = {
	holder = 1017374
}

448.2.1 = {
	holder = 1019198
}

501.2.1 = {
	holder = 1021556
}

538.2.1 = {
	holder = 1023156
}

545.2.1 = {
	holder = 1024207
}

545.2.2 = {
	holder = 1022773
}

564.2.1 = {
	holder = 1025494
}

567.2.1 = {
	holder = 1027252
}

580.2.1 = {
	holder = 1028103
}

586.2.1 = {
	holder = 1027252
}

586.2.2 = {
	holder = 1028490
}

610.2.1 = {
	holder = 1028723
}

611.2.1 = {
	holder = 1029041
}

614.2.1 = {
	holder = 1027755
}

614.2.2 = {
	holder = 1030323
}

700.2.1 = {
	holder = 1033809
}

702.2.1 = {
	holder = 1036117
}

736.2.1 = {
	holder = 1036457
}

757.2.1 = {
	holder = 1038432
}

772.2.1 = {
	holder = 1040009
}

822.2.1 = {
	holder = 1041407
}

844.2.1 = {
	holder = 1041787
}

859.2.1 = {
	holder = 1045393
}

