200.2.1 = {
	holder = 1000020
	law = succ_open_elective
	law = cognatic_succession
}

200.2.2 = {
	holder = 1001304
	law = succ_open_elective
	law = cognatic_succession
}

200.2.3 = {
	liege = d_bosilda
}

200.2.4 = {
	holder = 1001303
	law = succ_open_elective
	law = cognatic_succession
}

249.2.1 = {
	holder = 1002344
}

256.2.1 = {
	holder = 1006273
}

265.2.1 = {
	holder = 1006378
}

266.2.1 = {
	holder = 1007364
}

301.2.1 = {
	holder = 1009291
}

340.2.1 = {
	holder = 1011074
}

383.2.1 = {
	holder = 1012835
}

410.2.1 = {
	holder = 1015625
}

441.2.1 = {
	holder = 1016683
}

467.2.1 = {
	holder = 1017850
}

468.2.1 = {
	holder = 1020923
}

600.2.1 = {
	holder = 1027020
}

627.2.1 = {
	holder = 1030248
}

631.2.1 = {
	holder = 1030430
}

632.2.1 = {
	holder = 1027560
}

642.2.1 = {
	holder = 1031887
}

693.2.1 = {
	holder = 1033061
}

717.2.1 = {
	holder = 1036835
}

758.2.1 = {
	holder = 1037919
}

783.2.1 = {
	holder = 1040459
}

783.2.2 = {
	holder = 1040147
}

788.2.1 = {
	holder = 1040708
}

805.2.1 = {
	holder = 1042387
}

806.2.1 = {
	holder = 1042775
}

851.2.1 = {
	holder = 1043013
}

860.2.1 = {
	holder = 1045954
}

894.2.1 = {
	holder = 1047080
}

