200.2.1 = {
	holder = 1000033
	law = succ_open_elective
	law = cognatic_succession
}

200.2.2 = {
	holder = 1000957
	law = succ_open_elective
	law = cognatic_succession
}

200.2.3 = {
	liege = d_kevndarr
}

200.2.4 = {
	holder = 1000956
	law = succ_open_elective
	law = cognatic_succession
}

203.2.1 = {
	holder = 1000989
}

235.2.1 = {
	holder = 1001963
}

242.2.1 = {
	holder = 1004016
}

245.2.1 = {
	holder = 1002081
}

255.2.1 = {
	holder = 1003209
}

275.2.1 = {
	holder = 1004710
}

321.2.1 = {
	holder = 1007032
}

339.2.1 = {
	holder = 1008427
}

344.2.1 = {
	holder = 1008312
}

348.2.1 = {
	holder = 1009101
}

422.2.1 = {
	holder = 1009900
}

429.2.1 = {
	holder = 1010279
}

442.2.1 = {
	holder = 1011079
}

443.2.1 = {
	holder = 1013754
}

461.2.1 = {
	holder = 1014601
}

466.2.1 = {
	holder = 1014673
}

496.2.1 = {
	holder = 1015504
}

533.2.1 = {
	holder = 1016685
}

544.2.1 = {
	holder = 1018392
}

549.2.1 = {
	holder = 1016038
}

551.2.1 = {
	holder = 1018705
}

562.2.1 = {
	holder = 1018445
}

586.2.1 = {
	holder = 1019212
}

595.2.1 = {
	holder = 1020867
}

603.2.1 = {
	holder = 1019586
}

624.2.1 = {
	holder = 1020436
}

643.2.1 = {
	holder = 1022857
}

692.2.1 = {
	holder = 1024249
}

724.2.1 = {
	holder = 1026346
}

759.2.1 = {
	holder = 1027497
}

780.2.1 = {
	holder = 1029953
}

836.2.1 = {
	holder = 1030684
}

858.2.1 = {
	holder = 1032909
}

876.2.1 = {
	holder = 1033847
}

907.2.1 = {
	holder = 1034894
}

919.2.1 = {
	holder = 1036222
}

946.2.1 = {
	holder = 1036973
}

949.2.1 = {
	holder = 1035929
}

967.2.1 = {
	holder = 1037147
}

969.2.1 = {
	holder = 1038918
}

983.2.1 = {
	holder = 1038568
}

1011.2.1 = {
	holder = 1039492
}

1013.2.1 = {
	holder = 1041050
}

1052.2.1 = {
	holder = 1041355
}

1057.2.1 = {
	holder = 1043117
}

1065.2.1 = {
	holder = 1042097
}

