200.2.1 = {
	holder = 1000029
	law = succ_gavelkind
	law = cognatic_succession
}

200.2.2 = {
	holder = 1001525
	law = succ_gavelkind
	law = cognatic_succession
}

200.2.3 = {
	liege = d_tegapal
}

200.2.4 = {
	holder = 1001526
	law = succ_elective_gavelkind
	law = agnatic_succession
}

200.2.5 = {
	holder = 1001523
	law = succ_gavelkind
	law = cognatic_succession
}

213.2.1 = {
	holder = 1002030
}

214.2.1 = {
	holder = 1002763
}

218.2.1 = {
	holder = 1004097
}

259.2.1 = {
	holder = 1006122
}

276.2.1 = {
	holder = 1007288
}

291.2.1 = {
	holder = 1008439
}

305.2.1 = {
	holder = 1009518
}

341.2.1 = {
	holder = 1010821
}

378.2.1 = {
	holder = 1013433
}

383.2.1 = {
	holder = 1015282
}

389.2.1 = {
	holder = 1015647
}

442.2.1 = {
	holder = 1015805
}

454.2.1 = {
	holder = 1019296
}

467.2.1 = {
	holder = 1018950
}

505.2.1 = {
	holder = 1020782
}

519.2.1 = {
	holder = 1024192
}

571.2.1 = {
	holder = 1024379
}

574.2.1 = {
	holder = 1024392
}

574.2.2 = {
	holder = 1027718
}

601.2.1 = {
	holder = 1028692
}

653.2.1 = {
	holder = 1030221
}

668.2.1 = {
	holder = 1031048
}

669.2.1 = {
	holder = 1033915
}

800.2.1 = {
	holder = 1033916
}

800.2.2 = {
	holder = 1041439
}

800.2.3 = {
	holder = 1041818
}

821.2.1 = {
	holder = 1042950
}

891.2.1 = {
	holder = 1044162
}

892.2.1 = {
	holder = 1047761
}

892.2.2 = {
	holder = 1045363
}

896.2.1 = {
	holder = 1048527
}

