200.2.1 = {
	holder = 1000018
	law = succ_open_elective
	law = cognatic_succession
}

200.2.2 = {
	holder = 1001241
	law = succ_open_elective
	law = cognatic_succession
}

200.2.3 = {
	liege = d_rerasius
}

200.2.4 = {
	holder = 1001240
	law = succ_open_elective
	law = cognatic_succession
}

200.2.5 = {
	holder = 1002023
}

206.2.1 = {
	holder = 1002583
}

220.2.1 = {
	holder = 1004301
}

242.2.1 = {
	holder = 1004451
}

283.2.1 = {
	holder = 1005893
}

286.2.1 = {
	holder = 1008615
}

337.2.1 = {
	holder = 1010148
}

341.2.1 = {
	holder = 1011318
}

341.2.2 = {
	holder = 1012499
}

500.2.1 = {
	holder = 1020839
}

500.2.2 = {
	holder = 1023000
}

600.2.1 = {
	holder = 1026160
}

603.2.1 = {
	holder = 1028014
}

603.2.2 = {
	holder = 1029659
}

622.2.1 = {
	holder = 1030351
}

626.2.1 = {
	holder = 1029318
}

668.2.1 = {
	holder = 1030515
}

674.2.1 = {
	holder = 1031562
}

696.2.1 = {
	holder = 1033717
}

697.2.1 = {
	holder = 1035767
}

800.2.1 = {
	holder = 1039985
}

800.2.2 = {
	holder = 1042427
}

900.2.1 = {
	holder = 1047157
}

