200.2.1 = {
	holder = 1000002
	law = succ_seniority
	law = cognatic_succession
}

200.2.2 = {
	holder = 1000302
	law = succ_seniority
	law = cognatic_succession
}

200.2.3 = {
	liege = d_qabeke
}

200.2.4 = {
	holder = 1000301
	law = succ_seniority
	law = cognatic_succession
}

219.2.1 = {
	holder = 1002105
}

245.2.1 = {
	holder = 1004927
}

251.2.1 = {
	holder = 1005215
}

276.2.1 = {
	holder = 1005794
}

295.2.1 = {
	holder = 1006678
}

310.2.1 = {
	holder = 1009324
}

324.2.1 = {
	holder = 1010883
}

352.2.1 = {
	holder = 1012714
}

359.2.1 = {
	holder = 1012640
}

379.2.1 = {
	holder = 1013764
}

406.2.1 = {
	holder = 1014248
}

407.2.1 = {
	holder = 1012740
}

410.2.1 = {
	holder = 1015345
}

451.2.1 = {
	holder = 1018876
}

495.2.1 = {
	holder = 1021083
}

522.2.1 = {
	holder = 1023059
}

553.2.1 = {
	holder = 1024905
}

577.2.1 = {
	holder = 1026313
}

592.2.1 = {
	holder = 1027492
}

603.2.1 = {
	holder = 1029150
}

645.2.1 = {
	holder = 1030426
}

660.2.1 = {
	holder = 1032453
}

696.2.1 = {
	holder = 1033625
}

710.2.1 = {
	holder = 1035896
}

752.2.1 = {
	holder = 1037159
}

755.2.1 = {
	holder = 1037122
}

756.2.1 = {
	holder = 1037289
}

758.2.1 = {
	holder = 1038560
}

802.2.1 = {
	holder = 1039665
}

819.2.1 = {
	holder = 1042763
}

823.2.1 = {
	holder = 1043970
}

825.2.1 = {
	holder = 1044047
}

849.2.1 = {
	holder = 1044374
}

850.2.1 = {
	holder = 1042921
}

851.2.1 = {
	holder = 1045732
}

875.2.1 = {
	holder = 1046574
}

893.2.1 = {
	holder = 1047739
}

