200.2.1 = {
	holder = 1000033
	law = succ_open_elective
	law = cognatic_succession
}

200.2.2 = {
	holder = 1000931
	law = succ_open_elective
	law = cognatic_succession
}

200.2.3 = {
	liege = d_tonai
}

200.2.4 = {
	holder = 1000932
	law = succ_primogeniture
	law = cognatic_succession
}

200.2.5 = {
	holder = 1000929
	law = succ_open_elective
	law = cognatic_succession
}

200.2.6 = {
	holder = 1001403
}

205.2.1 = {
	holder = 1002081
}

255.2.1 = {
	holder = 1003209
}

275.2.1 = {
	holder = 1004710
}

321.2.1 = {
	holder = 1007032
}

339.2.1 = {
	holder = 1008427
}

344.2.1 = {
	holder = 1008312
}

345.2.1 = {
	holder = 1008951
}

352.2.1 = {
	holder = 1009101
}

364.2.1 = {
	holder = 1009841
}

376.2.1 = {
	holder = 1009878
}

378.2.1 = {
	holder = 1010279
}

400.2.1 = {
	holder = 1011646
}

500.2.1 = {
	holder = 1016221
}

531.2.1 = {
	holder = 1017017
}

555.2.1 = {
	holder = 1018445
}

586.2.1 = {
	holder = 1019212
}

595.2.1 = {
	holder = 1020867
}

603.2.1 = {
	holder = 1019586
}

604.2.1 = {
	holder = 1021495
}

643.2.1 = {
	holder = 1021852
}

661.2.1 = {
	holder = 1023540
}

677.2.1 = {
	holder = 1024313
}

693.2.1 = {
	holder = 1025075
}

703.2.1 = {
	holder = 1024818
}

729.2.1 = {
	holder = 1027109
}

730.2.1 = {
	holder = 1027528
}

900.2.1 = {
	holder = 1034869
}

931.2.1 = {
	holder = 1035929
}

932.2.1 = {
	holder = 1037145
}

1066.2.1 = {
	holder = 1042097
}

