200.2.1 = {
	holder = 1000000
	law = succ_elective_gavelkind
	law = agnatic_succession
}

200.2.2 = {
	holder = 1000001
	law = succ_elective_gavelkind
	law = agnatic_succession
}

200.2.3 = {
	liege = d_tatertk
}

200.2.4 = {
	liege = d_qopelia
}

200.2.5 = {
	holder = 1000062
	law = succ_elective_gavelkind
	law = agnatic_succession
}

243.2.1 = {
	holder = 1002909
}

244.2.1 = {
	holder = 1005784
}

261.2.1 = {
	holder = 1006666
}

283.2.1 = {
	holder = 1008519
}

294.2.1 = {
	holder = 1008640
}

304.2.1 = {
	holder = 1009505
}

320.2.1 = {
	holder = 1011116
}

366.2.1 = {
	holder = 1011516
}

376.2.1 = {
	holder = 1010365
}

376.2.2 = {
	holder = 1012444
}

377.2.1 = {
	holder = 1014824
}

378.2.1 = {
	holder = 1010365
}

397.2.1 = {
	holder = 1012082
}

400.2.1 = {
	holder = 1012871
}

400.2.2 = {
	holder = 1016290
}

429.2.1 = {
	holder = 1018331
}

436.2.1 = {
	holder = 1018390
}

466.2.1 = {
	holder = 1019819
}

502.2.1 = {
	holder = 1020911
}

504.2.1 = {
	holder = 1018543
}

505.2.1 = {
	holder = 1023271
}

515.2.1 = {
	holder = 1022707
}

515.2.2 = {
	holder = 1023943
}

525.2.1 = {
	holder = 1024185
}

578.2.1 = {
	holder = 1027106
}

614.2.1 = {
	holder = 1029902
}

618.2.1 = {
	holder = 1028087
}

644.2.1 = {
	holder = 1029214
}

651.2.1 = {
	holder = 1032560
}

683.2.1 = {
	holder = 1033745
}

710.2.1 = {
	holder = 1036629
}

721.2.1 = {
	holder = 1035219
}

733.2.1 = {
	holder = 1033815
}

740.2.1 = {
	holder = 1038395
}

761.2.1 = {
	holder = 1039854
}

761.2.2 = {
	holder = 1039859
}

768.2.1 = {
	holder = 1040346
}

805.2.1 = {
	holder = 1041600
}

816.2.1 = {
	holder = 1043126
}

818.2.1 = {
	holder = 1043612
}

823.2.1 = {
	holder = 1043909
}

868.2.1 = {
	holder = 1045929
}

891.2.1 = {
	holder = 1045874
}

891.2.2 = {
	holder = 1048273
}

892.2.1 = {
	holder = 1045728
}

892.2.2 = {
	holder = 1048347
}

