200.2.1 = {
	holder = 1000029
	law = succ_gavelkind
	law = cognatic_succession
}

200.2.2 = {
	holder = 1001520
	law = succ_gavelkind
	law = cognatic_succession
}

200.2.3 = {
	liege = d_tuballi
}

200.2.4 = {
	holder = 1001519
	law = succ_gavelkind
	law = cognatic_succession
}

225.2.1 = {
	holder = 1003580
}

227.2.1 = {
	holder = 1001545
}

231.2.1 = {
	holder = 1003325
}

237.2.1 = {
	holder = 1005328
}

257.2.1 = {
	holder = 1006122
}

276.2.1 = {
	holder = 1007288
}

291.2.1 = {
	holder = 1008439
}

305.2.1 = {
	holder = 1009518
}

317.2.1 = {
	holder = 1010957
}

357.2.1 = {
	holder = 1011544
}

366.2.1 = {
	holder = 1010720
}

377.2.1 = {
	holder = 1014868
}

386.2.1 = {
	holder = 1012902
}

389.2.1 = {
	holder = 1015282
}

404.2.1 = {
	holder = 1016505
}

405.2.1 = {
	holder = 1016738
}

430.2.1 = {
	holder = 1015685
}

430.2.2 = {
	holder = 1018430
}

432.2.1 = {
	holder = 1018603
}

600.2.1 = {
	holder = 1027041
}

608.2.1 = {
	holder = 1028063
}

624.2.1 = {
	holder = 1031013
}

658.2.1 = {
	holder = 1031048
}

688.2.1 = {
	holder = 1033555
}

716.2.1 = {
	holder = 1035416
}

732.2.1 = {
	holder = 1038036
}

784.2.1 = {
	holder = 1038109
}

785.2.1 = {
	holder = 1038263
}

785.2.2 = {
	holder = 1041438
}

823.2.1 = {
	holder = 1041872
}

826.2.1 = {
	holder = 1042304
}

845.2.1 = {
	holder = 1044031
}

890.2.1 = {
	holder = 1046155
}

891.2.1 = {
	holder = 1048315
}

