200.2.1 = {
	holder = 1000038
	law = succ_tanistry
	law = cognatic_succession
}

200.2.2 = {
	holder = 1001202
	law = succ_tanistry
	law = cognatic_succession
}

200.2.3 = {
	liege = d_laline
}

200.2.4 = {
	holder = 1001201
	law = succ_tanistry
	law = cognatic_succession
}

218.2.1 = {
	holder = 1002062
}

265.2.1 = {
	holder = 1003330
}

280.2.1 = {
	holder = 1005819
}

296.2.1 = {
	holder = 1005448
}

297.2.1 = {
	holder = 1006637
}

333.2.1 = {
	holder = 1006722
}

357.2.1 = {
	holder = 1009513
}

381.2.1 = {
	holder = 1010097
}

398.2.1 = {
	holder = 1011020
}

445.2.1 = {
	holder = 1011915
}

496.2.1 = {
	holder = 1014952
}

514.2.1 = {
	holder = 1015394
}

537.2.1 = {
	holder = 1015939
}

549.2.1 = {
	holder = 1018847
}

572.2.1 = {
	holder = 1019772
}

598.2.1 = {
	holder = 1021216
}

641.2.1 = {
	holder = 1021480
}

665.2.1 = {
	holder = 1023462
}

672.2.1 = {
	holder = 1024488
}

757.2.1 = {
	holder = 1025682
}

773.2.1 = {
	holder = 1029134
}

773.2.2 = {
	holder = 1029626
}

806.2.1 = {
	holder = 1029979
}

833.2.1 = {
	holder = 1031297
}

857.2.1 = {
	holder = 1032797
}

886.2.1 = {
	holder = 1032507
}

886.2.2 = {
	holder = 1034998
}

886.2.3 = {
	holder = 1035001
}

911.2.1 = {
	holder = 1036145
}

967.2.1 = {
	holder = 1038791
}

1029.2.1 = {
	holder = 1041149
}

1058.2.1 = {
	holder = 1041205
}

1061.2.1 = {
	holder = 1043295
}

