200.2.1 = {
	holder = 1000001
	law = succ_elective_gavelkind
	law = cognatic_succession
}

200.2.2 = {
	holder = 1000063
	law = succ_elective_gavelkind
	law = cognatic_succession
}

200.2.3 = {
	liege = d_tanorut
}

200.2.4 = {
	liege = d_kutojan
}

200.2.5 = {
	holder = 1000341
	law = succ_gavelkind
	law = agnatic_succession
}

227.2.1 = {
	holder = 1001486
}

242.2.1 = {
	holder = 1003608
}

272.2.1 = {
	holder = 1003598
}

288.2.1 = {
	holder = 1005466
}

323.2.1 = {
	holder = 1007034
}

324.2.1 = {
	holder = 1007964
}

359.2.1 = {
	holder = 1007991
}

381.2.1 = {
	holder = 1009736
}

417.2.1 = {
	holder = 1010755
}

456.2.1 = {
	holder = 1013313
}

500.2.1 = {
	holder = 1015410
}

501.2.1 = {
	holder = 1016501
}

528.2.1 = {
	holder = 1017448
}

538.2.1 = {
	holder = 1017604
}

585.2.1 = {
	holder = 1018810
}

600.2.1 = {
	holder = 1020610
}

608.2.1 = {
	holder = 1019314
}

626.2.1 = {
	holder = 1021928
}

670.2.1 = {
	holder = 1023598
}

697.2.1 = {
	holder = 1023559
}

713.2.1 = {
	holder = 1025411
}

733.2.1 = {
	holder = 1026979
}

759.2.1 = {
	holder = 1025452
}

759.2.2 = {
	holder = 1026979
}

760.2.1 = {
	holder = 1028927
}

808.2.1 = {
	holder = 1029245
}

839.2.1 = {
	holder = 1030979
}

840.2.1 = {
	holder = 1032857
}

846.2.1 = {
	holder = 1032652
}

847.2.1 = {
	holder = 1033180
}

862.2.1 = {
	holder = 1033465
}

863.2.1 = {
	holder = 1033928
}

912.2.1 = {
	holder = 1035526
}

930.2.1 = {
	holder = 1036347
}

939.2.1 = {
	holder = 1037491
}

958.2.1 = {
	holder = 1038312
}

961.2.1 = {
	holder = 1038498
}

1000.2.1 = {
	holder = 1038646
}

1027.2.1 = {
	holder = 1040823
}

1062.2.1 = {
	holder = 1041998
}

