200.2.1 = {
	holder = 1000024
	law = succ_feudal_elective
	law = cognatic_succession
}

200.2.2 = {
	holder = 1001432
	law = succ_feudal_elective
	law = cognatic_succession
}

200.2.3 = {
	liege = d_wavita
}

200.2.4 = {
	holder = 1001431
	law = succ_feudal_elective
	law = cognatic_succession
}

209.2.1 = {
	holder = 1002709
}

227.2.1 = {
	holder = 1004208
}

228.2.1 = {
	holder = 1001298
}

229.2.1 = {
	holder = 1004836
}

238.2.1 = {
	holder = 1003500
}

275.2.1 = {
	holder = 1008033
}

293.2.1 = {
	holder = 1007254
}

299.2.1 = {
	holder = 1009644
}

315.2.1 = {
	holder = 1010270
}

331.2.1 = {
	holder = 1011478
}

373.2.1 = {
	holder = 1012471
}

399.2.1 = {
	holder = 1014649
}

400.2.1 = {
	holder = 1016306
}

442.2.1 = {
	holder = 1016862
}

461.2.1 = {
	holder = 1015748
}

465.2.1 = {
	holder = 1019759
}

491.2.1 = {
	holder = 1021684
}

524.2.1 = {
	holder = 1020439
}

528.2.1 = {
	holder = 1024503
}

532.2.1 = {
	holder = 1022494
}

544.2.1 = {
	holder = 1024553
}

557.2.1 = {
	holder = 1025439
}

557.2.2 = {
	holder = 1026642
}

700.2.1 = {
	holder = 1035856
}

700.2.2 = {
	holder = 1035883
}

715.2.1 = {
	holder = 1037024
}

757.2.1 = {
	holder = 1038962
}

776.2.1 = {
	holder = 1040459
}

783.2.1 = {
	holder = 1040147
}

784.2.1 = {
	holder = 1041356
}

811.2.1 = {
	holder = 1041814
}

851.2.1 = {
	holder = 1043824
}

861.2.1 = {
	holder = 1046414
}

864.2.1 = {
	holder = 1043649
}

866.2.1 = {
	holder = 1044004
}

878.2.1 = {
	holder = 1046943
}

