200.2.1 = {
	holder = 1000019
	law = succ_elective_gavelkind
	law = agnatic_succession
}

200.2.2 = {
	holder = 1000020
	law = succ_elective_gavelkind
	law = agnatic_succession
}

200.2.3 = {
	holder = 1001278
	law = succ_open_elective
	law = cognatic_succession
}

200.2.4 = {
	liege = d_totey
}

200.2.5 = {
	holder = 1001279
	law = succ_elective_gavelkind
	law = agnatic_succession
}

200.2.6 = {
	holder = 1001276
	law = succ_open_elective
	law = cognatic_succession
}

202.2.1 = {
	holder = 1001258
}

203.2.1 = {
	holder = 1002972
}

300.2.1 = {
	holder = 1007018
}

312.2.1 = {
	holder = 1010553
}

320.2.1 = {
	holder = 1011072
}

386.2.1 = {
	holder = 1012411
}

394.2.1 = {
	holder = 1015794
}

450.2.1 = {
	holder = 1016425
}

450.2.2 = {
	holder = 1019810
}

501.2.1 = {
	holder = 1019865
}

503.2.1 = {
	holder = 1019936
}

504.2.1 = {
	holder = 1023236
}

518.2.1 = {
	holder = 1023401
}

534.2.1 = {
	holder = 1023681
}

535.2.1 = {
	holder = 1021871
}

544.2.1 = {
	holder = 1024234
}

545.2.1 = {
	holder = 1025916
}

700.2.1 = {
	holder = 1032540
}

703.2.1 = {
	holder = 1034170
}

705.2.1 = {
	holder = 1032890
}

711.2.1 = {
	holder = 1036784
}

712.2.1 = {
	holder = 1036855
}

800.2.1 = {
	holder = 1038374
}

821.2.1 = {
	holder = 1039431
}

831.2.1 = {
	holder = 1043949
}

838.2.1 = {
	holder = 1043012
}

839.2.1 = {
	holder = 1044996
}

852.2.1 = {
	holder = 1045123
}

860.2.1 = {
	holder = 1045857
}

884.2.1 = {
	holder = 1047854
}

