200.2.1 = {
	holder = 1000017
	law = succ_primogeniture
	law = agnatic_succession
}

200.2.2 = {
	holder = 1001213
	law = succ_primogeniture
	law = agnatic_succession
}

200.2.3 = {
	liege = d_alamulla
}

200.2.4 = {
	holder = 1001214
	law = succ_elective_gavelkind
	law = agnatic_succession
}

200.2.5 = {
	holder = 1001211
	law = succ_primogeniture
	law = agnatic_succession
}

218.2.1 = {
	holder = 1002693
}

268.2.1 = {
	holder = 1004450
}

275.2.1 = {
	holder = 1007597
}

296.2.1 = {
	holder = 1007663
}

296.2.2 = {
	holder = 1009446
}

400.2.1 = {
	holder = 1015374
}

422.2.1 = {
	holder = 1015431
}

450.2.1 = {
	holder = 1019813
}

475.2.1 = {
	holder = 1020585
}

499.2.1 = {
	holder = 1021672
}

530.2.1 = {
	holder = 1024987
}

547.2.1 = {
	holder = 1023677
}

554.2.1 = {
	holder = 1023142
}

554.2.2 = {
	holder = 1026462
}

561.2.1 = {
	holder = 1026184
}

561.2.2 = {
	holder = 1026931
}

605.2.1 = {
	holder = 1026974
}

621.2.1 = {
	holder = 1027778
}

621.2.2 = {
	holder = 1030793
}

647.2.1 = {
	holder = 1030859
}

651.2.1 = {
	holder = 1032660
}

652.2.1 = {
	holder = 1032813
}

800.2.1 = {
	holder = 1040704
}

812.2.1 = {
	holder = 1040706
}

825.2.1 = {
	holder = 1043506
}

833.2.1 = {
	holder = 1044536
}

851.2.1 = {
	holder = 1045624
}

