200.2.1 = {
	holder = 1000036
	law = succ_feudal_elective
	law = cognatic_succession
}

200.2.2 = {
	holder = 1001796
	law = succ_feudal_elective
	law = cognatic_succession
}

200.2.3 = {
	liege = d_nagunuix
}

200.2.4 = {
	holder = 1001794
	law = succ_feudal_elective
	law = cognatic_succession
}

210.2.1 = {
	holder = 1003332
}

211.2.1 = {
	holder = 1001858
}

211.2.2 = {
	holder = 1003732
}

213.2.1 = {
	holder = 1002035
}

245.2.1 = {
	holder = 1002904
}

256.2.1 = {
	holder = 1002496
}

258.2.1 = {
	holder = 1005977
}

289.2.1 = {
	holder = 1007121
}

310.2.1 = {
	holder = 1009655
}

316.2.1 = {
	holder = 1006859
}

322.2.1 = {
	holder = 1009899
}

362.2.1 = {
	holder = 1013386
}

367.2.1 = {
	holder = 1011183
}

368.2.1 = {
	holder = 1014310
}

500.2.1 = {
	holder = 1021661
}

523.2.1 = {
	holder = 1022699
}

557.2.1 = {
	holder = 1024669
}

564.2.1 = {
	holder = 1026719
}

577.2.1 = {
	holder = 1027727
}

628.2.1 = {
	holder = 1028946
}

643.2.1 = {
	holder = 1031580
}

670.2.1 = {
	holder = 1030499
}

671.2.1 = {
	holder = 1034055
}

687.2.1 = {
	holder = 1031964
}

687.2.2 = {
	holder = 1035082
}

800.2.1 = {
	holder = 1039710
}

813.2.1 = {
	holder = 1042874
}

868.2.1 = {
	holder = 1044243
}

881.2.1 = {
	holder = 1047399
}

