200.2.1 = {
	holder = 1000006
	law = succ_primogeniture
	law = agnatic_succession
}

200.2.2 = {
	liege = d_lalyu
}

200.2.3 = {
	liege = d_kalande
}

200.2.4 = {
	holder = 1000608
	law = succ_primogeniture
	law = agnatic_succession
}

200.2.5 = {
	holder = 1002006
}

238.2.1 = {
	holder = 1003744
}

261.2.1 = {
	holder = 1005565
}

279.2.1 = {
	holder = 1007347
}

293.2.1 = {
	holder = 1008436
}

310.2.1 = {
	holder = 1010103
}

323.2.1 = {
	holder = 1009097
}

333.2.1 = {
	holder = 1011333
}

355.2.1 = {
	holder = 1012645
}

412.2.1 = {
	holder = 1013966
}

429.2.1 = {
	holder = 1017427
}

433.2.1 = {
	holder = 1013514
}

436.2.1 = {
	holder = 1018879
}

455.2.1 = {
	holder = 1020133
}

502.2.1 = {
	holder = 1022365
}

515.2.1 = {
	holder = 1023886
}

532.2.1 = {
	holder = 1025049
}

582.2.1 = {
	holder = 1027159
}

586.2.1 = {
	holder = 1028472
}

588.2.1 = {
	holder = 1028653
}

622.2.1 = {
	holder = 1029025
}

652.2.1 = {
	holder = 1031322
}

664.2.1 = {
	holder = 1032966
}

700.2.1 = {
	holder = 1034011
}

744.2.1 = {
	holder = 1037209
}

756.2.1 = {
	holder = 1039260
}

781.2.1 = {
	holder = 1039848
}

809.2.1 = {
	holder = 1041649
}

841.2.1 = {
	holder = 1043266
}

855.2.1 = {
	holder = 1044521
}

898.2.1 = {
	holder = 1046870
}

