200.2.1 = {
	holder = 1000035
	law = succ_primogeniture
	law = cognatic_succession
}

200.2.2 = {
	holder = 1001756
	law = succ_primogeniture
	law = cognatic_succession
}

200.2.3 = {
	liege = d_etizuix
}

200.2.4 = {
	holder = 1001755
	law = succ_primogeniture
	law = cognatic_succession
}

227.2.1 = {
	holder = 1003893
}

266.2.1 = {
	holder = 1005695
}

274.2.1 = {
	holder = 1007609
}

276.2.1 = {
	holder = 1005209
}

276.2.2 = {
	holder = 1008103
}

308.2.1 = {
	holder = 1007121
}

308.2.2 = {
	holder = 1010305
}

310.2.1 = {
	holder = 1007121
}

310.2.2 = {
	holder = 1010427
}

400.2.1 = {
	holder = 1014558
}

411.2.1 = {
	holder = 1015695
}

443.2.1 = {
	holder = 1017625
}

450.2.1 = {
	holder = 1018862
}

473.2.1 = {
	holder = 1021285
}

492.2.1 = {
	holder = 1021286
}

505.2.1 = {
	holder = 1022698
}

517.2.1 = {
	holder = 1022566
}

518.2.1 = {
	holder = 1024112
}

553.2.1 = {
	holder = 1025037
}

573.2.1 = {
	holder = 1027673
}

574.2.1 = {
	holder = 1027343
}

607.2.1 = {
	holder = 1027795
}

613.2.1 = {
	holder = 1027861
}

637.2.1 = {
	holder = 1030499
}

680.2.1 = {
	holder = 1031964
}

690.2.1 = {
	holder = 1034368
}

690.2.2 = {
	holder = 1035281
}

726.2.1 = {
	holder = 1035749
}

741.2.1 = {
	holder = 1037930
}

748.2.1 = {
	holder = 1035986
}

754.2.1 = {
	holder = 1039250
}

800.2.1 = {
	holder = 1041007
}

801.2.1 = {
	holder = 1042482
}

900.2.1 = {
	holder = 1047399
}

