200.2.1 = {
	holder = 1000031
	law = succ_ultimogeniture
	law = agnatic_succession
}

200.2.2 = {
	holder = 1000875
	law = succ_ultimogeniture
	law = agnatic_succession
}

200.2.3 = {
	liege = d_dadanna
}

200.2.4 = {
	holder = 1000873
	law = succ_ultimogeniture
	law = agnatic_succession
}

204.2.1 = {
	holder = 1001622
}

234.2.1 = {
	holder = 1003232
}

246.2.1 = {
	holder = 1003552
}

246.2.2 = {
	holder = 1004225
}

283.2.1 = {
	holder = 1004256
}

324.2.1 = {
	holder = 1006018
}

337.2.1 = {
	holder = 1008057
}

359.2.1 = {
	holder = 1009274
}

403.2.1 = {
	holder = 1010182
}

411.2.1 = {
	holder = 1011906
}

461.2.1 = {
	holder = 1014337
}

469.2.1 = {
	holder = 1014945
}

507.2.1 = {
	holder = 1016580
}

513.2.1 = {
	holder = 1015663
}

514.2.1 = {
	holder = 1017129
}

532.2.1 = {
	holder = 1015776
}

533.2.1 = {
	holder = 1017255
}

533.2.2 = {
	holder = 1018102
}

581.2.1 = {
	holder = 1018263
}

582.2.1 = {
	holder = 1020459
}

608.2.1 = {
	holder = 1020863
}

632.2.1 = {
	holder = 1021818
}

643.2.1 = {
	holder = 1023374
}

669.2.1 = {
	holder = 1023576
}

704.2.1 = {
	holder = 1024669
}

730.2.1 = {
	holder = 1026804
}

779.2.1 = {
	holder = 1028736
}

779.2.2 = {
	holder = 1029950
}

804.2.1 = {
	holder = 1028821
}

816.2.1 = {
	holder = 1030744
}

817.2.1 = {
	holder = 1031846
}

823.2.1 = {
	holder = 1031915
}

825.2.1 = {
	holder = 1030744
}

825.2.2 = {
	holder = 1032196
}

845.2.1 = {
	holder = 1032222
}

847.2.1 = {
	holder = 1031657
}

847.2.2 = {
	holder = 1033206
}

905.2.1 = {
	holder = 1033244
}

918.2.1 = {
	holder = 1034757
}

927.2.1 = {
	holder = 1035734
}

964.2.1 = {
	holder = 1037274
}

993.2.1 = {
	holder = 1039250
}

1026.2.1 = {
	holder = 1038657
}

1040.2.1 = {
	holder = 1042404
}

