200.2.1 = {
	holder = 1000046
	law = succ_open_elective
	law = agnatic_succession
}

200.2.2 = {
	holder = 1001898
	law = succ_open_elective
	law = agnatic_succession
}

200.2.3 = {
	liege = d_bamofan
}

200.2.4 = {
	liege = d_wirifon
}

200.2.5 = {
	holder = 1001887
	law = succ_open_elective
	law = agnatic_succession
}

217.2.1 = {
	holder = 1003517
}

230.2.1 = {
	holder = 1004532
}

271.2.1 = {
	holder = 1007751
}

323.2.1 = {
	holder = 1008893
}

346.2.1 = {
	holder = 1011899
}

365.2.1 = {
	holder = 1013386
}

365.2.2 = {
	holder = 1014092
}

382.2.1 = {
	holder = 1015135
}

440.2.1 = {
	holder = 1015320
}

443.2.1 = {
	holder = 1016440
}

470.2.1 = {
	holder = 1019553
}

485.2.1 = {
	holder = 1021473
}

505.2.1 = {
	holder = 1022817
}

562.2.1 = {
	holder = 1024006
}

567.2.1 = {
	holder = 1025037
}

582.2.1 = {
	holder = 1026451
}

612.2.1 = {
	holder = 1027795
}

632.2.1 = {
	holder = 1030024
}

669.2.1 = {
	holder = 1032311
}

681.2.1 = {
	holder = 1034368
}

690.2.1 = {
	holder = 1035282
}

737.2.1 = {
	holder = 1036352
}

745.2.1 = {
	holder = 1038466
}

812.2.1 = {
	holder = 1043198
}

851.2.1 = {
	holder = 1043667
}

860.2.1 = {
	holder = 1044895
}

861.2.1 = {
	holder = 1046427
}

890.2.1 = {
	holder = 1045964
}

891.2.1 = {
	holder = 1048324
}

