200.2.1 = {
	holder = 1000017
	law = succ_primogeniture
	law = agnatic_succession
}

200.2.2 = {
	holder = 1001154
	law = succ_primogeniture
	law = agnatic_succession
}

200.2.3 = {
	liege = d_kaxozar
}

200.2.4 = {
	holder = 1001152
	law = succ_primogeniture
	law = agnatic_succession
}

251.2.1 = {
	holder = 1004133
}

267.2.1 = {
	holder = 1006467
}

278.2.1 = {
	holder = 1007890
}

280.2.1 = {
	holder = 1005008
}

280.2.2 = {
	holder = 1008379
}

320.2.1 = {
	holder = 1008475
}

331.2.1 = {
	holder = 1009311
}

336.2.1 = {
	holder = 1010790
}

356.2.1 = {
	holder = 1012619
}

409.2.1 = {
	holder = 1013739
}

411.2.1 = {
	holder = 1012239
}

411.2.2 = {
	holder = 1017145
}

439.2.1 = {
	holder = 1017471
}

453.2.1 = {
	holder = 1020014
}

468.2.1 = {
	holder = 1020173
}

511.2.1 = {
	holder = 1021262
}

525.2.1 = {
	holder = 1023926
}

535.2.1 = {
	holder = 1025189
}

545.2.1 = {
	holder = 1023144
}

545.2.2 = {
	holder = 1025937
}

576.2.1 = {
	holder = 1026328
}

613.2.1 = {
	holder = 1028057
}

648.2.1 = {
	holder = 1030347
}

699.2.1 = {
	holder = 1035902
}

718.2.1 = {
	holder = 1036060
}

750.2.1 = {
	holder = 1037317
}

755.2.1 = {
	holder = 1039358
}

765.2.1 = {
	holder = 1037316
}

771.2.1 = {
	holder = 1037757
}

785.2.1 = {
	holder = 1041462
}

830.2.1 = {
	holder = 1042077
}

848.2.1 = {
	holder = 1045581
}

889.2.1 = {
	holder = 1046121
}

