200.2.1 = {
	holder = 1000015
	law = succ_tanistry
	law = agnatic_succession
}

200.2.2 = {
	holder = 1000988
	law = succ_tanistry
	law = agnatic_succession
}

200.2.3 = {
	liege = d_darasar
}

200.2.4 = {
	holder = 1000989
	law = succ_elective_gavelkind
	law = agnatic_succession
}

200.2.5 = {
	holder = 1000984
	law = succ_tanistry
	law = agnatic_succession
}

200.2.6 = {
	holder = 1002017
}

200.2.7 = {
	holder = 1002573
}

300.2.1 = {
	holder = 1007118
}

300.2.2 = {
	holder = 1009753
}

400.2.1 = {
	holder = 1012795
}

400.2.2 = {
	holder = 1016376
}

500.2.1 = {
	holder = 1020553
}

561.2.1 = {
	holder = 1026867
}

600.2.1 = {
	holder = 1029368
}

700.2.1 = {
	holder = 1034744
}

705.2.1 = {
	holder = 1035122
}

714.2.1 = {
	holder = 1036538
}

734.2.1 = {
	holder = 1037748
}

735.2.1 = {
	holder = 1038244
}

900.2.1 = {
	holder = 1046958
}

