200.2.1 = {
	holder = 1000794
	law = succ_primogeniture
	law = agnatic_succession
}

200.2.2 = {
	liege = k_datrar
}

201.2.1 = {
	holder = 1000808
}

213.2.1 = {
	holder = 1003849
}

261.2.1 = {
	holder = 1004997
}

295.2.1 = {
	holder = 1007582
}

310.2.1 = {
	holder = 1010194
}

316.2.1 = {
	holder = 1007518
}

332.2.1 = {
	holder = 1008929
}

359.2.1 = {
	holder = 1012345
}

371.2.1 = {
	holder = 1014457
}

373.2.1 = {
	holder = 1013130
}

376.2.1 = {
	holder = 1013160
}

403.2.1 = {
	holder = 1014847
}

407.2.1 = {
	holder = 1016845
}

446.2.1 = {
	holder = 1017568
}

459.2.1 = {
	holder = 1017677
}

486.2.1 = {
	holder = 1019501
}

491.2.1 = {
	holder = 1021093
}

494.2.1 = {
	holder = 1020265
}

526.2.1 = {
	holder = 1024189
}

526.2.2 = {
	holder = 1020997
}

539.2.1 = {
	holder = 1025527
}

577.2.1 = {
	holder = 1024568
}

580.2.1 = {
	holder = 1027323
}

589.2.1 = {
	holder = 1026302
}

604.2.1 = {
	holder = 1028336
}

636.2.1 = {
	holder = 1029840
}

637.2.1 = {
	holder = 1031835
}

650.2.1 = {
	holder = 1029840
}

650.2.2 = {
	holder = 1032700
}

687.2.1 = {
	holder = 1033329
}

721.2.1 = {
	holder = 1035534
}

739.2.1 = {
	holder = 1037905
}

787.2.1 = {
	holder = 1039003
}

793.2.1 = {
	holder = 1041858
}

796.2.1 = {
	holder = 1040577
}

837.2.1 = {
	holder = 1041621
}

843.2.1 = {
	holder = 1043304
}

869.2.1 = {
	holder = 1046924
}

879.2.1 = {
	holder = 1047486
}

888.2.1 = {
	holder = 1045470
}

888.2.2 = {
	holder = 1048138
}

895.2.1 = {
	holder = 1048290
}

901.2.1 = {
	holder = 1047411
}

