200.2.1 = {
	holder = 1000155
	law = succ_tanistry
	law = agnatic_succession
}

200.2.2 = {
	liege = k_tarjkaz
}

210.2.1 = {
	holder = 1002912
}

218.2.1 = {
	holder = 1000211
}

235.2.1 = {
	holder = 1002081
}

273.2.1 = {
	holder = 1005236
}

298.2.1 = {
	holder = 1008590
}

301.2.1 = {
	holder = 1007853
}

301.2.2 = {
	holder = 1009763
}

307.2.1 = {
	holder = 1006513
}

310.2.1 = {
	holder = 1008703
}

321.2.1 = {
	holder = 1011189
}

330.2.1 = {
	holder = 1011192
}

336.2.1 = {
	holder = 1010294
}

340.2.1 = {
	holder = 1011900
}

366.2.1 = {
	holder = 1010760
}

368.2.1 = {
	holder = 1012503
}

388.2.1 = {
	holder = 1012579
}

389.2.1 = {
	holder = 1015596
}

401.2.1 = {
	holder = 1016046
}

457.2.1 = {
	holder = 1017304
}

476.2.1 = {
	holder = 1020261
}

525.2.1 = {
	holder = 1023947
}

547.2.1 = {
	holder = 1023212
}

557.2.1 = {
	holder = 1025417
}

579.2.1 = {
	holder = 1027067
}

588.2.1 = {
	holder = 1026044
}

589.2.1 = {
	holder = 1028661
}

624.2.1 = {
	holder = 1028718
}

645.2.1 = {
	holder = 1031714
}

690.2.1 = {
	holder = 1033031
}

702.2.1 = {
	holder = 1035655
}

708.2.1 = {
	holder = 1034969
}

708.2.2 = {
	holder = 1036566
}

743.2.1 = {
	holder = 1037115
}

782.2.1 = {
	holder = 1039143
}

802.2.1 = {
	holder = 1039664
}

810.2.1 = {
	holder = 1043062
}

811.2.1 = {
	holder = 1043134
}

829.2.1 = {
	holder = 1044311
}

876.2.1 = {
	holder = 1044503
}

890.2.1 = {
	holder = 1045728
}

895.2.1 = {
	liege = k_naloch
}

