200.2.1 = {
	holder = 1000995
	law = succ_open_elective
	law = cognatic_succession
}

223.2.1 = {
	holder = 1002510
}

272.2.1 = {
	holder = 1004316
}

278.2.1 = {
	liege = k_qaraold
}

310.2.1 = {
	holder = 1005566
}

326.2.1 = {
	holder = 1006920
}

356.2.1 = {
	holder = 1008411
}

364.2.1 = {
	holder = 1009663
}

379.2.1 = {
	holder = 1010581
}

388.2.1 = {
	holder = 1010928
}

430.2.1 = {
	holder = 1011763
}

443.2.1 = {
	holder = 1013197
}

483.2.1 = {
	holder = 1014249
}

519.2.1 = {
	holder = 1016887
}

520.2.1 = {
	holder = 1017419
}

520.2.2 = {
	holder = 1015186
}

529.2.1 = {
	holder = 1016531
}

529.2.2 = {
	holder = 1017875
}

546.2.1 = {
	holder = 1018076
}

555.2.1 = {
	holder = 1018982
}

601.2.1 = {
	holder = 1019924
}

643.2.1 = {
	holder = 1021478
}

669.2.1 = {
	holder = 1023497
}

684.2.1 = {
	holder = 1024672
}

709.2.1 = {
	holder = 1025668
}

725.2.1 = {
	holder = 1025832
}

728.2.1 = {
	holder = 1027445
}

733.2.1 = {
	holder = 1027575
}

780.2.1 = {
	holder = 1028909
}

785.2.1 = {
	holder = 1030163
}

791.2.1 = {
	holder = 1029717
}

801.2.1 = {
	holder = 1029830
}

835.2.1 = {
	holder = 1032046
}

848.2.1 = {
	holder = 1032556
}

896.2.1 = {
	holder = 1033686
}

924.2.1 = {
	holder = 1035606
}

978.2.1 = {
	holder = 1036871
}

985.2.1 = {
	holder = 1039448
}

988.2.1 = {
	holder = 1038392
}

1007.2.1 = {
	holder = 1039332
}

1025.2.1 = {
	holder = 1041612
}

1025.2.2 = {
	holder = 1041620
}

