200.2.1 = {
	holder = 1000517
	law = succ_tanistry
	law = agnatic_succession
}

200.2.2 = {
	liege = k_laroila
}

242.2.1 = {
	holder = 1002448
}

270.2.1 = {
	holder = 1004824
}

292.2.1 = {
	holder = 1004960
}

293.2.1 = {
	holder = 1006432
}

296.2.1 = {
	holder = 1006318
}

334.2.1 = {
	holder = 1006580
}

344.2.1 = {
	holder = 1007227
}

346.2.1 = {
	holder = 1008528
}

380.2.1 = {
	holder = 1009523
}

426.2.1 = {
	holder = 1010839
}

440.2.1 = {
	holder = 1013024
}

444.2.1 = {
	holder = 1013714
}

468.2.1 = {
	liege = 0
}

468.2.2 = {
	holder = 1014794
}

481.2.1 = {
	holder = 1015520
}

499.2.1 = {
	liege = k_reojn
}

532.2.1 = {
	holder = 1016102
}

539.2.1 = {
	holder = 1015558
}

545.2.1 = {
	holder = 1016886
}

552.2.1 = {
	holder = 1019040
}

569.2.1 = {
	holder = 1019397
}

569.2.2 = {
	holder = 1019840
}

611.2.1 = {
	holder = 1020193
}

614.2.1 = {
	holder = 1021890
}

623.2.1 = {
	holder = 1022022
}

624.2.1 = {
	holder = 1022410
}

674.2.1 = {
	holder = 1022599
}

685.2.1 = {
	holder = 1024900
}

689.2.1 = {
	holder = 1024009
}

690.2.1 = {
	holder = 1025553
}

720.2.1 = {
	holder = 1025559
}

780.2.1 = {
	holder = 1027150
}

784.2.1 = {
	holder = 1030151
}

848.2.1 = {
	holder = 1031053
}

888.2.1 = {
	holder = 1033286
}

911.2.1 = {
	holder = 1035126
}

921.2.1 = {
	holder = 1036451
}

922.2.1 = {
	holder = 1034811
}

923.2.1 = {
	holder = 1036726
}

934.2.1 = {
	holder = 1034811
}

935.2.1 = {
	holder = 1037287
}

982.2.1 = {
	holder = 1037896
}

999.2.1 = {
	holder = 1038360
}

1008.2.1 = {
	holder = 1039413
}

1011.2.1 = {
	holder = 1040959
}

1043.2.1 = {
	holder = 1041646
}

