200.2.1 = {
	holder = 1000979
	law = succ_tanistry
	law = agnatic_succession
}

200.2.2 = {
	liege = k_sedavulay
}

200.2.3 = {
	holder = 1002016
}

227.2.1 = {
	holder = 1003022
}

263.2.1 = {
	holder = 1003704
}

270.2.1 = {
	holder = 1005463
}

276.2.1 = {
	holder = 1007881
}

279.2.1 = {
	holder = 1008322
}

304.2.1 = {
	holder = 1009405
}

320.2.1 = {
	holder = 1009751
}

320.2.2 = {
	holder = 1011178
}

358.2.1 = {
	holder = 1011406
}

376.2.1 = {
	holder = 1013874
}

433.2.1 = {
	holder = 1015365
}

436.2.1 = {
	holder = 1018702
}

460.2.1 = {
	holder = 1019933
}

513.2.1 = {
	holder = 1021941
}

529.2.1 = {
	holder = 1024055
}

572.2.1 = {
	holder = 1025504
}

602.2.1 = {
	holder = 1028012
}

630.2.1 = {
	holder = 1031378
}

645.2.1 = {
	holder = 1027776
}

658.2.1 = {
	holder = 1032424
}

671.2.1 = {
	holder = 1031497
}

671.2.2 = {
	holder = 1034071
}

674.2.1 = {
	holder = 1034257
}

694.2.1 = {
	holder = 1034339
}

702.2.1 = {
	holder = 1033781
}

715.2.1 = {
	holder = 1034944
}

744.2.1 = {
	holder = 1037563
}

784.2.1 = {
	holder = 1038890
}

820.2.1 = {
	holder = 1041627
}

843.2.1 = {
	holder = 1044463
}

846.2.1 = {
	holder = 1041689
}

853.2.1 = {
	holder = 1045479
}

853.2.2 = {
	holder = 1045889
}

875.2.1 = {
	holder = 1046210
}

894.2.1 = {
	holder = 1047374
}

