200.2.1 = {
	holder = 1000153
	law = succ_gavelkind
	law = cognatic_succession
}

200.2.2 = {
	liege = k_rermolcu
}

249.2.1 = {
	holder = 1004346
}

264.2.1 = {
	holder = 1004541
}

316.2.1 = {
	holder = 1006424
}

323.2.1 = {
	holder = 1007572
}

354.2.1 = {
	holder = 1008559
}

391.2.1 = {
	holder = 1010299
}

438.2.1 = {
	holder = 1013450
}

477.2.1 = {
	holder = 1015313
}

488.2.1 = {
	holder = 1014757
}

493.2.1 = {
	holder = 1015400
}

494.2.1 = {
	holder = 1016128
}

494.2.2 = {
	holder = 1014891
}

495.2.1 = {
	holder = 1014065
}

498.2.1 = {
	holder = 1015400
}

524.2.1 = {
	holder = 1017606
}

557.2.1 = {
	holder = 1018866
}

569.2.1 = {
	holder = 1017806
}

570.2.1 = {
	holder = 1019846
}

610.2.1 = {
	holder = 1020672
}

634.2.1 = {
	liege = k_dahier
}

641.2.1 = {
	holder = 1022163
}

649.2.1 = {
	holder = 1023294
}

663.2.1 = {
	holder = 1023996
}

672.2.1 = {
	holder = 1021836
}

672.2.2 = {
	holder = 1024647
}

730.2.1 = {
	holder = 1024745
}

733.2.1 = {
	holder = 1027633
}

766.2.1 = {
	holder = 1028588
}

787.2.1 = {
	holder = 1029595
}

790.2.1 = {
	holder = 1030344
}

791.2.1 = {
	holder = 1029634
}

811.2.1 = {
	holder = 1030086
}

828.2.1 = {
	holder = 1031805
}

868.2.1 = {
	holder = 1032973
}

899.2.1 = {
	holder = 1034678
}

900.2.1 = {
	holder = 1035635
}

916.2.1 = {
	holder = 1035829
}

966.2.1 = {
	holder = 1037181
}

999.2.1 = {
	holder = 1039522
}

1022.2.1 = {
	holder = 1040762
}

1045.2.1 = {
	holder = 1041866
}

