200.2.1 = {
	holder = 1000589
	law = succ_feudal_elective
	law = agnatic_succession
}

200.2.2 = {
	liege = k_kuruka
}

261.2.1 = {
	holder = 1004011
}

266.2.1 = {
	holder = 1004065
}

272.2.1 = {
	holder = 1005211
}

293.2.1 = {
	holder = 1006387
}

300.2.1 = {
	holder = 1006752
}

302.2.1 = {
	holder = 1006854
}

317.2.1 = {
	holder = 1006475
}

317.2.2 = {
	holder = 1007584
}

339.2.1 = {
	holder = 1007880
}

376.2.1 = {
	holder = 1009267
}

413.2.1 = {
	holder = 1011232
}

458.2.1 = {
	holder = 1012378
}

478.2.1 = {
	holder = 1014708
}

478.2.2 = {
	holder = 1015404
}

494.2.1 = {
	holder = 1013318
}

496.2.1 = {
	holder = 1015425
}

508.2.1 = {
	holder = 1016662
}

526.2.1 = {
	holder = 1017714
}

578.2.1 = {
	holder = 1018873
}

587.2.1 = {
	holder = 1020331
}

621.2.1 = {
	holder = 1021938
}

623.2.1 = {
	holder = 1020532
}

623.2.2 = {
	holder = 1019463
}

624.2.1 = {
	holder = 1020532
}

624.2.2 = {
	holder = 1022424
}

668.2.1 = {
	liege = k_reni
}

669.2.1 = {
	holder = 1023118
}

692.2.1 = {
	holder = 1024755
}

694.2.1 = {
	holder = 1024911
}

737.2.1 = {
	holder = 1025948
}

745.2.1 = {
	holder = 1028140
}

753.2.1 = {
	holder = 1027439
}

783.2.1 = {
	holder = 1028166
}

785.2.1 = {
	holder = 1030223
}

830.2.1 = {
	holder = 1030235
}

839.2.1 = {
	holder = 1032722
}

868.2.1 = {
	holder = 1033565
}

873.2.1 = {
	holder = 1031640
}

873.2.2 = {
	holder = 1034432
}

873.2.3 = {
	liege = k_kuruka
}

880.2.1 = {
	holder = 1033484
}

898.2.1 = {
	holder = 1035548
}

947.2.1 = {
	holder = 1035589
}

962.2.1 = {
	holder = 1037466
}

991.2.1 = {
	holder = 1039539
}

992.2.1 = {
	holder = 1039976
}

1004.2.1 = {
	holder = 1040284
}

1017.2.1 = {
	holder = 1039975
}

1017.2.2 = {
	holder = 1041240
}

1039.2.1 = {
	holder = 1041375
}

