200.2.1 = {
	holder = 1000274
	law = succ_seniority
	law = cognatic_succession
}

200.2.2 = {
	liege = k_reya
}

235.2.1 = {
	holder = 1003678
}

239.2.1 = {
	holder = 1005370
}

271.2.1 = {
	holder = 1006678
}

296.2.1 = {
	holder = 1009436
}

332.2.1 = {
	holder = 1010834
}

374.2.1 = {
	holder = 1012337
}

402.2.1 = {
	holder = 1014701
}

439.2.1 = {
	holder = 1016758
}

459.2.1 = {
	holder = 1019645
}

463.2.1 = {
	holder = 1018876
}

495.2.1 = {
	holder = 1021083
}

522.2.1 = {
	holder = 1023059
}

553.2.1 = {
	holder = 1024905
}

577.2.1 = {
	holder = 1026313
}

592.2.1 = {
	holder = 1027492
}

603.2.1 = {
	holder = 1029150
}

634.2.1 = {
	holder = 1031641
}

669.2.1 = {
	holder = 1031719
}

683.2.1 = {
	holder = 1032262
}

710.2.1 = {
	holder = 1033444
}

718.2.1 = {
	holder = 1034813
}

727.2.1 = {
	holder = 1037728
}

737.2.1 = {
	holder = 1034865
}

752.2.1 = {
	holder = 1037659
}

798.2.1 = {
	holder = 1039522
}

809.2.1 = {
	holder = 1042990
}

839.2.1 = {
	holder = 1043744
}

853.2.1 = {
	holder = 1045594
}

862.2.1 = {
	holder = 1044373
}

862.2.2 = {
	holder = 1046466
}

