200.2.1 = {
	holder = 1000157
	law = succ_gavelkind
	law = cognatic_succession
}

200.2.2 = {
	liege = k_rermolcu
}

240.2.1 = {
	holder = 1002237
}

274.2.1 = {
	holder = 1004044
}

294.2.1 = {
	holder = 1005741
}

331.2.1 = {
	holder = 1007166
}

372.2.1 = {
	holder = 1008596
}

410.2.1 = {
	holder = 1010657
}

413.2.1 = {
	holder = 1012160
}

440.2.1 = {
	holder = 1013031
}

450.2.1 = {
	holder = 1013911
}

480.2.1 = {
	holder = 1014891
}

508.2.1 = {
	holder = 1015901
}

550.2.1 = {
	holder = 1017848
}

581.2.1 = {
	holder = 1019488
}

603.2.1 = {
	holder = 1019692
}

604.2.1 = {
	holder = 1021491
}

649.2.1 = {
	holder = 1021502
}

666.2.1 = {
	holder = 1023646
}

686.2.1 = {
	holder = 1024426
}

695.2.1 = {
	holder = 1025455
}

705.2.1 = {
	holder = 1026261
}

709.2.1 = {
	holder = 1025341
}

740.2.1 = {
	holder = 1026974
}

747.2.1 = {
	holder = 1028290
}

756.2.1 = {
	holder = 1028033
}

757.2.1 = {
	holder = 1028835
}

773.2.1 = {
	holder = 1029391
}

793.2.1 = {
	holder = 1030227
}

830.2.1 = {
	holder = 1031094
}

832.2.1 = {
	holder = 1032472
}

874.2.1 = {
	holder = 1033375
}

919.2.1 = {
	holder = 1034759
}

935.2.1 = {
	holder = 1036671
}

952.2.1 = {
	holder = 1038102
}

997.2.1 = {
	holder = 1038114
}

1047.2.1 = {
	holder = 1041224
}

