200.2.1 = {
	holder = 1000960
	law = succ_open_elective
	law = cognatic_succession
}

200.2.2 = {
	liege = k_qaraold
}

200.2.3 = {
	holder = 1001643
}

205.2.1 = {
	holder = 1000999
}

206.2.1 = {
	holder = 1000894
}

207.2.1 = {
	holder = 1002332
}

217.2.1 = {
	holder = 1002339
}

236.2.1 = {
	holder = 1003453
}

291.2.1 = {
	holder = 1004793
}

308.2.1 = {
	holder = 1006591
}

358.2.1 = {
	holder = 1007539
}

362.2.1 = {
	holder = 1008590
}

383.2.1 = {
	holder = 1008627
}

407.2.1 = {
	holder = 1011165
}

434.2.1 = {
	holder = 1012401
}

443.2.1 = {
	holder = 1013647
}

471.2.1 = {
	holder = 1013881
}

472.2.1 = {
	holder = 1015099
}

508.2.1 = {
	holder = 1015188
}

535.2.1 = {
	holder = 1016459
}

541.2.1 = {
	holder = 1018298
}

552.2.1 = {
	holder = 1016822
}

553.2.1 = {
	holder = 1019083
}

603.2.1 = {
	holder = 1019178
}

613.2.1 = {
	holder = 1020290
}

613.2.2 = {
	holder = 1021907
}

652.2.1 = {
	holder = 1021954
}

654.2.1 = {
	holder = 1023773
}

673.2.1 = {
	holder = 1022921
}

673.2.2 = {
	holder = 1024742
}

678.2.1 = {
	holder = 1022921
}

678.2.2 = {
	holder = 1024992
}

680.2.1 = {
	holder = 1022921
}

694.2.1 = {
	holder = 1024497
}

701.2.1 = {
	holder = 1025975
}

722.2.1 = {
	holder = 1026976
}

751.2.1 = {
	holder = 1025877
}

752.2.1 = {
	holder = 1028583
}

797.2.1 = {
	holder = 1028620
}

809.2.1 = {
	holder = 1031063
}

834.2.1 = {
	holder = 1032143
}

863.2.1 = {
	holder = 1033911
}

876.2.1 = {
	holder = 1034008
}

876.2.2 = {
	holder = 1034552
}

903.2.1 = {
	holder = 1034644
}

909.2.1 = {
	holder = 1034163
}

909.2.2 = {
	holder = 1036104
}

953.2.1 = {
	holder = 1037148
}

964.2.1 = {
	holder = 1038395
}

1019.2.1 = {
	holder = 1039594
}

1044.2.1 = {
	holder = 1042465
}

1046.2.1 = {
	holder = 1039596
}

1058.2.1 = {
	holder = 1040992
}

1062.2.1 = {
	holder = 1043342
}

