200.2.1 = {
	holder = 1001957
	law = succ_elective_gavelkind
	law = agnatic_succession
}

211.2.1 = {
	holder = 1003665
}

249.2.1 = {
	holder = 1006146
}

274.2.1 = {
	holder = 1007937
}

312.2.1 = {
	holder = 1010502
}

314.2.1 = {
	holder = 1010671
}

324.2.1 = {
	holder = 1011376
}

326.2.1 = {
	holder = 1011511
}

364.2.1 = {
	holder = 1013973
}

368.2.1 = {
	holder = 1014234
}

392.2.1 = {
	holder = 1015773
}

395.2.1 = {
	holder = 1015958
}

430.2.1 = {
	holder = 1018380
}

479.2.1 = {
	holder = 1021614
}

491.2.1 = {
	holder = 1022368
}

500.2.1 = {
	holder = 1022895
}

503.2.1 = {
	holder = 1023146
}

600.2.1 = {
	holder = 1029324
}

619.2.1 = {
	holder = 1030634
}

659.2.1 = {
	holder = 1033231
}

666.2.1 = {
	holder = 1033694
}

679.2.1 = {
	holder = 1034539
}

681.2.1 = {
	holder = 1034673
}

708.2.1 = {
	holder = 1036507
}

728.2.1 = {
	holder = 1037785
}

764.2.1 = {
	holder = 1040059
}

814.2.1 = {
	holder = 1043338
}

837.2.1 = {
	holder = 1044847
}

897.2.1 = {
	holder = 1048674
}

898.2.1 = {
	holder = 1048732
}

