200.2.1 = {
	holder = 1000776
	law = succ_primogeniture
	law = agnatic_succession
}

219.2.1 = {
	holder = 1002567
}

239.2.1 = {
	liege = k_rasicco
}

266.2.1 = {
	holder = 1005170
}

270.2.1 = {
	holder = 1005258
}

322.2.1 = {
	holder = 1006056
}

335.2.1 = {
	holder = 1008308
}

341.2.1 = {
	holder = 1007232
}

396.2.1 = {
	holder = 1008705
}

397.2.1 = {
	holder = 1010365
}

401.2.1 = {
	holder = 1010026
}

401.2.2 = {
	holder = 1011704
}

435.2.1 = {
	holder = 1011858
}

466.2.1 = {
	holder = 1014244
}

508.2.1 = {
	holder = 1015730
}

529.2.1 = {
	holder = 1017059
}

561.2.1 = {
	holder = 1018284
}

562.2.1 = {
	holder = 1017397
}

563.2.1 = {
	holder = 1017775
}

585.2.1 = {
	holder = 1020231
}

604.2.1 = {
	holder = 1021494
}

610.2.1 = {
	holder = 1021748
}

674.2.1 = {
	holder = 1022505
}

676.2.1 = {
	holder = 1022604
}

676.2.2 = {
	holder = 1024859
}

720.2.1 = {
	holder = 1025313
}

743.2.1 = {
	holder = 1027385
}

789.2.1 = {
	holder = 1028272
}

812.2.1 = {
	holder = 1031058
}

845.2.1 = {
	holder = 1032139
}

882.2.1 = {
	holder = 1033527
}

899.2.1 = {
	holder = 1034950
}

929.2.1 = {
	holder = 1036011
}

972.2.1 = {
	holder = 1037353
}

997.2.1 = {
	holder = 1039540
}

1014.2.1 = {
	holder = 1039534
}

1015.2.1 = {
	holder = 1041135
}

1052.2.1 = {
	holder = 1041141
}

