200.2.1 = {
	holder = 1000587
	law = succ_primogeniture
	law = agnatic_succession
}

200.2.2 = {
	liege = k_qudina
}

236.2.1 = {
	holder = 1003288
}

242.2.1 = {
	holder = 1004672
}

280.2.1 = {
	holder = 1008371
}

315.2.1 = {
	holder = 1008649
}

340.2.1 = {
	holder = 1011105
}

340.2.2 = {
	holder = 1012437
}

385.2.1 = {
	holder = 1012454
}

389.2.1 = {
	holder = 1015640
}

401.2.1 = {
	holder = 1016454
}

443.2.1 = {
	holder = 1016481
}

446.2.1 = {
	holder = 1019524
}

449.2.1 = {
	holder = 1019056
}

449.2.2 = {
	holder = 1016769
}

457.2.1 = {
	holder = 1019916
}

459.2.1 = {
	holder = 1019630
}

489.2.1 = {
	holder = 1021560
}

503.2.1 = {
	holder = 1023162
}

522.2.1 = {
	holder = 1024144
}

567.2.1 = {
	holder = 1025360
}

573.2.1 = {
	holder = 1024459
}

573.2.2 = {
	holder = 1027661
}

620.2.1 = {
	holder = 1027892
}

641.2.1 = {
	holder = 1030976
}

682.2.1 = {
	holder = 1033253
}

698.2.1 = {
	holder = 1034989
}

743.2.1 = {
	holder = 1037542
}

790.2.1 = {
	holder = 1038874
}

805.2.1 = {
	holder = 1042031
}

811.2.1 = {
	holder = 1039646
}

814.2.1 = {
	holder = 1040960
}

829.2.1 = {
	holder = 1043186
}

845.2.1 = {
	holder = 1043210
}

861.2.1 = {
	holder = 1044721
}

866.2.1 = {
	holder = 1046563
}

877.2.1 = {
	holder = 1045149
}

881.2.1 = {
	holder = 1046563
}

881.2.2 = {
	holder = 1047669
}

