200.2.1 = {
	holder = 1001354
	law = succ_open_elective
	law = agnatic_succession
}

200.2.2 = {
	liege = k_surilla
}

216.2.1 = {
	holder = 1002351
}

253.2.1 = {
	holder = 1004273
}

272.2.1 = {
	holder = 1005926
}

272.2.2 = {
	holder = 1007842
}

289.2.1 = {
	holder = 1005404
}

289.2.2 = {
	holder = 1008983
}

302.2.1 = {
	holder = 1009070
}

321.2.1 = {
	holder = 1010714
}

356.2.1 = {
	holder = 1012413
}

370.2.1 = {
	holder = 1013593
}

371.2.1 = {
	holder = 1012991
}

384.2.1 = {
	holder = 1013491
}

387.2.1 = {
	holder = 1015402
}

393.2.1 = {
	holder = 1015888
}

439.2.1 = {
	holder = 1016149
}

481.2.1 = {
	holder = 1021171
}

485.2.1 = {
	holder = 1021169
}

486.2.1 = {
	holder = 1022083
}

486.2.2 = {
	liege = k_sivati
}

503.2.1 = {
	holder = 1022157
}

549.2.1 = {
	holder = 1023687
}

559.2.1 = {
	holder = 1023239
}

560.2.1 = {
	holder = 1026831
}

605.2.1 = {
	holder = 1027780
}

612.2.1 = {
	holder = 1030212
}

658.2.1 = {
	holder = 1031062
}

661.2.1 = {
	holder = 1031586
}

674.2.1 = {
	holder = 1033628
}

700.2.1 = {
	holder = 1036011
}

700.2.2 = {
	liege = k_surilla
}

742.2.1 = {
	holder = 1036548
}

774.2.1 = {
	holder = 1038894
}

791.2.1 = {
	holder = 1038258
}

791.2.2 = {
	holder = 1038765
}

814.2.1 = {
	holder = 1041046
}

843.2.1 = {
	holder = 1042300
}

852.2.1 = {
	holder = 1045552
}

900.2.1 = {
	holder = 1046665
}

