200.2.1 = {
	holder = 1001371
	law = succ_primogeniture
	law = cognatic_succession
}

246.2.1 = {
	holder = 1004191
}

264.2.1 = {
	holder = 1005066
}

301.2.1 = {
	holder = 1006786
}

338.2.1 = {
	holder = 1008592
}

374.2.1 = {
	holder = 1010294
}

384.2.1 = {
	holder = 1010798
}

399.2.1 = {
	holder = 1011563
}

407.2.1 = {
	holder = 1011994
}

432.2.1 = {
	holder = 1013178
}

488.2.1 = {
	holder = 1015854
}

538.2.1 = {
	holder = 1018324
}

542.2.1 = {
	holder = 1018525
}

547.2.1 = {
	holder = 1018752
}

593.2.1 = {
	holder = 1020961
}

639.2.1 = {
	holder = 1023151
}

677.2.1 = {
	holder = 1024891
}

692.2.1 = {
	holder = 1025635
}

760.2.1 = {
	holder = 1028925
}

784.2.1 = {
	holder = 1030131
}

788.2.1 = {
	holder = 1030298
}

837.2.1 = {
	holder = 1032696
}

879.2.1 = {
	holder = 1034672
}

896.2.1 = {
	holder = 1035429
}

900.2.1 = {
	holder = 1035633
}

907.2.1 = {
	holder = 1035987
}

934.2.1 = {
	holder = 1037221
}

937.2.1 = {
	holder = 1037379
}

957.2.1 = {
	holder = 1038311
}

966.2.1 = {
	holder = 1038745
}

1010.2.1 = {
	holder = 1040862
}

1060.2.1 = {
	holder = 1043261
}

