200.2.1 = {
	holder = 1000119
	law = succ_primogeniture
	law = agnatic_succession
}

200.2.2 = {
	liege = k_rocc
}

200.2.3 = {
	holder = 1001379
}

230.2.1 = {
	holder = 1001771
}

235.2.1 = {
	holder = 1003681
}

249.2.1 = {
	holder = 1003949
}

275.2.1 = {
	holder = 1005288
}

288.2.1 = {
	holder = 1006194
}

301.2.1 = {
	holder = 1006774
}

308.2.1 = {
	holder = 1005936
}

321.2.1 = {
	holder = 1006367
}

328.2.1 = {
	holder = 1008178
}

374.2.1 = {
	holder = 1010337
}

375.2.1 = {
	holder = 1008388
}

375.2.2 = {
	holder = 1010386
}

408.2.1 = {
	holder = 1010600
}

425.2.1 = {
	holder = 1012295
}

431.2.1 = {
	holder = 1012360
}

450.2.1 = {
	holder = 1014119
}

456.2.1 = {
	holder = 1012360
}

456.2.2 = {
	holder = 1014390
}

491.2.1 = {
	holder = 1014395
}

494.2.1 = {
	holder = 1016164
}

530.2.1 = {
	holder = 1016502
}

544.2.1 = {
	holder = 1018048
}

584.2.1 = {
	holder = 1019101
}

608.2.1 = {
	holder = 1021043
}

620.2.1 = {
	holder = 1022214
}

644.2.1 = {
	holder = 1023013
}

644.2.2 = {
	holder = 1023422
}

692.2.1 = {
	holder = 1023474
}

711.2.1 = {
	holder = 1025799
}

733.2.1 = {
	holder = 1026885
}

748.2.1 = {
	holder = 1027842
}

779.2.1 = {
	holder = 1029948
}

800.2.1 = {
	holder = 1030554
}

812.2.1 = {
	holder = 1028646
}

812.2.2 = {
	holder = 1031574
}

829.2.1 = {
	holder = 1031589
}

832.2.1 = {
	holder = 1031030
}

832.2.2 = {
	holder = 1032520
}

834.2.1 = {
	holder = 1031030
}

859.2.1 = {
	holder = 1032238
}

862.2.1 = {
	holder = 1033924
}

864.2.1 = {
	holder = 1034021
}

873.2.1 = {
	holder = 1034345
}

933.2.1 = {
	holder = 1035057
}

942.2.1 = {
	holder = 1037272
}

961.2.1 = {
	holder = 1038412
}

1001.2.1 = {
	holder = 1039461
}

1011.2.1 = {
	holder = 1040957
}

1027.2.1 = {
	liege = k_rermolcu
}

1053.2.1 = {
	holder = 1040853
}

1053.2.2 = {
	holder = 1042996
}

