200.2.1 = {
	holder = 1000467
	law = succ_tanistry
	law = agnatic_succession
}

200.2.2 = {
	liege = k_laroila
}

249.2.1 = {
	holder = 1003292
}

249.2.2 = {
	holder = 1004387
}

260.2.1 = {
	holder = 1004775
}

261.2.1 = {
	holder = 1004581
}

275.2.1 = {
	holder = 1004059
}

277.2.1 = {
	liege = k_katnd
}

307.2.1 = {
	holder = 1006009
}

320.2.1 = {
	holder = 1007132
}

325.2.1 = {
	holder = 1005196
}

326.2.1 = {
	holder = 1007970
}

327.2.1 = {
	holder = 1007869
}

360.2.1 = {
	holder = 1007972
}

381.2.1 = {
	holder = 1010690
}

419.2.1 = {
	holder = 1010792
}

434.2.1 = {
	holder = 1012758
}

467.2.1 = {
	holder = 1014833
}

468.2.1 = {
	liege = 0
}

485.2.1 = {
	holder = 1015723
}

501.2.1 = {
	liege = k_katnd
}

522.2.1 = {
	holder = 1015822
}

556.2.1 = {
	holder = 1017657
}

589.2.1 = {
	holder = 1019283
}

602.2.1 = {
	holder = 1020931
}

662.2.1 = {
	holder = 1021691
}

671.2.1 = {
	holder = 1021844
}

675.2.1 = {
	holder = 1023158
}

678.2.1 = {
	holder = 1024846
}

731.2.1 = {
	holder = 1025707
}

741.2.1 = {
	holder = 1027801
}

742.2.1 = {
	holder = 1027135
}

755.2.1 = {
	holder = 1028141
}

756.2.1 = {
	holder = 1027002
}

756.2.2 = {
	liege = e_reloj
}

758.2.1 = {
	holder = 1028854
}

779.2.1 = {
	holder = 1029700
}

815.2.1 = {
	holder = 1030829
}

829.2.1 = {
	holder = 1031868
}

867.2.1 = {
	holder = 1033755
}

879.2.1 = {
	holder = 1034683
}

903.2.1 = {
	holder = 1034944
}

912.2.1 = {
	holder = 1036040
}

955.2.1 = {
	holder = 1036773
}

978.2.1 = {
	holder = 1038380
}

994.2.1 = {
	holder = 1039380
}

995.2.1 = {
	holder = 1040091
}

1027.2.1 = {
	holder = 1041067
}

1047.2.1 = {
	holder = 1042006
}

