200.2.1 = {
	holder = 1000107
	law = succ_primogeniture
	law = agnatic_succession
}

200.2.2 = {
	liege = k_rermolcu
}

247.2.1 = {
	holder = 1002538
}

260.2.1 = {
	holder = 1004344
}

301.2.1 = {
	holder = 1005107
}

318.2.1 = {
	holder = 1007035
}

330.2.1 = {
	holder = 1008284
}

359.2.1 = {
	holder = 1008433
}

407.2.1 = {
	holder = 1010657
}

413.2.1 = {
	holder = 1012160
}

440.2.1 = {
	holder = 1013031
}

450.2.1 = {
	holder = 1013911
}

480.2.1 = {
	holder = 1014891
}

508.2.1 = {
	holder = 1015901
}

550.2.1 = {
	holder = 1017848
}

560.2.1 = {
	holder = 1019393
}

589.2.1 = {
	holder = 1019692
}

604.2.1 = {
	holder = 1021492
}

623.2.1 = {
	holder = 1020873
}

646.2.1 = {
	holder = 1023513
}

698.2.1 = {
	holder = 1024332
}

729.2.1 = {
	holder = 1026438
}

743.2.1 = {
	holder = 1028033
}

796.2.1 = {
	holder = 1028878
}

809.2.1 = {
	holder = 1030850
}

829.2.1 = {
	holder = 1031735
}

864.2.1 = {
	holder = 1034022
}

911.2.1 = {
	holder = 1034140
}

921.2.1 = {
	holder = 1036496
}

930.2.1 = {
	holder = 1034759
}

930.2.2 = {
	holder = 1037036
}

957.2.1 = {
	holder = 1037230
}

966.2.1 = {
	holder = 1038635
}

1026.2.1 = {
	holder = 1040853
}

1050.2.1 = {
	holder = 1042844
}

