200.2.1 = {
	holder = 1000175
	law = succ_gavelkind
	law = cognatic_succession
}

200.2.2 = {
	liege = k_rermolcu
}

226.2.1 = {
	holder = 1002679
}

247.2.1 = {
	holder = 1004236
}

257.2.1 = {
	holder = 1004347
}

261.2.1 = {
	holder = 1002860
}

285.2.1 = {
	holder = 1005001
}

300.2.1 = {
	holder = 1006411
}

329.2.1 = {
	holder = 1007035
}

360.2.1 = {
	holder = 1007076
}

361.2.1 = {
	holder = 1008595
}

380.2.1 = {
	holder = 1009724
}

417.2.1 = {
	holder = 1011838
}

423.2.1 = {
	holder = 1012048
}

477.2.1 = {
	holder = 1012103
}

478.2.1 = {
	holder = 1013451
}

497.2.1 = {
	holder = 1015607
}

519.2.1 = {
	holder = 1016605
}

555.2.1 = {
	holder = 1017634
}

559.2.1 = {
	holder = 1017848
}

581.2.1 = {
	holder = 1019488
}

603.2.1 = {
	holder = 1019692
}

615.2.1 = {
	holder = 1020873
}

648.2.1 = {
	holder = 1022071
}

673.2.1 = {
	holder = 1021684
}

675.2.1 = {
	holder = 1023199
}

698.2.1 = {
	holder = 1025341
}

740.2.1 = {
	holder = 1026974
}

747.2.1 = {
	holder = 1028290
}

756.2.1 = {
	holder = 1028033
}

796.2.1 = {
	holder = 1028878
}

809.2.1 = {
	holder = 1030850
}

829.2.1 = {
	holder = 1031735
}

876.2.1 = {
	holder = 1034565
}

910.2.1 = {
	holder = 1034710
}

932.2.1 = {
	holder = 1036523
}

951.2.1 = {
	holder = 1036671
}

969.2.1 = {
	holder = 1037501
}

972.2.1 = {
	holder = 1038960
}

986.2.1 = {
	holder = 1039744
}

1000.2.1 = {
	holder = 1039873
}

1020.2.1 = {
	holder = 1040853
}

1026.2.1 = {
	holder = 1041673
}

