200.2.1 = {
	holder = 1000141
	law = succ_tanistry
	law = agnatic_succession
}

200.2.2 = {
	liege = k_qolelen
}

226.2.1 = {
	holder = 1002612
}

252.2.1 = {
	holder = 1005234
}

275.2.1 = {
	holder = 1006590
}

325.2.1 = {
	holder = 1010179
}

354.2.1 = {
	holder = 1011846
}

374.2.1 = {
	holder = 1012557
}

374.2.2 = {
	holder = 1014644
}

408.2.1 = {
	holder = 1015084
}

424.2.1 = {
	holder = 1016824
}

425.2.1 = {
	holder = 1018051
}

426.2.1 = {
	holder = 1018057
}

428.2.1 = {
	holder = 1016290
}

430.2.1 = {
	holder = 1017774
}

432.2.1 = {
	holder = 1017520
}

433.2.1 = {
	holder = 1018608
}

455.2.1 = {
	holder = 1018748
}

492.2.1 = {
	holder = 1020276
}

514.2.1 = {
	holder = 1022707
}

515.2.1 = {
	holder = 1023941
}

561.2.1 = {
	holder = 1024264
}

573.2.1 = {
	holder = 1024914
}

574.2.1 = {
	holder = 1027679
}

578.2.1 = {
	holder = 1025604
}

592.2.1 = {
	holder = 1025804
}

602.2.1 = {
	holder = 1029212
}

615.2.1 = {
	holder = 1029902
}

615.2.2 = {
	holder = 1030418
}

651.2.1 = {
	holder = 1031983
}

689.2.1 = {
	holder = 1032256
}

691.2.1 = {
	holder = 1035097
}

696.2.1 = {
	holder = 1035378
}

696.2.2 = {
	holder = 1035651
}

697.2.1 = {
	holder = 1034080
}

730.2.1 = {
	holder = 1036792
}

735.2.1 = {
	holder = 1038201
}

740.2.1 = {
	holder = 1038489
}

757.2.1 = {
	holder = 1036451
}

761.2.1 = {
	liege = 0
}

767.2.1 = {
	holder = 1039190
}

802.2.1 = {
	holder = 1040405
}

817.2.1 = {
	holder = 1043595
}

817.2.2 = {
	liege = k_naloch
}

830.2.1 = {
	holder = 1040405
}

831.2.1 = {
	holder = 1044113
}

835.2.1 = {
	holder = 1044765
}

839.2.1 = {
	holder = 1042759
}

840.2.1 = {
	holder = 1045020
}

844.2.1 = {
	holder = 1045093
}

900.2.1 = {
	holder = 1046512
}

