200.2.1 = {
	holder = 1001180
	law = succ_tanistry
	law = cognatic_succession
}

200.2.2 = {
	liege = k_lutoo
}

207.2.1 = {
	holder = 1001971
}

211.2.1 = {
	holder = 1001806
}

213.2.1 = {
	holder = 1002593
}

225.2.1 = {
	holder = 1002718
}

281.2.1 = {
	holder = 1005421
}

316.2.1 = {
	holder = 1006170
}

318.2.1 = {
	holder = 1007669
}

364.2.1 = {
	holder = 1007856
}

381.2.1 = {
	holder = 1010144
}

436.2.1 = {
	holder = 1011017
}

444.2.1 = {
	holder = 1013426
}

501.2.1 = {
	holder = 1014740
}

507.2.1 = {
	holder = 1015489
}

507.2.2 = {
	holder = 1014553
}

530.2.1 = {
	holder = 1017334
}

574.2.1 = {
	holder = 1018146
}

588.2.1 = {
	holder = 1020294
}

604.2.1 = {
	holder = 1021170
}

628.2.1 = {
	holder = 1021963
}

652.2.1 = {
	holder = 1023005
}

681.2.1 = {
	holder = 1024186
}

692.2.1 = {
	holder = 1025528
}

710.2.1 = {
	holder = 1024358
}

712.2.1 = {
	holder = 1026240
}

717.2.1 = {
	holder = 1026924
}

762.2.1 = {
	holder = 1027120
}

764.2.1 = {
	holder = 1026858
}

769.2.1 = {
	holder = 1028008
}

782.2.1 = {
	holder = 1030068
}

782.2.2 = {
	holder = 1027884
}

782.2.3 = {
	holder = 1030080
}

805.2.1 = {
	holder = 1029577
}

806.2.1 = {
	holder = 1031239
}

849.2.1 = {
	holder = 1031971
}

853.2.1 = {
	holder = 1033449
}

864.2.1 = {
	holder = 1033632
}

865.2.1 = {
	holder = 1034073
}

929.2.1 = {
	holder = 1034215
}

934.2.1 = {
	holder = 1036517
}

934.2.2 = {
	holder = 1037265
}

1029.2.1 = {
	holder = 1037623
}

1029.2.2 = {
	holder = 1041857
}

1048.2.1 = {
	holder = 1042128
}

