200.2.1 = {
	holder = 1001725
	law = succ_elective_gavelkind
	law = cognatic_succession
}

200.2.2 = {
	liege = k_tatarn
}

236.2.1 = {
	holder = 1002457
}

258.2.1 = {
	holder = 1005760
}

264.2.1 = {
	holder = 1007030
}

315.2.1 = {
	holder = 1008172
}

325.2.1 = {
	holder = 1011234
}

367.2.1 = {
	holder = 1012364
}

387.2.1 = {
	holder = 1014361
}

425.2.1 = {
	holder = 1015631
}

450.2.1 = {
	holder = 1018861
}

455.2.1 = {
	holder = 1019957
}

472.2.1 = {
	holder = 1021145
}

500.2.1 = {
	holder = 1022164
}

537.2.1 = {
	holder = 1023490
}

542.2.1 = {
	holder = 1025706
}

574.2.1 = {
	holder = 1026915
}

575.2.1 = {
	holder = 1027787
}

626.2.1 = {
	holder = 1027792
}

627.2.1 = {
	holder = 1029187
}

628.2.1 = {
	holder = 1031242
}

649.2.1 = {
	holder = 1031173
}

685.2.1 = {
	holder = 1033015
}

690.2.1 = {
	holder = 1035271
}

735.2.1 = {
	holder = 1034247
}

736.2.1 = {
	holder = 1038322
}

786.2.1 = {
	holder = 1039182
}

787.2.1 = {
	holder = 1041577
}

788.2.1 = {
	holder = 1040465
}

795.2.1 = {
	holder = 1042063
}

800.2.1 = {
	holder = 1042310
}

802.2.1 = {
	holder = 1040465
}

803.2.1 = {
	holder = 1042615
}

804.2.1 = {
	holder = 1042681
}

805.2.1 = {
	holder = 1041449
}

806.2.1 = {
	holder = 1039182
}

809.2.1 = {
	holder = 1042179
}

820.2.1 = {
	holder = 1043520
}

847.2.1 = {
	holder = 1044621
}

900.2.1 = {
	holder = 1048921
}

