200.2.1 = {
	holder = 1000075
	law = succ_elective_gavelkind
	law = agnatic_succession
}

200.2.2 = {
	liege = k_naloch
}

210.2.1 = {
	holder = 1000107
}

210.2.2 = {
	holder = 1003653
}

215.2.1 = {
	holder = 1000107
}

215.2.2 = {
	holder = 1003936
}

262.2.1 = {
	holder = 1004010
}

271.2.1 = {
	holder = 1007354
}

298.2.1 = {
	holder = 1008700
}

330.2.1 = {
	holder = 1011261
}

339.2.1 = {
	holder = 1012372
}

369.2.1 = {
	holder = 1012729
}

399.2.1 = {
	holder = 1014433
}

411.2.1 = {
	holder = 1015519
}

411.2.2 = {
	holder = 1017135
}

465.2.1 = {
	holder = 1017299
}

499.2.1 = {
	holder = 1020787
}

530.2.1 = {
	holder = 1023210
}

560.2.1 = {
	holder = 1024992
}

599.2.1 = {
	holder = 1027681
}

606.2.1 = {
	holder = 1029332
}

629.2.1 = {
	holder = 1030705
}

678.2.1 = {
	holder = 1032399
}

692.2.1 = {
	holder = 1034612
}

737.2.1 = {
	holder = 1035777
}

748.2.1 = {
	holder = 1038982
}

758.2.1 = {
	holder = 1038851
}

763.2.1 = {
	holder = 1038924
}

766.2.1 = {
	holder = 1040210
}

808.2.1 = {
	holder = 1040290
}

838.2.1 = {
	holder = 1043613
}

865.2.1 = {
	holder = 1045022
}

