200.2.1 = {
	holder = 1000864
	law = succ_ultimogeniture
	law = agnatic_succession
}

246.2.1 = {
	holder = 1003482
}

262.2.1 = {
	holder = 1007079
}

269.2.1 = {
	holder = 1007158
}

296.2.1 = {
	holder = 1008470
}

320.2.1 = {
	holder = 1011144
}

330.2.1 = {
	holder = 1011794
}

355.2.1 = {
	holder = 1011869
}

371.2.1 = {
	holder = 1014460
}

383.2.1 = {
	holder = 1015243
}

395.2.1 = {
	holder = 1015855
}

418.2.1 = {
	holder = 1016984
}

434.2.1 = {
	holder = 1018280
}

467.2.1 = {
	holder = 1020874
}

471.2.1 = {
	holder = 1021054
}

488.2.1 = {
	holder = 1022210
}

524.2.1 = {
	holder = 1022737
}

537.2.1 = {
	holder = 1025368
}

540.2.1 = {
	holder = 1025562
}

573.2.1 = {
	holder = 1026817
}

602.2.1 = {
	holder = 1028050
}

632.2.1 = {
	holder = 1029933
}

645.2.1 = {
	holder = 1031875
}

699.2.1 = {
	holder = 1033532
}

709.2.1 = {
	holder = 1036258
}

732.2.1 = {
	holder = 1037746
}

745.4.1 = {
	law = succ_patrician_elective
}

778.2.1 = {
	holder = 1039811
}

795.2.1 = {
	holder = 1041551
}

819.2.1 = {
	holder = 1043703
}

825.2.1 = {
	holder = 1043863
}

869.2.1 = {
	holder = 1043365
}

873.2.1 = {
	holder = 1046956
}

887.2.1 = {
	holder = 1048036
}

889.2.1 = {
	holder = 1048107
}

