200.2.1 = {
	holder = 1000790
	law = succ_elective_gavelkind
	law = agnatic_succession
}

220.2.1 = {
	holder = 1003480
}

243.2.1 = {
	liege = k_nadosta
}

261.2.1 = {
	holder = 1004638
}

270.2.1 = {
	holder = 1007372
}

317.2.1 = {
	holder = 1010812
}

317.2.2 = {
	holder = 1010951
}

320.2.1 = {
	holder = 1010812
}

362.2.1 = {
	holder = 1012430
}

366.2.1 = {
	holder = 1014142
}

370.2.1 = {
	holder = 1014188
}

431.2.1 = {
	holder = 1018529
}

475.2.1 = {
	holder = 1018691
}

484.2.1 = {
	holder = 1021690
}

495.2.1 = {
	holder = 1022363
}

509.2.1 = {
	holder = 1022671
}

518.2.1 = {
	holder = 1022245
}

526.2.1 = {
	holder = 1023058
}

534.2.1 = {
	holder = 1024843
}

537.2.1 = {
	holder = 1025395
}

557.2.1 = {
	holder = 1025426
}

599.2.1 = {
	holder = 1026886
}

617.2.1 = {
	holder = 1028269
}

617.2.2 = {
	holder = 1030572
}

636.2.1 = {
	holder = 1031184
}

648.2.1 = {
	holder = 1032563
}

704.2.1 = {
	holder = 1032800
}

705.2.1 = {
	holder = 1035895
}

715.2.1 = {
	holder = 1037039
}

724.2.1 = {
	holder = 1037458
}

758.2.1 = {
	holder = 1038784
}

796.2.1 = {
	holder = 1042133
}

846.2.1 = {
	holder = 1042931
}

863.2.1 = {
	holder = 1045539
}

865.2.1 = {
	holder = 1043400
}

867.2.1 = {
	holder = 1046814
}

