200.2.1 = {
	holder = 1001781
	law = succ_primogeniture
	law = cognatic_succession
}

200.2.2 = {
	liege = k_aqasozar
}

211.2.1 = {
	holder = 1001858
}

242.2.1 = {
	holder = 1002496
}

257.2.1 = {
	holder = 1006801
}

273.2.1 = {
	holder = 1007339
}

315.2.1 = {
	holder = 1008746
}

343.2.1 = {
	holder = 1011164
}

347.2.1 = {
	holder = 1009089
}

347.2.2 = {
	holder = 1012907
}

348.2.1 = {
	holder = 1010645
}

349.2.1 = {
	holder = 1007550
}

350.2.1 = {
	holder = 1009089
}

357.2.1 = {
	holder = 1013547
}

372.2.1 = {
	holder = 1013687
}

387.2.1 = {
	holder = 1015320
}

443.2.1 = {
	holder = 1016440
}

470.2.1 = {
	holder = 1019553
}

485.2.1 = {
	holder = 1021473
}

505.2.1 = {
	holder = 1022817
}

562.2.1 = {
	holder = 1024006
}

567.2.1 = {
	holder = 1025037
}

568.2.1 = {
	holder = 1027343
}

607.2.1 = {
	holder = 1027795
}

632.2.1 = {
	holder = 1030024
}

669.2.1 = {
	holder = 1032311
}

681.2.1 = {
	holder = 1034368
}

738.2.1 = {
	holder = 1037330
}

774.2.1 = {
	holder = 1038842
}

799.2.1 = {
	holder = 1041058
}

844.2.1 = {
	holder = 1042740
}

872.2.1 = {
	holder = 1045562
}

