200.2.1 = {
	holder = 1000989
	law = succ_open_elective
	law = cognatic_succession
}

200.2.2 = {
	liege = k_kilold
}

235.2.1 = {
	holder = 1001963
}

264.2.1 = {
	holder = 1003776
}

299.2.1 = {
	holder = 1006184
}

316.2.1 = {
	holder = 1004710
}

316.2.2 = {
	holder = 1005331
}

330.2.1 = {
	holder = 1008153
}

331.2.1 = {
	holder = 1006182
}

337.2.1 = {
	holder = 1008312
}

348.2.1 = {
	holder = 1009101
}

352.2.1 = {
	holder = 1009304
}

396.2.1 = {
	holder = 1009101
}

422.2.1 = {
	holder = 1009900
}

429.2.1 = {
	holder = 1010279
}

430.2.1 = {
	holder = 1013109
}

437.2.1 = {
	holder = 1010279
}

442.2.1 = {
	holder = 1011079
}

443.2.1 = {
	holder = 1013754
}

461.2.1 = {
	holder = 1014601
}

466.2.1 = {
	holder = 1014673
}

496.2.1 = {
	holder = 1015504
}

507.2.1 = {
	holder = 1016835
}

511.2.1 = {
	holder = 1016221
}

531.2.1 = {
	holder = 1017017
}

555.2.1 = {
	holder = 1018445
}

563.2.1 = {
	holder = 1019553
}

606.2.1 = {
	holder = 1020980
}

639.2.1 = {
	holder = 1022102
}

643.2.1 = {
	holder = 1023316
}

659.2.1 = {
	holder = 1024077
}

701.2.1 = {
	holder = 1024818
}

729.2.1 = {
	holder = 1027109
}

774.2.1 = {
	holder = 1027497
}

780.2.1 = {
	holder = 1029953
}

836.2.1 = {
	holder = 1030684
}

858.2.1 = {
	holder = 1032909
}

876.2.1 = {
	holder = 1033847
}

907.2.1 = {
	holder = 1034894
}

919.2.1 = {
	holder = 1036222
}

922.2.1 = {
	holder = 1036712
}

958.2.1 = {
	holder = 1036743
}

970.2.1 = {
	holder = 1038568
}

984.2.1 = {
	holder = 1039661
}

1027.2.1 = {
	holder = 1039849
}

1033.2.1 = {
	holder = 1041840
}

1034.2.1 = {
	holder = 1041050
}

1052.2.1 = {
	holder = 1041355
}

1057.2.1 = {
	holder = 1043117
}

1065.2.1 = {
	holder = 1042097
}

