200.2.1 = {
	holder = 1000461
	law = succ_tanistry
	law = agnatic_succession
}

200.2.2 = {
	liege = k_akiudyi
}

217.2.1 = {
	holder = 1001516
}

232.2.1 = {
	holder = 1001903
}

249.2.1 = {
	holder = 1004393
}

269.2.1 = {
	holder = 1004905
}

271.2.1 = {
	holder = 1005416
}

288.2.1 = {
	holder = 1005990
}

347.2.1 = {
	holder = 1006880
}

387.2.1 = {
	holder = 1009098
}

415.2.1 = {
	holder = 1011162
}

425.2.1 = {
	holder = 1012892
}

476.2.1 = {
	holder = 1012996
}

500.2.1 = {
	holder = 1015559
}

533.2.1 = {
	holder = 1017983
}

553.2.1 = {
	holder = 1019093
}

590.2.1 = {
	holder = 1020127
}

590.2.2 = {
	holder = 1018615
}

600.2.1 = {
	holder = 1021013
}

609.2.1 = {
	holder = 1018682
}

610.2.1 = {
	holder = 1019470
}

620.2.1 = {
	holder = 1020127
}

620.2.2 = {
	holder = 1022255
}

666.2.1 = {
	holder = 1022985
}

698.2.1 = {
	holder = 1024466
}

737.2.1 = {
	liege = k_reojn
}

745.2.1 = {
	holder = 1027042
}

773.2.1 = {
	holder = 1028444
}

779.2.1 = {
	holder = 1029909
}

781.2.1 = {
	holder = 1028327
}

782.2.1 = {
	holder = 1029699
}

789.2.1 = {
	holder = 1029987
}

789.2.2 = {
	holder = 1030357
}

816.2.1 = {
	holder = 1030737
}

828.2.1 = {
	holder = 1030519
}

829.2.1 = {
	holder = 1032344
}

846.2.1 = {
	holder = 1032714
}

895.2.1 = {
	holder = 1033476
}

907.2.1 = {
	holder = 1035483
}

940.2.1 = {
	holder = 1036399
}

942.2.1 = {
	holder = 1036426
}

942.2.2 = {
	holder = 1035120
}

955.2.1 = {
	holder = 1037977
}

1002.2.1 = {
	holder = 1039879
}

1005.2.1 = {
	holder = 1039932
}

1006.2.1 = {
	holder = 1040692
}

1043.2.1 = {
	holder = 1041756
}

1064.2.1 = {
	holder = 1042674
}

