200.2.1 = {
	holder = 1001411
	law = succ_feudal_elective
	law = cognatic_succession
}

200.2.2 = {
	liege = k_rakofan
}

204.2.1 = {
	holder = 1000523
}

237.2.1 = {
	holder = 1002636
}

240.2.1 = {
	holder = 1005380
}

251.2.1 = {
	holder = 1003285
}

252.2.1 = {
	holder = 1006379
}

256.2.1 = {
	holder = 1006556
}

292.2.1 = {
	holder = 1007676
}

306.2.1 = {
	holder = 1009643
}

340.2.1 = {
	holder = 1010527
}

364.2.1 = {
	holder = 1013991
}

401.2.1 = {
	holder = 1014011
}

420.2.1 = {
	holder = 1016641
}

431.2.1 = {
	holder = 1016683
}

442.2.1 = {
	holder = 1019269
}

445.2.1 = {
	holder = 1019287
}

467.2.1 = {
	holder = 1020886
}

484.2.1 = {
	holder = 1021949
}

506.2.1 = {
	holder = 1019652
}

517.2.1 = {
	holder = 1022174
}

530.2.1 = {
	holder = 1024549
}

568.2.1 = {
	holder = 1025992
}

580.2.1 = {
	holder = 1027658
}

613.2.1 = {
	holder = 1028956
}

614.2.1 = {
	holder = 1027020
}

627.2.1 = {
	holder = 1030248
}

631.2.1 = {
	holder = 1030430
}

646.2.1 = {
	holder = 1030583
}

654.2.1 = {
	holder = 1030935
}

655.2.1 = {
	holder = 1031023
}

657.2.1 = {
	holder = 1033024
}

662.2.1 = {
	holder = 1033434
}

709.2.1 = {
	holder = 1034448
}

725.2.1 = {
	holder = 1037112
}

745.2.1 = {
	liege = 0
}

745.4.1 = {
	law = succ_patrician_elective
}

785.2.1 = {
	holder = 1038478
}

804.2.1 = {
	holder = 1042473
}

859.2.1 = {
	holder = 1043648
}

883.2.1 = {
	holder = 1046798
}

899.2.1 = {
	holder = 1048309
}

