200.2.1 = {
	holder = 1000168
	law = succ_gavelkind
	law = cognatic_succession
}

206.2.1 = {
	liege = k_dahier
}

241.2.1 = {
	holder = 1001813
}

269.2.1 = {
	holder = 1004145
}

303.2.1 = {
	holder = 1005378
}

304.2.1 = {
	holder = 1006207
}

342.2.1 = {
	holder = 1005111
}

350.2.1 = {
	holder = 1009056
}

408.2.1 = {
	holder = 1010117
}

443.2.1 = {
	holder = 1012934
}

450.2.1 = {
	holder = 1011742
}

466.2.1 = {
	holder = 1014019
}

506.2.1 = {
	holder = 1016650
}

507.2.1 = {
	holder = 1015457
}

508.2.1 = {
	holder = 1016842
}

534.2.1 = {
	holder = 1017405
}

577.2.1 = {
	holder = 1018566
}

598.2.1 = {
	holder = 1020467
}

605.2.1 = {
	holder = 1021420
}

666.2.1 = {
	holder = 1022800
}

685.2.1 = {
	holder = 1025293
}

713.2.1 = {
	holder = 1025895
}

726.2.1 = {
	holder = 1027083
}

730.2.1 = {
	holder = 1026837
}

753.2.1 = {
	holder = 1028589
}

783.2.1 = {
	holder = 1028649
}

816.2.1 = {
	holder = 1031044
}

838.2.1 = {
	holder = 1032204
}

896.2.1 = {
	holder = 1033272
}

912.2.1 = {
	holder = 1034678
}

925.2.1 = {
	holder = 1036803
}

964.2.1 = {
	holder = 1037383
}

984.2.1 = {
	holder = 1038839
}

1010.2.1 = {
	holder = 1039669
}

1013.2.1 = {
	holder = 1040925
}

1020.2.1 = {
	holder = 1041226
}

