200.2.1 = {
	holder = 1001450
	law = succ_elective_gavelkind
	law = agnatic_succession
}

200.2.2 = {
	liege = k_lifenda
}

204.2.1 = {
	holder = 1001479
}

205.2.1 = {
	holder = 1002029
}

205.2.2 = {
	holder = 1003264
}

215.2.1 = {
	holder = 1003323
}

227.2.1 = {
	holder = 1004305
}

234.2.1 = {
	holder = 1005127
}

242.2.1 = {
	holder = 1005718
}

270.2.1 = {
	holder = 1005964
}

299.2.1 = {
	holder = 1008037
}

301.2.1 = {
	holder = 1009177
}

301.2.2 = {
	holder = 1009832
}

337.2.1 = {
	holder = 1009959
}

367.2.1 = {
	holder = 1012358
}

386.2.1 = {
	holder = 1014546
}

402.2.1 = {
	holder = 1016068
}

453.2.1 = {
	holder = 1016341
}

453.2.2 = {
	holder = 1020016
}

455.2.1 = {
	holder = 1020057
}

519.2.1 = {
	holder = 1022158
}

547.2.1 = {
	holder = 1024505
}

564.2.1 = {
	holder = 1026392
}

589.2.1 = {
	holder = 1027782
}

635.2.1 = {
	holder = 1029133
}

658.2.1 = {
	holder = 1031950
}

686.2.1 = {
	holder = 1034173
}

737.2.1 = {
	holder = 1035264
}

752.2.1 = {
	holder = 1039012
}

770.2.1 = {
	holder = 1038104
}

770.2.2 = {
	holder = 1040534
}

810.2.1 = {
	holder = 1040948
}

831.2.1 = {
	holder = 1042669
}

831.2.2 = {
	holder = 1040594
}

832.2.1 = {
	holder = 1043651
}

834.2.1 = {
	holder = 1044701
}

837.2.1 = {
	holder = 1042669
}

837.2.2 = {
	holder = 1044885
}

867.2.1 = {
	holder = 1045176
}

883.2.1 = {
	holder = 1047585
}

