200.2.1 = {
	holder = 1001832
	law = succ_feudal_elective
	law = cognatic_succession
}

200.2.2 = {
	liege = k_kiania
}

215.2.1 = {
	holder = 1002737
}

246.2.1 = {
	holder = 1004405
}

255.2.1 = {
	holder = 1004544
}

255.2.2 = {
	holder = 1006658
}

296.2.1 = {
	holder = 1006791
}

313.2.1 = {
	holder = 1010217
}

324.2.1 = {
	holder = 1011111
}

324.2.2 = {
	holder = 1011445
}

338.2.1 = {
	holder = 1011741
}

342.2.1 = {
	holder = 1011111
}

343.2.1 = {
	holder = 1007272
}

361.2.1 = {
	holder = 1013820
}

366.2.1 = {
	holder = 1013906
}

366.2.2 = {
	holder = 1014150
}

372.2.1 = {
	holder = 1011444
}

381.2.1 = {
	holder = 1011554
}

397.2.1 = {
	holder = 1015577
}

424.2.1 = {
	holder = 1016652
}

465.2.1 = {
	holder = 1018176
}

485.2.1 = {
	holder = 1018194
}

485.2.2 = {
	holder = 1022045
}

514.2.1 = {
	holder = 1022354
}

526.2.1 = {
	holder = 1024178
}

548.2.1 = {
	holder = 1025401
}

599.2.1 = {
	holder = 1027167
}

623.2.1 = {
	holder = 1030102
}

627.2.1 = {
	holder = 1031193
}

629.2.1 = {
	holder = 1031326
}

668.2.1 = {
	holder = 1031382
}

681.2.1 = {
	holder = 1032663
}

700.2.1 = {
	holder = 1034858
}

734.2.1 = {
	holder = 1036232
}

754.2.1 = {
	holder = 1037342
}

756.2.1 = {
	holder = 1037432
}

771.2.1 = {
	holder = 1039573
}

799.2.1 = {
	holder = 1041014
}

842.2.1 = {
	holder = 1045057
}

850.2.1 = {
	holder = 1045718
}

