200.2.1 = {
	holder = 1000854
	law = succ_primogeniture
	law = agnatic_succession
}

200.2.2 = {
	liege = k_bilodan
}

201.2.1 = {
	holder = 1002010
}

208.2.1 = {
	holder = 1000849
}

209.2.1 = {
	holder = 1003598
}

223.2.1 = {
	holder = 1004381
}

246.2.1 = {
	holder = 1005495
}

246.2.2 = {
	holder = 1004539
}

250.2.1 = {
	holder = 1005983
}

266.2.1 = {
	holder = 1007414
}

304.2.1 = {
	holder = 1007878
}

331.2.1 = {
	holder = 1010197
}

350.2.1 = {
	holder = 1012181
}

358.2.1 = {
	holder = 1010419
}

358.2.2 = {
	holder = 1010699
}

375.2.1 = {
	holder = 1013657
}

387.2.1 = {
	holder = 1014778
}

426.2.1 = {
	holder = 1017974
}

437.2.1 = {
	holder = 1018070
}

447.2.1 = {
	holder = 1018497
}

447.2.2 = {
	holder = 1019590
}

485.2.1 = {
	holder = 1019779
}

503.2.1 = {
	holder = 1022145
}

543.2.1 = {
	holder = 1023469
}

563.2.1 = {
	holder = 1027060
}

573.2.1 = {
	holder = 1027503
}

576.2.1 = {
	holder = 1026484
}

576.2.2 = {
	holder = 1027869
}

588.2.1 = {
	holder = 1028049
}

594.2.1 = {
	holder = 1026484
}

594.2.2 = {
	holder = 1029027
}

639.2.1 = {
	holder = 1029172
}

661.2.1 = {
	holder = 1032060
}

697.2.1 = {
	holder = 1034012
}

702.2.1 = {
	holder = 1035827
}

707.2.1 = {
	holder = 1036499
}

734.2.1 = {
	holder = 1036669
}

753.2.1 = {
	holder = 1038817
}

808.2.1 = {
	holder = 1040515
}

814.2.1 = {
	holder = 1043404
}

819.2.1 = {
	holder = 1043434
}

875.2.1 = {
	holder = 1044451
}

896.2.1 = {
	holder = 1047299
}

