200.2.1 = {
	holder = 1000702
	law = succ_primogeniture
	law = agnatic_succession
}

200.2.2 = {
	liege = k_rasicco
}

203.2.1 = {
	holder = 1000662
}

234.2.1 = {
	holder = 1001839
}

251.2.1 = {
	holder = 1004460
}

251.2.2 = {
	holder = 1002650
}

265.2.1 = {
	holder = 1003573
}

278.2.1 = {
	holder = 1005260
}

287.2.1 = {
	holder = 1004416
}

288.2.1 = {
	holder = 1004459
}

301.2.1 = {
	holder = 1003923
}

302.2.1 = {
	holder = 1004459
}

303.2.1 = {
	holder = 1006910
}

305.2.1 = {
	holder = 1004205
}

305.2.2 = {
	holder = 1007004
}

335.2.1 = {
	holder = 1007095
}

346.2.1 = {
	holder = 1007431
}

368.2.1 = {
	holder = 1009111
}

372.2.1 = {
	holder = 1010220
}

376.2.1 = {
	holder = 1010317
}

409.2.1 = {
	holder = 1011330
}

422.2.1 = {
	holder = 1011528
}

435.2.1 = {
	holder = 1012414
}

450.2.1 = {
	holder = 1013408
}

475.2.1 = {
	holder = 1014283
}

477.2.1 = {
	holder = 1015329
}

494.2.1 = {
	holder = 1016127
}

519.2.1 = {
	holder = 1015364
}

524.2.1 = {
	holder = 1015760
}

532.2.1 = {
	holder = 1016904
}

572.2.1 = {
	holder = 1017777
}

579.2.1 = {
	holder = 1020081
}

594.2.1 = {
	holder = 1017366
}

606.2.1 = {
	holder = 1019371
}

623.2.1 = {
	holder = 1021606
}

639.2.1 = {
	holder = 1022820
}

651.2.1 = {
	holder = 1023657
}

684.2.1 = {
	holder = 1024562
}

732.2.1 = {
	holder = 1026638
}

765.2.1 = {
	holder = 1027469
}

767.2.1 = {
	holder = 1029312
}

795.2.1 = {
	holder = 1029320
}

811.2.1 = {
	holder = 1031002
}

825.2.1 = {
	holder = 1032180
}

878.2.1 = {
	holder = 1033032
}

907.2.1 = {
	holder = 1035176
}

944.2.1 = {
	holder = 1036048
}

966.2.1 = {
	holder = 1038129
}

968.2.1 = {
	holder = 1037821
}

968.2.2 = {
	holder = 1038853
}

1015.2.1 = {
	holder = 1039190
}

1025.2.1 = {
	holder = 1040702
}

1025.2.2 = {
	holder = 1041603
}

1060.2.1 = {
	holder = 1041697
}

