200.2.1 = {
	holder = 1000113
	law = succ_primogeniture
	law = agnatic_succession
}

200.2.2 = {
	liege = k_sarire
}

207.2.1 = {
	holder = 1001377
}

263.2.1 = {
	holder = 1004132
}

266.2.1 = {
	holder = 1003429
}

287.2.1 = {
	holder = 1005456
}

294.2.1 = {
	holder = 1006506
}

316.2.1 = {
	holder = 1007259
}

323.2.1 = {
	holder = 1007034
}

360.2.1 = {
	holder = 1008419
}

389.2.1 = {
	holder = 1009675
}

394.2.1 = {
	holder = 1011157
}

396.2.1 = {
	holder = 1011158
}

402.2.1 = {
	holder = 1011268
}

408.2.1 = {
	holder = 1011889
}

410.2.1 = {
	holder = 1011504
}

435.2.1 = {
	holder = 1011737
}

470.2.1 = {
	holder = 1013531
}

503.2.1 = {
	holder = 1015756
}

544.2.1 = {
	holder = 1016730
}

562.2.1 = {
	holder = 1018900
}

603.2.1 = {
	holder = 1019734
}

629.2.1 = {
	holder = 1021624
}

677.2.1 = {
	holder = 1023986
}

719.2.1 = {
	holder = 1025142
}

722.2.1 = {
	holder = 1026257
}

750.2.1 = {
	holder = 1027354
}

782.2.1 = {
	holder = 1028731
}

786.2.1 = {
	holder = 1030221
}

790.2.1 = {
	holder = 1030133
}

797.2.1 = {
	holder = 1030504
}

817.2.1 = {
	holder = 1031354
}

864.2.1 = {
	holder = 1032320
}

886.2.1 = {
	holder = 1034343
}

903.2.1 = {
	holder = 1035055
}

941.2.1 = {
	holder = 1036382
}

955.2.1 = {
	holder = 1037802
}

962.2.1 = {
	liege = 0
}

962.2.2 = {
	holder = 1038538
}

979.2.1 = {
	holder = 1038960
}

986.2.1 = {
	holder = 1039744
}

1000.2.1 = {
	holder = 1039873
}

1001.2.1 = {
	holder = 1040476
}

1001.2.2 = {
	liege = k_rermolcu
}

1002.2.1 = {
	holder = 1040484
}

1050.2.1 = {
	holder = 1040853
}

