200.2.1 = {
	holder = 1001246
	law = succ_feudal_elective
	law = cognatic_succession
}

200.2.2 = {
	liege = k_lutoo
}

210.2.1 = {
	holder = 1001406
}

210.2.2 = {
	holder = 1002531
}

226.2.1 = {
	holder = 1002946
}

243.2.1 = {
	holder = 1003839
}

265.2.1 = {
	holder = 1004621
}

277.2.1 = {
	holder = 1004623
}

277.2.2 = {
	holder = 1001995
}

280.2.1 = {
	holder = 1004327
}

280.2.2 = {
	holder = 1005829
}

310.2.1 = {
	holder = 1005978
}

316.2.1 = {
	holder = 1007500
}

321.2.1 = {
	holder = 1006170
}

334.2.1 = {
	holder = 1008472
}

350.2.1 = {
	holder = 1008816
}

363.2.1 = {
	holder = 1009772
}

408.2.1 = {
	holder = 1010878
}

436.2.1 = {
	holder = 1012184
}

468.2.1 = {
	holder = 1014109
}

495.2.1 = {
	holder = 1015142
}

512.2.1 = {
	holder = 1016468
}

563.2.1 = {
	holder = 1017291
}

572.2.1 = {
	holder = 1017924
}

573.2.1 = {
	holder = 1018354
}

602.2.1 = {
	holder = 1020171
}

637.2.1 = {
	holder = 1021711
}

657.2.1 = {
	holder = 1023005
}

658.2.1 = {
	holder = 1024034
}

701.2.1 = {
	holder = 1024358
}

712.2.1 = {
	holder = 1026240
}

719.2.1 = {
	holder = 1025140
}

725.2.1 = {
	holder = 1027122
}

727.2.1 = {
	holder = 1025270
}

738.2.1 = {
	holder = 1026858
}

765.2.1 = {
	holder = 1027345
}

777.2.1 = {
	holder = 1028282
}

812.2.1 = {
	holder = 1029173
}

814.2.1 = {
	holder = 1031239
}

814.2.2 = {
	holder = 1031674
}

853.2.1 = {
	holder = 1031921
}

856.2.1 = {
	holder = 1032796
}

861.2.1 = {
	holder = 1032896
}

886.2.1 = {
	holder = 1034216
}

891.2.1 = {
	holder = 1035096
}

895.2.1 = {
	holder = 1033736
}

896.2.1 = {
	holder = 1035458
}

906.2.1 = {
	holder = 1035509
}

953.2.1 = {
	holder = 1036336
}

977.2.1 = {
	holder = 1038200
}

999.2.1 = {
	holder = 1039506
}

1031.2.1 = {
	holder = 1040463
}

1058.2.1 = {
	holder = 1042605
}

1063.2.1 = {
	holder = 1043330
}

