200.2.1 = {
	holder = 1000874
	law = succ_elective_gavelkind
	law = agnatic_succession
}

200.2.2 = {
	liege = k_sanuyasa
}

210.2.1 = {
	holder = 1002236
}

213.2.1 = {
	holder = 1003822
}

254.2.1 = {
	holder = 1004122
}

269.2.1 = {
	holder = 1007010
}

294.2.1 = {
	holder = 1006829
}

294.2.2 = {
	holder = 1009281
}

333.2.1 = {
	holder = 1009611
}

340.2.1 = {
	holder = 1012292
}

368.2.1 = {
	holder = 1013797
}

432.2.1 = {
	holder = 1014910
}

433.2.1 = {
	holder = 1014974
}

433.2.2 = {
	holder = 1018633
}

464.2.1 = {
	holder = 1018837
}

498.2.1 = {
	holder = 1021129
}

508.2.1 = {
	holder = 1023031
}

536.2.1 = {
	holder = 1024795
}

580.2.1 = {
	holder = 1025835
}

593.2.1 = {
	holder = 1028677
}

646.2.1 = {
	holder = 1030926
}

660.2.1 = {
	holder = 1033000
}

662.2.1 = {
	holder = 1033467
}

693.2.1 = {
	holder = 1034335
}

719.2.1 = {
	holder = 1035674
}

731.2.1 = {
	holder = 1036192
}

731.2.2 = {
	holder = 1037979
}

760.2.1 = {
	holder = 1039052
}

800.2.1 = {
	holder = 1040155
}

810.2.1 = {
	holder = 1042456
}

819.2.1 = {
	holder = 1040239
}

819.2.2 = {
	holder = 1043705
}

846.2.1 = {
	holder = 1043937
}

874.2.1 = {
	holder = 1045946
}

890.2.1 = {
	holder = 1047708
}

