200.2.1 = {
	holder = 1001104
	law = succ_elective_gavelkind
	law = agnatic_succession
}

200.2.2 = {
	liege = k_sedavulay
}

236.2.1 = {
	holder = 1002298
}

257.2.1 = {
	holder = 1005608
}

309.2.1 = {
	holder = 1007246
}

315.2.1 = {
	holder = 1010466
}

330.2.1 = {
	holder = 1011178
}

358.2.1 = {
	holder = 1011406
}

376.2.1 = {
	holder = 1013874
}

433.2.1 = {
	holder = 1015365
}

436.2.1 = {
	holder = 1018702
}

460.2.1 = {
	holder = 1019933
}

513.2.1 = {
	holder = 1021941
}

529.2.1 = {
	holder = 1024055
}

570.2.1 = {
	liege = k_barius
}

624.2.1 = {
	holder = 1030960
}

672.2.1 = {
	holder = 1031412
}

691.2.1 = {
	holder = 1033090
}

691.2.2 = {
	holder = 1035368
}

718.2.1 = {
	holder = 1035729
}

725.2.1 = {
	holder = 1036135
}

761.2.1 = {
	holder = 1037679
}

763.2.1 = {
	holder = 1040030
}

781.2.1 = {
	holder = 1037914
}

784.2.1 = {
	holder = 1041161
}

818.2.1 = {
	holder = 1042532
}

863.2.1 = {
	holder = 1043818
}

882.2.1 = {
	holder = 1047098
}

883.2.1 = {
	holder = 1047784
}

