200.2.1 = {
	holder = 1000251
	law = succ_seniority
	law = cognatic_succession
}

200.2.2 = {
	liege = k_qolelen
}

217.2.1 = {
	holder = 1003809
}

249.2.1 = {
	holder = 1005238
}

275.2.1 = {
	holder = 1007213
}

290.2.1 = {
	holder = 1007407
}

303.2.1 = {
	holder = 1007492
}

306.2.1 = {
	holder = 1009248
}

341.2.1 = {
	holder = 1011122
}

353.2.1 = {
	holder = 1012712
}

379.2.1 = {
	holder = 1013961
}

396.2.1 = {
	holder = 1015271
}

409.2.1 = {
	holder = 1016599
}

427.2.1 = {
	holder = 1016824
}

463.2.1 = {
	holder = 1018317
}

493.2.1 = {
	holder = 1020276
}

514.2.1 = {
	holder = 1022707
}

525.2.1 = {
	holder = 1024185
}

578.2.1 = {
	holder = 1027106
}

614.2.1 = {
	holder = 1029902
}

615.2.1 = {
	holder = 1030419
}

653.2.1 = {
	holder = 1030712
}

681.2.1 = {
	holder = 1033514
}

735.2.1 = {
	holder = 1034748
}

738.2.1 = {
	holder = 1036451
}

739.2.1 = {
	holder = 1034318
}

741.2.1 = {
	holder = 1036792
}

742.2.1 = {
	holder = 1038668
}

746.2.1 = {
	holder = 1038864
}

761.2.1 = {
	liege = 0
}

774.2.1 = {
	holder = 1040430
}

781.2.1 = {
	liege = k_napa
}

786.2.1 = {
	holder = 1041393
}

826.2.1 = {
	holder = 1042442
}

855.2.1 = {
	holder = 1044204
}

881.2.1 = {
	holder = 1046180
}

894.2.1 = {
	holder = 1047738
}

