200.2.1 = {
	holder = 1000256
	law = succ_seniority
	law = cognatic_succession
}

200.2.2 = {
	liege = k_napa
}

200.2.3 = {
	holder = 1001990
}

221.2.1 = {
	holder = 1003525
}

237.2.1 = {
	holder = 1002782
}

259.2.1 = {
	holder = 1004110
}

262.2.1 = {
	holder = 1005421
}

263.2.1 = {
	holder = 1007189
}

272.2.1 = {
	holder = 1007427
}

309.2.1 = {
	holder = 1010350
}

362.2.1 = {
	holder = 1010518
}

363.2.1 = {
	holder = 1011747
}

363.2.2 = {
	holder = 1011329
}

391.2.1 = {
	holder = 1015143
}

391.2.2 = {
	holder = 1015766
}

392.2.1 = {
	holder = 1015143
}

425.2.1 = {
	holder = 1017356
}

434.2.1 = {
	holder = 1018449
}

435.2.1 = {
	holder = 1016097
}

436.2.1 = {
	holder = 1018872
}

481.2.1 = {
	holder = 1019452
}

501.2.1 = {
	holder = 1020835
}

501.2.2 = {
	holder = 1023057
}

507.2.1 = {
	holder = 1020835
}

507.2.2 = {
	holder = 1023422
}

544.2.1 = {
	holder = 1023592
}

574.2.1 = {
	holder = 1026470
}

581.2.1 = {
	holder = 1027747
}

604.2.1 = {
	holder = 1026669
}

633.2.1 = {
	holder = 1028400
}

648.2.1 = {
	holder = 1031829
}

670.2.1 = {
	holder = 1032960
}

700.2.1 = {
	holder = 1034128
}

724.2.1 = {
	holder = 1036094
}

747.2.1 = {
	holder = 1039022
}

758.2.1 = {
	holder = 1039469
}

801.2.1 = {
	holder = 1040627
}

807.2.1 = {
	holder = 1042828
}

811.2.1 = {
	holder = 1041124
}

811.2.2 = {
	holder = 1043181
}

862.2.1 = {
	holder = 1043685
}

