200.2.1 = {
	holder = 1001345
	law = succ_open_elective
	law = agnatic_succession
}

200.2.2 = {
	liege = k_kazino
}

267.2.1 = {
	holder = 1005090
}

267.2.2 = {
	holder = 1007479
}

306.2.1 = {
	holder = 1008294
}

330.2.1 = {
	holder = 1010713
}

338.2.1 = {
	holder = 1012110
}

360.2.1 = {
	holder = 1012988
}

360.2.2 = {
	holder = 1013744
}

395.2.1 = {
	holder = 1015451
}

396.2.1 = {
	holder = 1016083
}

418.2.1 = {
	holder = 1017055
}

439.2.1 = {
	holder = 1018717
}

457.2.1 = {
	holder = 1016240
}

466.2.1 = {
	holder = 1019814
}

466.2.2 = {
	holder = 1020841
}

519.2.1 = {
	holder = 1021065
}

559.2.1 = {
	holder = 1024301
}

578.2.1 = {
	holder = 1026977
}

613.2.1 = {
	holder = 1028193
}

614.2.1 = {
	holder = 1030359
}

668.2.1 = {
	holder = 1031361
}

671.2.1 = {
	holder = 1032248
}

671.2.2 = {
	holder = 1034076
}

692.2.1 = {
	holder = 1034234
}

734.2.1 = {
	holder = 1036895
}

744.2.1 = {
	holder = 1038375
}

760.2.1 = {
	holder = 1039497
}

764.2.1 = {
	holder = 1037048
}

789.2.1 = {
	holder = 1040276
}

791.2.1 = {
	holder = 1041101
}

792.2.1 = {
	holder = 1041897
}

796.2.1 = {
	holder = 1041101
}

796.2.2 = {
	holder = 1042136
}

825.2.1 = {
	holder = 1042852
}

828.2.1 = {
	holder = 1042299
}

851.2.1 = {
	holder = 1043645
}

869.2.1 = {
	holder = 1046224
}

885.2.1 = {
	holder = 1047280
}

899.2.1 = {
	holder = 1048671
}

