200.2.1 = {
	holder = 1001365
	law = succ_primogeniture
	law = cognatic_succession
}

200.2.2 = {
	holder = 1001410
}

256.2.1 = {
	holder = 1004667
}

303.2.1 = {
	holder = 1006891
}

340.2.1 = {
	holder = 1008694
}

353.2.1 = {
	holder = 1009306
}

354.2.1 = {
	holder = 1009346
}

365.2.1 = {
	holder = 1009844
}

394.2.1 = {
	holder = 1011311
}

408.2.1 = {
	holder = 1012042
}

438.2.1 = {
	holder = 1013445
}

487.2.1 = {
	holder = 1015809
}

523.2.1 = {
	holder = 1017557
}

540.2.1 = {
	holder = 1018420
}

585.2.1 = {
	holder = 1020572
}

604.2.1 = {
	holder = 1021454
}

645.2.1 = {
	holder = 1023428
}

654.2.1 = {
	holder = 1023804
}

709.2.1 = {
	holder = 1026477
}

737.2.1 = {
	holder = 1027790
}

752.2.1 = {
	holder = 1028520
}

814.2.1 = {
	holder = 1031642
}

829.2.1 = {
	holder = 1032332
}

850.2.1 = {
	holder = 1033326
}

854.2.1 = {
	holder = 1033511
}

876.2.1 = {
	holder = 1034523
}

894.2.1 = {
	holder = 1035351
}

925.2.1 = {
	holder = 1036800
}

926.2.1 = {
	holder = 1036844
}

972.2.1 = {
	holder = 1039014
}

989.2.1 = {
	holder = 1039818
}

1006.2.1 = {
	holder = 1040683
}

1027.2.1 = {
	holder = 1041678
}

1036.2.1 = {
	holder = 1042152
}

1053.2.1 = {
	holder = 1042950
}

1054.2.1 = {
	holder = 1043004
}

1065.2.1 = {
	holder = 1043512
}

