200.2.1 = {
	holder = 1000916
	law = succ_open_elective
	law = cognatic_succession
}

200.2.2 = {
	liege = k_bameir
}

237.2.1 = {
	holder = 1002195
}

274.2.1 = {
	holder = 1004138
}

276.2.1 = {
	holder = 1005627
}

297.2.1 = {
	holder = 1005761
}

337.2.1 = {
	holder = 1006759
}

370.2.1 = {
	holder = 1008854
}

400.2.1 = {
	holder = 1011199
}

411.2.1 = {
	holder = 1010424
}

411.2.2 = {
	holder = 1012228
}

463.2.1 = {
	holder = 1012328
}

489.2.1 = {
	holder = 1014421
}

498.2.1 = {
	holder = 1015128
}

504.2.1 = {
	holder = 1016581
}

507.2.1 = {
	holder = 1015226
}

510.2.1 = {
	holder = 1014619
}

517.2.1 = {
	holder = 1016819
}

526.2.1 = {
	holder = 1017535
}

550.2.1 = {
	holder = 1018933
}

562.2.1 = {
	holder = 1019133
}

620.2.1 = {
	holder = 1019960
}

626.2.1 = {
	holder = 1020288
}

626.2.2 = {
	holder = 1022520
}

631.2.1 = {
	holder = 1021476
}

631.2.2 = {
	holder = 1022761
}

640.2.1 = {
	holder = 1023225
}

676.2.1 = {
	holder = 1023270
}

677.2.1 = {
	holder = 1023092
}

685.2.1 = {
	holder = 1025318
}

692.2.1 = {
	holder = 1025374
}

742.2.1 = {
	holder = 1026329
}

767.2.1 = {
	holder = 1028173
}

786.2.1 = {
	holder = 1030242
}

795.2.1 = {
	holder = 1030382
}

820.2.1 = {
	holder = 1031961
}

825.2.1 = {
	holder = 1032186
}

875.2.1 = {
	holder = 1032635
}

897.2.1 = {
	holder = 1034820
}

899.2.1 = {
	holder = 1034162
}

899.2.2 = {
	holder = 1035604
}

939.2.1 = {
	holder = 1035678
}

963.2.1 = {
	holder = 1037610
}

1003.2.1 = {
	holder = 1039040
}

1014.2.1 = {
	holder = 1041100
}

1024.2.1 = {
	holder = 1041304
}

