200.2.1 = {
	holder = 1001706
	law = succ_elective_gavelkind
	law = cognatic_succession
}

200.2.2 = {
	liege = k_sosija
}

236.2.1 = {
	holder = 1003122
}

242.2.1 = {
	holder = 1003516
}

244.2.1 = {
	holder = 1003125
}

244.2.2 = {
	holder = 1005832
}

262.2.1 = {
	holder = 1007103
}

269.2.1 = {
	holder = 1006786
}

269.2.2 = {
	holder = 1007608
}

314.2.1 = {
	holder = 1007972
}

330.2.1 = {
	holder = 1010936
}

379.2.1 = {
	holder = 1014362
}

394.2.1 = {
	holder = 1015440
}

416.2.1 = {
	holder = 1016520
}

422.2.1 = {
	holder = 1017893
}

426.2.1 = {
	holder = 1016021
}

426.2.2 = {
	holder = 1018173
}

438.2.1 = {
	holder = 1018237
}

463.2.1 = {
	holder = 1019615
}

488.2.1 = {
	holder = 1021016
}

532.2.1 = {
	holder = 1022349
}

555.2.1 = {
	holder = 1025053
}

565.2.1 = {
	holder = 1026056
}

567.2.1 = {
	holder = 1025384
}

573.2.1 = {
	holder = 1026525
}

594.2.1 = {
	holder = 1027725
}

616.2.1 = {
	holder = 1028825
}

646.2.1 = {
	holder = 1031698
}

655.2.1 = {
	holder = 1030284
}

666.2.1 = {
	holder = 1032491
}

686.2.1 = {
	holder = 1033736
}

692.2.1 = {
	holder = 1033071
}

802.2.1 = {
	holder = 1039073
}

802.2.2 = {
	holder = 1042545
}

809.2.1 = {
	holder = 1042868
}

817.2.1 = {
	holder = 1040606
}

830.2.1 = {
	holder = 1041822
}

854.2.1 = {
	holder = 1042121
}

861.2.1 = {
	holder = 1044355
}

882.2.1 = {
	holder = 1046914
}

