200.2.1 = {
	holder = 1000802
	law = succ_primogeniture
	law = agnatic_succession
}

200.2.2 = {
	liege = k_seltet
}

201.2.1 = {
	holder = 1001399
}

201.2.2 = {
	holder = 1001907
}

205.2.1 = {
	holder = 1002034
}

240.2.1 = {
	holder = 1003135
}

263.2.1 = {
	holder = 1004519
}

315.2.1 = {
	holder = 1005392
}

331.2.1 = {
	holder = 1007790
}

338.2.1 = {
	holder = 1008613
}

357.2.1 = {
	holder = 1007844
}

358.2.1 = {
	holder = 1009541
}

396.2.1 = {
	holder = 1009585
}

409.2.1 = {
	holder = 1011039
}

410.2.1 = {
	holder = 1011289
}

453.2.1 = {
	holder = 1012325
}

458.2.1 = {
	holder = 1014446
}

498.2.1 = {
	holder = 1015969
}

508.2.1 = {
	holder = 1015126
}

514.2.1 = {
	holder = 1016714
}

540.2.1 = {
	holder = 1015305
}

545.2.1 = {
	holder = 1016126
}

546.2.1 = {
	holder = 1018749
}

563.2.1 = {
	holder = 1018880
}

584.2.1 = {
	holder = 1020568
}

613.2.1 = {
	holder = 1020695
}

648.2.1 = {
	holder = 1022918
}

653.2.1 = {
	holder = 1023086
}

659.2.1 = {
	holder = 1022119
}

670.2.1 = {
	holder = 1022920
}

690.2.1 = {
	holder = 1025258
}

712.2.1 = {
	holder = 1026661
}

749.2.1 = {
	holder = 1026911
}

783.2.1 = {
	holder = 1028459
}

789.2.1 = {
	holder = 1030372
}

815.2.1 = {
	holder = 1028923
}

815.2.2 = {
	holder = 1031739
}

862.2.1 = {
	holder = 1032450
}

887.2.1 = {
	holder = 1034006
}

899.2.1 = {
	holder = 1035323
}

926.2.1 = {
	holder = 1036098
}

940.2.1 = {
	holder = 1037097
}

973.2.1 = {
	holder = 1037946
}

977.2.1 = {
	liege = e_anso
}

983.2.1 = {
	holder = 1039326
}

1005.2.1 = {
	holder = 1040120
}

1036.2.1 = {
	holder = 1040810
}

1037.2.1 = {
	holder = 1042250
}

1037.2.2 = {
	liege = k_sosyata
}

1053.2.1 = {
	holder = 1042284
}

