200.2.1 = {
	holder = 1001750
	law = succ_primogeniture
	law = cognatic_succession
}

200.2.2 = {
	liege = k_sosija
}

221.2.1 = {
	holder = 1004069
}

222.2.1 = {
	holder = 1002461
}

223.2.1 = {
	holder = 1004462
}

262.2.1 = {
	holder = 1004464
}

278.2.1 = {
	holder = 1007179
}

332.2.1 = {
	holder = 1009358
}

334.2.1 = {
	holder = 1009574
}

341.2.1 = {
	holder = 1012480
}

382.2.1 = {
	holder = 1012906
}

394.2.1 = {
	holder = 1015648
}

401.2.1 = {
	holder = 1015955
}

405.2.1 = {
	holder = 1014755
}

426.2.1 = {
	holder = 1017153
}

429.2.1 = {
	holder = 1018377
}

461.2.1 = {
	holder = 1018674
}

474.2.1 = {
	holder = 1020507
}

505.2.1 = {
	holder = 1020701
}

508.2.1 = {
	holder = 1021534
}

532.2.1 = {
	holder = 1025053
}

565.2.1 = {
	holder = 1026056
}

567.2.1 = {
	holder = 1025384
}

568.2.1 = {
	holder = 1027364
}

604.2.1 = {
	holder = 1026401
}

607.2.1 = {
	holder = 1028647
}

643.2.1 = {
	holder = 1031056
}

697.2.1 = {
	holder = 1032380
}

699.2.1 = {
	holder = 1035887
}

734.2.1 = {
	holder = 1036623
}

759.2.1 = {
	holder = 1039770
}

789.2.1 = {
	holder = 1039771
}

798.2.1 = {
	holder = 1041057
}

800.2.1 = {
	holder = 1040606
}

801.2.1 = {
	holder = 1042481
}

807.2.1 = {
	holder = 1039309
}

811.2.1 = {
	holder = 1042122
}

834.2.1 = {
	holder = 1043394
}

869.2.1 = {
	holder = 1044760
}

889.2.1 = {
	holder = 1047267
}

893.2.1 = {
	holder = 1048393
}

