200.2.1 = {
	holder = 1000227
	law = succ_seniority
	law = cognatic_succession
}

200.2.2 = {
	liege = k_reya
}

235.2.1 = {
	holder = 1001992
}

237.2.1 = {
	holder = 1003937
}

239.2.1 = {
	holder = 1002105
}

245.2.1 = {
	holder = 1004927
}

251.2.1 = {
	holder = 1005215
}

276.2.1 = {
	holder = 1005794
}

295.2.1 = {
	holder = 1006678
}

310.2.1 = {
	holder = 1009324
}

324.2.1 = {
	holder = 1010883
}

342.2.1 = {
	holder = 1009735
}

359.2.1 = {
	holder = 1012737
}

370.2.1 = {
	holder = 1014041
}

380.2.1 = {
	holder = 1013764
}

380.2.2 = {
	holder = 1015070
}

402.2.1 = {
	holder = 1015216
}

405.2.1 = {
	holder = 1016675
}

445.2.1 = {
	holder = 1018200
}

455.2.1 = {
	holder = 1019643
}

500.2.1 = {
	holder = 1020980
}

516.2.1 = {
	holder = 1020651
}

516.2.2 = {
	holder = 1020670
}

518.2.1 = {
	holder = 1021083
}

518.2.2 = {
	holder = 1024119
}

539.2.1 = {
	holder = 1024200
}

572.2.1 = {
	holder = 1025611
}

595.2.1 = {
	holder = 1027746
}

605.2.1 = {
	holder = 1025487
}

605.2.2 = {
	holder = 1029722
}

625.2.1 = {
	holder = 1030903
}

635.2.1 = {
	holder = 1029717
}

642.2.1 = {
	holder = 1030182
}

655.2.1 = {
	holder = 1032262
}

683.2.1 = {
	holder = 1034810
}

721.2.1 = {
	holder = 1034865
}

752.2.1 = {
	holder = 1037659
}

798.2.1 = {
	holder = 1039522
}

809.2.1 = {
	holder = 1042990
}

839.2.1 = {
	holder = 1043744
}

853.2.1 = {
	holder = 1045594
}

862.2.1 = {
	holder = 1044373
}

862.2.2 = {
	holder = 1046464
}

884.2.1 = {
	holder = 1046516
}

