200.2.1 = {
	holder = 1000367
	law = succ_gavelkind
	law = cognatic_succession
}

200.2.2 = {
	liege = k_tegilia
}

235.2.1 = {
	holder = 1002097
}

274.2.1 = {
	holder = 1003757
}

301.2.1 = {
	holder = 1005791
}

319.2.1 = {
	holder = 1007084
}

321.2.1 = {
	holder = 1007759
}

383.2.1 = {
	holder = 1008586
}

402.2.1 = {
	holder = 1010838
}

461.2.1 = {
	holder = 1012147
}

466.2.1 = {
	holder = 1014793
}

481.2.1 = {
	holder = 1015557
}

525.2.1 = {
	holder = 1016312
}

547.2.1 = {
	holder = 1018797
}

566.2.1 = {
	holder = 1019689
}

570.2.1 = {
	holder = 1019879
}

591.2.1 = {
	holder = 1020565
}

635.2.1 = {
	holder = 1021450
}

655.2.1 = {
	holder = 1023894
}

672.2.1 = {
	holder = 1024148
}

732.2.1 = {
	holder = 1025042
}

740.2.1 = {
	holder = 1026841
}

768.2.1 = {
	holder = 1029035
}

775.2.1 = {
	holder = 1029247
}

818.2.1 = {
	holder = 1028653
}

835.2.1 = {
	holder = 1032613
}

873.2.1 = {
	holder = 1032868
}

901.2.1 = {
	holder = 1034809
}

933.2.1 = {
	holder = 1037189
}

972.2.1 = {
	holder = 1039029
}

1010.2.1 = {
	holder = 1040880
}

1049.2.1 = {
	holder = 1041063
}

1065.2.1 = {
	holder = 1042960
}

