200.2.1 = {
	holder = 1001121
	law = succ_primogeniture
	law = cognatic_succession
}

200.2.2 = {
	liege = k_elelenna
}

231.2.1 = {
	holder = 1002135
}

247.2.1 = {
	holder = 1004022
}

297.2.1 = {
	holder = 1006238
}

328.2.1 = {
	holder = 1007248
}

340.2.1 = {
	liege = 0
}

340.2.2 = {
	liege = k_tosatpal
}

357.2.1 = {
	holder = 1008316
}

367.2.1 = {
	holder = 1007863
}

371.2.1 = {
	holder = 1008724
}

393.2.1 = {
	holder = 1010247
}

427.2.1 = {
	holder = 1011357
}

432.2.1 = {
	holder = 1013098
}

441.2.1 = {
	holder = 1011923
}

442.2.1 = {
	holder = 1013678
}

463.2.1 = {
	holder = 1013995
}

502.2.1 = {
	holder = 1014736
}

515.2.1 = {
	holder = 1016922
}

543.2.1 = {
	holder = 1017878
}

592.2.1 = {
	holder = 1019432
}

614.2.1 = {
	holder = 1021168
}

669.2.1 = {
	holder = 1022004
}

675.2.1 = {
	holder = 1022333
}

678.2.1 = {
	holder = 1023887
}

678.2.2 = {
	holder = 1024974
}

680.2.1 = {
	holder = 1023668
}

749.2.1 = {
	holder = 1024681
}

755.2.1 = {
	holder = 1028511
}

802.2.1 = {
	holder = 1029728
}

838.2.1 = {
	holder = 1031185
}

864.2.1 = {
	holder = 1033695
}

876.2.1 = {
	holder = 1034421
}

890.2.1 = {
	holder = 1033590
}

890.2.2 = {
	holder = 1035201
}

894.2.1 = {
	holder = 1035328
}

927.2.1 = {
	holder = 1036282
}

930.2.1 = {
	holder = 1035612
}

930.2.2 = {
	holder = 1037065
}

962.2.1 = {
	holder = 1038452
}

962.2.2 = {
	holder = 1038578
}

964.2.1 = {
	holder = 1037073
}

968.2.1 = {
	holder = 1037914
}

1000.2.1 = {
	holder = 1038915
}

1015.2.1 = {
	holder = 1040719
}

1033.2.1 = {
	holder = 1042043
}

