200.2.1 = {
	holder = 1001256
	law = succ_feudal_elective
	law = cognatic_succession
}

200.2.2 = {
	liege = k_lutoo
}

201.2.1 = {
	holder = 1001718
}

217.2.1 = {
	holder = 1002849
}

261.2.1 = {
	holder = 1003590
}

276.2.1 = {
	holder = 1005092
}

296.2.1 = {
	holder = 1005979
}

308.2.1 = {
	holder = 1006724
}

363.2.1 = {
	holder = 1007502
}

372.2.1 = {
	holder = 1010052
}

376.2.1 = {
	holder = 1010051
}

377.2.1 = {
	holder = 1008636
}

380.2.1 = {
	holder = 1010635
}

402.2.1 = {
	holder = 1011023
}

419.2.1 = {
	holder = 1012074
}

474.2.1 = {
	holder = 1013062
}

476.2.1 = {
	holder = 1014594
}

477.2.1 = {
	holder = 1015349
}

486.2.1 = {
	liege = k_relicco
}

515.2.1 = {
	holder = 1016170
}

515.2.2 = {
	holder = 1017212
}

518.2.1 = {
	holder = 1017248
}

532.2.1 = {
	holder = 1016170
}

532.2.2 = {
	holder = 1016078
}

563.2.1 = {
	holder = 1016170
}

563.2.2 = {
	holder = 1019555
}

567.2.1 = {
	holder = 1019636
}

587.2.1 = {
	holder = 1018041
}

587.2.2 = {
	holder = 1020714
}

599.2.1 = {
	holder = 1020995
}

624.2.1 = {
	holder = 1021967
}

633.2.1 = {
	holder = 1022735
}

654.2.1 = {
	holder = 1023841
}

718.2.1 = {
	holder = 1025139
}

737.2.1 = {
	holder = 1027174
}

774.2.1 = {
	holder = 1028474
}

830.2.1 = {
	holder = 1029688
}

830.2.2 = {
	holder = 1029485
}

839.2.1 = {
	holder = 1032598
}

854.2.1 = {
	holder = 1033409
}

867.2.1 = {
	holder = 1034172
}

921.2.1 = {
	holder = 1035003
}

939.2.1 = {
	holder = 1037070
}

945.2.1 = {
	holder = 1035384
}

945.2.2 = {
	holder = 1037806
}

984.2.1 = {
	holder = 1037992
}

1005.2.1 = {
	holder = 1039774
}

1056.2.1 = {
	holder = 1041091
}

