200.2.1 = {
	holder = 1001028
	law = succ_feudal_elective
	law = cognatic_succession
}

200.2.2 = {
	liege = k_bameir
}

245.2.1 = {
	holder = 1001665
}

251.2.1 = {
	holder = 1002195
}

274.2.1 = {
	holder = 1004138
}

301.2.1 = {
	holder = 1006085
}

314.2.1 = {
	holder = 1006886
}

342.2.1 = {
	holder = 1008733
}

378.2.1 = {
	holder = 1009480
}

408.2.1 = {
	holder = 1010740
}

435.2.1 = {
	holder = 1012705
}

456.2.1 = {
	holder = 1014266
}

500.2.1 = {
	holder = 1014951
}

540.2.1 = {
	holder = 1016986
}

564.2.1 = {
	holder = 1019275
}

571.2.1 = {
	holder = 1018934
}

580.2.1 = {
	holder = 1019424
}

611.2.1 = {
	holder = 1021824
}

612.2.1 = {
	holder = 1019337
}

613.2.1 = {
	holder = 1021925
}

617.2.1 = {
	holder = 1019337
}

617.2.2 = {
	holder = 1022120
}

640.2.1 = {
	holder = 1022430
}

655.2.1 = {
	holder = 1022896
}

669.2.1 = {
	holder = 1023092
}

678.2.1 = {
	holder = 1021616
}

690.2.1 = {
	holder = 1025081
}

708.2.1 = {
	holder = 1026004
}

731.2.1 = {
	holder = 1025374
}

736.2.1 = {
	holder = 1027766
}

767.2.1 = {
	holder = 1027863
}

789.2.1 = {
	holder = 1029569
}

823.2.1 = {
	holder = 1031012
}

854.2.1 = {
	holder = 1032274
}

864.2.1 = {
	holder = 1033685
}

926.2.1 = {
	holder = 1034598
}

940.2.1 = {
	holder = 1037060
}

960.2.1 = {
	holder = 1037828
}

998.2.1 = {
	holder = 1038571
}

1023.2.1 = {
	holder = 1040750
}

1061.2.1 = {
	holder = 1041842
}

1063.2.1 = {
	holder = 1043429
}

