200.2.1 = {
	holder = 1001742
	law = succ_elective_gavelkind
	law = cognatic_succession
}

200.2.2 = {
	liege = k_sosija
}

203.2.1 = {
	holder = 1002034
}

236.2.1 = {
	holder = 1003151
}

259.2.1 = {
	holder = 1005501
}

293.2.1 = {
	holder = 1003929
}

296.2.1 = {
	holder = 1005136
}

305.2.1 = {
	holder = 1009430
}

328.2.1 = {
	holder = 1011183
}

368.2.1 = {
	holder = 1014309
}

405.2.1 = {
	holder = 1015319
}

410.2.1 = {
	holder = 1014409
}

410.2.2 = {
	holder = 1017063
}

462.2.1 = {
	holder = 1017278
}

477.2.1 = {
	holder = 1021284
}

485.2.1 = {
	holder = 1020507
}

485.2.2 = {
	holder = 1022048
}

502.2.1 = {
	holder = 1020700
}

509.2.1 = {
	holder = 1022165
}

527.2.1 = {
	holder = 1022636
}

536.2.1 = {
	holder = 1023939
}

547.2.1 = {
	holder = 1025199
}

569.2.1 = {
	holder = 1026401
}

605.2.1 = {
	holder = 1029750
}

651.2.1 = {
	holder = 1030155
}

673.2.1 = {
	holder = 1032957
}

701.2.1 = {
	holder = 1034433
}

716.2.1 = {
	holder = 1036216
}

768.2.1 = {
	holder = 1037929
}

771.2.1 = {
	holder = 1040606
}

830.2.1 = {
	holder = 1041822
}

861.2.1 = {
	holder = 1044831
}

880.2.1 = {
	holder = 1046556
}

