200.2.1 = {
	holder = 1000426
	law = succ_seniority
	law = cognatic_succession
}

200.2.2 = {
	liege = k_qegomapur
}

223.2.1 = {
	holder = 1002934
}

238.2.1 = {
	holder = 1004563
}

265.2.1 = {
	holder = 1005795
}

288.2.1 = {
	holder = 1007500
}

289.2.1 = {
	liege = k_ebezete
}

330.2.1 = {
	holder = 1009389
}

372.2.1 = {
	holder = 1012598
}

395.2.1 = {
	holder = 1015414
}

443.2.1 = {
	holder = 1018488
}

446.2.1 = {
	holder = 1016222
}

450.2.1 = {
	holder = 1017447
}

450.2.2 = {
	holder = 1019751
}

501.2.1 = {
	holder = 1021238
}

531.2.1 = {
	holder = 1023720
}

551.2.1 = {
	holder = 1025355
}

569.2.1 = {
	holder = 1026950
}

581.2.1 = {
	holder = 1027755
}

614.2.1 = {
	holder = 1030320
}

635.2.1 = {
	holder = 1030528
}

673.2.1 = {
	holder = 1032133
}

713.2.1 = {
	holder = 1035529
}

734.2.1 = {
	holder = 1037662
}

740.2.1 = {
	holder = 1037123
}

742.2.1 = {
	holder = 1038498
}

747.2.1 = {
	holder = 1038146
}

750.2.1 = {
	holder = 1037794
}

750.2.2 = {
	holder = 1039149
}

764.2.1 = {
	holder = 1039153
}

766.2.1 = {
	holder = 1038017
}

795.2.1 = {
	holder = 1039881
}

802.2.1 = {
	holder = 1041786
}

802.2.2 = {
	holder = 1042515
}

838.2.1 = {
	holder = 1043353
}

881.2.1 = {
	holder = 1045877
}

