200.2.1 = {
	holder = 1000124
	law = succ_tanistry
	law = agnatic_succession
}

200.2.2 = {
	liege = k_tarjkaz
}

200.2.3 = {
	holder = 1001988
}

219.2.1 = {
	holder = 1003244
}

253.2.1 = {
	holder = 1006492
}

271.2.1 = {
	holder = 1006513
}

310.2.1 = {
	holder = 1008703
}

334.2.1 = {
	holder = 1011118
}

342.2.1 = {
	holder = 1010240
}

342.2.2 = {
	holder = 1012503
}

388.2.1 = {
	holder = 1012579
}

395.2.1 = {
	holder = 1015658
}

434.2.1 = {
	holder = 1016965
}

462.2.1 = {
	holder = 1018960
}

479.2.1 = {
	holder = 1021303
}

484.2.1 = {
	holder = 1018961
}

484.2.2 = {
	holder = 1021918
}

502.2.1 = {
	holder = 1021982
}

535.2.1 = {
	holder = 1023381
}

557.2.1 = {
	holder = 1025677
}

580.2.1 = {
	holder = 1025941
}

597.2.1 = {
	holder = 1027171
}

633.2.1 = {
	holder = 1030834
}

647.2.1 = {
	holder = 1031714
}

647.2.2 = {
	holder = 1032462
}

664.2.1 = {
	holder = 1033580
}

676.2.1 = {
	holder = 1034377
}

688.2.1 = {
	holder = 1034805
}

699.2.1 = {
	holder = 1033031
}

699.2.2 = {
	holder = 1035842
}

711.2.1 = {
	holder = 1034969
}

733.2.1 = {
	holder = 1038120
}

779.2.1 = {
	holder = 1038925
}

792.2.1 = {
	holder = 1041323
}

803.2.1 = {
	holder = 1042435
}

811.2.1 = {
	holder = 1043062
}

811.2.2 = {
	holder = 1043135
}

854.2.1 = {
	holder = 1044123
}

891.2.1 = {
	holder = 1046511
}

