200.2.1 = {
	holder = 1001232
	law = succ_feudal_elective
	law = cognatic_succession
}

200.2.2 = {
	liege = k_lutoo
}

237.2.1 = {
	holder = 1002624
}

267.2.1 = {
	holder = 1004323
}

284.2.1 = {
	holder = 1005820
}

293.2.1 = {
	holder = 1004842
}

311.2.1 = {
	holder = 1005930
}

324.2.1 = {
	holder = 1007708
}

325.2.1 = {
	holder = 1005278
}

334.2.1 = {
	holder = 1008021
}

339.2.1 = {
	holder = 1007669
}

364.2.1 = {
	holder = 1009822
}

376.2.1 = {
	holder = 1009993
}

377.2.1 = {
	holder = 1010051
}

378.2.1 = {
	holder = 1010536
}

381.2.1 = {
	holder = 1010682
}

396.2.1 = {
	holder = 1010051
}

397.2.1 = {
	holder = 1011487
}

410.2.1 = {
	holder = 1011495
}

416.2.1 = {
	holder = 1011450
}

416.2.2 = {
	holder = 1012487
}

418.2.1 = {
	holder = 1010144
}

436.2.1 = {
	holder = 1011017
}

440.2.1 = {
	holder = 1010586
}

449.2.1 = {
	holder = 1013739
}

451.2.1 = {
	holder = 1014107
}

453.2.1 = {
	holder = 1014252
}

458.2.1 = {
	holder = 1014456
}

484.2.1 = {
	holder = 1014458
}

489.2.1 = {
	holder = 1015549
}

498.2.1 = {
	holder = 1014993
}

498.2.2 = {
	holder = 1016354
}

537.2.1 = {
	holder = 1018144
}

541.2.1 = {
	holder = 1018512
}

583.2.1 = {
	holder = 1018894
}

607.2.1 = {
	holder = 1020747
}

622.2.1 = {
	holder = 1021758
}

628.2.1 = {
	holder = 1022579
}

634.2.1 = {
	holder = 1021524
}

641.2.1 = {
	holder = 1023098
}

650.2.1 = {
	holder = 1020897
}

651.2.1 = {
	holder = 1023701
}

671.2.1 = {
	holder = 1024084
}

675.2.1 = {
	holder = 1024318
}

705.2.1 = {
	holder = 1025270
}

721.2.1 = {
	holder = 1027119
}

738.2.1 = {
	holder = 1027868
}

759.2.1 = {
	holder = 1028282
}

776.2.1 = {
	holder = 1029789
}

796.2.1 = {
	holder = 1029843
}

837.2.1 = {
	holder = 1030904
}

844.2.1 = {
	holder = 1031625
}

844.2.2 = {
	holder = 1033085
}

888.2.1 = {
	holder = 1034253
}

900.2.1 = {
	holder = 1035198
}

953.2.1 = {
	holder = 1036609
}

959.2.1 = {
	holder = 1038449
}

974.2.1 = {
	holder = 1037265
}

1029.2.1 = {
	holder = 1037623
}

1029.2.2 = {
	holder = 1041858
}

1044.2.1 = {
	holder = 1042133
}

