200.2.1 = {
	holder = 1000327
	law = succ_tanistry
	law = cognatic_succession
}

200.2.2 = {
	liege = k_kabeksen
}

250.2.1 = {
	holder = 1003612
}

261.2.1 = {
	holder = 1002624
}

264.2.1 = {
	holder = 1004314
}

283.2.1 = {
	holder = 1007857
}

300.2.1 = {
	holder = 1009738
}

355.2.1 = {
	holder = 1009845
}

368.2.1 = {
	holder = 1013766
}

369.2.1 = {
	holder = 1014369
}

407.2.1 = {
	holder = 1014419
}

434.2.1 = {
	holder = 1017210
}

464.2.1 = {
	holder = 1020709
}

474.2.1 = {
	holder = 1021345
}

483.2.1 = {
	holder = 1021507
}

484.2.1 = {
	holder = 1020709
}

484.2.2 = {
	holder = 1021973
}

503.2.1 = {
	holder = 1022433
}

521.2.1 = {
	holder = 1023660
}

559.2.1 = {
	holder = 1025225
}

566.2.1 = {
	holder = 1027014
}

574.2.1 = {
	holder = 1026237
}

574.2.2 = {
	holder = 1027730
}

585.2.1 = {
	holder = 1027949
}

630.2.1 = {
	holder = 1029273
}

642.2.1 = {
	holder = 1031656
}

676.2.1 = {
	holder = 1032977
}

693.2.1 = {
	holder = 1035048
}

731.2.1 = {
	holder = 1036586
}

735.2.1 = {
	holder = 1038218
}

760.2.1 = {
	holder = 1039338
}

793.2.1 = {
	holder = 1040978
}

797.2.1 = {
	holder = 1042022
}

804.2.1 = {
	holder = 1039314
}

811.2.1 = {
	holder = 1043183
}

852.2.1 = {
	holder = 1043422
}

886.2.1 = {
	holder = 1045876
}

