200.2.1 = {
	holder = 1001558
	law = succ_ultimogeniture
	law = cognatic_succession
}

200.2.2 = {
	liege = k_eliutt
}

222.2.1 = {
	holder = 1002994
}

253.2.1 = {
	holder = 1004657
}

256.2.1 = {
	holder = 1006627
}

348.2.1 = {
	holder = 1009294
}

357.2.1 = {
	holder = 1011665
}

358.2.1 = {
	holder = 1013598
}

386.2.1 = {
	holder = 1013951
}

401.2.1 = {
	holder = 1015568
}

442.2.1 = {
	holder = 1018507
}

487.2.1 = {
	holder = 1021012
}

489.2.1 = {
	holder = 1022231
}

501.2.1 = {
	holder = 1022689
}

516.2.1 = {
	holder = 1019484
}

518.2.1 = {
	holder = 1021008
}

519.2.1 = {
	holder = 1024168
}

548.2.1 = {
	holder = 1025850
}

576.2.1 = {
	holder = 1027516
}

609.2.1 = {
	holder = 1028583
}

614.2.1 = {
	holder = 1030151
}

665.2.1 = {
	holder = 1031472
}

687.2.1 = {
	holder = 1033792
}

726.2.1 = {
	holder = 1035345
}

746.2.1 = {
	holder = 1038379
}

813.2.1 = {
	holder = 1039902
}

822.2.1 = {
	holder = 1043238
}

881.2.1 = {
	holder = 1044290
}

883.2.1 = {
	holder = 1047761
}

