200.2.1 = {
	holder = 1000292
	law = succ_primogeniture
	law = cognatic_succession
}

200.2.2 = {
	liege = k_waink
}

209.2.1 = {
	holder = 1002007
}

211.2.1 = {
	holder = 1000306
}

231.2.1 = {
	holder = 1002600
}

263.2.1 = {
	holder = 1003651
}

296.2.1 = {
	holder = 1005381
}

324.2.1 = {
	holder = 1006620
}

354.2.1 = {
	holder = 1008477
}

377.2.1 = {
	holder = 1009432
}

417.2.1 = {
	holder = 1010545
}

420.2.1 = {
	holder = 1012658
}

492.2.1 = {
	holder = 1014305
}

510.2.1 = {
	holder = 1015111
}

524.2.1 = {
	holder = 1017047
}

532.2.1 = {
	holder = 1017702
}

533.2.1 = {
	holder = 1018098
}

571.2.1 = {
	holder = 1019569
}

577.2.1 = {
	holder = 1019246
}

577.2.2 = {
	holder = 1020186
}

594.2.1 = {
	holder = 1020225
}

635.2.1 = {
	holder = 1021106
}

643.2.1 = {
	holder = 1023201
}

659.2.1 = {
	holder = 1024003
}

692.2.1 = {
	holder = 1025000
}

693.2.1 = {
	holder = 1023385
}

698.2.1 = {
	holder = 1024501
}

710.2.1 = {
	holder = 1026152
}

721.2.1 = {
	holder = 1025549
}

721.2.2 = {
	holder = 1027087
}

763.2.1 = {
	holder = 1028039
}

795.2.1 = {
	holder = 1029304
}

847.2.1 = {
	holder = 1030693
}

853.2.1 = {
	holder = 1033335
}

855.2.1 = {
	holder = 1031861
}

859.2.1 = {
	holder = 1033746
}

863.2.1 = {
	holder = 1031423
}

867.2.1 = {
	holder = 1033470
}

873.2.1 = {
	holder = 1034399
}

917.2.1 = {
	holder = 1035392
}

944.2.1 = {
	holder = 1036678
}

956.2.1 = {
	holder = 1037974
}

1008.2.1 = {
	holder = 1039028
}

1023.2.1 = {
	holder = 1040871
}

1029.2.1 = {
	holder = 1039925
}

1044.2.1 = {
	holder = 1042544
}

