200.2.1 = {
	holder = 1000716
	law = succ_elective_gavelkind
	law = agnatic_succession
}

200.2.2 = {
	liege = k_tonund
}

218.2.1 = {
	holder = 1002653
}

235.2.1 = {
	holder = 1002659
}

256.2.1 = {
	holder = 1004573
}

261.2.1 = {
	holder = 1006940
}

319.2.1 = {
	holder = 1008345
}

341.2.1 = {
	holder = 1011339
}

348.2.1 = {
	holder = 1012524
}

349.2.1 = {
	holder = 1012655
}

367.2.1 = {
	holder = 1012011
}

382.2.1 = {
	holder = 1012041
}

387.2.1 = {
	holder = 1015476
}

392.2.1 = {
	holder = 1012022
}

398.2.1 = {
	holder = 1013280
}

400.2.1 = {
	holder = 1016161
}

401.2.1 = {
	holder = 1016398
}

415.2.1 = {
	holder = 1016229
}

418.2.1 = {
	holder = 1016161
}

419.2.1 = {
	holder = 1017648
}

450.2.1 = {
	holder = 1018625
}

457.2.1 = {
	holder = 1019919
}

493.2.1 = {
	holder = 1021380
}

543.2.1 = {
	holder = 1022669
}

558.2.1 = {
	holder = 1026374
}

600.2.1 = {
	holder = 1027896
}

613.2.1 = {
	holder = 1028987
}

645.2.1 = {
	holder = 1028842
}

646.2.1 = {
	holder = 1032401
}

676.2.1 = {
	holder = 1032862
}

691.2.1 = {
	holder = 1034409
}

746.2.1 = {
	holder = 1036595
}

758.2.1 = {
	holder = 1039001
}

810.2.1 = {
	holder = 1042034
}

858.2.1 = {
	holder = 1043803
}

865.2.1 = {
	holder = 1046331
}

875.2.1 = {
	holder = 1045983
}

882.2.1 = {
	holder = 1047705
}

900.2.1 = {
	holder = 1045983
}

900.2.2 = {
	holder = 1048890
}

