200.2.1 = {
	holder = 1000195
	law = succ_elective_gavelkind
	law = agnatic_succession
}

200.2.2 = {
	liege = k_lorilia
}

252.2.1 = {
	holder = 1002306
}

275.2.1 = {
	holder = 1004587
}

316.2.1 = {
	holder = 1005734
}

341.2.1 = {
	holder = 1008775
}

353.2.1 = {
	holder = 1009095
}

407.2.1 = {
	holder = 1009944
}

419.2.1 = {
	holder = 1012247
}

428.2.1 = {
	holder = 1010601
}

429.2.1 = {
	holder = 1013067
}

437.2.1 = {
	holder = 1011515
}

457.2.1 = {
	holder = 1013684
}

472.2.1 = {
	holder = 1014516
}

495.2.1 = {
	holder = 1013912
}

501.2.1 = {
	holder = 1016310
}

513.2.1 = {
	holder = 1017107
}

518.2.1 = {
	holder = 1017116
}

536.2.1 = {
	holder = 1016310
}

536.2.2 = {
	holder = 1018261
}

548.2.1 = {
	holder = 1018474
}

584.2.1 = {
	holder = 1019893
}

603.2.1 = {
	holder = 1020818
}

629.2.1 = {
	holder = 1021588
}

651.2.1 = {
	holder = 1023337
}

653.2.1 = {
	holder = 1023298
}

653.2.2 = {
	holder = 1022035
}

661.2.1 = {
	holder = 1023850
}

671.2.1 = {
	holder = 1024548
}

671.2.2 = {
	holder = 1024606
}

680.2.1 = {
	holder = 1024548
}

680.2.2 = {
	holder = 1025056
}

691.2.1 = {
	holder = 1025417
}

714.2.1 = {
	liege = k_dahier
}

756.2.1 = {
	holder = 1026396
}

765.2.1 = {
	holder = 1028929
}

783.2.1 = {
	holder = 1029958
}

825.2.1 = {
	holder = 1030983
}

829.2.1 = {
	holder = 1031805
}

830.2.1 = {
	holder = 1032387
}

832.2.1 = {
	holder = 1031210
}

859.2.1 = {
	holder = 1032393
}

864.2.1 = {
	holder = 1033980
}

888.2.1 = {
	holder = 1034190
}

891.2.1 = {
	holder = 1035212
}

912.2.1 = {
	holder = 1035864
}

930.2.1 = {
	holder = 1037037
}

932.2.1 = {
	holder = 1035109
}

933.2.1 = {
	holder = 1035643
}

942.2.1 = {
	holder = 1037636
}

981.2.1 = {
	holder = 1037846
}

996.2.1 = {
	holder = 1039560
}

1007.2.1 = {
	holder = 1040334
}

1012.2.1 = {
	holder = 1038546
}

1012.2.2 = {
	holder = 1039262
}

1033.2.1 = {
	holder = 1041808
}

1036.2.1 = {
	holder = 1041740
}

1051.2.1 = {
	holder = 1042661
}

1062.2.1 = {
	holder = 1043013
}

1062.2.2 = {
	holder = 1043354
}

