200.2.1 = {
	holder = 1000349
	law = succ_gavelkind
	law = agnatic_succession
}

200.2.2 = {
	liege = k_topepin
}

214.2.1 = {
	holder = 1001823
}

236.2.1 = {
	holder = 1003015
}

280.2.1 = {
	holder = 1004006
}

308.2.1 = {
	holder = 1006176
}

316.2.1 = {
	holder = 1007370
}

378.2.1 = {
	holder = 1009676
}

378.2.2 = {
	holder = 1010542
}

419.2.1 = {
	holder = 1010606
}

422.2.1 = {
	holder = 1010592
}

439.2.1 = {
	holder = 1010605
}

441.2.1 = {
	holder = 1012753
}

441.2.2 = {
	holder = 1013643
}

445.2.1 = {
	holder = 1013851
}

493.2.1 = {
	holder = 1014134
}

504.2.1 = {
	holder = 1016679
}

506.2.1 = {
	holder = 1014134
}

506.2.2 = {
	holder = 1016141
}

515.2.1 = {
	holder = 1017102
}

518.2.1 = {
	holder = 1016771
}

537.2.1 = {
	holder = 1018316
}

559.2.1 = {
	holder = 1019346
}

581.2.1 = {
	holder = 1018362
}

589.2.1 = {
	holder = 1020177
}

630.2.1 = {
	holder = 1021001
}

639.2.1 = {
	holder = 1023193
}

660.2.1 = {
	holder = 1023434
}

705.2.1 = {
	holder = 1024212
}

729.2.1 = {
	holder = 1025234
}

734.2.1 = {
	holder = 1026077
}

760.2.1 = {
	holder = 1027831
}

761.2.1 = {
	holder = 1029034
}

771.2.1 = {
	holder = 1029537
}

801.2.1 = {
	holder = 1029551
}

824.2.1 = {
	holder = 1031048
}

845.2.1 = {
	holder = 1032206
}

862.2.1 = {
	holder = 1033277
}

910.2.1 = {
	holder = 1034932
}

924.2.1 = {
	holder = 1035293
}

938.2.1 = {
	holder = 1037075
}

963.2.1 = {
	holder = 1038148
}

980.2.1 = {
	holder = 1038958
}

985.2.1 = {
	holder = 1039370
}

1036.2.1 = {
	holder = 1040475
}

1059.2.1 = {
	holder = 1043254
}

