200.2.1 = {
	holder = 1000383
	law = succ_gavelkind
	law = cognatic_succession
}

200.2.2 = {
	liege = k_romin
}

203.2.1 = {
	holder = 1001827
}

209.2.1 = {
	holder = 1001384
}

209.2.2 = {
	holder = 1002478
}

261.2.1 = {
	holder = 1003167
}

279.2.1 = {
	holder = 1005022
}

291.2.1 = {
	holder = 1006004
}

300.2.1 = {
	holder = 1006037
}

343.2.1 = {
	holder = 1007120
}

373.2.1 = {
	holder = 1008946
}

376.2.1 = {
	holder = 1010441
}

380.2.1 = {
	holder = 1010645
}

425.2.1 = {
	holder = 1011215
}

430.2.1 = {
	holder = 1013101
}

475.2.1 = {
	holder = 1013302
}

493.2.1 = {
	holder = 1015448
}

530.2.1 = {
	holder = 1016311
}

571.2.1 = {
	holder = 1019938
}

588.2.1 = {
	holder = 1020757
}

631.2.1 = {
	holder = 1020807
}

640.2.1 = {
	holder = 1022965
}

664.2.1 = {
	holder = 1023940
}

693.2.1 = {
	holder = 1024690
}

711.2.1 = {
	holder = 1025888
}

714.2.1 = {
	holder = 1026766
}

731.2.1 = {
	holder = 1026824
}

753.2.1 = {
	holder = 1028233
}

802.2.1 = {
	holder = 1031031
}

836.2.1 = {
	holder = 1031251
}

874.2.1 = {
	holder = 1033168
}

885.2.1 = {
	holder = 1034567
}

891.2.1 = {
	holder = 1035252
}

931.2.1 = {
	holder = 1035470
}

951.2.1 = {
	holder = 1037434
}

962.2.1 = {
	holder = 1037392
}

973.2.1 = {
	holder = 1038429
}

988.2.1 = {
	holder = 1039553
}

994.2.1 = {
	holder = 1039431
}

999.2.1 = {
	holder = 1040229
}

1012.2.1 = {
	holder = 1041001
}

1022.2.1 = {
	holder = 1040117
}

1042.2.1 = {
	holder = 1041537
}

1061.2.1 = {
	holder = 1041823
}

