200.2.1 = {
	holder = 1001073
	law = succ_feudal_elective
	law = cognatic_succession
}

200.2.2 = {
	liege = k_qaraold
}

244.2.1 = {
	holder = 1002939
}

276.2.1 = {
	holder = 1002845
}

277.2.1 = {
	holder = 1005661
}

285.2.1 = {
	holder = 1005719
}

294.2.1 = {
	holder = 1006488
}

362.2.1 = {
	holder = 1007489
}

383.2.1 = {
	holder = 1009344
}

383.2.2 = {
	holder = 1010770
}

424.2.1 = {
	holder = 1010774
}

429.2.1 = {
	holder = 1012878
}

477.2.1 = {
	holder = 1013893
}

481.2.1 = {
	holder = 1015434
}

533.2.1 = {
	holder = 1016205
}

546.2.1 = {
	holder = 1018298
}

547.2.1 = {
	holder = 1018775
}

558.2.1 = {
	holder = 1018780
}

597.2.1 = {
	holder = 1019927
}

622.2.1 = {
	holder = 1021999
}

623.2.1 = {
	holder = 1022376
}

640.2.1 = {
	holder = 1022472
}

664.2.1 = {
	holder = 1023318
}

680.2.1 = {
	holder = 1023048
}

681.2.1 = {
	holder = 1024076
}

692.2.1 = {
	holder = 1025668
}

725.2.1 = {
	holder = 1025832
}

740.2.1 = {
	holder = 1027662
}

760.2.1 = {
	holder = 1028217
}

761.2.1 = {
	holder = 1029020
}

807.2.1 = {
	holder = 1029421
}

822.2.1 = {
	holder = 1031340
}

831.2.1 = {
	holder = 1032459
}

870.2.1 = {
	holder = 1032791
}

900.2.1 = {
	holder = 1034508
}

916.2.1 = {
	holder = 1036327
}

927.2.1 = {
	holder = 1035502
}

928.2.1 = {
	holder = 1036958
}

928.2.2 = {
	holder = 1036957
}

934.2.1 = {
	holder = 1037149
}

940.2.1 = {
	holder = 1036180
}

957.2.1 = {
	holder = 1037305
}

989.2.1 = {
	holder = 1039848
}

1045.2.1 = {
	holder = 1041928
}

