200.2.1 = {
	holder = 1000845
	law = succ_primogeniture
	law = agnatic_succession
}

200.2.2 = {
	liege = k_relarqajar
}

241.2.1 = {
	holder = 1004940
}

272.2.1 = {
	holder = 1007837
}

308.2.1 = {
	holder = 1006103
}

309.2.1 = {
	holder = 1010300
}

310.2.1 = {
	holder = 1007078
}

316.2.1 = {
	holder = 1009443
}

333.2.1 = {
	holder = 1009782
}

342.2.1 = {
	holder = 1010910
}

342.2.2 = {
	holder = 1012569
}

346.2.1 = {
	holder = 1012612
}

347.2.1 = {
	holder = 1010910
}

364.2.1 = {
	holder = 1010913
}

370.2.1 = {
	holder = 1014226
}

382.2.1 = {
	holder = 1015204
}

402.2.1 = {
	holder = 1015242
}

427.2.1 = {
	holder = 1016697
}

459.2.1 = {
	holder = 1019127
}

498.2.1 = {
	holder = 1020616
}

505.2.1 = {
	holder = 1023286
}

542.2.1 = {
	holder = 1025721
}

562.2.1 = {
	holder = 1026083
}

578.2.1 = {
	holder = 1028007
}

619.2.1 = {
	holder = 1028796
}

637.2.1 = {
	holder = 1030385
}

644.2.1 = {
	holder = 1029997
}

644.2.2 = {
	holder = 1032279
}

684.2.1 = {
	holder = 1032418
}

731.2.1 = {
	holder = 1037551
}

731.2.2 = {
	holder = 1037862
}

733.2.1 = {
	holder = 1037966
}

770.2.1 = {
	holder = 1039047
}

786.2.1 = {
	holder = 1040573
}

791.2.1 = {
	holder = 1041790
}

809.2.1 = {
	holder = 1041859
}

848.2.1 = {
	holder = 1044337
}

883.2.1 = {
	holder = 1046092
}

897.2.1 = {
	holder = 1048105
}

