200.2.1 = {
	holder = 1001292
	law = succ_feudal_elective
	law = cognatic_succession
}

200.2.2 = {
	liege = k_elelenna
}

216.2.1 = {
	holder = 1002474
}

218.2.1 = {
	holder = 1001404
}

246.2.1 = {
	holder = 1002484
}

251.2.1 = {
	holder = 1003282
}

271.2.1 = {
	holder = 1004215
}

282.2.1 = {
	holder = 1005462
}

303.2.1 = {
	holder = 1006460
}

340.2.1 = {
	liege = 0
}

340.2.2 = {
	holder = 1007516
}

390.2.1 = {
	holder = 1008865
}

397.2.1 = {
	holder = 1008936
}

408.2.1 = {
	holder = 1011022
}

420.2.1 = {
	holder = 1011918
}

454.2.1 = {
	holder = 1013349
}

468.2.1 = {
	holder = 1012027
}

469.2.1 = {
	holder = 1014952
}

469.2.2 = {
	liege = k_elelenna
}

514.2.1 = {
	holder = 1015394
}

537.2.1 = {
	holder = 1015939
}

549.2.1 = {
	holder = 1018847
}

572.2.1 = {
	holder = 1019772
}

671.2.1 = {
	holder = 1022575
}

680.2.1 = {
	holder = 1025049
}

710.2.1 = {
	holder = 1026563
}

760.2.1 = {
	holder = 1026650
}

763.2.1 = {
	holder = 1029134
}

816.2.1 = {
	holder = 1030807
}

823.2.1 = {
	holder = 1031923
}

876.2.1 = {
	holder = 1032507
}

895.2.1 = {
	holder = 1035416
}

938.2.1 = {
	holder = 1037438
}

941.2.1 = {
	holder = 1037533
}

963.2.1 = {
	holder = 1038530
}

1015.2.1 = {
	holder = 1039949
}

1015.2.2 = {
	holder = 1041150
}

