200.2.1 = {
	holder = 1000318
	law = succ_gavelkind
	law = agnatic_succession
}

200.2.2 = {
	liege = k_topepin
}

217.2.1 = {
	holder = 1001926
}

253.2.1 = {
	holder = 1002969
}

273.2.1 = {
	holder = 1003015
}

280.2.1 = {
	holder = 1004006
}

308.2.1 = {
	holder = 1006176
}

316.2.1 = {
	holder = 1007370
}

378.2.1 = {
	holder = 1009676
}

379.2.1 = {
	holder = 1010592
}

439.2.1 = {
	holder = 1010605
}

441.2.1 = {
	holder = 1012753
}

441.2.2 = {
	holder = 1013644
}

449.2.1 = {
	holder = 1013643
}

498.2.1 = {
	holder = 1013953
}

503.2.1 = {
	holder = 1014134
}

506.2.1 = {
	holder = 1016141
}

515.2.1 = {
	holder = 1017102
}

518.2.1 = {
	holder = 1016771
}

537.2.1 = {
	holder = 1018316
}

573.2.1 = {
	holder = 1018362
}

589.2.1 = {
	holder = 1020177
}

630.2.1 = {
	holder = 1021001
}

643.2.1 = {
	holder = 1022964
}

682.2.1 = {
	holder = 1023988
}

687.2.1 = {
	holder = 1025234
}

734.2.1 = {
	holder = 1026077
}

760.2.1 = {
	holder = 1027831
}

761.2.1 = {
	holder = 1029034
}

777.2.1 = {
	holder = 1029382
}

799.2.1 = {
	holder = 1030176
}

848.2.1 = {
	holder = 1030917
}

858.2.1 = {
	holder = 1033320
}

878.2.1 = {
	holder = 1034344
}

884.2.1 = {
	holder = 1034932
}

924.2.1 = {
	holder = 1035293
}

938.2.1 = {
	holder = 1037075
}

963.2.1 = {
	holder = 1038148
}

980.2.1 = {
	holder = 1038958
}

985.2.1 = {
	holder = 1039370
}

1036.2.1 = {
	holder = 1040475
}

