200.2.1 = {
	holder = 1001730
	law = succ_elective_gavelkind
	law = cognatic_succession
}

200.2.2 = {
	liege = k_tatarn
}

241.2.1 = {
	holder = 1003001
}

249.2.1 = {
	holder = 1002873
}

252.2.1 = {
	holder = 1002903
}

252.2.2 = {
	holder = 1006426
}

262.2.1 = {
	holder = 1006637
}

317.2.1 = {
	holder = 1008627
}

343.2.1 = {
	holder = 1011995
}

395.2.1 = {
	holder = 1013307
}

420.2.1 = {
	holder = 1016437
}

455.2.1 = {
	holder = 1018238
}

457.2.1 = {
	holder = 1018023
}

476.2.1 = {
	holder = 1021468
}

526.2.1 = {
	holder = 1022456
}

530.2.1 = {
	holder = 1024826
}

531.2.1 = {
	holder = 1025027
}

584.2.1 = {
	holder = 1027242
}

593.2.1 = {
	holder = 1028940
}

598.2.1 = {
	holder = 1028943
}

644.2.1 = {
	holder = 1031763
}

650.2.1 = {
	holder = 1030498
}

661.2.1 = {
	holder = 1031304
}

669.2.1 = {
	holder = 1032827
}

703.2.1 = {
	holder = 1034247
}

737.2.1 = {
	holder = 1036427
}

765.2.1 = {
	holder = 1038900
}

792.2.1 = {
	holder = 1040826
}

830.2.1 = {
	holder = 1041998
}

835.2.1 = {
	holder = 1044755
}

836.2.1 = {
	holder = 1040890
}

838.2.1 = {
	holder = 1044830
}

870.2.1 = {
	holder = 1046555
}

883.2.1 = {
	holder = 1046974
}

