200.2.1 = {
	holder = 1000625
	law = succ_primogeniture
	law = agnatic_succession
}

200.2.2 = {
	liege = k_lasicco
}

236.2.1 = {
	holder = 1002023
}

237.2.1 = {
	holder = 1002554
}

247.2.1 = {
	holder = 1002883
}

281.2.1 = {
	holder = 1005839
}

322.2.1 = {
	holder = 1005912
}

323.2.1 = {
	holder = 1004780
}

328.2.1 = {
	holder = 1007939
}

329.2.1 = {
	holder = 1005912
}

329.2.2 = {
	holder = 1008213
}

365.2.1 = {
	holder = 1008607
}

409.2.1 = {
	holder = 1010470
}

421.2.1 = {
	holder = 1012169
}

472.2.1 = {
	holder = 1012983
}

486.2.1 = {
	holder = 1015206
}

501.2.1 = {
	holder = 1016362
}

519.2.1 = {
	holder = 1015325
}

520.2.1 = {
	holder = 1015527
}

543.2.1 = {
	holder = 1017774
}

580.2.1 = {
	holder = 1018670
}

596.2.1 = {
	holder = 1020380
}

638.2.1 = {
	holder = 1021284
}

644.2.1 = {
	holder = 1022504
}

644.2.2 = {
	holder = 1023423
}

667.2.1 = {
	holder = 1023532
}

706.2.1 = {
	holder = 1024656
}

718.2.1 = {
	holder = 1026545
}

731.2.1 = {
	holder = 1027323
}

771.2.1 = {
	holder = 1028766
}

819.2.1 = {
	holder = 1029916
}

830.2.1 = {
	holder = 1032177
}

836.2.1 = {
	holder = 1032242
}

836.2.2 = {
	holder = 1032691
}

839.2.1 = {
	holder = 1032242
}

839.2.2 = {
	holder = 1032856
}

878.2.1 = {
	holder = 1033066
}

893.2.1 = {
	holder = 1034774
}

896.2.1 = {
	holder = 1034136
}

909.2.1 = {
	holder = 1035946
}

915.2.1 = {
	holder = 1035233
}

946.2.1 = {
	holder = 1037842
}

947.2.1 = {
	holder = 1035129
}

951.2.1 = {
	holder = 1038009
}

957.2.1 = {
	holder = 1038361
}

963.2.1 = {
	holder = 1037919
}

965.2.1 = {
	holder = 1036046
}

965.2.2 = {
	holder = 1037461
}

999.2.1 = {
	holder = 1038708
}

1002.2.1 = {
	holder = 1039866
}

1010.2.1 = {
	holder = 1040919
}

1047.2.1 = {
	holder = 1040860
}

1048.2.1 = {
	holder = 1042748
}

1060.2.1 = {
	holder = 1042823
}

1063.2.1 = {
	holder = 1042162
}

