200.2.1 = {
	holder = 1000682
	law = succ_primogeniture
	law = agnatic_succession
}

200.2.2 = {
	liege = k_lasicco
}

200.2.3 = {
	holder = 1001397
}

235.2.1 = {
	holder = 1001993
}

263.2.1 = {
	holder = 1005064
}

288.2.1 = {
	holder = 1005103
}

336.2.1 = {
	holder = 1006419
}

350.2.1 = {
	holder = 1008777
}

393.2.1 = {
	holder = 1010892
}

394.2.1 = {
	holder = 1011363
}

411.2.1 = {
	holder = 1012249
}

413.2.1 = {
	holder = 1010470
}

414.2.1 = {
	holder = 1012399
}

424.2.1 = {
	holder = 1012683
}

482.2.1 = {
	holder = 1013410
}

487.2.1 = {
	holder = 1015783
}

521.2.1 = {
	holder = 1016574
}

531.2.1 = {
	holder = 1017863
}

590.2.1 = {
	holder = 1018722
}

598.2.1 = {
	holder = 1018320
}

598.2.2 = {
	holder = 1021226
}

614.2.1 = {
	holder = 1021554
}

617.2.1 = {
	holder = 1020938
}

640.2.1 = {
	holder = 1022504
}

670.2.1 = {
	holder = 1024045
}

683.2.1 = {
	holder = 1025237
}

701.2.1 = {
	holder = 1025257
}

713.2.1 = {
	holder = 1024118
}

714.2.1 = {
	holder = 1023486
}

715.2.1 = {
	holder = 1024991
}

715.2.2 = {
	holder = 1026826
}

752.2.1 = {
	holder = 1027252
}

768.2.1 = {
	holder = 1028769
}

801.2.1 = {
	holder = 1029920
}

809.2.1 = {
	holder = 1030969
}

822.2.1 = {
	holder = 1031080
}

833.2.1 = {
	holder = 1032242
}

847.2.1 = {
	holder = 1033051
}

871.2.1 = {
	holder = 1034136
}

909.2.1 = {
	holder = 1035946
}

915.2.1 = {
	holder = 1035233
}

946.2.1 = {
	holder = 1037842
}

947.2.1 = {
	holder = 1035129
}

951.2.1 = {
	holder = 1038009
}

957.2.1 = {
	holder = 1038361
}

963.2.1 = {
	holder = 1037919
}

965.2.1 = {
	holder = 1036046
}

965.2.2 = {
	holder = 1038709
}

1017.2.1 = {
	holder = 1039796
}

1042.2.1 = {
	holder = 1041559
}

