200.2.1 = {
	holder = 1001962
	law = succ_elective_gavelkind
	law = agnatic_succession
}

204.2.1 = {
	holder = 1003036
}

220.2.1 = {
	holder = 1004229
}

249.2.1 = {
	holder = 1006148
}

271.2.1 = {
	holder = 1007697
}

293.2.1 = {
	holder = 1009182
}

337.2.1 = {
	holder = 1012210
}

338.2.1 = {
	holder = 1012271
}

353.2.1 = {
	holder = 1013277
}

393.2.1 = {
	holder = 1015830
}

438.2.1 = {
	holder = 1018954
}

477.2.1 = {
	holder = 1021484
}

478.2.1 = {
	holder = 1021547
}

503.2.1 = {
	holder = 1023148
}

536.2.1 = {
	holder = 1025284
}

572.2.1 = {
	holder = 1027538
}

621.2.1 = {
	holder = 1030757
}

633.2.1 = {
	holder = 1031505
}

654.2.1 = {
	holder = 1032897
}

678.2.1 = {
	holder = 1034457
}

714.2.1 = {
	holder = 1036926
}

762.2.1 = {
	holder = 1039922
}

798.2.1 = {
	holder = 1042203
}

823.2.1 = {
	holder = 1043907
}

860.2.1 = {
	holder = 1046306
}

880.2.1 = {
	holder = 1047535
}

900.2.1 = {
	holder = 1048861
}

