200.2.1 = {
	holder = 1001563
	law = succ_ultimogeniture
	law = cognatic_succession
}

200.2.2 = {
	liege = k_akabasia
}

225.2.1 = {
	holder = 1003776
}

240.2.1 = {
	holder = 1005074
}

286.2.1 = {
	holder = 1007396
}

322.2.1 = {
	holder = 1008878
}

356.2.1 = {
	holder = 1013363
}

362.2.1 = {
	holder = 1013887
}

372.2.1 = {
	holder = 1010959
}

380.2.1 = {
	holder = 1014942
}

406.2.1 = {
	holder = 1016151
}

414.2.1 = {
	holder = 1014798
}

415.2.1 = {
	holder = 1017433
}

436.2.1 = {
	holder = 1017551
}

439.2.1 = {
	holder = 1017955
}

439.2.2 = {
	holder = 1019096
}

488.2.1 = {
	holder = 1019423
}

498.2.1 = {
	holder = 1022286
}

526.2.1 = {
	holder = 1023355
}

538.2.1 = {
	holder = 1025025
}

582.2.1 = {
	holder = 1026110
}

600.2.1 = {
	holder = 1028450
}

642.2.1 = {
	holder = 1029639
}

652.2.1 = {
	holder = 1031137
}

680.2.1 = {
	holder = 1032570
}

695.2.1 = {
	liege = k_eliutt
}

702.2.1 = {
	holder = 1034207
}

721.2.1 = {
	holder = 1035740
}

737.2.1 = {
	holder = 1037506
}

752.2.1 = {
	holder = 1038734
}

806.2.1 = {
	holder = 1042609
}

807.2.1 = {
	holder = 1042906
}

807.2.2 = {
	liege = k_akabasia
}

857.2.1 = {
	holder = 1043240
}

860.2.1 = {
	holder = 1045904
}

