200.2.1 = {
	holder = 1000772
	law = succ_primogeniture
	law = agnatic_succession
}

200.2.2 = {
	liege = k_rasicco
}

222.2.1 = {
	holder = 1001846
}

242.2.1 = {
	holder = 1003272
}

245.2.1 = {
	holder = 1004163
}

260.2.1 = {
	holder = 1001839
}

266.2.1 = {
	holder = 1003703
}

301.2.1 = {
	holder = 1005214
}

319.2.1 = {
	holder = 1007176
}

369.2.1 = {
	holder = 1008105
}

394.2.1 = {
	holder = 1010176
}

417.2.1 = {
	holder = 1011474
}

430.2.1 = {
	holder = 1012827
}

447.2.1 = {
	holder = 1013821
}

456.2.1 = {
	holder = 1013659
}

457.2.1 = {
	holder = 1014410
}

496.2.1 = {
	holder = 1014496
}

511.2.1 = {
	holder = 1016758
}

515.2.1 = {
	holder = 1016518
}

515.2.2 = {
	holder = 1017180
}

545.2.1 = {
	holder = 1017585
}

580.2.1 = {
	holder = 1019171
}

607.2.1 = {
	holder = 1020836
}

655.2.1 = {
	holder = 1021766
}

671.2.1 = {
	holder = 1023425
}

686.2.1 = {
	holder = 1024791
}

726.2.1 = {
	holder = 1025596
}

743.2.1 = {
	holder = 1028024
}

744.2.1 = {
	holder = 1024762
}

745.2.1 = {
	holder = 1028211
}

745.2.2 = {
	liege = k_seltet
}

757.2.1 = {
	holder = 1027275
}

765.2.1 = {
	holder = 1028923
}

815.2.1 = {
	holder = 1031740
}

815.2.2 = {
	liege = k_rasicco
}

839.2.1 = {
	holder = 1031910
}

880.2.1 = {
	holder = 1033239
}

903.2.1 = {
	holder = 1034863
}

934.2.1 = {
	holder = 1036010
}

949.2.1 = {
	holder = 1037301
}

977.2.1 = {
	holder = 1039037
}

1024.2.1 = {
	holder = 1039841
}

1044.2.1 = {
	holder = 1041833
}

