200.2.1 = {
	holder = 1001853
	law = succ_ultimogeniture
	law = agnatic_succession
}

200.2.2 = {
	liege = k_emivia
}

200.2.3 = {
	holder = 1002027
}

245.2.1 = {
	holder = 1003530
}

268.2.1 = {
	holder = 1006797
}

272.2.1 = {
	holder = 1005896
}

282.2.1 = {
	holder = 1008481
}

283.2.1 = {
	holder = 1005263
}

299.2.1 = {
	holder = 1006713
}

312.2.1 = {
	holder = 1010070
}

385.2.1 = {
	holder = 1011226
}

411.2.1 = {
	holder = 1017150
}

423.2.1 = {
	holder = 1017203
}

424.2.1 = {
	holder = 1015941
}

440.2.1 = {
	holder = 1018029
}

443.2.1 = {
	holder = 1019092
}

443.2.2 = {
	holder = 1019386
}

483.2.1 = {
	holder = 1019801
}

488.2.1 = {
	holder = 1022168
}

489.2.1 = {
	holder = 1022304
}

538.2.1 = {
	holder = 1022467
}

543.2.1 = {
	holder = 1022168
}

552.2.1 = {
	holder = 1024080
}

570.2.1 = {
	holder = 1026790
}

572.2.1 = {
	holder = 1025793
}

573.2.1 = {
	holder = 1027670
}

615.2.1 = {
	holder = 1028807
}

616.2.1 = {
	holder = 1030488
}

645.2.1 = {
	holder = 1030684
}

673.2.1 = {
	holder = 1033863
}

679.2.1 = {
	holder = 1034262
}

679.2.2 = {
	holder = 1034604
}

684.2.1 = {
	holder = 1031040
}

693.2.1 = {
	holder = 1034658
}

703.2.1 = {
	holder = 1035819
}

747.2.1 = {
	holder = 1036342
}

767.2.1 = {
	holder = 1039019
}

781.2.1 = {
	holder = 1040400
}

815.2.1 = {
	holder = 1042127
}

857.2.1 = {
	holder = 1043732
}

878.2.1 = {
	holder = 1046240
}

