200.2.1 = {
	holder = 1000960
	law = succ_elective_gavelkind
	law = agnatic_succession
}

200.2.2 = {
	liege = k_karamur
}

244.2.1 = {
	holder = 1002259
}

253.2.1 = {
	holder = 1005887
}

259.2.1 = {
	holder = 1004168
}

259.2.2 = {
	holder = 1006907
}

283.2.1 = {
	holder = 1008540
}

292.2.1 = {
	holder = 1008662
}

300.2.1 = {
	holder = 1008111
}

300.2.2 = {
	holder = 1006539
}

305.2.1 = {
	holder = 1009828
}

305.2.2 = {
	holder = 1010106
}

344.2.1 = {
	holder = 1010201
}

358.2.1 = {
	holder = 1012572
}

404.2.1 = {
	holder = 1016666
}

408.2.1 = {
	holder = 1016954
}

410.2.1 = {
	holder = 1017016
}

421.2.1 = {
	holder = 1017821
}

470.2.1 = {
	holder = 1018282
}

483.2.1 = {
	holder = 1021542
}

537.2.1 = {
	holder = 1025397
}

544.2.1 = {
	holder = 1022584
}

544.2.2 = {
	holder = 1025875
}

558.2.1 = {
	holder = 1025959
}

588.2.1 = {
	holder = 1027111
}

622.2.1 = {
	holder = 1030167
}

648.2.1 = {
	holder = 1031253
}

649.2.1 = {
	holder = 1032632
}

690.2.1 = {
	holder = 1033460
}

718.2.1 = {
	holder = 1036261
}

738.2.1 = {
	holder = 1038482
}

745.2.1 = {
	holder = 1036261
}

745.2.2 = {
	holder = 1038915
}

776.2.1 = {
	holder = 1040899
}

824.2.1 = {
	holder = 1041042
}

836.2.1 = {
	holder = 1044396
}

874.2.1 = {
	holder = 1045617
}

894.2.1 = {
	holder = 1047373
}

901.2.1 = {
	holder = 1046871
}

