200.2.1 = {
	holder = 1000424
	law = succ_seniority
	law = cognatic_succession
}

200.2.2 = {
	liege = k_laroila
}

208.2.1 = {
	holder = 1000530
}

236.2.1 = {
	holder = 1002322
}

238.2.1 = {
	holder = 1003422
}

248.2.1 = {
	holder = 1003915
}

249.2.1 = {
	holder = 1003292
}

249.2.2 = {
	holder = 1004389
}

297.2.1 = {
	holder = 1005025
}

307.2.1 = {
	holder = 1006663
}

330.2.1 = {
	holder = 1007683
}

375.2.1 = {
	holder = 1010022
}

375.2.2 = {
	holder = 1010357
}

390.2.1 = {
	holder = 1010464
}

390.2.2 = {
	holder = 1011114
}

397.2.1 = {
	holder = 1010465
}

423.2.1 = {
	holder = 1010905
}

448.2.1 = {
	holder = 1012819
}

463.2.1 = {
	holder = 1014074
}

464.2.1 = {
	holder = 1014322
}

465.2.1 = {
	holder = 1014715
}

465.2.2 = {
	holder = 1014441
}

468.2.1 = {
	liege = 0
}

471.2.1 = {
	holder = 1014636
}

483.2.1 = {
	holder = 1015661
}

483.2.2 = {
	liege = k_reojn
}

486.2.1 = {
	holder = 1015722
}

495.2.1 = {
	holder = 1014636
}

500.2.1 = {
	holder = 1016488
}

513.2.1 = {
	holder = 1016899
}

581.2.1 = {
	holder = 1018482
}

599.2.1 = {
	holder = 1021010
}

629.2.1 = {
	holder = 1021985
}

657.2.1 = {
	holder = 1022811
}

659.2.1 = {
	holder = 1022041
}

659.2.2 = {
	holder = 1024061
}

660.2.1 = {
	holder = 1024114
}

715.2.1 = {
	holder = 1025361
}

721.2.1 = {
	holder = 1026989
}

739.2.1 = {
	holder = 1027799
}

778.2.1 = {
	holder = 1028655
}

794.2.1 = {
	holder = 1030091
}

833.2.1 = {
	holder = 1031049
}

855.2.1 = {
	holder = 1032578
}

862.2.1 = {
	holder = 1033814
}

866.2.1 = {
	holder = 1031652
}

869.2.1 = {
	holder = 1033941
}

880.2.1 = {
	holder = 1033988
}

886.2.1 = {
	holder = 1034981
}

887.2.1 = {
	holder = 1033988
}

887.2.2 = {
	holder = 1035025
}

892.2.1 = {
	holder = 1032608
}

894.2.1 = {
	holder = 1035381
}

901.2.1 = {
	holder = 1035727
}

909.2.1 = {
	holder = 1035624
}

915.2.1 = {
	holder = 1036384
}

930.2.1 = {
	holder = 1036540
}

937.2.1 = {
	holder = 1036426
}

937.2.2 = {
	holder = 1037435
}

938.2.1 = {
	holder = 1034811
}

944.2.1 = {
	holder = 1036353
}

965.2.1 = {
	holder = 1038702
}

1013.2.1 = {
	holder = 1040090
}

1017.2.1 = {
	holder = 1041125
}

1021.2.1 = {
	holder = 1041046
}

1040.2.1 = {
	holder = 1041945
}

1053.2.1 = {
	holder = 1042998
}

