200.2.1 = {
	holder = 1000679
	law = succ_open_elective
	law = agnatic_succession
}

200.2.2 = {
	liege = k_rakesa
}

250.2.1 = {
	holder = 1003190
}

259.2.1 = {
	holder = 1006876
}

302.2.1 = {
	holder = 1008341
}

336.2.1 = {
	holder = 1010126
}

367.2.1 = {
	holder = 1012521
}

404.2.1 = {
	holder = 1014903
}

440.2.1 = {
	holder = 1017383
}

468.2.1 = {
	holder = 1019526
}

473.2.1 = {
	holder = 1020994
}

523.2.1 = {
	holder = 1022204
}

531.2.1 = {
	holder = 1024785
}

591.2.1 = {
	holder = 1027562
}

615.2.1 = {
	holder = 1029280
}

630.2.1 = {
	holder = 1030535
}

633.2.1 = {
	holder = 1029871
}

635.2.1 = {
	holder = 1031672
}

649.2.1 = {
	holder = 1031734
}

664.2.1 = {
	holder = 1033047
}

676.2.1 = {
	holder = 1034150
}

686.2.1 = {
	holder = 1032858
}

715.2.1 = {
	holder = 1034225
}

730.2.1 = {
	holder = 1034444
}

748.2.1 = {
	holder = 1038507
}

749.2.1 = {
	holder = 1039103
}

777.2.1 = {
	holder = 1039808
}

798.2.1 = {
	holder = 1042151
}

812.2.1 = {
	holder = 1039807
}

813.2.1 = {
	holder = 1043301
}

839.2.1 = {
	holder = 1044075
}

856.2.1 = {
	holder = 1045150
}

857.2.1 = {
	holder = 1045532
}

860.2.1 = {
	holder = 1046327
}

901.2.1 = {
	holder = 1045649
}

