200.2.1 = {
	holder = 1000114
	law = succ_tanistry
	law = agnatic_succession
}

200.2.2 = {
	liege = k_tonund
}

200.2.3 = {
	holder = 1001987
}

212.2.1 = {
	holder = 1003738
}

227.2.1 = {
	holder = 1004738
}

239.2.1 = {
	holder = 1004176
}

255.2.1 = {
	holder = 1004233
}

271.2.1 = {
	holder = 1007615
}

274.2.1 = {
	holder = 1007982
}

283.2.1 = {
	holder = 1008573
}

295.2.1 = {
	holder = 1009118
}

337.2.1 = {
	holder = 1011518
}

343.2.1 = {
	holder = 1011324
}

344.2.1 = {
	holder = 1012655
}

350.2.1 = {
	holder = 1010678
}

379.2.1 = {
	holder = 1013279
}

399.2.1 = {
	holder = 1016263
}

436.2.1 = {
	holder = 1017903
}

436.2.2 = {
	holder = 1018870
}

460.2.1 = {
	holder = 1019033
}

511.2.1 = {
	holder = 1021494
}

540.2.1 = {
	holder = 1025171
}

541.2.1 = {
	holder = 1022123
}

541.2.2 = {
	holder = 1025607
}

571.2.1 = {
	holder = 1026310
}

582.2.1 = {
	holder = 1027682
}

591.2.1 = {
	holder = 1026884
}

591.2.2 = {
	holder = 1028778
}

617.2.1 = {
	holder = 1028842
}

654.2.1 = {
	holder = 1032118
}

687.2.1 = {
	holder = 1033309
}

705.2.1 = {
	holder = 1034991
}

709.2.1 = {
	holder = 1032923
}

710.2.1 = {
	holder = 1035225
}

710.2.2 = {
	holder = 1036648
}

731.2.1 = {
	holder = 1036798
}

738.2.1 = {
	holder = 1034320
}

740.2.1 = {
	holder = 1038555
}

757.2.1 = {
	holder = 1038191
}

783.2.1 = {
	holder = 1038686
}

802.2.1 = {
	holder = 1041411
}

835.2.1 = {
	holder = 1044727
}

878.2.1 = {
	holder = 1045383
}

880.2.1 = {
	holder = 1046308
}

880.2.2 = {
	holder = 1047546
}

886.2.1 = {
	holder = 1047884
}

887.2.1 = {
	holder = 1045983
}

888.2.1 = {
	holder = 1048102
}

