200.2.1 = {
	holder = 1000443
	law = succ_tanistry
	law = cognatic_succession
}

200.2.2 = {
	liege = k_silalie
}

214.2.1 = {
	holder = 1003174
}

235.2.1 = {
	holder = 1004624
}

277.2.1 = {
	holder = 1007502
}

295.2.1 = {
	holder = 1009126
}

315.2.1 = {
	holder = 1010773
}

346.2.1 = {
	holder = 1010841
}

347.2.1 = {
	holder = 1010165
}

358.2.1 = {
	holder = 1012716
}

368.2.1 = {
	holder = 1014296
}

374.2.1 = {
	holder = 1012716
}

374.2.2 = {
	holder = 1014684
}

387.2.1 = {
	holder = 1014171
}

408.2.1 = {
	holder = 1014704
}

436.2.1 = {
	holder = 1018820
}

471.2.1 = {
	holder = 1018969
}

512.2.1 = {
	holder = 1021510
}

529.2.1 = {
	holder = 1024624
}

547.2.1 = {
	holder = 1025945
}

568.2.1 = {
	holder = 1027016
}

577.2.1 = {
	holder = 1024040
}

586.2.1 = {
	holder = 1026146
}

588.2.1 = {
	holder = 1022663
}

596.2.1 = {
	holder = 1028163
}

660.2.1 = {
	holder = 1031211
}

668.2.1 = {
	holder = 1033705
}

684.2.1 = {
	holder = 1034921
}

733.2.1 = {
	holder = 1035321
}

735.2.1 = {
	holder = 1034817
}

735.2.2 = {
	holder = 1038274
}

771.2.1 = {
	holder = 1039206
}

776.2.1 = {
	holder = 1040858
}

824.2.1 = {
	holder = 1042218
}

837.2.1 = {
	holder = 1044714
}

886.2.1 = {
	holder = 1046259
}

