200.2.1 = {
	holder = 1001899
	law = succ_open_elective
	law = agnatic_succession
}

200.2.2 = {
	liege = k_wisaudes
}

200.2.3 = {
	holder = 1002036
}

234.2.1 = {
	holder = 1002765
}

259.2.1 = {
	holder = 1006916
}

276.2.1 = {
	holder = 1007034
}

299.2.1 = {
	holder = 1008181
}

329.2.1 = {
	holder = 1009820
}

333.2.1 = {
	holder = 1011835
}

347.2.1 = {
	holder = 1012928
}

414.2.1 = {
	holder = 1013612
}

418.2.1 = {
	holder = 1016363
}

422.2.1 = {
	holder = 1016524
}

435.2.1 = {
	holder = 1018792
}

435.2.2 = {
	holder = 1015525
}

435.2.3 = {
	holder = 1018809
}

452.2.1 = {
	holder = 1019439
}

455.2.1 = {
	holder = 1020127
}

478.2.1 = {
	holder = 1020458
}

495.2.1 = {
	holder = 1020007
}

495.2.2 = {
	holder = 1022644
}

534.2.1 = {
	holder = 1023262
}

561.2.1 = {
	holder = 1025713
}

581.2.1 = {
	holder = 1027281
}

590.2.1 = {
	holder = 1028326
}

590.2.2 = {
	holder = 1028759
}

605.2.1 = {
	holder = 1028888
}

647.2.1 = {
	holder = 1029957
}

647.2.2 = {
	holder = 1032498
}

656.2.1 = {
	holder = 1032023
}

677.2.1 = {
	holder = 1033212
}

719.2.1 = {
	holder = 1035022
}

721.2.1 = {
	holder = 1034062
}

736.2.1 = {
	holder = 1038046
}

741.2.1 = {
	holder = 1037105
}

741.2.2 = {
	holder = 1033486
}

746.2.1 = {
	holder = 1038845
}

760.2.1 = {
	holder = 1038721
}

783.2.1 = {
	holder = 1040836
}

807.2.1 = {
	holder = 1042884
}

876.2.1 = {
	holder = 1045774
}

877.2.1 = {
	holder = 1047403
}

891.2.1 = {
	holder = 1047455
}

