200.2.1 = {
	holder = 1001870
	law = succ_gavelkind
	law = agnatic_succession
}

202.2.1 = {
	liege = k_sosija
}

243.2.1 = {
	holder = 1003007
}

260.2.1 = {
	holder = 1006056
}

269.2.1 = {
	holder = 1007273
}

295.2.1 = {
	holder = 1008363
}

310.2.1 = {
	holder = 1009729
}

326.2.1 = {
	holder = 1010943
}

336.2.1 = {
	holder = 1012002
}

369.2.1 = {
	holder = 1013475
}

376.2.1 = {
	holder = 1014563
}

415.2.1 = {
	holder = 1015817
}

428.2.1 = {
	holder = 1017063
}

462.2.1 = {
	holder = 1017278
}

477.2.1 = {
	holder = 1021284
}

485.2.1 = {
	holder = 1020507
}

505.2.1 = {
	holder = 1020701
}

508.2.1 = {
	holder = 1021534
}

509.2.1 = {
	holder = 1023582
}

523.2.1 = {
	holder = 1023752
}

527.2.1 = {
	holder = 1023939
}

537.2.1 = {
	holder = 1025386
}

574.2.1 = {
	holder = 1025521
}

624.2.1 = {
	holder = 1028650
}

642.2.1 = {
	holder = 1031058
}

674.2.1 = {
	holder = 1032384
}

693.2.1 = {
	holder = 1034594
}

711.2.1 = {
	holder = 1035630
}

720.2.1 = {
	holder = 1036491
}

721.2.1 = {
	holder = 1037390
}

737.2.1 = {
	holder = 1037521
}

791.2.1 = {
	holder = 1040477
}

817.2.1 = {
	holder = 1042005
}

832.2.1 = {
	holder = 1044356
}

891.2.1 = {
	holder = 1047090
}

