200.2.1 = {
	holder = 1000312
	law = succ_tanistry
	law = cognatic_succession
}

200.2.2 = {
	liege = k_kabeksen
}

208.2.1 = {
	holder = 1002624
}

264.2.1 = {
	holder = 1004314
}

283.2.1 = {
	holder = 1007857
}

341.2.1 = {
	holder = 1008911
}

350.2.1 = {
	holder = 1009738
}

351.2.1 = {
	holder = 1013189
}

387.2.1 = {
	holder = 1014323
}

431.2.1 = {
	holder = 1015537
}

443.2.1 = {
	holder = 1018751
}

507.2.1 = {
	holder = 1019981
}

508.2.1 = {
	holder = 1020709
}

516.2.1 = {
	holder = 1020903
}

528.2.1 = {
	holder = 1024765
}

550.2.1 = {
	holder = 1026237
}

596.2.1 = {
	holder = 1028401
}

653.2.1 = {
	holder = 1030097
}

664.2.1 = {
	holder = 1032962
}

693.2.1 = {
	holder = 1034254
}

732.2.1 = {
	holder = 1038053
}

778.2.1 = {
	holder = 1038353
}

791.2.1 = {
	holder = 1041138
}

825.2.1 = {
	holder = 1043287
}

841.2.1 = {
	holder = 1043183
}

852.2.1 = {
	holder = 1043422
}

886.2.1 = {
	holder = 1045876
}

901.2.1 = {
	holder = 1046192
}

