200.2.1 = {
	holder = 1001237
	law = succ_feudal_elective
	law = cognatic_succession
}

200.2.2 = {
	liege = k_elelenna
}

228.2.1 = {
	holder = 1001879
}

263.2.1 = {
	holder = 1003588
}

276.2.1 = {
	holder = 1005574
}

340.2.1 = {
	liege = 0
}

340.2.2 = {
	holder = 1006348
}

341.2.1 = {
	liege = k_lutoo
}

354.2.1 = {
	holder = 1008994
}

377.2.1 = {
	holder = 1009890
}

392.2.1 = {
	holder = 1010877
}

400.2.1 = {
	holder = 1010988
}

411.2.1 = {
	holder = 1011150
}

426.2.1 = {
	holder = 1012651
}

434.2.1 = {
	holder = 1011498
}

439.2.1 = {
	holder = 1011017
}

440.2.1 = {
	holder = 1013567
}

469.2.1 = {
	holder = 1013636
}

498.2.1 = {
	holder = 1014993
}

498.2.2 = {
	holder = 1016355
}

499.2.1 = {
	holder = 1016396
}

531.2.1 = {
	holder = 1016726
}

543.2.1 = {
	holder = 1017935
}

554.2.1 = {
	holder = 1019151
}

559.2.1 = {
	holder = 1019152
}

573.2.1 = {
	holder = 1018144
}

573.2.2 = {
	holder = 1020034
}

587.2.1 = {
	holder = 1020597
}

602.2.1 = {
	holder = 1021407
}

622.2.1 = {
	liege = k_elelenna
}

628.2.1 = {
	holder = 1021483
}

686.2.1 = {
	holder = 1024032
}

692.2.1 = {
	holder = 1025682
}

773.2.1 = {
	holder = 1029134
}

802.2.1 = {
	holder = 1031022
}

847.2.1 = {
	holder = 1031677
}

877.2.1 = {
	holder = 1033917
}

897.2.1 = {
	holder = 1034745
}

951.2.1 = {
	holder = 1037533
}

963.2.1 = {
	holder = 1038530
}

1015.2.1 = {
	holder = 1039949
}

1028.2.1 = {
	holder = 1041152
}

1042.2.1 = {
	holder = 1041978
}

