200.2.1 = {
	holder = 1001334
	law = succ_open_elective
	law = agnatic_succession
}

200.2.2 = {
	liege = k_sivati
}

220.2.1 = {
	holder = 1002843
}

263.2.1 = {
	holder = 1004651
}

264.2.1 = {
	holder = 1007255
}

328.2.1 = {
	holder = 1009510
}

366.2.1 = {
	holder = 1010747
}

372.2.1 = {
	holder = 1014569
}

376.2.1 = {
	holder = 1014815
}

411.2.1 = {
	holder = 1015745
}

414.2.1 = {
	holder = 1016731
}

419.2.1 = {
	holder = 1017712
}

432.2.1 = {
	holder = 1018597
}

444.2.1 = {
	holder = 1018853
}

453.2.1 = {
	holder = 1017908
}

453.2.2 = {
	holder = 1020011
}

499.2.1 = {
	holder = 1020113
}

501.2.1 = {
	holder = 1019629
}

501.2.2 = {
	holder = 1023063
}

546.2.1 = {
	holder = 1023371
}

557.2.1 = {
	holder = 1026241
}

584.2.1 = {
	holder = 1027287
}

600.2.1 = {
	holder = 1027513
}

604.2.1 = {
	holder = 1029293
}

607.2.1 = {
	holder = 1029884
}

608.2.1 = {
	holder = 1029962
}

634.2.1 = {
	holder = 1030400
}

635.2.1 = {
	holder = 1031062
}

635.2.2 = {
	holder = 1031704
}

680.2.1 = {
	holder = 1033843
}

725.2.1 = {
	holder = 1034947
}

728.2.1 = {
	holder = 1037760
}

738.2.1 = {
	holder = 1036973
}

757.2.1 = {
	holder = 1038545
}

765.2.1 = {
	holder = 1039784
}

771.2.1 = {
	holder = 1039170
}

792.2.1 = {
	holder = 1040385
}

796.2.1 = {
	holder = 1040671
}

797.2.1 = {
	holder = 1042195
}

799.2.1 = {
	holder = 1041811
}

802.2.1 = {
	holder = 1040947
}

828.2.1 = {
	holder = 1042491
}

852.2.1 = {
	holder = 1045859
}

882.2.1 = {
	holder = 1046506
}

