200.2.1 = {
	holder = 1000499
	law = succ_tanistry
	law = cognatic_succession
}

200.2.2 = {
	liege = k_qanapur
}

229.2.1 = {
	holder = 1004815
}

233.2.1 = {
	holder = 1003466
}

238.2.1 = {
	holder = 1004933
}

294.2.1 = {
	holder = 1009309
}

296.2.1 = {
	holder = 1006874
}

296.2.2 = {
	holder = 1009440
}

297.2.1 = {
	holder = 1009468
}

337.2.1 = {
	holder = 1011750
}

355.2.1 = {
	holder = 1012166
}

356.2.1 = {
	holder = 1012982
}

356.2.2 = {
	holder = 1013482
}

381.2.1 = {
	holder = 1013513
}

394.2.1 = {
	holder = 1015843
}

450.2.1 = {
	holder = 1017037
}

458.2.1 = {
	holder = 1019459
}

458.2.2 = {
	holder = 1019764
}

458.2.3 = {
	holder = 1020283
}

484.2.1 = {
	holder = 1021085
}

508.2.1 = {
	holder = 1023463
}

552.2.1 = {
	holder = 1024038
}

568.2.1 = {
	holder = 1026474
}

598.2.1 = {
	holder = 1027558
}

634.2.1 = {
	holder = 1029276
}

636.2.1 = {
	holder = 1031776
}

653.2.1 = {
	holder = 1031863
}

673.2.1 = {
	holder = 1033708
}

691.2.1 = {
	holder = 1034934
}

707.2.1 = {
	holder = 1036046
}

712.2.1 = {
	holder = 1033452
}

715.2.1 = {
	holder = 1033103
}

715.2.2 = {
	holder = 1034558
}

720.2.1 = {
	holder = 1037063
}

748.2.1 = {
	holder = 1038226
}

782.2.1 = {
	holder = 1039473
}

810.2.1 = {
	holder = 1041539
}

826.2.1 = {
	holder = 1044183
}

839.2.1 = {
	holder = 1044329
}

847.2.1 = {
	holder = 1045339
}

898.2.1 = {
	holder = 1046525
}

