200.2.1 = {
	holder = 1000789
	law = succ_primogeniture
	law = agnatic_succession
}

216.2.1 = {
	liege = k_rasicco
}

235.2.1 = {
	holder = 1002118
}

242.2.1 = {
	holder = 1000653
}

243.2.1 = {
	holder = 1002177
}

267.2.1 = {
	holder = 1004205
}

305.2.1 = {
	holder = 1005759
}

312.2.1 = {
	holder = 1007099
}

313.2.1 = {
	holder = 1007379
}

340.2.1 = {
	holder = 1006584
}

341.2.1 = {
	holder = 1008753
}

344.2.1 = {
	holder = 1006584
}

344.2.2 = {
	holder = 1008885
}

371.2.1 = {
	holder = 1009111
}

389.2.1 = {
	holder = 1010026
}

389.2.2 = {
	holder = 1011064
}

426.2.1 = {
	holder = 1011238
}

467.2.1 = {
	holder = 1013194
}

474.2.1 = {
	holder = 1014918
}

529.2.1 = {
	holder = 1016020
}

546.2.1 = {
	holder = 1018287
}

597.2.1 = {
	holder = 1020003
}

628.2.1 = {
	holder = 1021015
}

652.2.1 = {
	holder = 1023165
}

664.2.1 = {
	holder = 1023963
}

687.2.1 = {
	holder = 1024758
}

700.2.1 = {
	holder = 1025650
}

727.2.1 = {
	holder = 1026319
}

727.2.2 = {
	holder = 1027382
}

779.2.1 = {
	holder = 1027810
}

792.2.1 = {
	holder = 1029969
}

852.2.1 = {
	holder = 1033195
}

874.2.1 = {
	holder = 1034156
}

897.2.1 = {
	holder = 1034635
}

897.2.2 = {
	holder = 1035490
}

917.2.1 = {
	holder = 1035553
}

936.2.1 = {
	holder = 1036553
}

942.2.1 = {
	holder = 1037651
}

966.2.1 = {
	holder = 1038563
}

996.2.1 = {
	holder = 1039534
}

1006.2.1 = {
	holder = 1040699
}

1007.2.1 = {
	holder = 1039534
}

1013.2.1 = {
	holder = 1041026
}

1017.2.1 = {
	holder = 1041077
}

1026.2.1 = {
	holder = 1041601
}

