200.2.1 = {
	holder = 1001324
	law = succ_open_elective
	law = agnatic_succession
}

200.2.2 = {
	liege = k_surilla
}

200.2.3 = {
	holder = 1002026
}

240.2.1 = {
	holder = 1003148
}

244.2.1 = {
	holder = 1005855
}

245.2.1 = {
	holder = 1005926
}

273.2.1 = {
	holder = 1005988
}

278.2.1 = {
	holder = 1005404
}

293.2.1 = {
	holder = 1006712
}

304.2.1 = {
	holder = 1009830
}

323.2.1 = {
	holder = 1008550
}

340.2.1 = {
	holder = 1011755
}

348.2.1 = {
	holder = 1012991
}

351.2.1 = {
	holder = 1013198
}

399.2.1 = {
	holder = 1013743
}

420.2.1 = {
	holder = 1016429
}

440.2.1 = {
	liege = k_sivati
}

471.2.1 = {
	holder = 1017908
}

471.2.2 = {
	holder = 1021169
}

507.2.1 = {
	holder = 1021265
}

511.2.1 = {
	holder = 1023623
}

530.2.1 = {
	holder = 1024809
}

547.2.1 = {
	holder = 1023371
}

547.2.2 = {
	holder = 1026050
}

547.2.3 = {
	liege = k_surilla
}

563.2.1 = {
	holder = 1025644
}

563.2.2 = {
	holder = 1027036
}

565.2.1 = {
	holder = 1025644
}

565.2.2 = {
	holder = 1027142
}

614.2.1 = {
	holder = 1027213
}

617.2.1 = {
	holder = 1030399
}

629.2.1 = {
	holder = 1030403
}

629.2.2 = {
	holder = 1031293
}

677.2.1 = {
	holder = 1031685
}

695.2.1 = {
	holder = 1035006
}

719.2.1 = {
	holder = 1036610
}

769.2.1 = {
	holder = 1038258
}

796.2.1 = {
	holder = 1041046
}

843.2.1 = {
	holder = 1042300
}

852.2.1 = {
	holder = 1045552
}

900.2.1 = {
	holder = 1046665
}

