200.2.1 = {
	holder = 1000013
	law = succ_gavelkind
	law = cognatic_succession
}

218.2.1 = {
	holder = 1003425
}

228.2.1 = {
	holder = 1004535
}

249.2.1 = {
	holder = 1006211
}

250.2.1 = {
	holder = 1006292
}

286.2.1 = {
	holder = 1006358
}

305.2.1 = {
	holder = 1008833
}

306.2.1 = {
	holder = 1010160
}

353.2.1 = {
	holder = 1013125
}

368.2.1 = {
	holder = 1014285
}

385.2.1 = {
	holder = 1014490
}

401.2.1 = {
	holder = 1015765
}

447.2.1 = {
	holder = 1017010
}

448.2.1 = {
	holder = 1019690
}

471.2.1 = {
	holder = 1021162
}

525.2.1 = {
	holder = 1022706
}

530.2.1 = {
	holder = 1024902
}

596.2.1 = {
	holder = 1026042
}

606.2.1 = {
	holder = 1029832
}

607.2.1 = {
	holder = 1029900
}

633.2.1 = {
	holder = 1031584
}

651.2.1 = {
	holder = 1031635
}

670.2.1 = {
	holder = 1033430
}

710.2.1 = {
	holder = 1034442
}

734.2.1 = {
	holder = 1036851
}

742.2.1 = {
	holder = 1038391
}

773.2.1 = {
	holder = 1040716
}

796.2.1 = {
	holder = 1041375
}

846.2.1 = {
	holder = 1043734
}

874.2.1 = {
	holder = 1045505
}

