200.2.1 = {
	holder = 1001710
	law = succ_elective_gavelkind
	law = cognatic_succession
}

200.2.2 = {
	liege = k_tatarn
}

234.2.1 = {
	holder = 1003417
}

271.2.1 = {
	holder = 1005205
}

290.2.1 = {
	holder = 1007911
}

328.2.1 = {
	holder = 1009356
}

346.2.1 = {
	holder = 1012057
}

359.2.1 = {
	holder = 1013545
}

392.2.1 = {
	holder = 1015263
}

417.2.1 = {
	holder = 1015876
}

459.2.1 = {
	holder = 1017344
}

475.2.1 = {
	holder = 1020950
}

491.2.1 = {
	holder = 1021958
}

491.2.2 = {
	holder = 1019737
}

512.2.1 = {
	holder = 1022460
}

572.2.1 = {
	holder = 1023808
}

579.2.1 = {
	holder = 1027242
}

585.2.1 = {
	holder = 1028458
}

629.2.1 = {
	holder = 1028749
}

641.2.1 = {
	holder = 1028126
}

643.2.1 = {
	holder = 1031173
}

650.2.1 = {
	holder = 1032676
}

668.2.1 = {
	holder = 1030154
}

674.2.1 = {
	holder = 1034248
}

694.2.1 = {
	holder = 1034363
}

733.2.1 = {
	holder = 1037585
}

778.2.1 = {
	holder = 1038710
}

795.2.1 = {
	holder = 1041449
}

806.2.1 = {
	holder = 1039182
}

806.2.2 = {
	holder = 1042804
}

836.2.1 = {
	holder = 1043250
}

869.2.1 = {
	holder = 1046739
}

870.2.1 = {
	holder = 1046974
}

