200.2.1 = {
	holder = 1000429
	law = succ_seniority
	law = cognatic_succession
}

200.2.2 = {
	liege = k_ebezete
}

206.2.1 = {
	holder = 1003173
}

266.2.1 = {
	holder = 1004318
}

282.2.1 = {
	holder = 1007501
}

315.2.1 = {
	holder = 1008783
}

319.2.1 = {
	holder = 1008078
}

327.2.1 = {
	holder = 1009131
}

332.2.1 = {
	holder = 1011785
}

336.2.1 = {
	holder = 1011682
}

337.2.1 = {
	holder = 1012227
}

355.2.1 = {
	holder = 1012818
}

392.2.1 = {
	holder = 1013923
}

399.2.1 = {
	holder = 1016222
}

450.2.1 = {
	holder = 1017447
}

450.2.2 = {
	holder = 1019752
}

475.2.1 = {
	holder = 1019909
}

484.2.1 = {
	holder = 1021631
}

487.2.1 = {
	holder = 1019754
}

487.2.2 = {
	holder = 1019773
}

501.2.1 = {
	holder = 1022665
}

547.2.1 = {
	holder = 1022601
}

567.2.1 = {
	holder = 1024207
}

567.2.2 = {
	holder = 1027251
}

568.2.1 = {
	holder = 1026316
}

593.2.1 = {
	holder = 1028907
}

632.2.1 = {
	holder = 1029611
}

666.2.1 = {
	holder = 1031529
}

694.2.1 = {
	holder = 1033889
}

710.2.1 = {
	holder = 1036656
}

730.2.1 = {
	holder = 1037123
}

742.2.1 = {
	holder = 1038498
}

747.2.1 = {
	holder = 1038146
}

750.2.1 = {
	holder = 1037794
}

775.2.1 = {
	holder = 1038934
}

791.2.1 = {
	holder = 1041085
}

798.2.1 = {
	holder = 1040231
}

821.2.1 = {
	holder = 1042516
}

854.2.1 = {
	holder = 1043922
}

856.2.1 = {
	holder = 1045811
}

