200.2.1 = {
	holder = 1000042
	law = succ_open_elective
	law = agnatic_succession
}

202.2.1 = {
	holder = 1001985
}

209.2.1 = {
	holder = 1002070
}

227.2.1 = {
	holder = 1002995
}

244.2.1 = {
	holder = 1003787
}

270.2.1 = {
	holder = 1004661
}

314.2.1 = {
	holder = 1007407
}

342.2.1 = {
	holder = 1008553
}

348.2.1 = {
	holder = 1009094
}

363.2.1 = {
	holder = 1009201
}

383.2.1 = {
	holder = 1010385
}

425.2.1 = {
	holder = 1011303
}

448.2.1 = {
	holder = 1013210
}

461.2.1 = {
	holder = 1014465
}

467.2.1 = {
	holder = 1014828
}

495.2.1 = {
	holder = 1014940
}

531.2.1 = {
	holder = 1016884
}

567.2.1 = {
	holder = 1018743
}

568.2.1 = {
	holder = 1019780
}

579.2.1 = {
	holder = 1020304
}

587.2.1 = {
	holder = 1020454
}

637.2.1 = {
	holder = 1021224
}

684.2.1 = {
	holder = 1023420
}

700.2.1 = {
	holder = 1025340
}

716.2.1 = {
	holder = 1026870
}

718.2.1 = {
	holder = 1026972
}

733.2.1 = {
	holder = 1027305
}

793.2.1 = {
	holder = 1028289
}

803.2.1 = {
	holder = 1030767
}

821.2.1 = {
	holder = 1031796
}

834.2.1 = {
	holder = 1032604
}

836.2.1 = {
	holder = 1032685
}

864.2.1 = {
	holder = 1032809
}

893.2.1 = {
	holder = 1034428
}

899.2.1 = {
	holder = 1035620
}

912.2.1 = {
	holder = 1035896
}

916.2.1 = {
	holder = 1036424
}

935.2.1 = {
	holder = 1036488
}

936.2.1 = {
	holder = 1037376
}

977.2.1 = {
	holder = 1037484
}

989.2.1 = {
	holder = 1039411
}

995.2.1 = {
	holder = 1040115
}

1000.2.1 = {
	holder = 1040272
}

1007.2.1 = {
	holder = 1040753
}

1018.2.1 = {
	holder = 1041162
}

1053.2.1 = {
	holder = 1042350
}

1057.2.1 = {
	holder = 1043115
}

