200.2.1 = {
	holder = 1001947
	law = succ_open_elective
	law = agnatic_succession
}

200.2.2 = {
	liege = k_wisaudes
}

241.2.1 = {
	holder = 1002521
}

259.2.1 = {
	holder = 1002765
}

266.2.1 = {
	holder = 1005356
}

289.2.1 = {
	holder = 1007484
}

330.2.1 = {
	holder = 1009523
}

333.2.1 = {
	holder = 1010963
}

346.2.1 = {
	holder = 1011835
}

381.2.1 = {
	holder = 1012929
}

392.2.1 = {
	holder = 1015525
}

440.2.1 = {
	holder = 1016740
}

456.2.1 = {
	holder = 1019439
}

486.2.1 = {
	holder = 1020006
}

486.2.2 = {
	holder = 1022117
}

524.2.1 = {
	holder = 1022646
}

552.2.1 = {
	holder = 1024675
}

563.2.1 = {
	holder = 1026589
}

595.2.1 = {
	holder = 1028071
}

618.2.1 = {
	holder = 1028888
}

619.2.1 = {
	holder = 1030690
}

620.2.1 = {
	holder = 1029415
}

645.2.1 = {
	holder = 1029957
}

661.2.1 = {
	holder = 1032624
}

682.2.1 = {
	holder = 1033682
}

718.2.1 = {
	holder = 1035200
}

726.2.1 = {
	holder = 1037395
}

783.2.1 = {
	holder = 1038719
}

786.2.1 = {
	holder = 1041519
}

801.2.1 = {
	holder = 1041763
}

807.2.1 = {
	holder = 1042882
}

825.2.1 = {
	holder = 1043669
}

827.2.1 = {
	holder = 1042884
}

876.2.1 = {
	holder = 1045774
}

895.2.1 = {
	holder = 1047093
}

