200.2.1 = {
	holder = 1000689
	law = succ_primogeniture
	law = agnatic_succession
}

201.2.1 = {
	holder = 1001842
}

238.2.1 = {
	holder = 1002261
}

241.2.1 = {
	liege = k_lasicco
}

255.2.1 = {
	holder = 1003922
}

271.2.1 = {
	holder = 1004783
}

317.2.1 = {
	holder = 1005523
}

340.2.1 = {
	holder = 1008217
}

366.2.1 = {
	holder = 1009175
}

382.2.1 = {
	holder = 1010027
}

432.2.1 = {
	holder = 1011286
}

441.2.1 = {
	holder = 1013463
}

468.2.1 = {
	holder = 1012683
}

482.2.1 = {
	holder = 1013410
}

487.2.1 = {
	holder = 1015783
}

521.2.1 = {
	holder = 1016574
}

531.2.1 = {
	holder = 1017863
}

590.2.1 = {
	holder = 1018722
}

598.2.1 = {
	holder = 1018320
}

599.2.1 = {
	holder = 1019398
}

611.2.1 = {
	holder = 1021584
}

634.2.1 = {
	holder = 1022342
}

636.2.1 = {
	holder = 1020938
}

637.2.1 = {
	holder = 1020629
}

643.2.1 = {
	holder = 1022504
}

643.2.2 = {
	holder = 1023378
}

681.2.1 = {
	holder = 1023487
}

688.2.1 = {
	holder = 1024045
}

713.2.1 = {
	holder = 1024991
}

749.2.1 = {
	holder = 1027274
}

764.2.1 = {
	holder = 1028734
}

801.2.1 = {
	holder = 1030969
}

803.2.1 = {
	holder = 1031079
}

807.2.1 = {
	holder = 1031104
}

823.2.1 = {
	holder = 1031080
}

831.2.1 = {
	holder = 1032470
}

834.2.1 = {
	holder = 1030789
}

859.2.1 = {
	holder = 1032355
}

882.2.1 = {
	holder = 1034201
}

896.2.1 = {
	holder = 1034136
}

896.2.2 = {
	holder = 1035474
}

943.2.1 = {
	holder = 1035494
}

946.2.1 = {
	holder = 1035233
}

946.2.2 = {
	holder = 1037841
}

1001.2.1 = {
	holder = 1039035
}

1004.2.1 = {
	holder = 1040497
}

1054.2.1 = {
	holder = 1041295
}

