200.2.1 = {
	holder = 1000628
	law = succ_gavelkind
	law = agnatic_succession
}

214.2.1 = {
	liege = k_rakesa
}

217.2.1 = {
	holder = 1003289
}

242.2.1 = {
	holder = 1004431
}

245.2.1 = {
	holder = 1000698
}

245.2.2 = {
	holder = 1005920
}

264.2.1 = {
	holder = 1007226
}

266.2.1 = {
	holder = 1007110
}

267.2.1 = {
	holder = 1007228
}

309.2.1 = {
	holder = 1008918
}

323.2.1 = {
	holder = 1011365
}

327.2.1 = {
	holder = 1008341
}

336.2.1 = {
	holder = 1010126
}

367.2.1 = {
	holder = 1012521
}

404.2.1 = {
	holder = 1014903
}

440.2.1 = {
	holder = 1017383
}

468.2.1 = {
	holder = 1019526
}

473.2.1 = {
	holder = 1020994
}

523.2.1 = {
	holder = 1022204
}

531.2.1 = {
	holder = 1024785
}

591.2.1 = {
	holder = 1027562
}

615.2.1 = {
	holder = 1029280
}

630.2.1 = {
	holder = 1030535
}

633.2.1 = {
	holder = 1029871
}

633.2.2 = {
	holder = 1031542
}

683.2.1 = {
	holder = 1031733
}

693.2.1 = {
	holder = 1035392
}

694.2.1 = {
	holder = 1034627
}

694.2.2 = {
	holder = 1032858
}

695.2.1 = {
	holder = 1035587
}

697.2.1 = {
	holder = 1033769
}

728.2.1 = {
	holder = 1034990
}

734.2.1 = {
	holder = 1037903
}

782.2.1 = {
	holder = 1039102
}

796.2.1 = {
	holder = 1042098
}

800.2.1 = {
	holder = 1042150
}

834.2.1 = {
	holder = 1043299
}

853.2.1 = {
	holder = 1044866
}

893.2.1 = {
	holder = 1045938
}

