200.2.1 = {
	holder = 1000620
	law = succ_feudal_elective
	law = agnatic_succession
}

200.2.2 = {
	liege = k_sosyata
}

237.2.1 = {
	holder = 1002113
}

251.2.1 = {
	holder = 1002590
}

251.2.2 = {
	holder = 1004489
}

276.2.1 = {
	holder = 1004516
}

280.2.1 = {
	holder = 1005755
}

304.2.1 = {
	holder = 1005349
}

317.2.1 = {
	holder = 1006526
}

348.2.1 = {
	holder = 1007783
}

350.2.1 = {
	holder = 1007814
}

350.2.2 = {
	holder = 1009207
}

385.2.1 = {
	holder = 1009742
}

409.2.1 = {
	holder = 1011008
}

443.2.1 = {
	holder = 1010648
}

443.2.2 = {
	holder = 1011558
}

450.2.1 = {
	holder = 1014006
}

466.2.1 = {
	holder = 1012515
}

471.2.1 = {
	holder = 1014837
}

490.2.1 = {
	holder = 1015098
}

507.2.1 = {
	holder = 1016037
}

530.2.1 = {
	holder = 1016932
}

561.2.1 = {
	holder = 1018165
}

611.2.1 = {
	holder = 1020158
}

612.2.1 = {
	holder = 1021867
}

657.2.1 = {
	holder = 1022134
}

679.2.1 = {
	holder = 1024067
}

694.2.1 = {
	holder = 1025796
}

712.2.1 = {
	holder = 1026043
}

727.2.1 = {
	holder = 1027248
}

772.2.1 = {
	holder = 1027381
}

786.2.1 = {
	holder = 1030236
}

823.2.1 = {
	holder = 1031993
}

844.2.1 = {
	holder = 1031692
}

844.2.2 = {
	holder = 1033091
}

883.2.1 = {
	holder = 1033899
}

902.2.1 = {
	holder = 1034907
}

936.2.1 = {
	holder = 1036214
}

959.2.1 = {
	holder = 1037407
}

1006.2.1 = {
	holder = 1038477
}

1011.2.1 = {
	holder = 1039755
}

1036.2.1 = {
	holder = 1039973
}

1045.2.1 = {
	holder = 1042329
}

