200.2.1 = {
	holder = 1000672
	law = succ_primogeniture
	law = agnatic_succession
}

200.2.2 = {
	liege = k_rasicco
}

231.2.1 = {
	holder = 1001946
}

274.2.1 = {
	holder = 1003532
}

279.2.1 = {
	holder = 1004910
}

281.2.1 = {
	holder = 1005033
}

301.2.1 = {
	holder = 1004459
}

301.2.2 = {
	holder = 1006808
}

322.2.1 = {
	holder = 1007232
}

366.2.1 = {
	liege = k_seltet
}

377.2.1 = {
	holder = 1008362
}

395.2.1 = {
	holder = 1010917
}

437.2.1 = {
	holder = 1012955
}

464.2.1 = {
	holder = 1013771
}

473.2.1 = {
	holder = 1014810
}

482.2.1 = {
	holder = 1014520
}

482.2.2 = {
	holder = 1015614
}

489.2.1 = {
	holder = 1015305
}

540.2.1 = {
	holder = 1016126
}

551.2.1 = {
	holder = 1018749
}

552.2.1 = {
	holder = 1019042
}

561.2.1 = {
	holder = 1018749
}

561.2.2 = {
	holder = 1019440
}

587.2.1 = {
	holder = 1020568
}

613.2.1 = {
	holder = 1020695
}

648.2.1 = {
	holder = 1022918
}

649.2.1 = {
	holder = 1023610
}

687.2.1 = {
	holder = 1023768
}

694.2.1 = {
	holder = 1025652
}

713.2.1 = {
	holder = 1024935
}

721.2.1 = {
	holder = 1025469
}

722.2.1 = {
	holder = 1024762
}

746.2.1 = {
	holder = 1025659
}

749.2.1 = {
	holder = 1026255
}

757.2.1 = {
	holder = 1027275
}

758.2.1 = {
	holder = 1026474
}

758.2.2 = {
	liege = k_rasicco
}

767.2.1 = {
	holder = 1027383
}

783.2.1 = {
	holder = 1027436
}

789.2.1 = {
	holder = 1030267
}

806.2.1 = {
	holder = 1031163
}

838.2.1 = {
	holder = 1030705
}

839.2.1 = {
	holder = 1032829
}

881.2.1 = {
	holder = 1033150
}

892.2.1 = {
	holder = 1034816
}

914.2.1 = {
	holder = 1035593
}

935.2.1 = {
	holder = 1036734
}

963.2.1 = {
	holder = 1037600
}

998.2.1 = {
	holder = 1038940
}

1011.2.1 = {
	holder = 1039037
}

1011.2.2 = {
	holder = 1040940
}

1012.2.1 = {
	holder = 1039534
}

1019.2.1 = {
	holder = 1040352
}

1025.2.1 = {
	holder = 1039190
}

1025.2.2 = {
	holder = 1040702
}

1025.2.3 = {
	holder = 1041601
}

