200.2.1 = {
	holder = 1000659
	law = succ_primogeniture
	law = agnatic_succession
}

200.2.2 = {
	liege = k_rasicco
}

205.2.1 = {
	holder = 1002178
}

227.2.1 = {
	holder = 1002481
}

237.2.1 = {
	holder = 1003384
}

271.2.1 = {
	holder = 1004340
}

311.2.1 = {
	holder = 1005944
}

336.2.1 = {
	holder = 1007099
}

358.2.1 = {
	holder = 1007329
}

375.2.1 = {
	holder = 1010391
}

402.2.1 = {
	holder = 1011784
}

404.2.1 = {
	holder = 1010391
}

410.2.1 = {
	holder = 1011785
}

423.2.1 = {
	holder = 1012400
}

430.2.1 = {
	holder = 1010273
}

435.2.1 = {
	holder = 1011950
}

448.2.1 = {
	holder = 1012832
}

449.2.1 = {
	holder = 1012417
}

464.2.1 = {
	holder = 1014284
}

468.2.1 = {
	holder = 1013408
}

469.2.1 = {
	holder = 1014910
}

516.2.1 = {
	holder = 1015473
}

529.2.1 = {
	holder = 1017820
}

553.2.1 = {
	holder = 1018622
}

586.2.1 = {
	holder = 1019413
}

623.2.1 = {
	holder = 1021060
}

631.2.1 = {
	holder = 1022421
}

664.2.1 = {
	holder = 1023898
}

669.2.1 = {
	holder = 1024512
}

706.2.1 = {
	holder = 1026118
}

768.2.1 = {
	holder = 1027325
}

788.2.1 = {
	holder = 1029452
}

823.2.1 = {
	holder = 1030571
}

843.2.1 = {
	holder = 1032179
}

888.2.1 = {
	holder = 1034000
}

897.2.1 = {
	holder = 1035492
}

954.2.1 = {
	holder = 1036317
}

970.2.1 = {
	holder = 1038327
}

996.2.1 = {
	holder = 1039083
}

1027.2.1 = {
	holder = 1041238
}

