200.2.1 = {
	holder = 1001129
	law = succ_primogeniture
	law = cognatic_succession
}

217.2.1 = {
	holder = 1002743
}

252.2.1 = {
	liege = k_elelenna
}

258.2.1 = {
	holder = 1004086
}

263.2.1 = {
	holder = 1004022
}

297.2.1 = {
	holder = 1006238
}

328.2.1 = {
	holder = 1007248
}

377.2.1 = {
	holder = 1010449
}

434.2.1 = {
	holder = 1012483
}

480.2.1 = {
	holder = 1013840
}

489.2.1 = {
	holder = 1015650
}

500.2.1 = {
	holder = 1016392
}

529.2.1 = {
	holder = 1016080
}

536.2.1 = {
	holder = 1016300
}

539.2.1 = {
	holder = 1018305
}

598.2.1 = {
	holder = 1019772
}

634.2.1 = {
	holder = 1020702
}

644.2.1 = {
	holder = 1023056
}

710.2.1 = {
	holder = 1025049
}

720.2.1 = {
	holder = 1025524
}

733.2.1 = {
	holder = 1027219
}

748.2.1 = {
	holder = 1028064
}

793.2.1 = {
	holder = 1029668
}

802.2.1 = {
	holder = 1029134
}

802.2.2 = {
	holder = 1031021
}

818.2.1 = {
	holder = 1031726
}

904.2.1 = {
	holder = 1034557
}

916.2.1 = {
	holder = 1035048
}

943.2.1 = {
	holder = 1037707
}

950.2.1 = {
	holder = 1037745
}

1000.2.1 = {
	holder = 1038530
}

1015.2.1 = {
	holder = 1039949
}

1015.2.2 = {
	holder = 1041148
}

1042.2.1 = {
	holder = 1041626
}

