200.2.1 = {
	holder = 1000826
	law = succ_primogeniture
	law = agnatic_succession
}

202.2.1 = {
	liege = k_bilodan
}

219.2.1 = {
	holder = 1002954
}

261.2.1 = {
	holder = 1004255
}

274.2.1 = {
	holder = 1007713
}

329.2.1 = {
	holder = 1008928
}

341.2.1 = {
	holder = 1012236
}

365.2.1 = {
	holder = 1013344
}

402.2.1 = {
	holder = 1014531
}

428.2.1 = {
	holder = 1016916
}

454.2.1 = {
	holder = 1016375
}

454.2.2 = {
	holder = 1020080
}

471.2.1 = {
	holder = 1020740
}

472.2.1 = {
	holder = 1019848
}

472.2.2 = {
	holder = 1021200
}

524.2.1 = {
	holder = 1021692
}

537.2.1 = {
	holder = 1025129
}

543.2.1 = {
	holder = 1023373
}

543.2.2 = {
	holder = 1025788
}

592.2.1 = {
	holder = 1025957
}

600.2.1 = {
	holder = 1029120
}

624.2.1 = {
	holder = 1030197
}

628.2.1 = {
	holder = 1027394
}

628.2.2 = {
	holder = 1027626
}

636.2.1 = {
	holder = 1029027
}

639.2.1 = {
	holder = 1029172
}

650.2.1 = {
	holder = 1032698
}

652.2.1 = {
	holder = 1032696
}

690.2.1 = {
	holder = 1032864
}

701.2.1 = {
	holder = 1034012
}

701.2.2 = {
	holder = 1033435
}

714.2.1 = {
	holder = 1036819
}

763.2.1 = {
	holder = 1038630
}

794.2.1 = {
	holder = 1040089
}

802.2.1 = {
	holder = 1042039
}

823.2.1 = {
	holder = 1042587
}

857.2.1 = {
	holder = 1043755
}

875.2.1 = {
	holder = 1046475
}

891.2.1 = {
	holder = 1046204
}

