200.2.1 = {
	holder = 1000670
	law = succ_open_elective
	law = agnatic_succession
}

200.2.2 = {
	liege = k_relarqajar
}

207.2.1 = {
	holder = 1002008
}

241.2.1 = {
	holder = 1003597
}

259.2.1 = {
	holder = 1005716
}

263.2.1 = {
	holder = 1005518
}

265.2.1 = {
	holder = 1006879
}

271.2.1 = {
	holder = 1004940
}

280.2.1 = {
	holder = 1006103
}

309.2.1 = {
	holder = 1010300
}

318.2.1 = {
	holder = 1010910
}

364.2.1 = {
	holder = 1010913
}

370.2.1 = {
	holder = 1014226
}

423.2.1 = {
	holder = 1015277
}

447.2.1 = {
	holder = 1018536
}

468.2.1 = {
	holder = 1019697
}

479.2.1 = {
	holder = 1021029
}

484.2.1 = {
	holder = 1019279
}

498.2.1 = {
	holder = 1021196
}

538.2.1 = {
	holder = 1022884
}

541.2.1 = {
	holder = 1023286
}

568.2.1 = {
	holder = 1025874
}

577.2.1 = {
	holder = 1026083
}

589.2.1 = {
	holder = 1027763
}

593.2.1 = {
	holder = 1028959
}

601.2.1 = {
	holder = 1029266
}

608.2.1 = {
	holder = 1026889
}

609.2.1 = {
	holder = 1029998
}

609.2.2 = {
	liege = k_datrar
}

636.2.1 = {
	holder = 1029840
}

650.2.1 = {
	holder = 1031911
}

657.2.1 = {
	holder = 1029999
}

658.2.1 = {
	holder = 1033224
}

658.2.2 = {
	liege = k_relarqajar
}

690.2.1 = {
	holder = 1033590
}

723.2.1 = {
	holder = 1035467
}

729.2.1 = {
	holder = 1037078
}

772.2.1 = {
	holder = 1038628
}

787.2.1 = {
	holder = 1040990
}

790.2.1 = {
	holder = 1040573
}

791.2.1 = {
	holder = 1039616
}

797.2.1 = {
	holder = 1041793
}

828.2.1 = {
	holder = 1043214
}

833.2.1 = {
	holder = 1044387
}

849.2.1 = {
	holder = 1042454
}

856.2.1 = {
	holder = 1043360
}

893.2.1 = {
	holder = 1045744
}

