200.2.1 = {
	holder = 1000785
	law = succ_primogeniture
	law = agnatic_succession
}

200.2.2 = {
	liege = k_seltet
}

200.2.3 = {
	holder = 1001399
}

249.2.1 = {
	holder = 1002154
}

259.2.1 = {
	holder = 1004663
}

262.2.1 = {
	holder = 1005010
}

270.2.1 = {
	holder = 1004519
}

270.2.2 = {
	holder = 1005355
}

280.2.1 = {
	holder = 1004663
}

280.2.2 = {
	holder = 1005833
}

309.2.1 = {
	holder = 1006958
}

321.2.1 = {
	holder = 1007358
}

322.2.1 = {
	holder = 1007843
}

334.2.1 = {
	holder = 1008006
}

360.2.1 = {
	holder = 1009073
}

376.2.1 = {
	holder = 1009448
}

376.2.2 = {
	holder = 1010445
}

384.2.1 = {
	holder = 1009950
}

388.2.1 = {
	holder = 1009448
}

388.2.2 = {
	holder = 1011037
}

405.2.1 = {
	holder = 1010392
}

405.2.2 = {
	holder = 1009875
}

419.2.1 = {
	holder = 1011956
}

434.2.1 = {
	holder = 1013045
}

468.2.1 = {
	holder = 1013873
}

487.2.1 = {
	holder = 1015072
}

524.2.1 = {
	holder = 1016378
}

548.2.1 = {
	holder = 1017956
}

552.2.1 = {
	holder = 1018625
}

555.2.1 = {
	holder = 1017418
}

583.2.1 = {
	holder = 1019172
}

585.2.1 = {
	holder = 1018724
}

595.2.1 = {
	holder = 1018880
}

595.2.2 = {
	holder = 1021099
}

617.2.1 = {
	holder = 1021611
}

663.2.1 = {
	holder = 1022708
}

673.2.1 = {
	holder = 1022920
}

673.2.2 = {
	holder = 1021745
}

678.2.1 = {
	holder = 1023354
}

678.2.2 = {
	holder = 1023620
}

700.2.1 = {
	holder = 1025516
}

712.2.1 = {
	holder = 1025258
}

714.2.1 = {
	holder = 1026255
}

748.2.1 = {
	holder = 1028381
}

758.2.1 = {
	holder = 1028409
}

811.2.1 = {
	holder = 1029202
}

819.2.1 = {
	holder = 1031359
}

828.2.1 = {
	holder = 1031140
}

828.2.2 = {
	holder = 1032330
}

867.2.1 = {
	holder = 1032776
}

889.2.1 = {
	holder = 1034461
}

949.2.1 = {
	holder = 1035283
}

952.2.1 = {
	holder = 1036667
}

952.2.2 = {
	holder = 1038105
}

1005.2.1 = {
	holder = 1038184
}

1015.2.1 = {
	holder = 1039052
}

1017.2.1 = {
	holder = 1040274
}

1018.2.1 = {
	holder = 1041321
}

1052.2.1 = {
	holder = 1042019
}

