200.2.1 = {
	holder = 1001569
	law = succ_ultimogeniture
	law = cognatic_succession
}

200.2.2 = {
	liege = k_eliutt
}

203.2.1 = {
	holder = 1001528
}

205.2.1 = {
	holder = 1003220
}

286.2.1 = {
	holder = 1004345
}

288.2.1 = {
	holder = 1007093
}

292.2.1 = {
	holder = 1009150
}

316.2.1 = {
	holder = 1009890
}

327.2.1 = {
	holder = 1008877
}

362.2.1 = {
	holder = 1010338
}

374.2.1 = {
	holder = 1014670
}

376.2.1 = {
	holder = 1012902
}

376.2.2 = {
	holder = 1014793
}

376.2.3 = {
	holder = 1010720
}

384.2.1 = {
	holder = 1012114
}

389.2.1 = {
	holder = 1015501
}

402.2.1 = {
	holder = 1016505
}

411.2.1 = {
	holder = 1016739
}

431.2.1 = {
	holder = 1018430
}

434.2.1 = {
	holder = 1016131
}

442.2.1 = {
	holder = 1018950
}

505.2.1 = {
	holder = 1020782
}

534.2.1 = {
	holder = 1023960
}

569.2.1 = {
	holder = 1025796
}

604.2.1 = {
	holder = 1027607
}

613.2.1 = {
	holder = 1029769
}

623.2.1 = {
	holder = 1028063
}

640.2.1 = {
	holder = 1030220
}

659.2.1 = {
	holder = 1032114
}

672.2.1 = {
	holder = 1029691
}

680.2.1 = {
	holder = 1032227
}

694.2.1 = {
	holder = 1032372
}

709.2.1 = {
	holder = 1035417
}

737.2.1 = {
	holder = 1037506
}

752.2.1 = {
	holder = 1038734
}

806.2.1 = {
	holder = 1042609
}

850.2.1 = {
	holder = 1043410
}

856.2.1 = {
	holder = 1043764
}

876.2.1 = {
	holder = 1045631
}

