200.2.1 = {
	holder = 1000121
	law = succ_tanistry
	law = agnatic_succession
}

200.2.2 = {
	liege = k_tonund
}

238.2.1 = {
	holder = 1003672
}

270.2.1 = {
	holder = 1006235
}

311.2.1 = {
	holder = 1008774
}

321.2.1 = {
	holder = 1010831
}

325.2.1 = {
	holder = 1008384
}

332.2.1 = {
	holder = 1010616
}

333.2.1 = {
	holder = 1012009
}

339.2.1 = {
	holder = 1012022
}

398.2.1 = {
	holder = 1013280
}

400.2.1 = {
	holder = 1016161
}

408.2.1 = {
	holder = 1016894
}

412.2.1 = {
	holder = 1016161
}

439.2.1 = {
	holder = 1017441
}

442.2.1 = {
	holder = 1017903
}

442.2.2 = {
	holder = 1019311
}

482.2.1 = {
	holder = 1019579
}

508.2.1 = {
	holder = 1020720
}

517.2.1 = {
	holder = 1023776
}

529.2.1 = {
	holder = 1022123
}

530.2.1 = {
	holder = 1024916
}

580.2.1 = {
	holder = 1025294
}

599.2.1 = {
	holder = 1027897
}

599.2.2 = {
	holder = 1029284
}

641.2.1 = {
	holder = 1029336
}

651.2.1 = {
	holder = 1032519
}

656.2.1 = {
	holder = 1032903
}

703.2.1 = {
	holder = 1035794
}

713.2.1 = {
	holder = 1036241
}

714.2.1 = {
	holder = 1036946
}

740.2.1 = {
	holder = 1036986
}

776.2.1 = {
	holder = 1039395
}

794.2.1 = {
	holder = 1041019
}

823.2.1 = {
	holder = 1042141
}

828.2.1 = {
	holder = 1041958
}

853.2.1 = {
	holder = 1045025
}

859.2.1 = {
	holder = 1044727
}

875.2.1 = {
	holder = 1047219
}

