200.2.1 = {
	holder = 1000135
	law = succ_tanistry
	law = agnatic_succession
}

200.2.2 = {
	liege = k_qolelen
}

224.2.1 = {
	holder = 1002775
}

248.2.1 = {
	holder = 1004683
}

255.2.1 = {
	holder = 1005558
}

266.2.1 = {
	holder = 1004164
}

266.2.2 = {
	holder = 1007407
}

303.2.1 = {
	holder = 1007492
}

329.2.1 = {
	holder = 1010510
}

366.2.1 = {
	holder = 1012084
}

395.2.1 = {
	holder = 1015965
}

397.2.1 = {
	holder = 1015652
}

412.2.1 = {
	holder = 1016824
}

427.2.1 = {
	holder = 1018197
}

433.2.1 = {
	holder = 1018393
}

487.2.1 = {
	holder = 1019905
}

505.2.1 = {
	holder = 1022907
}

531.2.1 = {
	holder = 1024084
}

570.2.1 = {
	holder = 1025604
}

579.2.1 = {
	holder = 1028019
}

606.2.1 = {
	holder = 1028090
}

613.2.1 = {
	holder = 1029525
}

614.2.1 = {
	holder = 1030309
}

649.2.1 = {
	holder = 1030521
}

678.2.1 = {
	holder = 1034268
}

691.2.1 = {
	holder = 1032117
}

692.2.1 = {
	holder = 1030290
}

693.2.1 = {
	holder = 1035382
}

705.2.1 = {
	holder = 1033696
}

705.2.2 = {
	holder = 1036307
}

739.2.1 = {
	holder = 1036376
}

750.2.1 = {
	holder = 1038743
}

761.2.1 = {
	liege = 0
}

766.2.1 = {
	holder = 1040213
}

771.2.1 = {
	liege = k_naloch
}

812.2.1 = {
	holder = 1040424
}

820.2.1 = {
	holder = 1040405
}

825.2.1 = {
	holder = 1044111
}

842.2.1 = {
	holder = 1042759
}

845.2.1 = {
	holder = 1043127
}

846.2.1 = {
	holder = 1044113
}

846.2.2 = {
	holder = 1045443
}

883.2.1 = {
	holder = 1045798
}

