200.2.1 = {
	holder = 1000616
	law = succ_primogeniture
	law = agnatic_succession
}

200.2.2 = {
	liege = k_ebezete
}

215.2.1 = {
	holder = 1003548
}

257.2.1 = {
	holder = 1006014
}

279.2.1 = {
	holder = 1007580
}

301.2.1 = {
	holder = 1008651
}

331.2.1 = {
	holder = 1010450
}

347.2.1 = {
	holder = 1012519
}

381.2.1 = {
	holder = 1013646
}

383.2.1 = {
	holder = 1014097
}

413.2.1 = {
	holder = 1015294
}

431.2.1 = {
	holder = 1017447
}

450.2.1 = {
	holder = 1019750
}

450.2.2 = {
	holder = 1017447
}

456.2.1 = {
	holder = 1019049
}

457.2.1 = {
	holder = 1019754
}

457.2.2 = {
	holder = 1020229
}

466.2.1 = {
	holder = 1020803
}

535.2.1 = {
	holder = 1021860
}

539.2.1 = {
	holder = 1025494
}

567.2.1 = {
	holder = 1027252
}

567.2.2 = {
	holder = 1027259
}

580.2.1 = {
	holder = 1027321
}

625.2.1 = {
	holder = 1028983
}

646.2.1 = {
	holder = 1031867
}

670.2.1 = {
	holder = 1033322
}

722.2.1 = {
	holder = 1034559
}

726.2.1 = {
	holder = 1037668
}

733.2.1 = {
	holder = 1033887
}

735.2.1 = {
	holder = 1037174
}

774.2.1 = {
	holder = 1038497
}

791.2.1 = {
	holder = 1040009
}

791.2.2 = {
	holder = 1041786
}

828.2.1 = {
	holder = 1042712
}

831.2.1 = {
	holder = 1041785
}

832.2.1 = {
	holder = 1044511
}

859.2.1 = {
	holder = 1044865
}

875.2.1 = {
	holder = 1046324
}

893.2.1 = {
	holder = 1047901
}

894.2.1 = {
	holder = 1045531
}

895.2.1 = {
	holder = 1048559
}

