636.2.1 = {
	holder = 1020154
}

641.2.1 = {
	holder = 1023289
}

666.2.1 = {
	holder = 1023330
}

716.2.1 = {
	holder = 1024044
}

721.2.1 = {
	holder = 1026977
}

729.2.1 = {
	holder = 1027135
}

755.2.1 = {
	holder = 1028141
}

758.2.1 = {
	holder = 1027044
}

766.2.1 = {
	holder = 1029228
}

778.2.1 = {
	holder = 1029901
}

785.2.1 = {
	holder = 1030081
}

792.2.1 = {
	holder = 1028736
}

795.2.1 = {
	holder = 1029038
}

813.1.1 = {
	holder = 0
}

