200.2.1 = {
	holder = 1001402
	law = succ_open_elective
	law = cognatic_succession
}

215.2.1 = {
	holder = 1000916
}

237.2.1 = {
	holder = 1002195
}

274.2.1 = {
	holder = 1004138
}

301.2.1 = {
	holder = 1006085
}

314.2.1 = {
	holder = 1006886
}

342.2.1 = {
	holder = 1008733
}

378.2.1 = {
	holder = 1009480
}

408.2.1 = {
	holder = 1010740
}

435.2.1 = {
	holder = 1012705
}

456.2.1 = {
	holder = 1014266
}

500.2.1 = {
	holder = 1014951
}

540.2.1 = {
	holder = 1016986
}

564.2.1 = {
	holder = 1019275
}

571.2.1 = {
	holder = 1018934
}

580.2.1 = {
	holder = 1019424
}

611.2.1 = {
	holder = 1021824
}

612.2.1 = {
	holder = 1019337
}

630.2.1 = {
	holder = 1021906
}

668.2.1 = {
	holder = 1022856
}

687.2.1 = {
	holder = 1024540
}

724.2.1 = {
	holder = 1026305
}

761.2.1 = {
	holder = 1029042
}

799.2.1 = {
	holder = 1029490
}

816.2.1 = {
	holder = 1031036
}

848.2.1 = {
	holder = 1031979
}

891.2.1 = {
	holder = 1033460
}

925.2.1 = {
	holder = 1035345
}

929.2.1 = {
	holder = 1036932
}

971.2.1 = {
	holder = 1037805
}

1009.2.1 = {
	holder = 1039303
}

1013.2.1 = {
	holder = 1039040
}

1029.2.1 = {
	holder = 1040988
}

1063.2.1 = {
	holder = 1043001
}

