200.2.1 = {
	holder = 1002018
	law = succ_elective_gavelkind
	law = agnatic_succession
}

225.2.1 = {
	holder = 1002759
}

253.2.1 = {
	holder = 1005086
}

287.2.1 = {
	holder = 1007990
}

289.2.1 = {
	holder = 1007663
}

309.2.1 = {
	holder = 1009064
}

312.2.1 = {
	holder = 1006540
}

318.2.1 = {
	holder = 1008024
}

343.2.1 = {
	holder = 1011315
}

391.2.1 = {
	holder = 1012987
}

401.2.1 = {
	holder = 1016147
}

404.2.1 = {
	holder = 1014720
}

417.2.1 = {
	holder = 1015114
}

430.2.1 = {
	holder = 1017713
}

432.2.1 = {
	holder = 1015431
}

450.2.1 = {
	holder = 1019813
}

475.2.1 = {
	holder = 1020585
}

499.2.1 = {
	holder = 1021672
}

538.2.1 = {
	holder = 1023142
}

557.2.1 = {
	holder = 1026184
}

582.2.1 = {
	holder = 1028271
}

608.2.1 = {
	holder = 1029968
}

650.2.1 = {
	holder = 1030796
}

653.2.1 = {
	holder = 1031883
}

663.2.1 = {
	holder = 1033090
}

691.2.1 = {
	holder = 1033713
}

712.2.1 = {
	holder = 1033501
}

717.2.1 = {
	holder = 1036923
}

727.2.1 = {
	holder = 1036156
}

747.2.1 = {
	holder = 1036831
}

770.2.1 = {
	holder = 1040202
}

821.2.1 = {
	holder = 1042323
}

848.2.1 = {
	holder = 1043903
}

882.2.1 = {
	holder = 1047098
}

900.2.1 = {
	holder = 1047503
}

