200.2.1 = {
	holder = 1002037
	law = succ_open_elective
	law = agnatic_succession
}

217.2.1 = {
	holder = 1002602
}

236.2.1 = {
	holder = 1001953
}

237.2.1 = {
	holder = 1002745
}

263.2.1 = {
	holder = 1005502
}

293.2.1 = {
	holder = 1007626
}

303.2.1 = {
	holder = 1009376
}

331.2.1 = {
	holder = 1011447
}

340.2.1 = {
	holder = 1008953
}

351.2.1 = {
	holder = 1012017
}

369.2.1 = {
	holder = 1013910
}

374.2.1 = {
	holder = 1014690
}

405.2.1 = {
	holder = 1014755
}

426.2.1 = {
	holder = 1017153
}

446.2.1 = {
	holder = 1016258
}

461.2.1 = {
	holder = 1020525
}

481.2.1 = {
	holder = 1020783
}

509.2.1 = {
	holder = 1021838
}

524.2.1 = {
	holder = 1023831
}

528.2.1 = {
	holder = 1023753
}

566.2.1 = {
	holder = 1024989
}

578.2.1 = {
	holder = 1027295
}

597.2.1 = {
	holder = 1028345
}

622.2.1 = {
	holder = 1029910
}

639.2.1 = {
	holder = 1031017
}

664.2.1 = {
	holder = 1032571
}

665.2.1 = {
	holder = 1031582
}

699.2.1 = {
	holder = 1033561
}

723.2.1 = {
	holder = 1036162
}

753.2.1 = {
	holder = 1037890
}

767.2.1 = {
	holder = 1040277
}

769.2.1 = {
	holder = 1040489
}

817.2.1 = {
	holder = 1041127
}

842.2.1 = {
	holder = 1044434
}

882.2.1 = {
	holder = 1047674
}

895.2.1 = {
	holder = 1048603
}

