200.2.1 = {
	holder = 1002011
	law = succ_primogeniture
	law = agnatic_succession
}

212.2.1 = {
	holder = 1000808
}

247.2.1 = {
	holder = 1002811
}

255.2.1 = {
	holder = 1006582
}

266.2.1 = {
	holder = 1004939
}

268.2.1 = {
	holder = 1006825
}

270.2.1 = {
	holder = 1007691
}

308.2.1 = {
	holder = 1008759
}

319.2.1 = {
	holder = 1010356
}

329.2.1 = {
	holder = 1011753
}

366.2.1 = {
	holder = 1011843
}

394.2.1 = {
	holder = 1015146
}

430.2.1 = {
	holder = 1017797
}

469.2.1 = {
	holder = 1019501
}

491.2.1 = {
	holder = 1021093
}

506.2.1 = {
	holder = 1022582
}

513.2.1 = {
	holder = 1023646
}

519.2.1 = {
	holder = 1024189
}

536.2.1 = {
	holder = 1024769
}

537.2.1 = {
	holder = 1021477
}

538.2.1 = {
	holder = 1020997
}

543.2.1 = {
	holder = 1025004
}

580.2.1 = {
	holder = 1026302
}

604.2.1 = {
	holder = 1028336
}

636.2.1 = {
	holder = 1029840
}

650.2.1 = {
	holder = 1031911
}

657.2.1 = {
	holder = 1029999
}

677.2.1 = {
	holder = 1031544
}

694.2.1 = {
	holder = 1032802
}

715.2.1 = {
	holder = 1035638
}

721.2.1 = {
	holder = 1034996
}

754.2.1 = {
	holder = 1036395
}

761.2.1 = {
	holder = 1039723
}

807.2.1 = {
	holder = 1040961
}

831.2.1 = {
	holder = 1043405
}

862.2.1 = {
	holder = 1044910
}

868.2.1 = {
	holder = 1043304
}

869.2.1 = {
	holder = 1045470
}

895.2.1 = {
	holder = 1047411
}

