200.2.1 = {
	holder = 1002021
	law = succ_open_elective
	law = cognatic_succession
}

234.2.1 = {
	holder = 1002761
}

257.2.1 = {
	holder = 1006075
}

264.2.1 = {
	holder = 1007201
}

270.2.1 = {
	holder = 1005008
}

294.2.1 = {
	holder = 1006617
}

322.2.1 = {
	holder = 1009515
}

331.2.1 = {
	holder = 1011621
}

401.2.1 = {
	holder = 1012925
}

402.2.1 = {
	holder = 1016532
}

410.2.1 = {
	holder = 1012239
}

418.2.1 = {
	holder = 1014470
}

420.2.1 = {
	holder = 1017147
}

429.2.1 = {
	holder = 1017744
}

451.2.1 = {
	holder = 1019027
}

452.2.1 = {
	holder = 1017471
}

481.2.1 = {
	holder = 1018774
}

484.2.1 = {
	holder = 1020376
}

487.2.1 = {
	holder = 1021706
}

533.2.1 = {
	holder = 1023144
}

554.2.1 = {
	holder = 1024729
}

589.2.1 = {
	holder = 1026277
}

624.2.1 = {
	holder = 1029520
}

659.2.1 = {
	holder = 1032247
}

670.2.1 = {
	holder = 1033571
}

697.2.1 = {
	holder = 1030347
}

699.2.1 = {
	holder = 1032601
}

704.2.1 = {
	holder = 1036023
}

708.2.1 = {
	holder = 1035901
}

736.2.1 = {
	holder = 1036063
}

764.2.1 = {
	holder = 1037316
}

771.2.1 = {
	holder = 1037757
}

785.2.1 = {
	holder = 1041462
}

830.2.1 = {
	holder = 1042077
}

848.2.1 = {
	holder = 1045581
}

889.2.1 = {
	holder = 1046121
}

