200.2.1 = {
	holder = 1001959
	law = succ_elective_gavelkind
	law = agnatic_succession
}

211.2.1 = {
	holder = 1003667
}

221.2.1 = {
	holder = 1004308
}

224.2.1 = {
	holder = 1004483
}

254.2.1 = {
	holder = 1006505
}

300.2.1 = {
	holder = 1009657
}

345.2.1 = {
	holder = 1012726
}

359.2.1 = {
	holder = 1013630
}

364.2.1 = {
	holder = 1013975
}

386.2.1 = {
	holder = 1015405
}

388.2.1 = {
	holder = 1015527
}

431.2.1 = {
	holder = 1018466
}

475.2.1 = {
	holder = 1021355
}

523.2.1 = {
	holder = 1024396
}

561.2.1 = {
	holder = 1026864
}

588.2.1 = {
	holder = 1028610
}

616.2.1 = {
	holder = 1030440
}

634.2.1 = {
	holder = 1031589
}

671.2.1 = {
	holder = 1034014
}

691.2.1 = {
	holder = 1035299
}

727.2.1 = {
	holder = 1037717
}

731.2.1 = {
	holder = 1037949
}

746.2.1 = {
	holder = 1038919
}

785.2.1 = {
	holder = 1041388
}

805.2.1 = {
	holder = 1042694
}

813.2.1 = {
	holder = 1043273
}

827.2.1 = {
	holder = 1044188
}

834.2.1 = {
	holder = 1044643
}

882.2.1 = {
	holder = 1047677
}

884.2.1 = {
	holder = 1047789
}

