200.2.1 = {
	holder = 1002027
	law = succ_primogeniture
	law = agnatic_succession
}

245.2.1 = {
	holder = 1003530
}

268.2.1 = {
	holder = 1006797
}

272.2.1 = {
	holder = 1005896
}

273.2.1 = {
	holder = 1005502
}

293.2.1 = {
	holder = 1007626
}

303.2.1 = {
	holder = 1009376
}

331.2.1 = {
	holder = 1011447
}

341.2.1 = {
	holder = 1008953
}

344.2.1 = {
	holder = 1012061
}

383.2.1 = {
	holder = 1010070
}

385.2.1 = {
	holder = 1011226
}

428.2.1 = {
	holder = 1015589
}

442.2.1 = {
	holder = 1019092
}

488.2.1 = {
	holder = 1022168
}

552.2.1 = {
	holder = 1024080
}

570.2.1 = {
	holder = 1026790
}

572.2.1 = {
	holder = 1025793
}

575.2.1 = {
	holder = 1026175
}

608.2.1 = {
	holder = 1027874
}

620.2.1 = {
	holder = 1030034
}

673.2.1 = {
	holder = 1031192
}

678.2.1 = {
	holder = 1034262
}

689.2.1 = {
	holder = 1033604
}

730.2.1 = {
	holder = 1035832
}

754.2.1 = {
	holder = 1039263
}

767.2.1 = {
	holder = 1038698
}

782.2.1 = {
	holder = 1040842
}

837.2.1 = {
	holder = 1041836
}

846.2.1 = {
	holder = 1045084
}

851.2.1 = {
	holder = 1045436
}

