200.2.1 = {
	holder = 1002019
	law = succ_elective_gavelkind
	law = agnatic_succession
}

249.2.1 = {
	holder = 1003261
}

263.2.1 = {
	holder = 1006303
}

275.2.1 = {
	holder = 1007478
}

286.2.1 = {
	holder = 1008583
}

287.2.1 = {
	holder = 1006338
}

292.2.1 = {
	holder = 1007451
}

321.2.1 = {
	holder = 1009447
}

339.2.1 = {
	holder = 1011317
}

362.2.1 = {
	holder = 1012861
}

366.2.1 = {
	holder = 1014147
}

415.2.1 = {
	holder = 1014571
}

425.2.1 = {
	holder = 1018111
}

429.2.1 = {
	holder = 1018374
}

451.2.1 = {
	holder = 1019254
}

487.2.1 = {
	holder = 1020587
}

495.2.1 = {
	holder = 1020628
}

497.2.1 = {
	holder = 1021417
}

513.2.1 = {
	holder = 1022555
}

526.2.1 = {
	holder = 1024079
}

537.2.1 = {
	holder = 1022625
}

553.2.1 = {
	holder = 1025187
}

595.2.1 = {
	holder = 1027358
}

612.2.1 = {
	holder = 1029246
}

621.2.1 = {
	holder = 1030818
}

676.2.1 = {
	holder = 1031912
}

678.2.1 = {
	holder = 1034533
}

681.2.1 = {
	holder = 1034450
}

725.2.1 = {
	holder = 1034502
}

743.2.1 = {
	holder = 1037943
}

771.2.1 = {
	holder = 1039984
}

777.2.1 = {
	holder = 1040964
}

783.2.1 = {
	holder = 1041316
}

784.2.1 = {
	holder = 1041385
}

803.2.1 = {
	holder = 1041894
}

853.2.1 = {
	holder = 1043674
}

877.2.1 = {
	holder = 1046449
}

