200.2.1 = {
	holder = 1001993
	law = succ_seniority
	law = cognatic_succession
}

208.2.1 = {
	holder = 1003137
}

220.2.1 = {
	holder = 1004294
}

274.2.1 = {
	holder = 1005423
}

289.2.1 = {
	holder = 1008054
}

299.2.1 = {
	holder = 1007857
}

341.2.1 = {
	holder = 1008911
}

350.2.1 = {
	holder = 1009738
}

355.2.1 = {
	holder = 1009845
}

368.2.1 = {
	holder = 1013766
}

369.2.1 = {
	holder = 1014369
}

407.2.1 = {
	holder = 1014419
}

434.2.1 = {
	holder = 1017210
}

464.2.1 = {
	holder = 1020709
}

516.2.1 = {
	holder = 1020903
}

528.2.1 = {
	holder = 1024765
}

550.2.1 = {
	holder = 1026237
}

596.2.1 = {
	holder = 1028401
}

653.2.1 = {
	holder = 1030097
}

664.2.1 = {
	holder = 1032962
}

693.2.1 = {
	holder = 1034254
}

735.2.1 = {
	holder = 1035635
}

745.2.1 = {
	holder = 1038337
}

790.2.1 = {
	holder = 1039314
}

817.2.1 = {
	holder = 1041886
}

828.2.1 = {
	holder = 1044050
}

853.2.1 = {
	holder = 1045139
}

894.2.1 = {
	holder = 1046167
}

899.2.1 = {
	holder = 1046192
}

