200.2.1 = {
	holder = 1001383
	law = succ_elective_gavelkind
	law = agnatic_succession
}

243.2.1 = {
	holder = 1002223
}

260.2.1 = {
	holder = 1002306
}

275.2.1 = {
	holder = 1004587
}

316.2.1 = {
	holder = 1005734
}

341.2.1 = {
	holder = 1008775
}

353.2.1 = {
	holder = 1009095
}

407.2.1 = {
	holder = 1009944
}

419.2.1 = {
	holder = 1012247
}

428.2.1 = {
	holder = 1010601
}

435.2.1 = {
	holder = 1011515
}

457.2.1 = {
	holder = 1013684
}

472.2.1 = {
	holder = 1014516
}

495.2.1 = {
	holder = 1013912
}

501.2.1 = {
	holder = 1016310
}

564.2.1 = {
	holder = 1017497
}

583.2.1 = {
	holder = 1019838
}

584.2.1 = {
	holder = 1019839
}

585.2.1 = {
	holder = 1019938
}

588.2.1 = {
	holder = 1020757
}

631.2.1 = {
	holder = 1020807
}

640.2.1 = {
	holder = 1022965
}

664.2.1 = {
	holder = 1023940
}

693.2.1 = {
	holder = 1024690
}

711.2.1 = {
	holder = 1025888
}

714.2.1 = {
	holder = 1026766
}

731.2.1 = {
	holder = 1026824
}

753.2.1 = {
	holder = 1028233
}

802.2.1 = {
	holder = 1031031
}

836.2.1 = {
	holder = 1031251
}

874.2.1 = {
	holder = 1033168
}

885.2.1 = {
	holder = 1034567
}

891.2.1 = {
	holder = 1035252
}

931.2.1 = {
	holder = 1035470
}

944.2.1 = {
	holder = 1035641
}

963.2.1 = {
	holder = 1037636
}

964.2.1 = {
	holder = 1037432
}

999.2.1 = {
	holder = 1038495
}

1021.2.1 = {
	holder = 1040576
}

1041.2.1 = {
	holder = 1041897
}

1058.2.1 = {
	holder = 1042997
}

