200.2.1 = {
	holder = 1001358
	law = succ_primogeniture
	law = cognatic_succession
}

224.2.1 = {
	holder = 1003160
}

229.2.1 = {
	holder = 1003387
}

256.2.1 = {
	holder = 1004665
}

258.2.1 = {
	holder = 1004759
}

316.2.1 = {
	holder = 1007518
}

356.2.1 = {
	holder = 1009424
}

396.2.1 = {
	holder = 1011408
}

449.2.1 = {
	holder = 1014013
}

488.2.1 = {
	holder = 1015852
}

530.2.1 = {
	holder = 1017897
}

534.2.1 = {
	holder = 1018110
}

545.2.1 = {
	holder = 1018650
}

592.2.1 = {
	holder = 1020915
}

620.2.1 = {
	holder = 1022205
}

634.2.1 = {
	holder = 1022924
}

663.2.1 = {
	holder = 1024252
}

708.2.1 = {
	holder = 1026436
}

768.2.1 = {
	holder = 1029344
}

799.2.1 = {
	holder = 1030815
}

842.2.1 = {
	holder = 1032968
}

882.2.1 = {
	holder = 1034799
}

894.2.1 = {
	holder = 1035347
}

927.2.1 = {
	holder = 1036889
}

932.2.1 = {
	holder = 1037120
}

981.2.1 = {
	holder = 1039466
}

1014.2.1 = {
	holder = 1041054
}

1036.2.1 = {
	holder = 1042147
}

