200.2.1 = {
	holder = 1001968
	law = succ_elective_gavelkind
	law = agnatic_succession
}

248.2.1 = {
	holder = 1006081
}

268.2.1 = {
	holder = 1007488
}

288.2.1 = {
	holder = 1008843
}

292.2.1 = {
	holder = 1009112
}

316.2.1 = {
	holder = 1010827
}

318.2.1 = {
	holder = 1010965
}

324.2.1 = {
	holder = 1011379
}

346.2.1 = {
	holder = 1012798
}

389.2.1 = {
	holder = 1015591
}

395.2.1 = {
	holder = 1015960
}

416.2.1 = {
	holder = 1017435
}

452.2.1 = {
	holder = 1019893
}

488.2.1 = {
	holder = 1022183
}

513.2.1 = {
	holder = 1023768
}

538.2.1 = {
	holder = 1025408
}

574.2.1 = {
	holder = 1027678
}

615.2.1 = {
	holder = 1030378
}

623.2.1 = {
	holder = 1030886
}

644.2.1 = {
	holder = 1032252
}

646.2.1 = {
	holder = 1032397
}

684.2.1 = {
	holder = 1034863
}

687.2.1 = {
	holder = 1035039
}

688.2.1 = {
	holder = 1035095
}

699.2.1 = {
	holder = 1035837
}

748.2.1 = {
	holder = 1039030
}

763.2.1 = {
	holder = 1039992
}

789.2.1 = {
	holder = 1041660
}

821.2.1 = {
	holder = 1043790
}

861.2.1 = {
	holder = 1046375
}

891.2.1 = {
	holder = 1048265
}

