200.2.1 = {
	holder = 1001963
	law = succ_elective_gavelkind
	law = agnatic_succession
}

218.2.1 = {
	holder = 1004101
}

264.2.1 = {
	holder = 1007205
}

301.2.1 = {
	holder = 1009760
}

326.2.1 = {
	holder = 1011515
}

364.2.1 = {
	holder = 1013977
}

382.2.1 = {
	holder = 1015150
}

388.2.1 = {
	holder = 1015529
}

400.2.1 = {
	holder = 1016282
}

436.2.1 = {
	holder = 1018811
}

441.2.1 = {
	holder = 1019177
}

444.2.1 = {
	holder = 1019392
}

479.2.1 = {
	holder = 1021618
}

510.2.1 = {
	holder = 1023584
}

524.2.1 = {
	holder = 1024469
}

531.2.1 = {
	holder = 1024991
}

577.2.1 = {
	holder = 1027879
}

597.2.1 = {
	holder = 1029160
}

623.2.1 = {
	holder = 1030882
}

660.2.1 = {
	holder = 1033306
}

707.2.1 = {
	holder = 1036441
}

742.2.1 = {
	holder = 1038664
}

768.2.1 = {
	holder = 1040340
}

806.2.1 = {
	holder = 1042751
}

831.2.1 = {
	holder = 1044436
}

890.2.1 = {
	holder = 1048203
}

