200.2.1 = {
	holder = 1001398
	law = succ_primogeniture
	law = agnatic_succession
}

225.2.1 = {
	holder = 1002481
}

237.2.1 = {
	holder = 1003384
}

271.2.1 = {
	holder = 1004340
}

311.2.1 = {
	holder = 1005944
}

336.2.1 = {
	holder = 1007099
}

358.2.1 = {
	holder = 1007329
}

375.2.1 = {
	holder = 1010391
}

410.2.1 = {
	holder = 1011785
}

423.2.1 = {
	holder = 1012400
}

430.2.1 = {
	holder = 1010273
}

435.2.1 = {
	holder = 1011950
}

448.2.1 = {
	holder = 1012832
}

453.2.1 = {
	holder = 1014058
}

472.2.1 = {
	holder = 1013167
}

477.2.1 = {
	holder = 1015364
}

524.2.1 = {
	holder = 1015760
}

532.2.1 = {
	holder = 1016904
}

572.2.1 = {
	holder = 1017777
}

579.2.1 = {
	holder = 1020081
}

594.2.1 = {
	holder = 1017366
}

595.2.1 = {
	holder = 1018926
}

600.2.1 = {
	holder = 1020231
}

637.2.1 = {
	holder = 1021766
}

638.2.1 = {
	holder = 1020154
}

641.2.1 = {
	holder = 1021766
}

671.2.1 = {
	holder = 1023425
}

686.2.1 = {
	holder = 1024791
}

726.2.1 = {
	holder = 1025596
}

743.2.1 = {
	holder = 1028024
}

744.2.1 = {
	holder = 1024762
}

745.2.1 = {
	holder = 1026255
}

757.2.1 = {
	holder = 1027275
}

765.2.1 = {
	holder = 1028923
}

823.2.1 = {
	holder = 1031140
}

829.2.1 = {
	holder = 1032197
}

839.2.1 = {
	holder = 1032665
}

903.2.1 = {
	holder = 1033459
}

910.2.1 = {
	holder = 1035948
}

943.2.1 = {
	holder = 1036667
}

970.2.1 = {
	holder = 1037803
}

997.2.1 = {
	holder = 1039052
}

1017.2.1 = {
	holder = 1040274
}

1063.2.1 = {
	holder = 1041490
}

