200.2.1 = {
	holder = 1001996
	law = succ_tanistry
	law = cognatic_succession
}

213.2.1 = {
	holder = 1003846
}

243.2.1 = {
	holder = 1000698
}

249.2.1 = {
	holder = 1002806
}

253.2.1 = {
	holder = 1005592
}

308.2.1 = {
	holder = 1009336
}

312.2.1 = {
	holder = 1008918
}

350.2.1 = {
	holder = 1010656
}

355.2.1 = {
	holder = 1013264
}

369.2.1 = {
	holder = 1012373
}

387.2.1 = {
	holder = 1014182
}

408.2.1 = {
	holder = 1015704
}

422.2.1 = {
	holder = 1017070
}

453.2.1 = {
	holder = 1016689
}

457.2.1 = {
	holder = 1018828
}

459.2.1 = {
	holder = 1020396
}

504.2.1 = {
	holder = 1021670
}

526.2.1 = {
	holder = 1024558
}

589.2.1 = {
	holder = 1025872
}

601.2.1 = {
	holder = 1026626
}

608.2.1 = {
	holder = 1027760
}

631.2.1 = {
	holder = 1031186
}

637.2.1 = {
	holder = 1029871
}

668.2.1 = {
	holder = 1031098
}

677.2.1 = {
	holder = 1034199
}

703.2.1 = {
	holder = 1036225
}

717.2.1 = {
	holder = 1036434
}

730.2.1 = {
	holder = 1037835
}

737.2.1 = {
	holder = 1037232
}

754.2.1 = {
	holder = 1039026
}

802.2.1 = {
	holder = 1040192
}

836.2.1 = {
	holder = 1042891
}

861.2.1 = {
	holder = 1045649
}

