200.2.1 = {
	holder = 1001389
	law = succ_seniority
	law = cognatic_succession
}

231.2.1 = {
	holder = 1002673
}

270.2.1 = {
	holder = 1004224
}

301.2.1 = {
	holder = 1005580
}

319.2.1 = {
	holder = 1007307
}

369.2.1 = {
	holder = 1008510
}

390.2.1 = {
	holder = 1010196
}

424.2.1 = {
	holder = 1012583
}

450.2.1 = {
	holder = 1014121
}

451.2.1 = {
	holder = 1012892
}

452.2.1 = {
	holder = 1012982
}

487.2.1 = {
	holder = 1015559
}

533.2.1 = {
	holder = 1017983
}

558.2.1 = {
	holder = 1018462
}

583.2.1 = {
	holder = 1020127
}

627.2.1 = {
	holder = 1020909
}

629.2.1 = {
	holder = 1022635
}

636.2.1 = {
	holder = 1020154
}

636.2.2 = {
	liege = e_reloj
}

641.2.1 = {
	holder = 1023286
}

648.2.1 = {
	holder = 1023330
}

677.2.1 = {
	holder = 1024937
}

724.2.1 = {
	holder = 1025739
}

760.2.1 = {
	holder = 1027044
}

766.2.1 = {
	holder = 1029228
}

778.2.1 = {
	holder = 1029901
}

785.2.1 = {
	holder = 1030081
}

792.2.1 = {
	holder = 1028736
}

795.2.1 = {
	holder = 1029038
}

813.2.1 = {
	liege = 0
}

813.2.2 = {
	holder = 1031361
}

818.2.1 = {
	holder = 1030620
}

825.2.1 = {
	holder = 1030995
}

843.2.1 = {
	holder = 1032241
}

846.2.1 = {
	holder = 1032545
}

856.2.1 = {
	holder = 1033369
}

893.2.1 = {
	holder = 1034608
}

929.2.1 = {
	holder = 1035425
}

947.2.1 = {
	holder = 1037215
}

996.2.1 = {
	holder = 1038103
}

999.2.1 = {
	holder = 1039134
}

1008.2.1 = {
	holder = 1039935
}

1030.2.1 = {
	holder = 1041354
}

1041.2.1 = {
	holder = 1042165
}

1058.2.1 = {
	holder = 1042999
}

