200.2.1 = {
	holder = 1002038
	law = succ_open_elective
	law = agnatic_succession
}

224.2.1 = {
	holder = 1004547
}

229.2.1 = {
	holder = 1004617
}

232.2.1 = {
	holder = 1005042
}

235.2.1 = {
	holder = 1005225
}

250.2.1 = {
	holder = 1005857
}

293.2.1 = {
	holder = 1007122
}

317.2.1 = {
	holder = 1008903
}

331.2.1 = {
	holder = 1009434
}

340.2.1 = {
	holder = 1008953
}

344.2.1 = {
	holder = 1009434
}

356.2.1 = {
	holder = 1012330
}

414.2.1 = {
	holder = 1016607
}

454.2.1 = {
	holder = 1017772
}

473.2.1 = {
	holder = 1020784
}

477.2.1 = {
	holder = 1021545
}

500.2.1 = {
	holder = 1021612
}

540.2.1 = {
	holder = 1023891
}

582.2.1 = {
	holder = 1025726
}

590.2.1 = {
	holder = 1028347
}

602.2.1 = {
	holder = 1029597
}

617.2.1 = {
	holder = 1029770
}

632.2.1 = {
	holder = 1030823
}

648.2.1 = {
	holder = 1032033
}

677.2.1 = {
	holder = 1033635
}

681.2.1 = {
	holder = 1034743
}

709.2.1 = {
	holder = 1034973
}

719.2.1 = {
	holder = 1036715
}

773.2.1 = {
	holder = 1038125
}

788.2.1 = {
	holder = 1040278
}

809.2.1 = {
	holder = 1040611
}

828.2.1 = {
	holder = 1043195
}

874.2.1 = {
	holder = 1046251
}

879.2.1 = {
	holder = 1047533
}

