	title = c_aliuge
	max_settlements = 6
	culture = etarala
	religion = kaugile
	b_toling = tribal
203.3.1 = {
	religion = womipac
}

248.3.1 = {
	religion = kaugile
}

253.3.1 = {
	religion = womipac
}

261.3.1 = {
	religion = kaugile
}

272.3.1 = {
	religion = ekeleda
}

273.3.1 = {
	religion = kaugile
}

287.3.1 = {
	religion = ekeleda
}

293.3.1 = {
	religion = kaugile
}

589.4.1 = {
	culture = siluzan
}

700.4.1 = {
	b_toling = castle
}

812.4.1 = {
	b_kalulad = city
}

900.4.1 = {
	b_selamur = temple
}

