	title = c_reratru
	max_settlements = 2
	culture = kavantas
	religion = rerus
	b_tassie = tribal
309.4.1 = {
	culture = kukaldis
}

316.4.1 = {
	culture = kavantas
}

334.4.1 = {
	culture = kukaldis
}

349.4.1 = {
	culture = kavantas
}

425.4.1 = {
	culture = kukaldis
}

840.4.1 = {
	b_tassie = castle
}

883.4.1 = {
	b_nyoukasd = temple
}

