	title = c_laneuben
	max_settlements = 2
	culture = arante
	religion = rerus
	b_avuyasa = tribal
207.4.1 = {
	culture = karsas
}

817.4.1 = {
	b_avuyasa = castle
}

861.4.1 = {
	b_davalli = temple
}

