	title = c_tovasd
	max_settlements = 4
	culture = tunaga
	religion = rerus
	b_suratru = tribal
1.1.1 = {
	b_raga = ct_port_1
}

211.4.1 = {
	culture = kavantas
}

309.4.1 = {
	culture = kukaldis
}

316.4.1 = {
	culture = kavantas
}

334.4.1 = {
	culture = kukaldis
}

349.4.1 = {
	culture = kavantas
}

425.4.1 = {
	culture = kukaldis
}

838.4.1 = {
	b_suratru = castle
}

879.4.1 = {
	b_raga = city
}

