	title = c_aratru
	max_settlements = 2
	culture = telovyas
	religion = rerus
	b_reminik = tribal
220.4.1 = {
	culture = tunnatarsaqurs
}

518.4.1 = {
	culture = kavantas
}

562.4.1 = {
	culture = tunnatarsaqurs
}

634.4.1 = {
	culture = kukaldis
}

635.4.1 = {
	culture = tunnatarsaqurs
}

