	title = c_agyea
	max_settlements = 3
	culture = sanavid
	religion = ekeleda
	b_teudila = tribal
229.3.1 = {
	religion = womipac
}

232.3.1 = {
	religion = ekeleda
}

236.3.1 = {
	religion = womipac
}

240.3.1 = {
	religion = ekeleda
}

269.3.1 = {
	religion = womipac
}

273.3.1 = {
	religion = ekeleda
}

287.3.1 = {
	religion = womipac
}

289.3.1 = {
	religion = ekeleda
}

290.3.1 = {
	religion = womipac
}

297.3.1 = {
	religion = ekeleda
}

297.3.1 = {
	religion = womipac
}

299.3.1 = {
	religion = ekeleda
}

306.3.1 = {
	religion = womipac
}

316.3.1 = {
	religion = ekeleda
}

321.3.1 = {
	religion = womipac
}

324.3.1 = {
	religion = ekeleda
}

324.3.1 = {
	religion = womipac
}

450.3.1 = {
	religion = nai
}

457.3.1 = {
	religion = womipac
}

461.3.1 = {
	religion = nai
}

462.4.1 = {
	culture = sileda
}

463.3.1 = {
	religion = womipac
}

464.3.1 = {
	religion = nai
}

466.3.1 = {
	religion = womipac
}

474.3.1 = {
	religion = nai
}

483.3.1 = {
	religion = womipac
}

494.3.1 = {
	religion = nai
}

500.3.1 = {
	religion = womipac
}

503.3.1 = {
	religion = nai
}

506.4.1 = {
	culture = emorav
}

510.3.1 = {
	religion = womipac
}

513.3.1 = {
	religion = nai
}

523.3.1 = {
	religion = womipac
}

524.3.1 = {
	religion = nai
}

526.4.1 = {
	culture = sileda
}

528.3.1 = {
	religion = womipac
}

529.3.1 = {
	religion = nai
}

529.3.1 = {
	religion = womipac
}

530.4.1 = {
	culture = emorav
}

534.3.1 = {
	religion = nai
}

539.3.1 = {
	religion = womipac
}

540.3.1 = {
	religion = nai
}

540.3.1 = {
	religion = womipac
}

542.3.1 = {
	religion = nai
}

542.3.1 = {
	religion = womipac
}

548.3.1 = {
	religion = nai
}

549.3.1 = {
	religion = womipac
}

550.3.1 = {
	religion = nai
}

553.3.1 = {
	religion = womipac
}

554.3.1 = {
	religion = nai
}

566.3.1 = {
	religion = womipac
}

567.3.1 = {
	religion = nai
}

575.3.1 = {
	religion = womipac
}

581.3.1 = {
	religion = nai
}

581.3.1 = {
	religion = womipac
}

582.4.1 = {
	culture = selavkudav
}

584.3.1 = {
	religion = nai
}

584.3.1 = {
	religion = womipac
}

591.3.1 = {
	religion = nai
}

592.3.1 = {
	religion = womipac
}

601.3.1 = {
	religion = nai
}

602.3.1 = {
	religion = womipac
}

612.3.1 = {
	religion = nai
}

615.3.1 = {
	religion = womipac
}

619.3.1 = {
	religion = nai
}

620.3.1 = {
	religion = womipac
}

620.4.1 = {
	culture = sileda
}

621.3.1 = {
	religion = nai
}

624.3.1 = {
	religion = womipac
}

626.3.1 = {
	religion = nai
}

627.3.1 = {
	religion = womipac
}

632.4.1 = {
	culture = selavkudav
}

633.3.1 = {
	religion = nai
}

633.3.1 = {
	religion = womipac
}

634.3.1 = {
	religion = nai
}

636.3.1 = {
	religion = womipac
}

744.3.1 = {
	religion = nai
}

744.3.1 = {
	religion = womipac
}

754.3.1 = {
	religion = nai
}

756.3.1 = {
	religion = womipac
}

760.3.1 = {
	religion = nai
}

760.3.1 = {
	religion = womipac
}

762.3.1 = {
	religion = nai
}

762.3.1 = {
	religion = womipac
}

769.3.1 = {
	religion = nai
}

771.3.1 = {
	religion = womipac
}

773.3.1 = {
	religion = nai
}

779.3.1 = {
	religion = womipac
}

796.3.1 = {
	religion = nai
}

798.3.1 = {
	religion = womipac
}

800.3.1 = {
	religion = nai
}

801.3.1 = {
	religion = womipac
}

803.4.1 = {
	culture = sileda
}

811.3.1 = {
	religion = nai
}

811.3.1 = {
	religion = womipac
}

812.3.1 = {
	religion = nai
}

812.3.1 = {
	religion = womipac
}

817.3.1 = {
	religion = nai
}

823.3.1 = {
	religion = womipac
}

825.3.1 = {
	religion = nai
}

826.3.1 = {
	religion = womipac
}

832.3.1 = {
	religion = nai
}

832.3.1 = {
	religion = womipac
}

834.3.1 = {
	religion = nai
}

834.3.1 = {
	religion = womipac
}

837.3.1 = {
	religion = nai
}

837.3.1 = {
	religion = womipac
}

