	title = c_ronoza
	max_settlements = 3
	culture = karsas
	religion = rerus
	b_wejaakan = tribal
206.4.1 = {
	culture = arante
}

232.4.1 = {
	culture = karsas
}

818.4.1 = {
	b_wejaakan = castle
}

859.4.1 = {
	b_woverus = city
}

