	title = c_lunatru
	max_settlements = 2
	culture = karsas
	religion = rerus
	b_nuratru = tribal
287.3.1 = {
	religion = raroza
}

289.4.1 = {
	culture = kyalapan
}

296.3.1 = {
	religion = rerus
}

303.3.1 = {
	religion = raroza
}

307.3.1 = {
	religion = rerus
}

355.4.1 = {
	culture = taakan
}

410.4.1 = {
	culture = kyalapan
}

818.4.1 = {
	b_nuratru = castle
}

845.4.1 = {
	b_duraga = temple
}

