	title = c_sarsaga
	max_settlements = 5
	culture = karsas
	religion = rerus
	b_losatru = tribal
348.4.1 = {
	culture = taakan
}

408.4.1 = {
	culture = karsas
}

463.4.1 = {
	culture = kyalapan
}

818.4.1 = {
	b_losatru = castle
}

857.4.1 = {
	b_reruyasa = temple
}

