	title = c_etogorgo
	max_settlements = 3
	culture = adevenda
	religion = kevelc
	b_karahib = tribal
232.4.1 = {
	culture = raboan
}

235.4.1 = {
	culture = adevenda
}

335.4.1 = {
	culture = bokodar
}

352.4.1 = {
	culture = raboan
}

835.4.1 = {
	b_karahib = castle
}

864.4.1 = {
	b_saahib = city
}

927.4.1 = {
	b_agurodai = temple
}

