	title = c_datrilas
	max_settlements = 5
	culture = baleva
	religion = qutsus
	b_tipare = tribal
1.1.1 = {
	b_salonse = ct_port_1
}

242.4.1 = {
	culture = watrilas
}

246.4.1 = {
	culture = baleva
}

316.4.1 = {
	culture = watrilas
}

318.4.1 = {
	culture = baleva
}

870.4.1 = {
	b_tipare = castle
}

895.4.1 = {
	b_salonse = city
}

