	title = c_quhold
	max_settlements = 3
	culture = raboan
	religion = kevelc
	b_nuhonai = tribal
200.4.1 = {
	culture = adevenda
}

232.4.1 = {
	culture = raboan
}

235.4.1 = {
	culture = adevenda
}

335.4.1 = {
	culture = bokodar
}

352.4.1 = {
	culture = raboan
}

842.4.1 = {
	b_nuhonai = castle
}

872.4.1 = {
	b_watujri = temple
}

942.4.1 = {
	b_kanonai = city
}

