	title = c_teudnekutrusqars
	max_settlements = 3
	culture = baleva
	religion = qutsus
	b_tukonse = tribal
242.4.1 = {
	culture = watrilas
}

246.4.1 = {
	culture = baleva
}

316.4.1 = {
	culture = watrilas
}

318.4.1 = {
	culture = baleva
}

843.4.1 = {
	b_tukonse = castle
}

875.4.1 = {
	b_tarante = temple
}

