	title = c_evuyasa
	max_settlements = 2
	culture = rarogli
	religion = rerus
	b_kaninik = tribal
209.4.1 = {
	culture = telovyas
}

236.4.1 = {
	culture = tunnatarsaqurs
}

367.4.1 = {
	culture = kukaldis
}

497.4.1 = {
	culture = kavantas
}

531.4.1 = {
	culture = tunnatarsaqurs
}

609.4.1 = {
	culture = kavantas
}

614.4.1 = {
	culture = tunnatarsaqurs
}

620.4.1 = {
	culture = kavantas
}

634.4.1 = {
	culture = kukaldis
}

639.4.1 = {
	culture = kavantas
}

751.4.1 = {
	culture = tunnatarsaqurs
}

