	title = c_raigsus
	max_settlements = 2
	culture = watrilas
	religion = qutsus
	b_nigirdas = tribal
345.4.1 = {
	culture = baleva
}

843.4.1 = {
	b_nigirdas = castle
}

900.4.1 = {
	b_keudone = temple
}

