	title = c_navantas
	max_settlements = 3
	culture = taakan
	religion = raroza
	b_kakassie = tribal
200.3.1 = {
	religion = rerus
}

201.3.1 = {
	religion = raroza
}

206.3.1 = {
	religion = rerus
}

209.3.1 = {
	religion = raroza
}

214.3.1 = {
	religion = rerus
}

238.4.1 = {
	culture = rarogli
}

267.4.1 = {
	culture = taakan
}

346.4.1 = {
	culture = kyalapan
}

349.3.1 = {
	religion = raroza
}

357.3.1 = {
	religion = rerus
}

375.4.1 = {
	culture = taakan
}

414.4.1 = {
	culture = kyalapan
}

832.4.1 = {
	b_kakassie = castle
}

