	title = c_taga
	max_settlements = 2
	culture = rarogli
	religion = raroza
	b_evalatru = tribal
200.3.1 = {
	religion = rerus
}

271.4.1 = {
	culture = taakan
}

310.3.1 = {
	religion = raroza
}

311.3.1 = {
	religion = rerus
}

315.4.1 = {
	culture = kyalapan
}

323.3.1 = {
	religion = raroza
}

329.3.1 = {
	religion = rerus
}

337.3.1 = {
	religion = raroza
}

339.3.1 = {
	religion = rerus
}

342.3.1 = {
	religion = raroza
}

357.3.1 = {
	religion = rerus
}

358.4.1 = {
	culture = taakan
}

359.4.1 = {
	culture = kyalapan
}

833.4.1 = {
	b_evalatru = castle
}

864.4.1 = {
	b_wavirdas = city
}

