	title = c_sonoza
	max_settlements = 6
	culture = talilas
	religion = rerus
	b_qonili = tribal
252.4.1 = {
	culture = kyalapan
}

263.3.1 = {
	religion = raroza
}

278.3.1 = {
	religion = rerus
}

284.3.1 = {
	religion = raroza
}

296.3.1 = {
	religion = rerus
}

298.3.1 = {
	religion = raroza
}

311.3.1 = {
	religion = rerus
}

312.3.1 = {
	religion = raroza
}

312.3.1 = {
	religion = rerus
}

325.3.1 = {
	religion = raroza
}

329.3.1 = {
	religion = rerus
}

336.3.1 = {
	religion = raroza
}

336.3.1 = {
	religion = rerus
}

420.3.1 = {
	religion = raroza
}

424.3.1 = {
	religion = rerus
}

819.4.1 = {
	b_qonili = castle
}

856.4.1 = {
	b_betoza = temple
}

