	title = c_baran
	max_settlements = 2
	culture = karsas
	religion = rerus
	b_liran = tribal
200.3.1 = {
	religion = qutsus
}

201.4.1 = {
	culture = adzonia
}

201.3.1 = {
	religion = rerus
}

207.4.1 = {
	culture = talilas
}

259.4.1 = {
	culture = lokoerd
}

268.4.1 = {
	culture = talilas
}

433.4.1 = {
	culture = lokoerd
}

818.4.1 = {
	b_liran = castle
}

865.4.1 = {
	b_daryas = temple
}

