	title = c_redinik
	max_settlements = 4
	culture = kyalapan
	religion = raroza
	b_weraldis = tribal
200.3.1 = {
	religion = rerus
}

806.4.1 = {
	b_weraldis = castle
}

839.4.1 = {
	b_lalatru = temple
}

