	title = c_wabujri
	max_settlements = 3
	culture = barelc
	religion = ecatorgo
	b_athujri = tribal
201.4.1 = {
	culture = raraon
}

326.3.1 = {
	religion = bevargo
}

332.4.1 = {
	culture = keraig
}

938.4.1 = {
	b_athujri = castle
}

1061.4.1 = {
	b_tegum = city
}

