	title = c_tolulay
	max_settlements = 2
	culture = sovili
	religion = rerus
	b_waharsili = tribal
208.4.1 = {
	culture = talilas
}

252.4.1 = {
	culture = kyalapan
}

263.3.1 = {
	religion = raroza
}

278.3.1 = {
	religion = rerus
}

284.3.1 = {
	religion = raroza
}

296.3.1 = {
	religion = rerus
}

298.3.1 = {
	religion = raroza
}

311.3.1 = {
	religion = rerus
}

312.3.1 = {
	religion = raroza
}

312.3.1 = {
	religion = rerus
}

325.3.1 = {
	religion = raroza
}

329.3.1 = {
	religion = rerus
}

336.3.1 = {
	religion = raroza
}

336.3.1 = {
	religion = rerus
}

420.3.1 = {
	religion = raroza
}

424.3.1 = {
	religion = rerus
}

850.4.1 = {
	b_waharsili = castle
}

894.4.1 = {
	b_karyed = city
}

