	title = c_danyed
	max_settlements = 4
	culture = sovili
	religion = raroza
	b_karulay = tribal
200.3.1 = {
	religion = rerus
}

201.3.1 = {
	religion = raroza
}

206.3.1 = {
	religion = rerus
}

209.4.1 = {
	culture = qanonse
}

211.3.1 = {
	religion = raroza
}

214.3.1 = {
	religion = rerus
}

222.3.1 = {
	religion = raroza
}

225.3.1 = {
	religion = rerus
}

226.3.1 = {
	religion = raroza
}

233.4.1 = {
	culture = kyalapan
}

233.3.1 = {
	religion = rerus
}

238.4.1 = {
	culture = rarogli
}

250.4.1 = {
	culture = kyalapan
}

819.4.1 = {
	b_karulay = castle
}

881.4.1 = {
	b_sananus = city
}

