	title = c_narsone
	max_settlements = 4
	culture = kukemia
	religion = qutsus
	b_lasius = tribal
201.4.1 = {
	culture = watrilas
}

391.4.1 = {
	culture = baleva
}

815.4.1 = {
	b_lasius = castle
}

845.4.1 = {
	b_barsalaykarne = temple
}

