	title = c_karak
	max_settlements = 3
	culture = talilas
	religion = rerus
	b_ryasad = tribal
200.4.1 = {
	culture = kyalapan
}

210.3.1 = {
	religion = raroza
}

438.4.1 = {
	culture = lokoerd
}

440.3.1 = {
	religion = rerus
}

