	title = c_kawemia
	max_settlements = 2
	culture = kukemia
	religion = qutsus
	b_elamulay = tribal
242.4.1 = {
	culture = watrilas
}

244.4.1 = {
	culture = kukemia
}

316.4.1 = {
	culture = watrilas
}

341.4.1 = {
	culture = baleva
}

842.4.1 = {
	b_elamulay = castle
}

871.4.1 = {
	b_qifnarayanwizsa = temple
}

