	title = c_dalilas
	max_settlements = 2
	culture = tigerus
	religion = qutsus
	b_narsas = tribal
203.3.1 = {
	religion = rerus
}

205.3.1 = {
	religion = qutsus
}

211.3.1 = {
	religion = rerus
}

227.4.1 = {
	culture = watrilas
}

234.3.1 = {
	religion = qutsus
}

234.3.1 = {
	religion = rerus
}

238.3.1 = {
	religion = qutsus
}

239.3.1 = {
	religion = rerus
}

305.4.1 = {
	culture = adzonia
}

317.3.1 = {
	religion = qutsus
}

319.3.1 = {
	religion = rerus
}

323.3.1 = {
	religion = qutsus
}

326.3.1 = {
	religion = rerus
}

330.3.1 = {
	religion = qutsus
}

333.3.1 = {
	religion = rerus
}

335.3.1 = {
	religion = qutsus
}

338.3.1 = {
	religion = rerus
}

348.4.1 = {
	culture = watrilas
}

818.4.1 = {
	b_narsas = castle
}

891.4.1 = {
	b_datrone = city
}

