	title = c_talyas
	max_settlements = 6
	culture = qanonse
	religion = rerus
	b_tastulay = tribal
200.4.1 = {
	culture = kyalapan
}

210.3.1 = {
	religion = raroza
}

438.4.1 = {
	culture = lokoerd
}

440.3.1 = {
	religion = rerus
}

