	title = c_lizusha
	max_settlements = 2
	culture = adzonia
	religion = qutsus
	b_bagakala = tribal
203.3.1 = {
	religion = rerus
}

207.3.1 = {
	religion = qutsus
}

214.3.1 = {
	religion = rerus
}

217.3.1 = {
	religion = qutsus
}

218.3.1 = {
	religion = rerus
}

220.3.1 = {
	religion = qutsus
}

221.3.1 = {
	religion = rerus
}

223.3.1 = {
	religion = qutsus
}

225.3.1 = {
	religion = rerus
}

226.3.1 = {
	religion = qutsus
}

232.3.1 = {
	religion = rerus
}

236.3.1 = {
	religion = qutsus
}

240.3.1 = {
	religion = rerus
}

244.3.1 = {
	religion = qutsus
}

244.3.1 = {
	religion = rerus
}

247.3.1 = {
	religion = qutsus
}

248.3.1 = {
	religion = rerus
}

249.3.1 = {
	religion = qutsus
}

252.3.1 = {
	religion = rerus
}

253.3.1 = {
	religion = qutsus
}

253.3.1 = {
	religion = rerus
}

255.3.1 = {
	religion = qutsus
}

258.3.1 = {
	religion = rerus
}

262.3.1 = {
	religion = qutsus
}

274.3.1 = {
	religion = rerus
}

280.3.1 = {
	religion = qutsus
}

282.3.1 = {
	religion = rerus
}

287.3.1 = {
	religion = qutsus
}

292.3.1 = {
	religion = rerus
}

295.3.1 = {
	religion = qutsus
}

296.3.1 = {
	religion = rerus
}

302.3.1 = {
	religion = qutsus
}

303.3.1 = {
	religion = rerus
}

317.3.1 = {
	religion = qutsus
}

319.3.1 = {
	religion = rerus
}

323.3.1 = {
	religion = qutsus
}

326.3.1 = {
	religion = rerus
}

330.3.1 = {
	religion = qutsus
}

333.3.1 = {
	religion = rerus
}

335.3.1 = {
	religion = qutsus
}

338.3.1 = {
	religion = rerus
}

367.4.1 = {
	culture = watrilas
}

816.4.1 = {
	b_bagakala = castle
}

842.4.1 = {
	b_tagemia = city
}

