	title = c_akonerus
	max_settlements = 2
	culture = kyalapan
	religion = raroza
	b_alovamur = tribal
200.3.1 = {
	religion = rerus
}

216.3.1 = {
	religion = raroza
}

216.3.1 = {
	religion = rerus
}

217.3.1 = {
	religion = raroza
}

225.3.1 = {
	religion = rerus
}

229.3.1 = {
	religion = raroza
}

233.3.1 = {
	religion = rerus
}

234.3.1 = {
	religion = raroza
}

234.3.1 = {
	religion = rerus
}

235.3.1 = {
	religion = raroza
}

237.3.1 = {
	religion = rerus
}

243.3.1 = {
	religion = raroza
}

247.3.1 = {
	religion = rerus
}

263.3.1 = {
	religion = raroza
}

278.3.1 = {
	religion = rerus
}

284.3.1 = {
	religion = raroza
}

296.3.1 = {
	religion = rerus
}

298.3.1 = {
	religion = raroza
}

311.3.1 = {
	religion = rerus
}

312.3.1 = {
	religion = raroza
}

312.3.1 = {
	religion = rerus
}

325.3.1 = {
	religion = raroza
}

329.3.1 = {
	religion = rerus
}

336.3.1 = {
	religion = raroza
}

336.3.1 = {
	religion = rerus
}

349.3.1 = {
	religion = raroza
}

357.3.1 = {
	religion = rerus
}

358.3.1 = {
	religion = raroza
}

360.3.1 = {
	religion = rerus
}

361.3.1 = {
	religion = raroza
}

361.3.1 = {
	religion = rerus
}

364.3.1 = {
	religion = raroza
}

364.3.1 = {
	religion = rerus
}

370.3.1 = {
	religion = raroza
}

378.3.1 = {
	religion = rerus
}

380.3.1 = {
	religion = raroza
}

382.3.1 = {
	religion = rerus
}

385.3.1 = {
	religion = raroza
}

398.3.1 = {
	religion = rerus
}

401.3.1 = {
	religion = raroza
}

401.3.1 = {
	religion = rerus
}

420.3.1 = {
	religion = raroza
}

424.3.1 = {
	religion = rerus
}

804.4.1 = {
	b_alovamur = castle
}

838.4.1 = {
	b_kacan = city
}

