	title = c_akonstard
	max_settlements = 3
	culture = qanonse
	religion = raroza
	b_donan = tribal
212.4.1 = {
	culture = kyalapan
}

376.4.1 = {
	culture = lokoerd
}

377.3.1 = {
	religion = rerus
}

385.3.1 = {
	religion = raroza
}

396.3.1 = {
	religion = rerus
}

400.4.1 = {
	culture = talilas
}

400.3.1 = {
	religion = raroza
}

411.3.1 = {
	religion = rerus
}

419.3.1 = {
	religion = raroza
}

422.4.1 = {
	culture = lokoerd
}

423.3.1 = {
	religion = rerus
}

426.3.1 = {
	religion = raroza
}

428.3.1 = {
	religion = rerus
}

429.3.1 = {
	religion = raroza
}

433.3.1 = {
	religion = rerus
}

434.3.1 = {
	religion = raroza
}

435.3.1 = {
	religion = rerus
}

436.3.1 = {
	religion = raroza
}

437.3.1 = {
	religion = rerus
}

454.4.1 = {
	culture = talilas
}

457.3.1 = {
	religion = raroza
}

458.3.1 = {
	religion = rerus
}

467.4.1 = {
	culture = lokoerd
}

