	title = c_dawemia
	max_settlements = 2
	culture = adzonia
	religion = qutsus
	b_tudmasa = tribal
201.3.1 = {
	religion = rerus
}

220.4.1 = {
	culture = talilas
}

257.4.1 = {
	culture = adzonia
}

275.4.1 = {
	culture = lokoerd
}

350.4.1 = {
	culture = talilas
}

365.4.1 = {
	culture = lokoerd
}

375.4.1 = {
	culture = talilas
}

386.4.1 = {
	culture = lokoerd
}

815.4.1 = {
	b_tudmasa = castle
}

850.4.1 = {
	b_natudha = city
}

