	title = c_taonl
	max_settlements = 2
	culture = lokoerd
	religion = rerus
	b_lonulay = tribal
305.4.1 = {
	culture = talilas
}

384.4.1 = {
	culture = lokoerd
}

815.4.1 = {
	b_lonulay = castle
}

853.4.1 = {
	b_tallal = temple
}

