	title = c_eblulla
	max_settlements = 7
	culture = borey
	religion = eqawulia
	b_samozar = tribal
1.1.1 = {
	b_lamudha = ct_port_1
}

215.3.1 = {
	religion = rerus
}

226.4.1 = {
	culture = qagasius
}

228.3.1 = {
	religion = eqawulia
}

270.4.1 = {
	culture = laxunia
}

287.4.1 = {
	culture = qagasius
}

294.4.1 = {
	culture = laxunia
}

828.4.1 = {
	b_samozar = castle
}

854.4.1 = {
	b_lamudha = city
}

