	title = c_tuhodai
	max_settlements = 4
	culture = bokodar
	religion = kevelc
	b_taahib = tribal
1.1.1 = {
	b_rogahib = ct_port_1
}

222.4.1 = {
	culture = adevenda
}

232.4.1 = {
	culture = raboan
}

834.4.1 = {
	b_taahib = castle
}

863.4.1 = {
	b_tevargo = temple
}

927.4.1 = {
	b_rogahib = city
}

993.4.1 = {
	b_katodai = temple
}

