	title = c_qisela
	max_settlements = 4
	culture = wuyird
	religion = eqawulia
	b_laxice = tribal
1.1.1 = {
	b_rawice = ct_port_1
}

209.4.1 = {
	culture = kakavid
}

214.4.1 = {
	culture = wuyird
}

229.4.1 = {
	culture = qagasius
}

807.4.1 = {
	b_laxice = city
}

832.4.1 = {
	b_rawice = city
}

