	title = c_difita
	max_settlements = 4
	culture = kakavid
	religion = eqawulia
	b_ekonita = tribal
1.1.1 = {
	b_satarao = ct_port_1
}

214.4.1 = {
	culture = wuyird
}

229.4.1 = {
	culture = qagasius
}

807.4.1 = {
	b_ekonita = castle
}

832.4.1 = {
	b_waxusha = temple
}

884.4.1 = {
	b_satarao = city
}

