	title = c_wavpakakra
	max_settlements = 3
	culture = emorav
	religion = womipac
	b_rilict = tribal
371.3.1 = {
	religion = nai
}

372.3.1 = {
	religion = womipac
}

376.3.1 = {
	religion = nai
}

386.4.1 = {
	culture = sileda
}

387.3.1 = {
	religion = womipac
}

396.3.1 = {
	religion = nai
}

397.3.1 = {
	religion = womipac
}

406.3.1 = {
	religion = nai
}

415.3.1 = {
	religion = womipac
}

420.3.1 = {
	religion = nai
}

436.4.1 = {
	culture = selavkudav
}

454.4.1 = {
	culture = sileda
}

544.4.1 = {
	culture = selavkudav
}

805.4.1 = {
	culture = sileda
}

