	title = c_kemodai
	max_settlements = 4
	culture = barelc
	religion = kevelc
	b_taraon = tribal
1.1.1 = {
	b_teparaon = ct_port_1
}

203.4.1 = {
	culture = kuhudis
}

217.3.1 = {
	religion = ecatorgo
}

218.3.1 = {
	religion = kevelc
}

218.3.1 = {
	religion = ecatorgo
}

229.3.1 = {
	religion = kevelc
}

231.3.1 = {
	religion = ecatorgo
}

233.3.1 = {
	religion = kevelc
}

239.3.1 = {
	religion = ecatorgo
}

241.3.1 = {
	religion = kevelc
}

246.3.1 = {
	religion = ecatorgo
}

248.3.1 = {
	religion = kevelc
}

251.3.1 = {
	religion = ecatorgo
}

253.3.1 = {
	religion = kevelc
}

259.3.1 = {
	religion = ecatorgo
}

263.3.1 = {
	religion = kevelc
}

263.3.1 = {
	religion = ecatorgo
}

267.4.1 = {
	culture = nodai
}

270.3.1 = {
	religion = kevelc
}

275.4.1 = {
	culture = kuhudis
}

277.3.1 = {
	religion = ecatorgo
}

278.3.1 = {
	religion = kevelc
}

278.3.1 = {
	religion = ecatorgo
}

279.3.1 = {
	religion = kevelc
}

286.3.1 = {
	religion = ecatorgo
}

287.3.1 = {
	religion = kevelc
}

290.3.1 = {
	religion = ecatorgo
}

297.3.1 = {
	religion = kevelc
}

297.4.1 = {
	culture = nodai
}

298.3.1 = {
	religion = ecatorgo
}

305.3.1 = {
	religion = kevelc
}

310.3.1 = {
	religion = ecatorgo
}

588.4.1 = {
	culture = temeir
}

692.4.1 = {
	culture = nodai
}

740.4.1 = {
	culture = temeir
}

757.4.1 = {
	culture = nodai
}

765.4.1 = {
	culture = temeir
}

822.4.1 = {
	culture = nodai
}

836.4.1 = {
	culture = temeir
}

856.4.1 = {
	culture = nodai
}

866.4.1 = {
	b_taraon = castle
}

975.4.1 = {
	b_teparaon = city
}

