	title = c_afislav
	max_settlements = 5
	culture = laxunia
	religion = eqawulia
	b_satita = tribal
215.3.1 = {
	religion = rerus
}

220.3.1 = {
	religion = eqawulia
}

279.4.1 = {
	culture = qagasius
}

350.4.1 = {
	culture = laxunia
}

827.4.1 = {
	b_satita = castle
}

853.4.1 = {
	b_naxusha = temple
}

