	title = c_rifofan
	max_settlements = 4
	culture = ehifon
	religion = tatappa
	b_tifon = tribal
207.3.1 = {
	religion = rutani
}

214.3.1 = {
	religion = tatappa
}

217.3.1 = {
	religion = rutani
}

217.3.1 = {
	religion = tatappa
}

226.3.1 = {
	religion = rutani
}

230.3.1 = {
	religion = tatappa
}

232.3.1 = {
	religion = rutani
}

233.3.1 = {
	religion = tatappa
}

237.3.1 = {
	religion = rutani
}

243.3.1 = {
	religion = tatappa
}

249.3.1 = {
	religion = rutani
}

251.3.1 = {
	religion = tatappa
}

256.4.1 = {
	culture = sulora
}

844.4.1 = {
	b_tifon = castle
}

882.4.1 = {
	b_rusafan = temple
}

