	title = c_keforiy
	max_settlements = 4
	culture = ehifon
	religion = rutani
	b_akifalli = tribal
203.3.1 = {
	religion = tatappa
}

205.3.1 = {
	religion = rutani
}

214.3.1 = {
	religion = tatappa
}

218.3.1 = {
	religion = rutani
}

224.3.1 = {
	religion = tatappa
}

234.4.1 = {
	culture = sulora
}

385.4.1 = {
	culture = segora
}

413.4.1 = {
	culture = sulora
}

467.4.1 = {
	culture = segora
}

579.4.1 = {
	culture = sulora
}

591.4.1 = {
	culture = segora
}

617.4.1 = {
	culture = sulora
}

844.4.1 = {
	b_akifalli = castle
}

