	title = c_kelofan
	max_settlements = 5
	culture = segora
	religion = rutani
	b_ahappa = tribal
203.3.1 = {
	religion = tatappa
}

205.3.1 = {
	religion = rutani
}

214.3.1 = {
	religion = tatappa
}

217.3.1 = {
	religion = rutani
}

217.3.1 = {
	religion = tatappa
}

221.3.1 = {
	religion = rutani
}

224.3.1 = {
	religion = tatappa
}

231.3.1 = {
	religion = rutani
}

233.3.1 = {
	religion = tatappa
}

240.4.1 = {
	culture = sulora
}

371.4.1 = {
	culture = segora
}

431.4.1 = {
	culture = sulora
}

452.4.1 = {
	culture = segora
}

491.4.1 = {
	culture = sulora
}

852.4.1 = {
	b_ahappa = castle
}

