	title = c_lifofan
	max_settlements = 5
	culture = ehifon
	religion = tatappa
	b_daehavakinpu = tribal
205.4.1 = {
	culture = sulora
}

844.4.1 = {
	b_daehavakinpu = castle
}

874.4.1 = {
	b_nororiy = temple
}

