	title = c_talora
	max_settlements = 2
	culture = segora
	religion = rutani
	b_apekaria = tribal
203.3.1 = {
	religion = tatappa
}

205.3.1 = {
	religion = rutani
}

214.3.1 = {
	religion = tatappa
}

216.3.1 = {
	religion = rutani
}

217.3.1 = {
	religion = tatappa
}

232.3.1 = {
	religion = rutani
}

233.3.1 = {
	religion = tatappa
}

360.4.1 = {
	culture = sulora
}

374.4.1 = {
	culture = segora
}

453.4.1 = {
	culture = sulora
}

831.4.1 = {
	b_apekaria = castle
}

860.4.1 = {
	b_revifon = temple
}

