	title = c_nifoga
	max_settlements = 3
	culture = bawofan
	religion = tatappa
	b_tahiawelfon = tribal
208.4.1 = {
	culture = sulora
}

832.4.1 = {
	b_tahiawelfon = castle
}

867.4.1 = {
	b_tinora = city
}

