	title = c_wamba
	max_settlements = 2
	culture = bawofan
	religion = rutani
	b_dyalku = tribal
203.3.1 = {
	religion = tatappa
}

212.3.1 = {
	religion = rutani
}

214.3.1 = {
	religion = tatappa
}

220.3.1 = {
	religion = rutani
}

224.3.1 = {
	religion = tatappa
}

232.3.1 = {
	religion = rutani
}

233.3.1 = {
	religion = tatappa
}

248.3.1 = {
	religion = rutani
}

251.3.1 = {
	religion = tatappa
}

253.3.1 = {
	religion = rutani
}

260.3.1 = {
	religion = tatappa
}

279.4.1 = {
	culture = sulora
}

867.4.1 = {
	b_dyalku = castle
}

