	title = c_revoriy
	max_settlements = 2
	culture = qulofan
	religion = rutani
	b_narcus = tribal
203.3.1 = {
	religion = tatappa
}

205.3.1 = {
	religion = rutani
}

214.3.1 = {
	religion = tatappa
}

219.3.1 = {
	religion = rutani
}

224.3.1 = {
	religion = tatappa
}

230.3.1 = {
	religion = rutani
}

230.3.1 = {
	religion = tatappa
}

235.3.1 = {
	religion = rutani
}

243.3.1 = {
	religion = tatappa
}

248.3.1 = {
	religion = rutani
}

251.3.1 = {
	religion = tatappa
}

254.3.1 = {
	religion = rutani
}

264.3.1 = {
	religion = tatappa
}

267.3.1 = {
	religion = rutani
}

268.3.1 = {
	religion = tatappa
}

269.3.1 = {
	religion = rutani
}

271.4.1 = {
	culture = bawofan
}

272.3.1 = {
	religion = tatappa
}

302.4.1 = {
	culture = sulora
}

