	title = c_kubiana
	max_settlements = 7
	culture = esemnanor
	religion = kaiil
	b_dubani = tribal
231.4.1 = {
	culture = kelubaka
}

233.4.1 = {
	culture = wiutel
}

375.4.1 = {
	culture = kelubaka
}

397.4.1 = {
	culture = wiutel
}

737.4.1 = {
	culture = kelubaka
}

754.4.1 = {
	culture = wiutel
}

755.4.1 = {
	culture = kelubaka
}

791.4.1 = {
	culture = wiutel
}

846.4.1 = {
	culture = kelubaka
}

