	title = c_qegalli
	max_settlements = 3
	culture = kelubaka
	religion = kaiil
	b_babaka = tribal
203.4.1 = {
	culture = esemnanor
}

261.4.1 = {
	culture = wiutel
}

833.4.1 = {
	b_babaka = castle
}

866.4.1 = {
	b_roravit = temple
}

