	title = c_subeta
	max_settlements = 4
	culture = detapa
	religion = kaiil
	b_raleloriy = tribal
273.4.1 = {
	culture = kelubaka
}

304.4.1 = {
	culture = wiutel
}

320.4.1 = {
	culture = kelubaka
}

330.4.1 = {
	culture = wiutel
}

377.4.1 = {
	culture = kelubaka
}

392.4.1 = {
	culture = wiutel
}

703.4.1 = {
	culture = kelubaka
}

739.4.1 = {
	culture = wiutel
}

832.4.1 = {
	b_raleloriy = castle
}

861.4.1 = {
	b_rerai = temple
}

