	title = c_enelavit
	max_settlements = 2
	culture = niesa
	religion = rutani
	b_waiapa = tribal
223.4.1 = {
	culture = toreta
}

232.4.1 = {
	culture = niesa
}

372.4.1 = {
	culture = toreta
}

702.4.1 = {
	culture = wiutel
}

711.3.1 = {
	religion = kaiil
}

719.3.1 = {
	religion = rutani
}

721.3.1 = {
	religion = kaiil
}

