	title = c_tubapa
	max_settlements = 2
	culture = kelubaka
	religion = kaiil
	b_labani = tribal
229.4.1 = {
	culture = esemnanor
}

262.4.1 = {
	culture = wiutel
}

735.4.1 = {
	culture = kelubaka
}

754.4.1 = {
	culture = wiutel
}

776.4.1 = {
	culture = kelubaka
}

796.4.1 = {
	culture = wiutel
}

832.4.1 = {
	b_labani = castle
}

868.4.1 = {
	b_nubapa = city
}

