	title = c_rabaparer
	max_settlements = 3
	culture = niesa
	religion = rutani
	b_anubtiwel = tribal
223.4.1 = {
	culture = toreta
}

224.4.1 = {
	culture = niesa
}

377.4.1 = {
	culture = detapa
}

436.4.1 = {
	culture = toreta
}

703.4.1 = {
	culture = wiutel
}

711.3.1 = {
	religion = kaiil
}

