	title = c_torapa
	max_settlements = 3
	culture = esemnanor
	religion = kaiil
	b_kifinik = tribal
1.1.1 = {
	b_dutiel = ct_port_1
}

261.4.1 = {
	culture = wiutel
}

855.4.1 = {
	b_kifinik = castle
}

886.4.1 = {
	b_dutiel = city
}

