	title = c_roreta
	max_settlements = 2
	culture = kelubaka
	religion = kaiil
	b_liutp = tribal
203.4.1 = {
	culture = toreta
}

248.4.1 = {
	culture = kelubaka
}

279.4.1 = {
	culture = wiutel
}

836.4.1 = {
	b_liutp = castle
}

