	title = c_taul
	max_settlements = 3
	culture = toreta
	religion = rutani
	b_adasawem = tribal
369.4.1 = {
	culture = detapa
}

393.4.1 = {
	culture = toreta
}

650.3.1 = {
	religion = kaiil
}

652.3.1 = {
	religion = rutani
}

660.3.1 = {
	religion = kaiil
}

661.3.1 = {
	religion = rutani
}

664.3.1 = {
	religion = kaiil
}

664.3.1 = {
	religion = rutani
}

665.4.1 = {
	culture = wiutel
}

667.3.1 = {
	religion = kaiil
}

669.3.1 = {
	religion = rutani
}

671.3.1 = {
	religion = kaiil
}

673.3.1 = {
	religion = rutani
}

675.3.1 = {
	religion = kaiil
}

681.3.1 = {
	religion = rutani
}

711.3.1 = {
	religion = kaiil
}

719.3.1 = {
	religion = rutani
}

721.3.1 = {
	religion = kaiil
}

726.3.1 = {
	religion = rutani
}

727.3.1 = {
	religion = kaiil
}

729.3.1 = {
	religion = rutani
}

731.3.1 = {
	religion = kaiil
}

735.3.1 = {
	religion = rutani
}

735.3.1 = {
	religion = kaiil
}

741.3.1 = {
	religion = rutani
}

746.3.1 = {
	religion = kaiil
}

755.3.1 = {
	religion = rutani
}

756.3.1 = {
	religion = kaiil
}

757.3.1 = {
	religion = rutani
}

757.3.1 = {
	religion = kaiil
}

758.3.1 = {
	religion = rutani
}

764.3.1 = {
	religion = kaiil
}

767.3.1 = {
	religion = rutani
}

772.3.1 = {
	religion = kaiil
}

776.3.1 = {
	religion = rutani
}

777.3.1 = {
	religion = kaiil
}

781.3.1 = {
	religion = rutani
}

782.3.1 = {
	religion = kaiil
}

788.3.1 = {
	religion = rutani
}

790.3.1 = {
	religion = kaiil
}

792.3.1 = {
	religion = rutani
}

792.3.1 = {
	religion = kaiil
}

793.3.1 = {
	religion = rutani
}

794.3.1 = {
	religion = kaiil
}

795.3.1 = {
	religion = rutani
}

802.3.1 = {
	religion = kaiil
}

809.3.1 = {
	religion = rutani
}

809.3.1 = {
	religion = kaiil
}

811.3.1 = {
	religion = rutani
}

814.3.1 = {
	religion = kaiil
}

