	title = c_kuhrlon
	max_settlements = 2
	culture = laahib
	religion = kevelc
	b_wantin = tribal
217.3.1 = {
	religion = ecatorgo
}

224.3.1 = {
	religion = kevelc
}

228.3.1 = {
	religion = ecatorgo
}

232.3.1 = {
	religion = kevelc
}

232.3.1 = {
	religion = ecatorgo
}

234.3.1 = {
	religion = kevelc
}

239.3.1 = {
	religion = ecatorgo
}

242.3.1 = {
	religion = kevelc
}

246.3.1 = {
	religion = ecatorgo
}

267.4.1 = {
	culture = nodai
}

310.4.1 = {
	culture = temeir
}

327.4.1 = {
	culture = nodai
}

366.4.1 = {
	culture = temeir
}

387.4.1 = {
	culture = nodai
}

390.4.1 = {
	culture = temeir
}

519.4.1 = {
	culture = nodai
}

523.4.1 = {
	culture = temeir
}

660.4.1 = {
	culture = nodai
}

714.4.1 = {
	culture = temeir
}

757.4.1 = {
	culture = nodai
}

759.4.1 = {
	culture = temeir
}

822.4.1 = {
	culture = nodai
}

824.4.1 = {
	culture = temeir
}

923.4.1 = {
	b_wantin = castle
}

952.4.1 = {
	culture = nodai
}

1014.4.1 = {
	b_tuhoan = temple
}

