	title = c_akerani
	max_settlements = 7
	culture = luballi
	religion = lairge
	b_rubeta = tribal
204.3.1 = {
	religion = kaiil
}

206.3.1 = {
	religion = lairge
}

207.3.1 = {
	religion = kaiil
}

210.3.1 = {
	religion = lairge
}

213.3.1 = {
	religion = kaiil
}

216.3.1 = {
	religion = lairge
}

216.3.1 = {
	religion = kaiil
}

217.3.1 = {
	religion = lairge
}

219.3.1 = {
	religion = kaiil
}

248.4.1 = {
	culture = wiutel
}

296.4.1 = {
	culture = kelubaka
}

330.4.1 = {
	culture = wiutel
}

332.4.1 = {
	culture = kelubaka
}

490.4.1 = {
	culture = wiutel
}

495.4.1 = {
	culture = kelubaka
}

536.4.1 = {
	culture = wiutel
}

574.4.1 = {
	culture = kelubaka
}

754.4.1 = {
	culture = wiutel
}

836.4.1 = {
	b_rubeta = castle
}

870.4.1 = {
	b_kemani = temple
}

