	title = c_ebieldab
	max_settlements = 4
	culture = wiutel
	religion = lairge
	b_negiel = tribal
204.3.1 = {
	religion = kaiil
}

208.3.1 = {
	religion = lairge
}

213.3.1 = {
	religion = kaiil
}

215.3.1 = {
	religion = lairge
}

216.3.1 = {
	religion = kaiil
}

218.3.1 = {
	religion = lairge
}

219.3.1 = {
	religion = kaiil
}

225.3.1 = {
	religion = lairge
}

226.3.1 = {
	religion = kaiil
}

227.3.1 = {
	religion = lairge
}

236.3.1 = {
	religion = kaiil
}

240.3.1 = {
	religion = lairge
}

240.3.1 = {
	religion = kaiil
}

242.3.1 = {
	religion = lairge
}

248.3.1 = {
	religion = kaiil
}

251.3.1 = {
	religion = lairge
}

254.3.1 = {
	religion = kaiil
}

260.3.1 = {
	religion = lairge
}

260.3.1 = {
	religion = kaiil
}

265.3.1 = {
	religion = lairge
}

269.3.1 = {
	religion = kaiil
}

853.4.1 = {
	b_negiel = castle
}

893.4.1 = {
	b_eqorai = temple
}

