	title = c_dilapur
	max_settlements = 3
	culture = duderta
	religion = ekeleda
	b_tefrevid = tribal
555.4.1 = {
	b_tefrevid = castle
}

700.4.1 = {
	b_samilavid = temple
}

862.4.1 = {
	b_dibava = city
}

