	title = c_dipustin
	max_settlements = 4
	culture = nacosaine
	religion = laymi
	b_eripunu = tribal
203.3.1 = {
	religion = taymine
}

207.3.1 = {
	religion = laymi
}

213.3.1 = {
	religion = taymine
}

216.3.1 = {
	religion = laymi
}

218.3.1 = {
	religion = taymine
}

222.3.1 = {
	religion = laymi
}

227.3.1 = {
	religion = taymine
}

232.3.1 = {
	religion = laymi
}

234.3.1 = {
	religion = taymine
}

235.3.1 = {
	religion = laymi
}

238.3.1 = {
	religion = taymine
}

240.3.1 = {
	religion = laymi
}

246.3.1 = {
	religion = taymine
}

250.3.1 = {
	religion = laymi
}

251.3.1 = {
	religion = taymine
}

256.3.1 = {
	religion = laymi
}

282.3.1 = {
	religion = taymine
}

384.4.1 = {
	culture = kavutlu
}

462.4.1 = {
	culture = enine
}

844.4.1 = {
	b_eripunu = castle
}

880.4.1 = {
	b_rerict = city
}

978.4.1 = {
	b_suaid = temple
}

