	title = c_weorush
	max_settlements = 4
	culture = nacosaine
	religion = laymi
	b_erisdatsreorn = tribal
200.3.1 = {
	religion = savadevi
}

200.4.1 = {
	culture = ehavush
}

401.3.1 = {
	religion = taymine
}

401.4.1 = {
	culture = enine
}

406.3.1 = {
	religion = savadevi
}

409.3.1 = {
	religion = taymine
}

414.3.1 = {
	religion = savadevi
}

426.3.1 = {
	religion = taymine
}

426.3.1 = {
	religion = savadevi
}

427.3.1 = {
	religion = taymine
}

427.3.1 = {
	religion = savadevi
}

433.3.1 = {
	religion = taymine
}

433.3.1 = {
	religion = savadevi
}

438.4.1 = {
	culture = kavutlu
}

442.3.1 = {
	religion = taymine
}

445.3.1 = {
	religion = savadevi
}

448.3.1 = {
	religion = taymine
}

452.3.1 = {
	religion = savadevi
}

464.3.1 = {
	religion = taymine
}

466.3.1 = {
	religion = savadevi
}

468.3.1 = {
	religion = taymine
}

471.3.1 = {
	religion = savadevi
}

499.4.1 = {
	culture = enine
}

501.3.1 = {
	religion = taymine
}

502.4.1 = {
	culture = kavutlu
}

508.3.1 = {
	religion = savadevi
}

512.3.1 = {
	religion = taymine
}

524.3.1 = {
	religion = savadevi
}

529.3.1 = {
	religion = taymine
}

536.3.1 = {
	religion = savadevi
}

539.3.1 = {
	religion = taymine
}

544.3.1 = {
	religion = savadevi
}

560.4.1 = {
	culture = enine
}

567.3.1 = {
	religion = taymine
}

577.3.1 = {
	religion = savadevi
}

582.3.1 = {
	religion = taymine
}

587.3.1 = {
	religion = savadevi
}

599.3.1 = {
	religion = taymine
}

607.3.1 = {
	religion = savadevi
}

611.3.1 = {
	religion = taymine
}

612.3.1 = {
	religion = savadevi
}

614.3.1 = {
	religion = taymine
}

616.3.1 = {
	religion = savadevi
}

618.3.1 = {
	religion = taymine
}

620.3.1 = {
	religion = savadevi
}

622.3.1 = {
	religion = taymine
}

623.3.1 = {
	religion = savadevi
}

626.3.1 = {
	religion = taymine
}

626.3.1 = {
	religion = savadevi
}

636.3.1 = {
	religion = taymine
}

636.3.1 = {
	religion = savadevi
}

650.3.1 = {
	religion = taymine
}

687.3.1 = {
	religion = savadevi
}

689.4.1 = {
	culture = nyirfef
}

690.3.1 = {
	religion = taymine
}

691.3.1 = {
	religion = savadevi
}

691.3.1 = {
	religion = taymine
}

692.3.1 = {
	religion = savadevi
}

699.3.1 = {
	religion = taymine
}

786.4.1 = {
	culture = enine
}

