	title = c_rocic
	max_settlements = 5
	culture = etarala
	religion = kaugile
	b_wivala = tribal
203.3.1 = {
	religion = womipac
}

213.4.1 = {
	culture = etolira
}

248.3.1 = {
	religion = kaugile
}

251.4.1 = {
	culture = etarala
}

528.4.1 = {
	culture = siluzan
}

700.4.1 = {
	b_wivala = castle
}

815.4.1 = {
	b_soladlun = city
}

