	title = c_torav
	max_settlements = 3
	culture = emorav
	religion = ekeleda
	b_seveda = tribal
200.3.1 = {
	religion = womipac
}

206.3.1 = {
	religion = ekeleda
}

206.3.1 = {
	religion = womipac
}

217.3.1 = {
	religion = ekeleda
}

224.3.1 = {
	religion = womipac
}

234.3.1 = {
	religion = nai
}

238.3.1 = {
	religion = womipac
}

245.3.1 = {
	religion = nai
}

264.4.1 = {
	culture = selavkudav
}

284.4.1 = {
	culture = sibipac
}

368.4.1 = {
	culture = selavkudav
}

523.4.1 = {
	culture = tomapur
}

611.4.1 = {
	culture = selavkudav
}

