	title = c_teyka
	max_settlements = 2
	culture = etolira
	religion = womipac
	b_takyo = tribal
205.4.1 = {
	culture = emorav
}

217.4.1 = {
	culture = sileda
}

223.3.1 = {
	religion = sadapa
}

246.3.1 = {
	religion = womipac
}

680.4.1 = {
	b_takyo = castle
}

809.4.1 = {
	b_radasia = temple
}

