	title = c_tarun
	max_settlements = 3
	culture = enine
	religion = datenna
	b_waraid = tribal
203.3.1 = {
	religion = taymine
}

209.3.1 = {
	religion = datenna
}

213.3.1 = {
	religion = taymine
}

215.3.1 = {
	religion = datenna
}

218.3.1 = {
	religion = taymine
}

226.3.1 = {
	religion = datenna
}

227.3.1 = {
	religion = taymine
}

243.3.1 = {
	religion = datenna
}

246.3.1 = {
	religion = taymine
}

249.3.1 = {
	religion = datenna
}

251.3.1 = {
	religion = taymine
}

253.3.1 = {
	religion = datenna
}

255.3.1 = {
	religion = taymine
}

844.4.1 = {
	b_waraid = castle
}

884.4.1 = {
	b_averada = temple
}

993.4.1 = {
	b_latadla = city
}

