	title = c_abezete
	max_settlements = 2
	culture = qumora
	religion = nai
	b_qanesen = tribal
202.3.1 = {
	religion = ekeleda
}

210.3.1 = {
	religion = nai
}

212.3.1 = {
	religion = ekeleda
}

226.4.1 = {
	culture = duderta
}

530.4.1 = {
	b_qanesen = castle
}

615.4.1 = {
	b_ralete = city
}

