	title = c_lanila
	max_settlements = 6
	culture = ehavush
	religion = savadevi
	b_nukila = tribal
240.4.1 = {
	culture = daniif
}

401.3.1 = {
	religion = taymine
}

406.3.1 = {
	religion = savadevi
}

408.3.1 = {
	religion = taymine
}

412.4.1 = {
	culture = kavutlu
}

414.3.1 = {
	religion = savadevi
}

416.3.1 = {
	religion = taymine
}

418.3.1 = {
	religion = savadevi
}

426.3.1 = {
	religion = taymine
}

427.3.1 = {
	religion = savadevi
}

440.3.1 = {
	religion = taymine
}

445.3.1 = {
	religion = savadevi
}

446.3.1 = {
	religion = taymine
}

452.3.1 = {
	religion = savadevi
}

455.3.1 = {
	religion = taymine
}

461.3.1 = {
	religion = savadevi
}

465.3.1 = {
	religion = taymine
}

466.3.1 = {
	religion = savadevi
}

468.3.1 = {
	religion = taymine
}

475.3.1 = {
	religion = savadevi
}

475.3.1 = {
	religion = taymine
}

480.3.1 = {
	religion = savadevi
}

482.3.1 = {
	religion = taymine
}

483.3.1 = {
	religion = savadevi
}

489.3.1 = {
	religion = taymine
}

492.3.1 = {
	religion = savadevi
}

494.3.1 = {
	religion = taymine
}

508.3.1 = {
	religion = savadevi
}

512.3.1 = {
	religion = taymine
}

524.3.1 = {
	religion = savadevi
}

527.3.1 = {
	religion = taymine
}

528.3.1 = {
	religion = savadevi
}

531.4.1 = {
	culture = enine
}

542.3.1 = {
	religion = taymine
}

544.3.1 = {
	religion = savadevi
}

558.3.1 = {
	religion = taymine
}

559.3.1 = {
	religion = savadevi
}

569.3.1 = {
	religion = taymine
}

577.3.1 = {
	religion = savadevi
}

581.3.1 = {
	religion = taymine
}

587.3.1 = {
	religion = savadevi
}

590.3.1 = {
	religion = taymine
}

591.3.1 = {
	religion = savadevi
}

607.3.1 = {
	religion = taymine
}

612.3.1 = {
	religion = savadevi
}

626.3.1 = {
	religion = taymine
}

632.3.1 = {
	religion = savadevi
}

641.3.1 = {
	religion = taymine
}

