	title = c_kadila
	max_settlements = 5
	culture = kaine
	religion = savadevi
	b_datara = tribal
203.4.1 = {
	culture = baine
}

211.4.1 = {
	culture = daniif
}

371.4.1 = {
	culture = enine
}

375.3.1 = {
	religion = taymine
}

383.3.1 = {
	religion = savadevi
}

385.3.1 = {
	religion = taymine
}

397.3.1 = {
	religion = savadevi
}

399.3.1 = {
	religion = taymine
}

400.4.1 = {
	culture = kavutlu
}

406.3.1 = {
	religion = savadevi
}

409.3.1 = {
	religion = taymine
}

414.4.1 = {
	culture = enine
}

414.3.1 = {
	religion = savadevi
}

418.3.1 = {
	religion = taymine
}

418.3.1 = {
	religion = savadevi
}

420.3.1 = {
	religion = taymine
}

420.3.1 = {
	religion = savadevi
}

421.3.1 = {
	religion = taymine
}

424.3.1 = {
	religion = savadevi
}

428.3.1 = {
	religion = taymine
}

433.3.1 = {
	religion = savadevi
}

449.3.1 = {
	religion = taymine
}

452.3.1 = {
	religion = savadevi
}

456.3.1 = {
	religion = taymine
}

461.3.1 = {
	religion = savadevi
}

467.3.1 = {
	religion = taymine
}

475.3.1 = {
	religion = savadevi
}

476.3.1 = {
	religion = taymine
}

480.3.1 = {
	religion = savadevi
}

483.3.1 = {
	religion = taymine
}

483.3.1 = {
	religion = savadevi
}

492.3.1 = {
	religion = taymine
}

492.3.1 = {
	religion = savadevi
}

497.3.1 = {
	religion = taymine
}

508.3.1 = {
	religion = savadevi
}

513.3.1 = {
	religion = taymine
}

523.3.1 = {
	religion = savadevi
}

604.3.1 = {
	religion = taymine
}

607.3.1 = {
	religion = savadevi
}

609.3.1 = {
	religion = taymine
}

612.3.1 = {
	religion = savadevi
}

614.3.1 = {
	religion = taymine
}

616.3.1 = {
	religion = savadevi
}

619.3.1 = {
	religion = taymine
}

620.3.1 = {
	religion = savadevi
}

630.3.1 = {
	religion = taymine
}

632.3.1 = {
	religion = savadevi
}

635.3.1 = {
	religion = taymine
}

635.3.1 = {
	religion = savadevi
}

637.3.1 = {
	religion = taymine
}

637.3.1 = {
	religion = savadevi
}

638.3.1 = {
	religion = taymine
}

638.3.1 = {
	religion = savadevi
}

640.3.1 = {
	religion = taymine
}

