	title = c_wavade
	max_settlements = 2
	culture = emorav
	religion = ekeleda
	b_kerapur = tribal
200.3.1 = {
	religion = womipac
}

208.4.1 = {
	culture = selavkudav
}

212.3.1 = {
	religion = ekeleda
}

214.3.1 = {
	religion = womipac
}

219.3.1 = {
	religion = ekeleda
}

231.3.1 = {
	religion = womipac
}

233.3.1 = {
	religion = ekeleda
}

234.3.1 = {
	religion = nai
}

237.4.1 = {
	culture = emorav
}

291.4.1 = {
	culture = selavkudav
}

554.4.1 = {
	culture = tomapur
}

560.4.1 = {
	culture = selavkudav
}

