	title = c_kerarhad
	max_settlements = 2
	culture = daniif
	religion = laymi
	b_tuict = tribal
203.3.1 = {
	religion = taymine
}

211.3.1 = {
	religion = laymi
}

213.3.1 = {
	religion = taymine
}

217.3.1 = {
	religion = laymi
}

218.3.1 = {
	religion = taymine
}

228.4.1 = {
	culture = nacosaine
}

232.3.1 = {
	religion = laymi
}

234.3.1 = {
	religion = taymine
}

235.3.1 = {
	religion = laymi
}

238.3.1 = {
	religion = taymine
}

240.3.1 = {
	religion = laymi
}

246.3.1 = {
	religion = taymine
}

250.3.1 = {
	religion = laymi
}

251.3.1 = {
	religion = taymine
}

256.3.1 = {
	religion = laymi
}

284.3.1 = {
	religion = taymine
}

292.4.1 = {
	culture = enine
}

443.4.1 = {
	culture = kavutlu
}

464.4.1 = {
	culture = enine
}

844.4.1 = {
	b_tuict = castle
}

892.4.1 = {
	b_rarija = city
}

