	title = c_nihyo
	max_settlements = 3
	culture = emorav
	religion = womipac
	b_nututlu = tribal
1.1.1 = {
	b_wutlu = ct_port_1
}

217.4.1 = {
	culture = sileda
}

223.3.1 = {
	religion = sadapa
}

246.3.1 = {
	religion = womipac
}

680.4.1 = {
	b_nututlu = castle
}

806.4.1 = {
	b_sathuel = temple
}

899.4.1 = {
	b_wutlu = city
}

