	title = c_telenna
	max_settlements = 2
	culture = ehavush
	religion = savadevi
	b_kobare = tribal
219.4.1 = {
	culture = daniif
}

399.4.1 = {
	culture = nyirfef
}

650.3.1 = {
	religion = taymine
}

685.4.1 = {
	culture = enine
}

