	title = c_tade
	max_settlements = 6
	culture = qumora
	religion = nai
	b_dimon = tribal
1.1.1 = {
	b_kalav = ct_port_1
}

216.3.1 = {
	religion = eterora
}

256.4.1 = {
	culture = raminia
}

290.4.1 = {
	culture = qumora
}

313.4.1 = {
	culture = raminia
}

555.4.1 = {
	b_dimon = castle
}

700.4.1 = {
	b_kalav = city
}

851.4.1 = {
	b_ekudavrelav = temple
}

