	title = c_ateyxeda
	max_settlements = 5
	culture = anugino
	religion = nai
	b_lezete = tribal
1.1.1 = {
	b_sezavid = ct_port_1
}

224.3.1 = {
	religion = deimati
}

225.3.1 = {
	religion = nai
}

233.4.1 = {
	culture = qumora
}

240.4.1 = {
	culture = samict
}

241.3.1 = {
	religion = deimati
}

307.4.1 = {
	culture = qumora
}

314.4.1 = {
	culture = samict
}

459.4.1 = {
	culture = anugino
}

645.4.1 = {
	b_lezete = castle
}

775.4.1 = {
	b_rejanapur = temple
}

875.4.1 = {
	b_sezavid = city
}

