	title = c_erishan
	max_settlements = 3
	culture = aremishan
	religion = bevargo
	b_reraig = tribal
215.4.1 = {
	culture = keraig
}

845.4.1 = {
	b_reraig = castle
}

888.4.1 = {
	b_kevegum = city
}

985.4.1 = {
	b_ropahib = temple
}

