	title = c_nanfanara
	max_settlements = 2
	culture = daniif
	religion = savadevi
	b_tourava = tribal
203.4.1 = {
	culture = kaine
}

395.3.1 = {
	religion = taymine
}

397.4.1 = {
	culture = kavutlu
}

397.3.1 = {
	religion = savadevi
}

398.3.1 = {
	religion = taymine
}

406.3.1 = {
	religion = savadevi
}

463.3.1 = {
	religion = taymine
}

466.3.1 = {
	religion = savadevi
}

468.3.1 = {
	religion = taymine
}

475.3.1 = {
	religion = savadevi
}

476.3.1 = {
	religion = taymine
}

480.3.1 = {
	religion = savadevi
}

486.3.1 = {
	religion = taymine
}

488.3.1 = {
	religion = savadevi
}

495.3.1 = {
	religion = taymine
}

495.4.1 = {
	culture = enine
}

508.3.1 = {
	religion = savadevi
}

511.3.1 = {
	religion = taymine
}

511.3.1 = {
	religion = savadevi
}

514.3.1 = {
	religion = taymine
}

524.3.1 = {
	religion = savadevi
}

527.3.1 = {
	religion = taymine
}

527.3.1 = {
	religion = savadevi
}

528.3.1 = {
	religion = taymine
}

528.3.1 = {
	religion = savadevi
}

532.3.1 = {
	religion = taymine
}

536.3.1 = {
	religion = savadevi
}

543.3.1 = {
	religion = taymine
}

544.3.1 = {
	religion = savadevi
}

545.3.1 = {
	religion = taymine
}

548.3.1 = {
	religion = savadevi
}

549.3.1 = {
	religion = taymine
}

556.3.1 = {
	religion = savadevi
}

557.3.1 = {
	religion = taymine
}

559.3.1 = {
	religion = savadevi
}

570.3.1 = {
	religion = taymine
}

577.3.1 = {
	religion = savadevi
}

585.3.1 = {
	religion = taymine
}

587.3.1 = {
	religion = savadevi
}

589.3.1 = {
	religion = taymine
}

590.3.1 = {
	religion = savadevi
}

595.3.1 = {
	religion = taymine
}

597.3.1 = {
	religion = savadevi
}

598.3.1 = {
	religion = taymine
}

607.3.1 = {
	religion = savadevi
}

615.3.1 = {
	religion = taymine
}

616.3.1 = {
	religion = savadevi
}

618.3.1 = {
	religion = taymine
}

620.3.1 = {
	religion = savadevi
}

629.3.1 = {
	religion = taymine
}

632.3.1 = {
	religion = savadevi
}

633.3.1 = {
	religion = taymine
}

635.3.1 = {
	religion = savadevi
}

644.3.1 = {
	religion = taymine
}

691.3.1 = {
	religion = savadevi
}

691.3.1 = {
	religion = taymine
}

695.3.1 = {
	religion = savadevi
}

699.3.1 = {
	religion = taymine
}

