	title = c_ravsezra
	max_settlements = 2
	culture = tomapur
	religion = nai
	b_wudade = tribal
201.3.1 = {
	religion = qerto
}

207.4.1 = {
	culture = dairmai
}

287.4.1 = {
	culture = tomapur
}

441.4.1 = {
	culture = qona
}

450.4.1 = {
	culture = dairmai
}

610.4.1 = {
	b_wudade = castle
}

780.4.1 = {
	b_qanach = city
}

