	title = c_ruron
	max_settlements = 3
	culture = laahib
	religion = kevelc
	b_aralodai = tribal
1.1.1 = {
	b_logodai = ct_port_1
}

217.3.1 = {
	religion = ecatorgo
}

221.3.1 = {
	religion = kevelc
}

228.3.1 = {
	religion = ecatorgo
}

234.3.1 = {
	religion = kevelc
}

239.3.1 = {
	religion = ecatorgo
}

240.3.1 = {
	religion = kevelc
}

246.3.1 = {
	religion = ecatorgo
}

247.3.1 = {
	religion = kevelc
}

247.3.1 = {
	religion = ecatorgo
}

253.3.1 = {
	religion = kevelc
}

259.3.1 = {
	religion = ecatorgo
}

262.3.1 = {
	religion = kevelc
}

263.3.1 = {
	religion = ecatorgo
}

264.3.1 = {
	religion = kevelc
}

267.4.1 = {
	culture = nodai
}

268.3.1 = {
	religion = ecatorgo
}

592.4.1 = {
	culture = temeir
}

630.4.1 = {
	culture = nodai
}

835.4.1 = {
	b_aralodai = castle
}

868.4.1 = {
	b_logodai = city
}

978.4.1 = {
	b_rabodai = temple
}

