	title = c_beyles
	max_settlements = 2
	culture = wai
	religion = kaugile
	b_eleylani = tribal
218.4.1 = {
	culture = reylart
}

681.4.1 = {
	culture = qamari
}

690.4.1 = {
	b_eleylani = castle
}

705.4.1 = {
	culture = reylart
}

707.4.1 = {
	culture = qamari
}

797.4.1 = {
	culture = reylart
}

802.4.1 = {
	culture = qamari
}

810.4.1 = {
	b_wiel = city
}

