	title = c_norelen
	max_settlements = 2
	culture = tagrania
	religion = nai
	b_ejaseria = tribal
208.4.1 = {
	culture = samict
}

212.3.1 = {
	religion = deimati
}

241.4.1 = {
	culture = tagrania
}

242.3.1 = {
	religion = nai
}

292.4.1 = {
	culture = tekey
}

492.4.1 = {
	culture = buvine
}

573.4.1 = {
	culture = tagrania
}

