	title = c_tavare
	max_settlements = 3
	culture = kavutlu
	religion = taymine
	b_dutush = tribal
481.4.1 = {
	culture = enine
}

505.4.1 = {
	culture = kavutlu
}

529.4.1 = {
	culture = enine
}

845.4.1 = {
	b_dutush = castle
}

883.4.1 = {
	b_katolun = city
}

989.4.1 = {
	b_davenna = temple
}

