	title = c_deradga
	max_settlements = 4
	culture = nacosaine
	religion = laymi
	b_rezija = tribal
843.4.1 = {
	b_rezija = castle
}

900.4.1 = {
	b_tirvan = temple
}

963.4.1 = {
	b_bezran = city
}

1046.4.1 = {
	b_warhad = castle
}

