	title = c_ratava
	max_settlements = 7
	culture = edamerto
	religion = nai
	b_sach = tribal
1.1.1 = {
	b_afrade = ct_port_1
}

204.3.1 = {
	religion = qerto
}

207.3.1 = {
	religion = nai
}

211.3.1 = {
	religion = qerto
}

217.3.1 = {
	religion = nai
}

225.3.1 = {
	religion = qerto
}

227.3.1 = {
	religion = nai
}

236.3.1 = {
	religion = qerto
}

238.3.1 = {
	religion = nai
}

238.3.1 = {
	religion = qerto
}

241.3.1 = {
	religion = nai
}

242.3.1 = {
	religion = qerto
}

243.3.1 = {
	religion = nai
}

245.3.1 = {
	religion = qerto
}

248.3.1 = {
	religion = nai
}

252.3.1 = {
	religion = qerto
}

253.3.1 = {
	religion = nai
}

253.3.1 = {
	religion = qerto
}

256.3.1 = {
	religion = nai
}

261.3.1 = {
	religion = qerto
}

267.3.1 = {
	religion = nai
}

272.3.1 = {
	religion = qerto
}

283.3.1 = {
	religion = nai
}

290.3.1 = {
	religion = qerto
}

292.3.1 = {
	religion = nai
}

292.3.1 = {
	religion = qerto
}

301.4.1 = {
	culture = dairmai
}

304.4.1 = {
	culture = namict
}

426.4.1 = {
	culture = dairmai
}

441.4.1 = {
	culture = qona
}

471.4.1 = {
	culture = dairmai
}

484.4.1 = {
	culture = namict
}

562.4.1 = {
	culture = dairmai
}

580.4.1 = {
	b_sach = castle
}

735.4.1 = {
	b_afrade = city
}

873.4.1 = {
	b_wevevid = temple
}

