	title = c_salenna
	max_settlements = 4
	culture = ehavush
	religion = savadevi
	b_qaymern = tribal
203.3.1 = {
	religion = taymine
}

204.3.1 = {
	religion = savadevi
}

213.3.1 = {
	religion = taymine
}

216.3.1 = {
	religion = savadevi
}

218.3.1 = {
	religion = taymine
}

223.3.1 = {
	religion = savadevi
}

227.3.1 = {
	religion = taymine
}

232.3.1 = {
	religion = savadevi
}

234.3.1 = {
	religion = taymine
}

242.4.1 = {
	culture = enine
}

300.4.1 = {
	culture = kavutlu
}

466.4.1 = {
	culture = enine
}

485.4.1 = {
	culture = kavutlu
}

515.4.1 = {
	culture = enine
}

892.4.1 = {
	b_qaymern = castle
}

936.4.1 = {
	b_daymush = city
}

1051.4.1 = {
	b_aleorare = temple
}

