	title = c_telante
	max_settlements = 3
	culture = daniif
	religion = taymine
	b_talante = tribal
211.4.1 = {
	culture = kavutlu
}

339.4.1 = {
	culture = enine
}

847.4.1 = {
	b_talante = castle
}

915.4.1 = {
	b_laniaco = temple
}

1026.4.1 = {
	b_keiricco = city
}

