	title = c_ridoo
	max_settlements = 3
	culture = tinicco
	religion = savadevi
	b_belante = tribal
308.4.1 = {
	culture = kaine
}

357.4.1 = {
	culture = tinicco
}

364.4.1 = {
	culture = nyirfef
}

773.3.1 = {
	religion = taymine
}

773.4.1 = {
	culture = enine
}

