	title = c_kibavid
	max_settlements = 2
	culture = durofan
	religion = nai
	b_nudmonqudav = tribal
216.3.1 = {
	religion = eterora
}

219.4.1 = {
	culture = qumora
}

332.4.1 = {
	culture = raminia
}

520.4.1 = {
	b_nudmonqudav = castle
}

665.4.1 = {
	b_kanipac = temple
}

