	title = c_kabicco
	max_settlements = 6
	culture = ehavush
	religion = savadevi
	b_tadara = tribal
503.3.1 = {
	religion = taymine
}

508.3.1 = {
	religion = savadevi
}

509.3.1 = {
	religion = taymine
}

509.3.1 = {
	religion = savadevi
}

510.3.1 = {
	religion = taymine
}

511.3.1 = {
	religion = savadevi
}

514.3.1 = {
	religion = taymine
}

521.4.1 = {
	culture = enine
}

524.3.1 = {
	religion = savadevi
}

530.3.1 = {
	religion = taymine
}

536.3.1 = {
	religion = savadevi
}

538.3.1 = {
	religion = taymine
}

538.3.1 = {
	religion = savadevi
}

539.3.1 = {
	religion = taymine
}

544.3.1 = {
	religion = savadevi
}

547.3.1 = {
	religion = taymine
}

548.3.1 = {
	religion = savadevi
}

552.3.1 = {
	religion = taymine
}

556.3.1 = {
	religion = savadevi
}

557.3.1 = {
	religion = taymine
}

559.3.1 = {
	religion = savadevi
}

561.3.1 = {
	religion = taymine
}

562.3.1 = {
	religion = savadevi
}

564.3.1 = {
	religion = taymine
}

577.3.1 = {
	religion = savadevi
}

578.3.1 = {
	religion = taymine
}

587.3.1 = {
	religion = savadevi
}

596.3.1 = {
	religion = taymine
}

597.3.1 = {
	religion = savadevi
}

605.3.1 = {
	religion = taymine
}

607.3.1 = {
	religion = savadevi
}

621.3.1 = {
	religion = taymine
}

621.3.1 = {
	religion = savadevi
}

650.3.1 = {
	religion = taymine
}

651.3.1 = {
	religion = savadevi
}

652.3.1 = {
	religion = taymine
}

654.3.1 = {
	religion = savadevi
}

655.3.1 = {
	religion = taymine
}

659.3.1 = {
	religion = savadevi
}

664.3.1 = {
	religion = taymine
}

682.3.1 = {
	religion = savadevi
}

690.3.1 = {
	religion = taymine
}

