	title = c_kezete
	max_settlements = 2
	culture = sanavid
	religion = womipac
	b_rakuel = tribal
207.3.1 = {
	religion = ekeleda
}

210.3.1 = {
	religion = womipac
}

219.3.1 = {
	religion = ekeleda
}

223.3.1 = {
	religion = womipac
}

225.3.1 = {
	religion = ekeleda
}

231.3.1 = {
	religion = womipac
}

232.3.1 = {
	religion = ekeleda
}

240.3.1 = {
	religion = womipac
}

240.3.1 = {
	religion = ekeleda
}

241.3.1 = {
	religion = womipac
}

242.3.1 = {
	religion = ekeleda
}

243.3.1 = {
	religion = womipac
}

245.3.1 = {
	religion = ekeleda
}

247.3.1 = {
	religion = womipac
}

249.3.1 = {
	religion = ekeleda
}

252.3.1 = {
	religion = womipac
}

255.3.1 = {
	religion = ekeleda
}

258.3.1 = {
	religion = womipac
}

269.3.1 = {
	religion = ekeleda
}

269.3.1 = {
	religion = womipac
}

271.3.1 = {
	religion = ekeleda
}

271.3.1 = {
	religion = womipac
}

389.4.1 = {
	culture = emorav
}

498.4.1 = {
	culture = sileda
}

517.4.1 = {
	culture = emorav
}

526.4.1 = {
	culture = sileda
}

558.4.1 = {
	culture = emorav
}

620.4.1 = {
	culture = sileda
}

632.4.1 = {
	culture = emorav
}

654.4.1 = {
	culture = sileda
}

670.4.1 = {
	culture = emorav
}

773.4.1 = {
	culture = sileda
}

