	title = c_remorgo
	max_settlements = 2
	culture = kuhudis
	religion = kevelc
	b_naraer = tribal
217.3.1 = {
	religion = ecatorgo
}

219.3.1 = {
	religion = kevelc
}

228.3.1 = {
	religion = ecatorgo
}

229.3.1 = {
	religion = kevelc
}

231.3.1 = {
	religion = ecatorgo
}

235.3.1 = {
	religion = kevelc
}

239.3.1 = {
	religion = ecatorgo
}

241.3.1 = {
	religion = kevelc
}

246.3.1 = {
	religion = ecatorgo
}

267.4.1 = {
	culture = nodai
}

327.4.1 = {
	culture = temeir
}

557.4.1 = {
	culture = nodai
}

592.4.1 = {
	culture = temeir
}

599.4.1 = {
	culture = nodai
}

756.4.1 = {
	culture = temeir
}

757.4.1 = {
	culture = nodai
}

808.4.1 = {
	culture = temeir
}

822.4.1 = {
	culture = nodai
}

835.4.1 = {
	b_naraer = castle
}

840.4.1 = {
	culture = temeir
}

877.4.1 = {
	b_tarieir = temple
}

987.4.1 = {
	culture = nodai
}

