	title = c_kibade
	max_settlements = 2
	culture = selavkudav
	religion = ekeleda
	b_kina = tribal
204.3.1 = {
	religion = nai
}

209.3.1 = {
	religion = ekeleda
}

211.3.1 = {
	religion = nai
}

218.3.1 = {
	religion = ekeleda
}

218.3.1 = {
	religion = nai
}

220.3.1 = {
	religion = ekeleda
}

225.3.1 = {
	religion = nai
}

228.3.1 = {
	religion = ekeleda
}

245.3.1 = {
	religion = nai
}

300.4.1 = {
	culture = tomapur
}

545.4.1 = {
	b_kina = castle
}

635.4.1 = {
	b_teripac = city
}

