	title = c_weyxade
	max_settlements = 2
	culture = selavkudav
	religion = nai
	b_ekeyxina = tribal
256.4.1 = {
	culture = tomapur
}

520.4.1 = {
	b_ekeyxina = castle
}

660.4.1 = {
	b_ahelevid = temple
}

