	title = c_tatumar
	max_settlements = 5
	culture = ryirila
	religion = savadevi
	b_qing = tribal
389.4.1 = {
	culture = raving
}

450.4.1 = {
	culture = nyirfef
}

465.4.1 = {
	culture = raving
}

650.3.1 = {
	religion = taymine
}

652.3.1 = {
	religion = savadevi
}

652.3.1 = {
	religion = taymine
}

655.3.1 = {
	religion = savadevi
}

655.3.1 = {
	religion = taymine
}

657.3.1 = {
	religion = savadevi
}

664.3.1 = {
	religion = taymine
}

666.3.1 = {
	religion = savadevi
}

679.3.1 = {
	religion = taymine
}

683.3.1 = {
	religion = savadevi
}

690.3.1 = {
	religion = taymine
}

692.3.1 = {
	religion = savadevi
}

694.4.1 = {
	culture = nyirfef
}

699.3.1 = {
	religion = taymine
}

707.3.1 = {
	religion = savadevi
}

708.3.1 = {
	religion = taymine
}

713.3.1 = {
	religion = savadevi
}

718.3.1 = {
	religion = taymine
}

725.3.1 = {
	religion = savadevi
}

727.3.1 = {
	religion = taymine
}

729.3.1 = {
	religion = savadevi
}

730.3.1 = {
	religion = taymine
}

735.3.1 = {
	religion = savadevi
}

735.3.1 = {
	religion = taymine
}

739.3.1 = {
	religion = savadevi
}

744.3.1 = {
	religion = taymine
}

750.3.1 = {
	religion = savadevi
}

753.3.1 = {
	religion = taymine
}

755.3.1 = {
	religion = savadevi
}

757.3.1 = {
	religion = laymi
}

763.3.1 = {
	religion = taymine
}

767.3.1 = {
	religion = laymi
}

781.3.1 = {
	religion = taymine
}

791.3.1 = {
	religion = laymi
}

792.3.1 = {
	religion = taymine
}

793.3.1 = {
	religion = laymi
}

796.3.1 = {
	religion = taymine
}

804.3.1 = {
	religion = laymi
}

810.3.1 = {
	religion = taymine
}

812.3.1 = {
	religion = laymi
}

822.3.1 = {
	religion = taymine
}

828.3.1 = {
	religion = laymi
}

832.3.1 = {
	religion = taymine
}

834.3.1 = {
	religion = laymi
}

836.3.1 = {
	religion = taymine
}

841.3.1 = {
	religion = laymi
}

846.3.1 = {
	religion = taymine
}

847.3.1 = {
	religion = laymi
}

849.3.1 = {
	religion = taymine
}

852.3.1 = {
	religion = laymi
}

852.3.1 = {
	religion = taymine
}

856.3.1 = {
	religion = laymi
}

857.3.1 = {
	religion = taymine
}

861.3.1 = {
	religion = laymi
}

867.3.1 = {
	religion = taymine
}

868.3.1 = {
	religion = laymi
}

872.3.1 = {
	religion = taymine
}

874.3.1 = {
	religion = laymi
}

880.3.1 = {
	religion = taymine
}

887.3.1 = {
	religion = laymi
}

888.3.1 = {
	religion = taymine
}

893.3.1 = {
	religion = laymi
}

898.3.1 = {
	religion = taymine
}

899.3.1 = {
	religion = laymi
}

903.3.1 = {
	religion = taymine
}

909.3.1 = {
	religion = laymi
}

910.3.1 = {
	religion = taymine
}

913.3.1 = {
	religion = laymi
}

915.3.1 = {
	religion = taymine
}

917.3.1 = {
	religion = laymi
}

921.3.1 = {
	religion = taymine
}

924.3.1 = {
	religion = laymi
}

946.3.1 = {
	religion = taymine
}

953.3.1 = {
	religion = laymi
}

963.3.1 = {
	religion = taymine
}

964.3.1 = {
	religion = laymi
}

964.3.1 = {
	religion = taymine
}

973.3.1 = {
	religion = laymi
}

973.4.1 = {
	culture = nacosaine
}

973.3.1 = {
	religion = taymine
}

975.3.1 = {
	religion = laymi
}

979.3.1 = {
	religion = taymine
}

982.3.1 = {
	religion = laymi
}

984.3.1 = {
	religion = taymine
}

986.3.1 = {
	religion = laymi
}

998.3.1 = {
	religion = taymine
}

1003.3.1 = {
	religion = laymi
}

1006.3.1 = {
	religion = taymine
}

1014.3.1 = {
	religion = laymi
}

1020.3.1 = {
	religion = taymine
}

1022.3.1 = {
	religion = laymi
}

1025.3.1 = {
	religion = taymine
}

1032.3.1 = {
	religion = laymi
}

1043.3.1 = {
	religion = taymine
}

1050.3.1 = {
	religion = laymi
}

1051.3.1 = {
	religion = taymine
}

1052.3.1 = {
	religion = laymi
}

1056.3.1 = {
	religion = taymine
}

1059.3.1 = {
	religion = laymi
}

1060.3.1 = {
	religion = taymine
}

