	title = c_kelesen
	max_settlements = 3
	culture = samict
	religion = deimati
	b_ranava = tribal
1.1.1 = {
	b_qibade = ct_port_1
}

200.3.1 = {
	religion = nai
}

200.4.1 = {
	culture = qumora
}

224.3.1 = {
	religion = deimati
}

231.4.1 = {
	culture = samict
}

432.4.1 = {
	culture = anugino
}

585.4.1 = {
	b_ranava = castle
}

657.4.1 = {
	culture = samict
}

720.4.1 = {
	b_qibade = city
}

800.4.1 = {
	culture = anugino
}

887.4.1 = {
	b_ratipac = temple
}

