	title = c_eshukiif
	max_settlements = 2
	culture = nyirfef
	religion = savadevi
	b_syiriif = tribal
676.3.1 = {
	religion = laymi
}

683.3.1 = {
	religion = savadevi
}

683.3.1 = {
	religion = laymi
}

684.3.1 = {
	religion = savadevi
}

684.3.1 = {
	religion = laymi
}

695.3.1 = {
	religion = savadevi
}

711.3.1 = {
	religion = laymi
}

715.3.1 = {
	religion = savadevi
}

717.3.1 = {
	religion = laymi
}

755.4.1 = {
	culture = nacosaine
}

853.4.1 = {
	culture = nyirfef
}

