	title = c_qepipete
	max_settlements = 2
	culture = selavkudav
	religion = ekeleda
	b_sudete = tribal
204.3.1 = {
	religion = nai
}

209.3.1 = {
	religion = ekeleda
}

211.3.1 = {
	religion = nai
}

218.3.1 = {
	religion = ekeleda
}

218.3.1 = {
	religion = nai
}

220.3.1 = {
	religion = ekeleda
}

225.3.1 = {
	religion = nai
}

228.3.1 = {
	religion = ekeleda
}

245.3.1 = {
	religion = nai
}

300.4.1 = {
	culture = tomapur
}

520.4.1 = {
	b_sudete = castle
}

595.4.1 = {
	b_tanete = temple
}

