	title = c_nagora
	max_settlements = 3
	culture = tomapur
	religion = deimati
	b_numeppa = tribal
201.3.1 = {
	religion = qerto
}

202.3.1 = {
	religion = deimati
}

205.3.1 = {
	religion = qerto
}

208.3.1 = {
	religion = deimati
}

245.3.1 = {
	religion = qerto
}

245.3.1 = {
	religion = deimati
}

252.3.1 = {
	religion = qerto
}

253.3.1 = {
	religion = deimati
}

259.4.1 = {
	culture = kahine
}

595.4.1 = {
	b_numeppa = castle
}

685.4.1 = {
	b_dererto = city
}

820.4.1 = {
	b_edamino = temple
}

