	title = c_kogaac
	max_settlements = 5
	culture = behalen
	religion = nai
	b_wogitta = tribal
204.3.1 = {
	religion = deimati
}

205.3.1 = {
	religion = nai
}

205.3.1 = {
	religion = deimati
}

209.3.1 = {
	religion = nai
}

213.3.1 = {
	religion = deimati
}

216.3.1 = {
	religion = nai
}

224.3.1 = {
	religion = deimati
}

232.3.1 = {
	religion = nai
}

232.3.1 = {
	religion = deimati
}

237.3.1 = {
	religion = nai
}

238.3.1 = {
	religion = deimati
}

240.3.1 = {
	religion = nai
}

240.3.1 = {
	religion = deimati
}

280.3.1 = {
	religion = nolena
}

283.3.1 = {
	religion = deimati
}

285.3.1 = {
	religion = nolena
}

288.3.1 = {
	religion = deimati
}

291.3.1 = {
	religion = nolena
}

293.3.1 = {
	religion = deimati
}

294.3.1 = {
	religion = nolena
}

298.3.1 = {
	religion = deimati
}

305.3.1 = {
	religion = nolena
}

309.3.1 = {
	religion = deimati
}

312.3.1 = {
	religion = nolena
}

315.3.1 = {
	religion = deimati
}

328.3.1 = {
	religion = nolena
}

333.3.1 = {
	religion = deimati
}

335.3.1 = {
	religion = nolena
}

336.3.1 = {
	religion = deimati
}

466.4.1 = {
	culture = ronai
}

546.4.1 = {
	culture = behalen
}

547.4.1 = {
	culture = ronai
}

626.4.1 = {
	culture = behalen
}

