	title = c_tezaid
	max_settlements = 4
	culture = ecatush
	religion = savadevi
	b_rarhad = tribal
205.3.1 = {
	religion = laymi
}

205.3.1 = {
	religion = savadevi
}

218.3.1 = {
	religion = laymi
}

221.3.1 = {
	religion = savadevi
}

224.3.1 = {
	religion = laymi
}

224.3.1 = {
	religion = savadevi
}

225.3.1 = {
	religion = laymi
}

229.3.1 = {
	religion = savadevi
}

265.3.1 = {
	religion = laymi
}

269.3.1 = {
	religion = savadevi
}

326.4.1 = {
	culture = nacosaine
}

328.3.1 = {
	religion = laymi
}

332.3.1 = {
	religion = savadevi
}

333.3.1 = {
	religion = laymi
}

334.3.1 = {
	religion = savadevi
}

367.3.1 = {
	religion = laymi
}

367.3.1 = {
	religion = savadevi
}

450.3.1 = {
	religion = laymi
}

452.3.1 = {
	religion = savadevi
}

455.3.1 = {
	religion = laymi
}

461.3.1 = {
	religion = savadevi
}

464.3.1 = {
	religion = laymi
}

466.3.1 = {
	religion = savadevi
}

472.3.1 = {
	religion = laymi
}

475.3.1 = {
	religion = savadevi
}

479.3.1 = {
	religion = laymi
}

480.3.1 = {
	religion = savadevi
}

487.3.1 = {
	religion = laymi
}

488.3.1 = {
	religion = savadevi
}

489.3.1 = {
	religion = laymi
}

492.3.1 = {
	religion = savadevi
}

493.3.1 = {
	religion = laymi
}

508.3.1 = {
	religion = savadevi
}

515.3.1 = {
	religion = laymi
}

524.3.1 = {
	religion = savadevi
}

531.3.1 = {
	religion = laymi
}

536.3.1 = {
	religion = savadevi
}

549.3.1 = {
	religion = laymi
}

556.3.1 = {
	religion = savadevi
}

568.3.1 = {
	religion = laymi
}

577.3.1 = {
	religion = savadevi
}

583.3.1 = {
	religion = laymi
}

587.3.1 = {
	religion = savadevi
}

600.3.1 = {
	religion = laymi
}

607.3.1 = {
	religion = savadevi
}

608.3.1 = {
	religion = laymi
}

612.3.1 = {
	religion = savadevi
}

615.3.1 = {
	religion = laymi
}

616.3.1 = {
	religion = savadevi
}

628.3.1 = {
	religion = laymi
}

632.3.1 = {
	religion = savadevi
}

632.3.1 = {
	religion = laymi
}

635.3.1 = {
	religion = savadevi
}

676.3.1 = {
	religion = laymi
}

678.3.1 = {
	religion = savadevi
}

679.3.1 = {
	religion = laymi
}

690.3.1 = {
	religion = savadevi
}

696.3.1 = {
	religion = laymi
}

976.4.1 = {
	culture = nyirfef
}

