	title = c_aqapete
	max_settlements = 2
	culture = kudipac
	religion = womipac
	b_nunu = tribal
207.4.1 = {
	culture = kelach
}

250.4.1 = {
	culture = emorav
}

261.4.1 = {
	culture = kelach
}

290.4.1 = {
	culture = emorav
}

322.4.1 = {
	culture = kelach
}

346.4.1 = {
	culture = emorav
}

371.3.1 = {
	religion = nai
}

372.3.1 = {
	religion = womipac
}

376.3.1 = {
	religion = nai
}

401.4.1 = {
	culture = selavkudav
}

595.4.1 = {
	culture = emorav
}

608.4.1 = {
	culture = selavkudav
}

621.4.1 = {
	culture = emorav
}

689.4.1 = {
	culture = selavkudav
}

707.4.1 = {
	culture = emorav
}

771.4.1 = {
	culture = selavkudav
}

777.4.1 = {
	culture = emorav
}

855.4.1 = {
	culture = sileda
}

858.4.1 = {
	b_nunu = castle
}

