	title = c_danevid
	max_settlements = 2
	culture = selavkudav
	religion = nai
	b_atibalie = tribal
256.4.1 = {
	culture = tomapur
}

530.4.1 = {
	b_atibalie = castle
}

655.4.1 = {
	b_serete = city
}

