	title = c_kacilda
	max_settlements = 3
	culture = buvine
	religion = nai
	b_waigey = tribal
217.4.1 = {
	culture = kahine
}

225.3.1 = {
	religion = deimati
}

241.4.1 = {
	culture = tagrania
}

242.3.1 = {
	religion = nai
}

291.4.1 = {
	culture = tekey
}

329.4.1 = {
	culture = tagrania
}

338.4.1 = {
	culture = tekey
}

539.4.1 = {
	culture = buvine
}

561.4.1 = {
	culture = tekey
}

591.4.1 = {
	culture = tagrania
}

