	title = c_taadga
	max_settlements = 2
	culture = kaymush
	religion = savadevi
	b_lorerru = tribal
219.4.1 = {
	culture = nyirfef
}

676.3.1 = {
	religion = laymi
}

677.3.1 = {
	religion = savadevi
}

679.3.1 = {
	religion = laymi
}

699.3.1 = {
	religion = savadevi
}

711.3.1 = {
	religion = laymi
}

803.3.1 = {
	religion = savadevi
}

803.3.1 = {
	religion = laymi
}

806.3.1 = {
	religion = savadevi
}

806.3.1 = {
	religion = laymi
}

821.3.1 = {
	religion = savadevi
}

821.3.1 = {
	religion = laymi
}

835.4.1 = {
	culture = nacosaine
}

882.4.1 = {
	culture = nyirfef
}

922.4.1 = {
	culture = nacosaine
}

935.4.1 = {
	culture = nyirfef
}

939.4.1 = {
	culture = nacosaine
}

