	title = c_tevelc
	max_settlements = 2
	culture = keraig
	religion = bevargo
	b_rergtekgr = tribal
333.4.1 = {
	culture = nilahib
}

345.4.1 = {
	culture = keraig
}

346.4.1 = {
	culture = nilahib
}

360.4.1 = {
	culture = keraig
}

870.4.1 = {
	b_rergtekgr = castle
}

909.4.1 = {
	b_nevahib = temple
}

