	title = c_kaadla
	max_settlements = 2
	culture = ecatush
	religion = savadevi
	b_lemict = tribal
242.4.1 = {
	culture = nyirfef
}

676.3.1 = {
	religion = laymi
}

677.3.1 = {
	religion = savadevi
}

679.3.1 = {
	religion = laymi
}

684.3.1 = {
	religion = savadevi
}

684.3.1 = {
	religion = laymi
}

686.3.1 = {
	religion = savadevi
}

706.3.1 = {
	religion = laymi
}

