	title = c_wavdav
	max_settlements = 2
	culture = tomapur
	religion = nai
	b_watina = tribal
212.4.1 = {
	culture = edamerto
}

219.4.1 = {
	culture = qumora
}

224.3.1 = {
	religion = deimati
}

227.4.1 = {
	culture = samict
}

467.4.1 = {
	culture = anugino
}

635.4.1 = {
	b_watina = castle
}

725.4.1 = {
	b_tatade = temple
}

