	title = c_beupiaco
	max_settlements = 7
	culture = nutiana
	religion = bedesa
	b_keupulo = tribal
204.4.1 = {
	culture = nisid
}

207.3.1 = {
	religion = qogato
}

241.3.1 = {
	religion = bedesa
}

246.4.1 = {
	culture = nezuel
}

256.3.1 = {
	religion = qogato
}

258.4.1 = {
	culture = nisid
}

335.4.1 = {
	culture = kajorte
}

403.4.1 = {
	culture = nisid
}

562.4.1 = {
	culture = kajorte
}

695.4.1 = {
	b_keupulo = castle
}

709.4.1 = {
	culture = nisid
}

739.4.1 = {
	culture = kajorte
}

800.4.1 = {
	b_wivulo = city
}

850.4.1 = {
	b_rorand = temple
}

