	title = c_darerru
	max_settlements = 3
	culture = kaymush
	religion = savadevi
	b_koraid = tribal
215.4.1 = {
	culture = nyirfef
}

674.4.1 = {
	culture = nacosaine
}

676.3.1 = {
	religion = laymi
}

680.3.1 = {
	religion = savadevi
}

682.3.1 = {
	religion = laymi
}

683.4.1 = {
	culture = nyirfef
}

685.4.1 = {
	culture = nacosaine
}

754.3.1 = {
	religion = savadevi
}

757.4.1 = {
	culture = nyirfef
}

761.3.1 = {
	religion = laymi
}

765.3.1 = {
	religion = savadevi
}

765.3.1 = {
	religion = laymi
}

798.4.1 = {
	culture = nacosaine
}

893.4.1 = {
	culture = nyirfef
}

939.4.1 = {
	culture = nacosaine
}

998.4.1 = {
	culture = nyirfef
}

