	title = c_raada
	max_settlements = 4
	culture = kaymush
	religion = savadevi
	b_dudadla = tribal
218.4.1 = {
	culture = raving
}

351.4.1 = {
	culture = nyirfef
}

676.3.1 = {
	religion = laymi
}

680.3.1 = {
	religion = savadevi
}

682.3.1 = {
	religion = laymi
}

689.3.1 = {
	religion = savadevi
}

711.3.1 = {
	religion = laymi
}

723.3.1 = {
	religion = savadevi
}

724.3.1 = {
	religion = laymi
}

728.3.1 = {
	religion = savadevi
}

731.3.1 = {
	religion = laymi
}

735.3.1 = {
	religion = savadevi
}

735.3.1 = {
	religion = laymi
}

