	title = c_tabdict
	max_settlements = 5
	culture = kelach
	religion = womipac
	b_amacaid = tribal
206.4.1 = {
	culture = selavkudav
}

208.3.1 = {
	religion = nai
}

550.4.1 = {
	b_amacaid = castle
}

645.4.1 = {
	b_watoses = temple
}

821.4.1 = {
	b_tapalie = city
}

861.4.1 = {
	culture = sileda
}

865.4.1 = {
	b_alete = temple
}

