	title = c_esarila
	max_settlements = 5
	culture = nyirfef
	religion = savadevi
	b_kinila = tribal
676.3.1 = {
	religion = laymi
}

677.3.1 = {
	religion = savadevi
}

679.3.1 = {
	religion = laymi
}

683.3.1 = {
	religion = savadevi
}

683.3.1 = {
	religion = laymi
}

684.3.1 = {
	religion = savadevi
}

684.3.1 = {
	religion = laymi
}

695.3.1 = {
	religion = savadevi
}

711.3.1 = {
	religion = laymi
}

715.3.1 = {
	religion = savadevi
}

717.3.1 = {
	religion = laymi
}

749.4.1 = {
	culture = nacosaine
}

762.3.1 = {
	religion = savadevi
}

764.4.1 = {
	culture = nyirfef
}

765.3.1 = {
	religion = laymi
}

789.4.1 = {
	culture = nacosaine
}

