	title = c_qanade
	max_settlements = 4
	culture = tomapur
	religion = nai
	b_watevid = tribal
200.3.1 = {
	religion = eterora
}

203.4.1 = {
	culture = qumora
}

203.3.1 = {
	religion = nai
}

206.3.1 = {
	religion = eterora
}

346.4.1 = {
	culture = raminia
}

555.4.1 = {
	b_watevid = castle
}

665.4.1 = {
	b_etibete = city
}

843.4.1 = {
	b_katavid = temple
}

