	title = c_wukiif
	max_settlements = 3
	culture = nyirfef
	religion = savadevi
	b_lyirern = tribal
676.3.1 = {
	religion = laymi
}

677.3.1 = {
	religion = savadevi
}

679.3.1 = {
	religion = laymi
}

681.3.1 = {
	religion = savadevi
}

682.3.1 = {
	religion = laymi
}

683.3.1 = {
	religion = savadevi
}

683.3.1 = {
	religion = laymi
}

699.3.1 = {
	religion = savadevi
}

711.3.1 = {
	religion = laymi
}

803.3.1 = {
	religion = savadevi
}

803.3.1 = {
	religion = laymi
}

