	title = c_nelade
	max_settlements = 2
	culture = anugino
	religion = deimati
	b_sipach = tribal
200.3.1 = {
	religion = nai
}

224.3.1 = {
	religion = deimati
}

249.4.1 = {
	culture = samict
}

281.4.1 = {
	culture = anugino
}

306.4.1 = {
	culture = samict
}

345.4.1 = {
	culture = anugino
}

374.4.1 = {
	culture = samict
}

395.4.1 = {
	culture = anugino
}

412.4.1 = {
	culture = samict
}

506.4.1 = {
	culture = anugino
}

518.4.1 = {
	culture = samict
}

570.4.1 = {
	b_sipach = castle
}

572.4.1 = {
	culture = anugino
}

591.4.1 = {
	culture = samict
}

605.4.1 = {
	culture = anugino
}

612.4.1 = {
	culture = samict
}

705.4.1 = {
	b_tezapur = temple
}

802.4.1 = {
	culture = anugino
}

