	title = c_etibete
	max_settlements = 3
	culture = anugino
	religion = nai
	b_deralie = tribal
224.3.1 = {
	religion = deimati
}

249.4.1 = {
	culture = samict
}

281.4.1 = {
	culture = anugino
}

306.4.1 = {
	culture = samict
}

345.4.1 = {
	culture = anugino
}

374.4.1 = {
	culture = samict
}

395.4.1 = {
	culture = anugino
}

412.4.1 = {
	culture = samict
}

506.4.1 = {
	culture = anugino
}

518.4.1 = {
	culture = samict
}

570.4.1 = {
	b_deralie = castle
}

572.4.1 = {
	culture = anugino
}

591.4.1 = {
	culture = samict
}

605.4.1 = {
	culture = anugino
}

612.4.1 = {
	culture = samict
}

700.4.1 = {
	b_qelade = temple
}

802.4.1 = {
	culture = anugino
}

852.4.1 = {
	b_aqina = city
}

