	title = c_sanun
	max_settlements = 7
	culture = raving
	religion = savadevi
	b_rarawin = tribal
351.4.1 = {
	culture = nyirfef
}

676.3.1 = {
	religion = laymi
}

680.3.1 = {
	religion = savadevi
}

682.3.1 = {
	religion = laymi
}

689.3.1 = {
	religion = savadevi
}

711.3.1 = {
	religion = laymi
}

723.3.1 = {
	religion = savadevi
}

724.3.1 = {
	religion = laymi
}

728.3.1 = {
	religion = savadevi
}

731.3.1 = {
	religion = laymi
}

735.3.1 = {
	religion = savadevi
}

735.3.1 = {
	religion = laymi
}

