	title = c_wibes
	max_settlements = 2
	culture = basodan
	religion = kaugile
	b_besart = tribal
640.4.1 = {
	culture = wai
}

641.4.1 = {
	culture = basodan
}

811.4.1 = {
	culture = wai
}

814.4.1 = {
	b_besart = castle
}

