	title = c_nugopa
	max_settlements = 2
	culture = kahine
	religion = nai
	b_dalman = tribal
225.3.1 = {
	religion = deimati
}

241.4.1 = {
	culture = tagrania
}

242.3.1 = {
	religion = nai
}

291.4.1 = {
	culture = tekey
}

329.4.1 = {
	culture = tagrania
}

338.4.1 = {
	culture = tekey
}

539.4.1 = {
	culture = buvine
}

561.4.1 = {
	culture = tekey
}

591.4.1 = {
	culture = tagrania
}

