	title = c_tanadga
	max_settlements = 6
	culture = nacosaine
	religion = laymi
	b_tipartin = tribal
843.4.1 = {
	b_tipartin = castle
}

875.4.1 = {
	b_tanawin = temple
}

1050.4.1 = {
	b_buhawin = city
}

