	title = c_boviif
	max_settlements = 4
	culture = daniif
	religion = savadevi
	b_datumar = tribal
493.4.1 = {
	culture = nyirfef
}

650.3.1 = {
	religion = taymine
}

657.3.1 = {
	religion = savadevi
}

664.3.1 = {
	religion = taymine
}

666.3.1 = {
	religion = savadevi
}

679.3.1 = {
	religion = taymine
}

681.3.1 = {
	religion = savadevi
}

690.3.1 = {
	religion = taymine
}

691.3.1 = {
	religion = savadevi
}

691.3.1 = {
	religion = taymine
}

692.3.1 = {
	religion = savadevi
}

699.3.1 = {
	religion = taymine
}

773.4.1 = {
	culture = enine
}

