	title = c_elerayn
	max_settlements = 3
	culture = berava
	religion = savadevi
	b_rusata = tribal
203.4.1 = {
	culture = ryirila
}

371.4.1 = {
	culture = nyirfef
}

650.3.1 = {
	religion = taymine
}

736.4.1 = {
	culture = enine
}

