	title = c_tudctipunara
	max_settlements = 2
	culture = daniif
	religion = savadevi
	b_lict = tribal
201.3.1 = {
	religion = laymi
}

211.4.1 = {
	culture = nacosaine
}

1033.4.1 = {
	b_lict = castle
}

