	title = c_kadistos
	max_settlements = 2
	culture = sanavid
	religion = ekeleda
	b_aqathuel = tribal
229.3.1 = {
	religion = womipac
}

232.3.1 = {
	religion = ekeleda
}

236.3.1 = {
	religion = womipac
}

240.3.1 = {
	religion = ekeleda
}

269.3.1 = {
	religion = womipac
}

273.3.1 = {
	religion = ekeleda
}

287.3.1 = {
	religion = womipac
}

289.3.1 = {
	religion = ekeleda
}

290.3.1 = {
	religion = womipac
}

297.3.1 = {
	religion = ekeleda
}

297.3.1 = {
	religion = womipac
}

299.3.1 = {
	religion = ekeleda
}

306.3.1 = {
	religion = womipac
}

316.3.1 = {
	religion = ekeleda
}

321.3.1 = {
	religion = womipac
}

324.3.1 = {
	religion = ekeleda
}

324.3.1 = {
	religion = womipac
}

362.4.1 = {
	culture = emorav
}

389.4.1 = {
	culture = sanavid
}

445.4.1 = {
	culture = emorav
}

498.4.1 = {
	culture = sileda
}

558.4.1 = {
	culture = emorav
}

620.4.1 = {
	culture = sileda
}

627.4.1 = {
	culture = emorav
}

775.4.1 = {
	culture = sileda
}

