	title = c_lavid
	max_settlements = 7
	culture = kajorte
	religion = bedesa
	b_kadonte = tribal
214.3.1 = {
	religion = qogato
}

218.3.1 = {
	religion = bedesa
}

221.3.1 = {
	religion = qogato
}

222.3.1 = {
	religion = bedesa
}

228.3.1 = {
	religion = qogato
}

233.3.1 = {
	religion = bedesa
}

236.3.1 = {
	religion = qogato
}

239.3.1 = {
	religion = bedesa
}

239.3.1 = {
	religion = qogato
}

241.3.1 = {
	religion = bedesa
}

256.3.1 = {
	religion = qogato
}

261.3.1 = {
	religion = bedesa
}

261.3.1 = {
	religion = qogato
}

264.3.1 = {
	religion = bedesa
}

265.3.1 = {
	religion = qogato
}

266.3.1 = {
	religion = bedesa
}

268.3.1 = {
	religion = qogato
}

275.3.1 = {
	religion = bedesa
}

277.3.1 = {
	religion = qogato
}

282.3.1 = {
	religion = bedesa
}

310.3.1 = {
	religion = qogato
}

310.4.1 = {
	culture = nisid
}

406.4.1 = {
	culture = kajorte
}

487.4.1 = {
	culture = nisid
}

508.4.1 = {
	culture = kajorte
}

632.4.1 = {
	culture = nisid
}

632.4.1 = {
	culture = kajorte
}

636.4.1 = {
	culture = nisid
}

684.4.1 = {
	culture = kajorte
}

687.4.1 = {
	culture = nisid
}

695.4.1 = {
	b_kadonte = castle
}

811.4.1 = {
	b_echiami = city
}

897.4.1 = {
	b_ranaac = temple
}

