	title = c_sezeth
	max_settlements = 6
	culture = reigique
	religion = kevelc
	b_duyanah = tribal
1.1.1 = {
	b_kakilie = ct_port_1
}

755.4.1 = {
	b_duyanah = castle
}

814.4.1 = {
	b_kakilie = city
}

870.4.1 = {
	b_kalissa = temple
}

934.4.1 = {
	b_luhissa = castle
}

1001.4.1 = {
	b_astest = castle
}

