	title = c_ruhudis
	max_settlements = 2
	culture = kuhudis
	religion = ecatorgo
	b_kujri = tribal
205.4.1 = {
	culture = nodai
}

206.3.1 = {
	religion = kevelc
}

211.3.1 = {
	religion = ecatorgo
}

211.3.1 = {
	religion = kevelc
}

217.3.1 = {
	religion = ecatorgo
}

417.4.1 = {
	culture = temeir
}

467.4.1 = {
	culture = nodai
}

518.4.1 = {
	culture = temeir
}

634.4.1 = {
	culture = nodai
}

679.4.1 = {
	culture = temeir
}

757.4.1 = {
	culture = nodai
}

759.4.1 = {
	culture = temeir
}

822.4.1 = {
	culture = nodai
}

823.4.1 = {
	culture = temeir
}

828.4.1 = {
	culture = nodai
}

835.4.1 = {
	b_kujri = castle
}

905.4.1 = {
	b_kuronai = temple
}

