	title = c_evavid
	max_settlements = 3
	culture = kelach
	religion = ekeleda
	b_rilevid = tribal
208.3.1 = {
	religion = nai
}

209.3.1 = {
	religion = ekeleda
}

209.3.1 = {
	religion = nai
}

216.3.1 = {
	religion = ekeleda
}

217.3.1 = {
	religion = nai
}

218.3.1 = {
	religion = ekeleda
}

224.3.1 = {
	religion = nai
}

227.3.1 = {
	religion = ekeleda
}

227.3.1 = {
	religion = nai
}

230.3.1 = {
	religion = ekeleda
}

232.3.1 = {
	religion = nai
}

235.3.1 = {
	religion = ekeleda
}

235.3.1 = {
	religion = nai
}

237.3.1 = {
	religion = ekeleda
}

238.3.1 = {
	religion = nai
}

242.4.1 = {
	culture = selavkudav
}

243.3.1 = {
	religion = ekeleda
}

245.3.1 = {
	religion = nai
}

287.3.1 = {
	religion = ekeleda
}

288.3.1 = {
	religion = nai
}

289.3.1 = {
	religion = ekeleda
}

289.3.1 = {
	religion = nai
}

526.4.1 = {
	b_rilevid = castle
}

650.4.1 = {
	b_berav = temple
}

826.4.1 = {
	b_batava = city
}

866.4.1 = {
	culture = sileda
}

900.4.1 = {
	culture = selavkudav
}

