	title = c_wibapur
	max_settlements = 7
	culture = samict
	religion = deimati
	b_kerevid = tribal
200.3.1 = {
	religion = nai
}

211.4.1 = {
	culture = edamerto
}

224.3.1 = {
	religion = deimati
}

225.3.1 = {
	religion = nai
}

226.4.1 = {
	culture = qumora
}

241.3.1 = {
	religion = deimati
}

242.3.1 = {
	religion = nai
}

242.3.1 = {
	religion = deimati
}

247.3.1 = {
	religion = nai
}

255.3.1 = {
	religion = deimati
}

257.3.1 = {
	religion = nai
}

258.3.1 = {
	religion = deimati
}

262.3.1 = {
	religion = nai
}

268.3.1 = {
	religion = deimati
}

317.4.1 = {
	culture = samict
}

458.4.1 = {
	culture = anugino
}

502.4.1 = {
	culture = samict
}

516.4.1 = {
	culture = anugino
}

525.4.1 = {
	culture = samict
}

535.4.1 = {
	culture = anugino
}

548.4.1 = {
	culture = samict
}

572.4.1 = {
	culture = anugino
}

585.4.1 = {
	culture = samict
}

590.4.1 = {
	b_kerevid = castle
}

605.4.1 = {
	culture = anugino
}

775.4.1 = {
	b_serav = temple
}

872.4.1 = {
	b_nezalie = city
}

