	title = c_nelete
	max_settlements = 4
	culture = samict
	religion = deimati
	b_tatesen = tribal
200.3.1 = {
	religion = nai
}

206.3.1 = {
	religion = deimati
}

209.3.1 = {
	religion = nai
}

212.3.1 = {
	religion = deimati
}

220.3.1 = {
	religion = nai
}

224.3.1 = {
	religion = deimati
}

395.4.1 = {
	culture = anugino
}

419.4.1 = {
	culture = samict
}

437.4.1 = {
	culture = anugino
}

447.4.1 = {
	culture = samict
}

468.4.1 = {
	culture = anugino
}

590.4.1 = {
	b_tatesen = castle
}

595.4.1 = {
	culture = samict
}

605.4.1 = {
	culture = anugino
}

607.4.1 = {
	culture = samict
}

724.4.1 = {
	culture = anugino
}

765.4.1 = {
	b_kezava = temple
}

