	title = c_kinest
	max_settlements = 5
	culture = nedogict
	religion = kevelc
	b_danilie = tribal
1.1.1 = {
	b_kajohique = ct_port_1
}

735.4.1 = {
	b_danilie = castle
}

809.4.1 = {
	b_kegissa = temple
}

861.4.1 = {
	b_kajohique = city
}

910.4.1 = {
	b_nalict = temple
}

957.4.1 = {
	b_keigisi = castle
}

