	title = c_nalkrou
	max_settlements = 6
	culture = wajafya
	religion = nolena
	b_keitalbogk = tribal
1.1.1 = {
	b_tawibanu = ct_port_1
}

204.3.1 = {
	religion = nai
}

204.4.1 = {
	culture = behalen
}

817.4.1 = {
	b_keitalbogk = castle
}

853.4.1 = {
	b_tawibanu = city
}

