	title = c_demrtivmi
	max_settlements = 4
	culture = reylart
	religion = bedesa
	b_tivindo = tribal
202.4.1 = {
	culture = bezosta
}

232.4.1 = {
	culture = nezuel
}

730.4.1 = {
	b_tivindo = castle
}

821.4.1 = {
	b_nelonte = city
}

897.4.1 = {
	b_kanatha = temple
}

