	title = c_qoan
	max_settlements = 4
	culture = raraon
	religion = ecatorgo
	b_naboan = tribal
1.1.1 = {
	b_wanavon = ct_port_1
}

206.3.1 = {
	religion = kevelc
}

211.3.1 = {
	religion = ecatorgo
}

211.3.1 = {
	religion = kevelc
}

217.3.1 = {
	religion = ecatorgo
}

226.3.1 = {
	religion = kevelc
}

228.3.1 = {
	religion = ecatorgo
}

230.3.1 = {
	religion = kevelc
}

231.3.1 = {
	religion = ecatorgo
}

239.4.1 = {
	culture = temeir
}

245.3.1 = {
	religion = kevelc
}

246.3.1 = {
	religion = ecatorgo
}

267.4.1 = {
	culture = nodai
}

347.4.1 = {
	culture = temeir
}

654.4.1 = {
	culture = nodai
}

761.4.1 = {
	culture = temeir
}

822.4.1 = {
	culture = nodai
}

826.4.1 = {
	culture = temeir
}

839.4.1 = {
	b_naboan = castle
}

875.4.1 = {
	b_tanajri = temple
}

940.4.1 = {
	culture = nodai
}

956.4.1 = {
	culture = temeir
}

971.4.1 = {
	b_wanavon = city
}

1057.4.1 = {
	b_segum = city
}

