	title = c_nimikh
	max_settlements = 6
	culture = kutins
	religion = teudeer
	b_kiubikh = tribal
1.1.1 = {
	b_eliudeda = ct_port_1
}

864.4.1 = {
	b_kiubikh = castle
}

896.4.1 = {
	b_eliudeda = city
}

942.4.1 = {
	b_riacere = temple
}

998.4.1 = {
	b_adobeda = temple
}

1052.4.1 = {
	b_siacere = castle
}

