	title = c_nutissa
	max_settlements = 2
	culture = datavid
	religion = ekeleda
	b_tuvuym = tribal
258.3.1 = {
	religion = womipac
}

260.4.1 = {
	culture = emorav
}

262.3.1 = {
	religion = ekeleda
}

269.3.1 = {
	religion = womipac
}

278.3.1 = {
	religion = ekeleda
}

287.3.1 = {
	religion = womipac
}

297.4.1 = {
	culture = sanavid
}

301.3.1 = {
	religion = ekeleda
}

306.3.1 = {
	religion = womipac
}

307.3.1 = {
	religion = ekeleda
}

308.3.1 = {
	religion = womipac
}

310.3.1 = {
	religion = ekeleda
}

321.3.1 = {
	religion = womipac
}

325.3.1 = {
	religion = ekeleda
}

325.3.1 = {
	religion = womipac
}

328.3.1 = {
	religion = ekeleda
}

329.3.1 = {
	religion = womipac
}

335.3.1 = {
	religion = ekeleda
}

335.3.1 = {
	religion = womipac
}

341.3.1 = {
	religion = ekeleda
}

342.3.1 = {
	religion = womipac
}

353.3.1 = {
	religion = ekeleda
}

354.3.1 = {
	religion = womipac
}

357.3.1 = {
	religion = ekeleda
}

357.3.1 = {
	religion = womipac
}

373.4.1 = {
	culture = emorav
}

457.4.1 = {
	culture = sileda
}

466.4.1 = {
	culture = emorav
}

498.4.1 = {
	culture = sileda
}

500.4.1 = {
	culture = emorav
}

526.4.1 = {
	culture = sileda
}

549.4.1 = {
	culture = emorav
}

620.4.1 = {
	culture = sileda
}

631.4.1 = {
	culture = emorav
}

657.4.1 = {
	culture = sileda
}

671.4.1 = {
	culture = emorav
}

787.4.1 = {
	culture = sileda
}

828.4.1 = {
	culture = emorav
}

858.4.1 = {
	culture = sileda
}

