	title = c_katreda
	max_settlements = 3
	culture = kutins
	religion = teudeer
	b_atreda = tribal
1.1.1 = {
	b_watrins = ct_port_1
}

868.4.1 = {
	b_atreda = castle
}

904.4.1 = {
	b_watrins = city
}

979.4.1 = {
	b_tatrat = temple
}

