	title = c_agarolun
	max_settlements = 7
	culture = wai
	religion = kaugile
	b_ribes = tribal
218.4.1 = {
	culture = reylart
}

681.4.1 = {
	culture = qamari
}

705.4.1 = {
	culture = reylart
}

707.4.1 = {
	culture = qamari
}

797.4.1 = {
	culture = reylart
}

802.4.1 = {
	culture = qamari
}

803.4.1 = {
	b_ribes = castle
}

845.4.1 = {
	b_wesaac = city
}

