	title = c_etadolke
	max_settlements = 4
	culture = kupelj
	religion = ludyu
	b_kakolke = tribal
239.3.1 = {
	religion = apanold
}

243.4.1 = {
	culture = nelida
}

337.4.1 = {
	culture = esanepan
}

358.4.1 = {
	culture = nelida
}

489.3.1 = {
	religion = nudeo
}

506.4.1 = {
	culture = ketyata
}

550.4.1 = {
	culture = nelida
}

617.4.1 = {
	culture = ketyata
}

721.3.1 = {
	religion = sanata
}

