	title = c_sabaline
	max_settlements = 3
	culture = nacold
	religion = apanold
	b_qetan = tribal
205.3.1 = {
	religion = erasto
}

210.3.1 = {
	religion = apanold
}

217.3.1 = {
	religion = erasto
}

232.3.1 = {
	religion = apanold
}

239.4.1 = {
	culture = tuka
}

240.3.1 = {
	religion = erasto
}

295.4.1 = {
	culture = wonepan
}

424.4.1 = {
	culture = tuka
}

459.4.1 = {
	culture = teorcuqarrborna
}

489.3.1 = {
	religion = apanold
}

501.4.1 = {
	culture = teteo
}

532.4.1 = {
	culture = teorcuqarrborna
}

563.4.1 = {
	culture = teteo
}

1013.3.1 = {
	religion = sanata
}

