	title = c_reth
	max_settlements = 4
	culture = wonepan
	religion = atinaike
	b_apanapa = tribal
205.3.1 = {
	religion = erasto
}

210.3.1 = {
	religion = atinaike
}

217.3.1 = {
	religion = erasto
}

220.3.1 = {
	religion = atinaike
}

224.3.1 = {
	religion = erasto
}

232.3.1 = {
	religion = atinaike
}

240.4.1 = {
	culture = tuka
}

241.3.1 = {
	religion = erasto
}

244.4.1 = {
	culture = wonepan
}

339.4.1 = {
	culture = teorcuqarrborna
}

409.4.1 = {
	culture = tuka
}

565.3.1 = {
	religion = apanold
}

567.4.1 = {
	culture = teteo
}

728.3.1 = {
	religion = sanata
}

815.4.1 = {
	b_apanapa = castle
}

