	title = c_tanach
	max_settlements = 3
	culture = dairmai
	religion = qerto
	b_tilapur = tribal
264.4.1 = {
	culture = namict
}

290.4.1 = {
	culture = dairmai
}

304.4.1 = {
	culture = namict
}

343.4.1 = {
	culture = dairmai
}

441.4.1 = {
	culture = qona
}

464.4.1 = {
	culture = dairmai
}

680.4.1 = {
	b_tilapur = castle
}

808.4.1 = {
	b_tevid = temple
}

898.4.1 = {
	b_efralie = city
}

