	title = c_asaamyak
	max_settlements = 5
	culture = wajafya
	religion = nolena
	b_wemyak = tribal
1.1.1 = {
	b_kaaritta = ct_port_1
}

204.3.1 = {
	religion = nai
}

212.3.1 = {
	religion = nolena
}

217.3.1 = {
	religion = nai
}

222.3.1 = {
	religion = nolena
}

233.3.1 = {
	religion = nai
}

235.3.1 = {
	religion = nolena
}

238.3.1 = {
	religion = nai
}

248.3.1 = {
	religion = nolena
}

249.3.1 = {
	religion = nai
}

256.3.1 = {
	religion = nolena
}

258.3.1 = {
	religion = nai
}

262.3.1 = {
	religion = nolena
}

263.3.1 = {
	religion = nai
}

279.4.1 = {
	culture = behalen
}

298.3.1 = {
	religion = nolena
}

299.3.1 = {
	religion = nai
}

300.3.1 = {
	religion = nolena
}

309.3.1 = {
	religion = nai
}

311.3.1 = {
	religion = nolena
}

311.3.1 = {
	religion = nai
}

313.3.1 = {
	religion = nolena
}

318.3.1 = {
	religion = nai
}

319.3.1 = {
	religion = nolena
}

322.4.1 = {
	culture = wajafya
}

326.3.1 = {
	religion = nai
}

332.4.1 = {
	culture = behalen
}

395.4.1 = {
	culture = wajafya
}

419.4.1 = {
	culture = behalen
}

426.4.1 = {
	culture = wajafya
}

489.4.1 = {
	culture = behalen
}

836.4.1 = {
	b_wemyak = castle
}

868.4.1 = {
	b_kaaritta = city
}

