	title = c_ranlal
	max_settlements = 2
	culture = teorcuqarrborna
	religion = apanold
	b_banbu = tribal
203.3.1 = {
	religion = erasto
}

203.4.1 = {
	culture = liro
}

233.3.1 = {
	religion = apanold
}

233.4.1 = {
	culture = teorcuqarrborna
}

240.4.1 = {
	culture = tuka
}

241.3.1 = {
	religion = erasto
}

248.4.1 = {
	culture = teorcuqarrborna
}

263.3.1 = {
	religion = apanold
}

264.3.1 = {
	religion = erasto
}

265.3.1 = {
	religion = apanold
}

266.3.1 = {
	religion = erasto
}

267.3.1 = {
	religion = apanold
}

267.3.1 = {
	religion = erasto
}

272.3.1 = {
	religion = apanold
}

273.3.1 = {
	religion = erasto
}

276.3.1 = {
	religion = apanold
}

281.3.1 = {
	religion = erasto
}

417.4.1 = {
	culture = tuka
}

481.4.1 = {
	culture = teteo
}

482.3.1 = {
	religion = apanold
}

776.3.1 = {
	religion = sanata
}

