	title = c_nibes
	max_settlements = 4
	culture = nutiana
	religion = bedesa
	b_sahes = tribal
214.3.1 = {
	religion = qogato
}

217.3.1 = {
	religion = bedesa
}

221.3.1 = {
	religion = qogato
}

223.3.1 = {
	religion = bedesa
}

228.3.1 = {
	religion = qogato
}

231.3.1 = {
	religion = bedesa
}

236.3.1 = {
	religion = qogato
}

241.3.1 = {
	religion = bedesa
}

246.4.1 = {
	culture = kajorte
}

256.3.1 = {
	religion = qogato
}

323.4.1 = {
	culture = nisid
}

373.4.1 = {
	culture = kajorte
}

487.4.1 = {
	culture = nisid
}

490.4.1 = {
	culture = kajorte
}

617.4.1 = {
	culture = nisid
}

632.4.1 = {
	culture = kajorte
}

647.4.1 = {
	culture = nisid
}

695.4.1 = {
	b_sahes = castle
}

812.4.1 = {
	b_risani = city
}

886.4.1 = {
	culture = kajorte
}

891.4.1 = {
	b_wahiami = temple
}

