	title = c_wananbu
	max_settlements = 2
	culture = setyu
	religion = apanold
	b_anarman = tribal
202.4.1 = {
	culture = esanepan
}

205.3.1 = {
	religion = erasto
}

208.3.1 = {
	religion = apanold
}

217.3.1 = {
	religion = erasto
}

220.3.1 = {
	religion = apanold
}

223.4.1 = {
	culture = teorcuqarrborna
}

224.3.1 = {
	religion = erasto
}

225.3.1 = {
	religion = apanold
}

226.3.1 = {
	religion = erasto
}

232.3.1 = {
	religion = apanold
}

240.4.1 = {
	culture = tuka
}

241.3.1 = {
	religion = erasto
}

390.4.1 = {
	culture = liro
}

399.4.1 = {
	culture = teorcuqarrborna
}

424.4.1 = {
	culture = liro
}

457.4.1 = {
	culture = teorcuqarrborna
}

467.4.1 = {
	culture = tuka
}

473.3.1 = {
	religion = apanold
}

482.4.1 = {
	culture = teteo
}

868.3.1 = {
	religion = sanata
}

