	title = c_qezavid
	max_settlements = 4
	culture = kelach
	religion = ekeleda
	b_seyxina = tribal
525.4.1 = {
	b_seyxina = castle
}

610.4.1 = {
	b_tavava = city
}

807.4.1 = {
	b_elapur = temple
}

848.4.1 = {
	b_terta = temple
}

