	title = c_raraer
	max_settlements = 3
	culture = esanepan
	religion = ludyu
	b_neojda = tribal
200.3.1 = {
	religion = apanold
}

452.3.1 = {
	religion = nudeo
}

505.4.1 = {
	culture = ketyata
}

637.3.1 = {
	religion = sanata
}

639.3.1 = {
	religion = nudeo
}

643.3.1 = {
	religion = sanata
}

653.3.1 = {
	religion = nudeo
}

659.3.1 = {
	religion = sanata
}

663.3.1 = {
	religion = nudeo
}

670.3.1 = {
	religion = sanata
}

674.3.1 = {
	religion = nudeo
}

678.3.1 = {
	religion = sanata
}

688.3.1 = {
	religion = nudeo
}

688.3.1 = {
	religion = sanata
}

699.3.1 = {
	religion = nudeo
}

699.3.1 = {
	religion = sanata
}

702.3.1 = {
	religion = nudeo
}

702.3.1 = {
	religion = sanata
}

705.3.1 = {
	religion = nudeo
}

705.3.1 = {
	religion = sanata
}

705.4.1 = {
	b_neojda = castle
}

710.3.1 = {
	religion = nudeo
}

711.3.1 = {
	religion = sanata
}

809.4.1 = {
	b_teepan = city
}

