	title = c_naammou
	max_settlements = 2
	culture = tekey
	religion = nai
	b_sadur = tribal
204.3.1 = {
	religion = deimati
}

208.3.1 = {
	religion = nai
}

213.3.1 = {
	religion = deimati
}

225.4.1 = {
	culture = ronai
}

229.3.1 = {
	religion = nai
}

231.3.1 = {
	religion = deimati
}

245.3.1 = {
	religion = nai
}

250.3.1 = {
	religion = deimati
}

253.3.1 = {
	religion = nai
}

254.3.1 = {
	religion = deimati
}

264.4.1 = {
	culture = kelelen
}

280.3.1 = {
	religion = nolena
}

283.3.1 = {
	religion = deimati
}

283.4.1 = {
	culture = ronai
}

285.3.1 = {
	religion = nolena
}

287.3.1 = {
	religion = deimati
}

291.3.1 = {
	religion = nolena
}

301.3.1 = {
	religion = deimati
}

305.3.1 = {
	religion = nolena
}

311.3.1 = {
	religion = deimati
}

312.3.1 = {
	religion = nolena
}

319.3.1 = {
	religion = deimati
}

328.3.1 = {
	religion = nolena
}

329.3.1 = {
	religion = deimati
}

335.3.1 = {
	religion = nolena
}

354.3.1 = {
	religion = deimati
}

355.3.1 = {
	religion = nolena
}

355.3.1 = {
	religion = deimati
}

362.3.1 = {
	religion = nolena
}

365.3.1 = {
	religion = deimati
}

426.4.1 = {
	culture = behalen
}

437.4.1 = {
	culture = ronai
}

461.4.1 = {
	culture = behalen
}

505.4.1 = {
	culture = ronai
}

517.4.1 = {
	culture = behalen
}

817.4.1 = {
	b_sadur = castle
}

855.4.1 = {
	b_nemathi = city
}

