	title = c_danander
	max_settlements = 6
	culture = kajorte
	religion = bedesa
	b_keylato = tribal
207.4.1 = {
	culture = nisid
}

208.3.1 = {
	religion = qogato
}

220.3.1 = {
	religion = bedesa
}

221.3.1 = {
	religion = qogato
}

226.3.1 = {
	religion = bedesa
}

228.3.1 = {
	religion = qogato
}

230.3.1 = {
	religion = bedesa
}

236.3.1 = {
	religion = qogato
}

240.3.1 = {
	religion = bedesa
}

240.4.1 = {
	culture = nezuel
}

256.3.1 = {
	religion = qogato
}

261.3.1 = {
	religion = bedesa
}

261.3.1 = {
	religion = qogato
}

273.3.1 = {
	religion = bedesa
}

277.3.1 = {
	religion = qogato
}

286.4.1 = {
	culture = nisid
}

362.4.1 = {
	culture = kajorte
}

376.4.1 = {
	culture = nisid
}

632.4.1 = {
	culture = kajorte
}

640.4.1 = {
	culture = nisid
}

695.4.1 = {
	b_keylato = castle
}

749.4.1 = {
	culture = kajorte
}

788.4.1 = {
	culture = nisid
}

804.4.1 = {
	culture = kajorte
}

817.4.1 = {
	b_badonte = temple
}

