	title = c_wanilasa
	max_settlements = 4
	culture = korelj
	religion = apanold
	b_enanaal = tribal
205.3.1 = {
	religion = erasto
}

208.3.1 = {
	religion = ludyu
}

212.3.1 = {
	religion = apanold
}

217.3.1 = {
	religion = erasto
}

220.3.1 = {
	religion = apanold
}

224.3.1 = {
	religion = erasto
}

228.3.1 = {
	religion = apanold
}

228.3.1 = {
	religion = erasto
}

233.3.1 = {
	religion = apanold
}

240.4.1 = {
	culture = tuka
}

241.3.1 = {
	religion = erasto
}

242.3.1 = {
	religion = apanold
}

246.3.1 = {
	religion = erasto
}

247.4.1 = {
	culture = korelj
}

252.3.1 = {
	religion = apanold
}

254.4.1 = {
	culture = tuka
}

261.3.1 = {
	religion = erasto
}

263.3.1 = {
	religion = apanold
}

264.3.1 = {
	religion = erasto
}

267.3.1 = {
	religion = apanold
}

267.3.1 = {
	religion = erasto
}

268.3.1 = {
	religion = apanold
}

270.3.1 = {
	religion = erasto
}

271.3.1 = {
	religion = apanold
}

273.3.1 = {
	religion = erasto
}

276.3.1 = {
	religion = apanold
}

281.3.1 = {
	religion = erasto
}

289.3.1 = {
	religion = apanold
}

290.3.1 = {
	religion = erasto
}

425.4.1 = {
	culture = nalejda
}

696.3.1 = {
	religion = sanata
}

696.4.1 = {
	culture = teteo
}

898.4.1 = {
	culture = ketyata
}

919.4.1 = {
	culture = teteo
}

