	title = c_alepan
	max_settlements = 2
	culture = teteo
	religion = ludyu
	b_kiudyi = tribal
204.3.1 = {
	religion = apanold
}

215.3.1 = {
	religion = ludyu
}

215.3.1 = {
	religion = apanold
}

216.3.1 = {
	religion = ludyu
}

220.3.1 = {
	religion = apanold
}

500.4.1 = {
	b_kiudyi = castle
}

575.4.1 = {
	b_qanyi = temple
}

637.3.1 = {
	religion = sanata
}

640.3.1 = {
	religion = apanold
}

643.3.1 = {
	religion = sanata
}

646.3.1 = {
	religion = apanold
}

647.3.1 = {
	religion = sanata
}

652.3.1 = {
	religion = apanold
}

674.3.1 = {
	religion = sanata
}

