	title = c_kurutlu
	max_settlements = 4
	culture = datavid
	religion = ekeleda
	b_tatete = tribal
201.3.1 = {
	religion = womipac
}

207.3.1 = {
	religion = ekeleda
}

208.3.1 = {
	religion = womipac
}

214.4.1 = {
	culture = emorav
}

219.3.1 = {
	religion = ekeleda
}

223.3.1 = {
	religion = womipac
}

225.3.1 = {
	religion = ekeleda
}

228.3.1 = {
	religion = womipac
}

232.3.1 = {
	religion = ekeleda
}

238.3.1 = {
	religion = womipac
}

240.3.1 = {
	religion = ekeleda
}

242.3.1 = {
	religion = womipac
}

242.3.1 = {
	religion = ekeleda
}

269.3.1 = {
	religion = womipac
}

276.3.1 = {
	religion = ekeleda
}

287.3.1 = {
	religion = womipac
}

293.3.1 = {
	religion = ekeleda
}

294.3.1 = {
	religion = womipac
}

295.3.1 = {
	religion = ekeleda
}

296.3.1 = {
	religion = womipac
}

451.4.1 = {
	culture = sileda
}

466.4.1 = {
	culture = emorav
}

498.4.1 = {
	culture = sileda
}

508.4.1 = {
	culture = emorav
}

526.4.1 = {
	culture = sileda
}

528.4.1 = {
	culture = emorav
}

620.4.1 = {
	culture = sileda
}

625.4.1 = {
	culture = emorav
}

801.4.1 = {
	culture = sileda
}

