	title = c_ajitesan
	max_settlements = 4
	culture = nelida
	religion = ludyu
	b_kapurtas = tribal
1.1.1 = {
	b_qyu = ct_port_1
}

200.3.1 = {
	religion = apanold
}

201.3.1 = {
	religion = ludyu
}

203.3.1 = {
	religion = apanold
}

205.3.1 = {
	religion = ludyu
}

208.3.1 = {
	religion = apanold
}

209.3.1 = {
	religion = ludyu
}

209.3.1 = {
	religion = apanold
}

210.3.1 = {
	religion = ludyu
}

210.3.1 = {
	religion = apanold
}

217.3.1 = {
	religion = ludyu
}

220.3.1 = {
	religion = apanold
}

222.3.1 = {
	religion = ludyu
}

223.3.1 = {
	religion = apanold
}

224.3.1 = {
	religion = ludyu
}

224.3.1 = {
	religion = apanold
}

231.3.1 = {
	religion = ludyu
}

231.3.1 = {
	religion = apanold
}

367.4.1 = {
	culture = esanepan
}

452.3.1 = {
	religion = nudeo
}

459.4.1 = {
	culture = ketyata
}

637.3.1 = {
	religion = sanata
}

639.3.1 = {
	religion = nudeo
}

643.3.1 = {
	religion = sanata
}

653.3.1 = {
	religion = nudeo
}

659.3.1 = {
	religion = sanata
}

663.3.1 = {
	religion = nudeo
}

670.3.1 = {
	religion = sanata
}

674.3.1 = {
	religion = nudeo
}

678.3.1 = {
	religion = sanata
}

688.3.1 = {
	religion = nudeo
}

688.3.1 = {
	religion = sanata
}

699.3.1 = {
	religion = nudeo
}

699.3.1 = {
	religion = sanata
}

702.3.1 = {
	religion = nudeo
}

702.3.1 = {
	religion = sanata
}

705.3.1 = {
	religion = nudeo
}

705.3.1 = {
	religion = sanata
}

710.3.1 = {
	religion = nudeo
}

711.3.1 = {
	religion = sanata
}

715.4.1 = {
	b_kapurtas = castle
}

807.4.1 = {
	b_qyu = city
}

921.4.1 = {
	b_bimald = temple
}

981.4.1 = {
	b_nehirahim = castle
}

