	title = c_lanaya
	max_settlements = 2
	culture = qona
	religion = nai
	b_taarathi = tribal
204.3.1 = {
	religion = qerto
}

212.3.1 = {
	religion = nai
}

212.3.1 = {
	religion = qerto
}

219.3.1 = {
	religion = nai
}

225.3.1 = {
	religion = qerto
}

228.3.1 = {
	religion = nai
}

236.3.1 = {
	religion = qerto
}

237.3.1 = {
	religion = nai
}

238.3.1 = {
	religion = qerto
}

247.3.1 = {
	religion = nai
}

252.3.1 = {
	religion = qerto
}

255.3.1 = {
	religion = nai
}

261.3.1 = {
	religion = qerto
}

264.3.1 = {
	religion = nai
}

264.3.1 = {
	religion = qerto
}

271.3.1 = {
	religion = nai
}

272.3.1 = {
	religion = qerto
}

275.3.1 = {
	religion = nai
}

281.3.1 = {
	religion = qerto
}

289.3.1 = {
	religion = nai
}

290.3.1 = {
	religion = qerto
}

299.3.1 = {
	religion = nai
}

301.3.1 = {
	religion = qerto
}

404.4.1 = {
	culture = dairmai
}

441.4.1 = {
	culture = qona
}

454.4.1 = {
	culture = namict
}

566.4.1 = {
	culture = dairmai
}

607.4.1 = {
	culture = namict
}

634.4.1 = {
	culture = dairmai
}

745.4.1 = {
	b_taarathi = castle
}

823.4.1 = {
	b_lanitta = city
}

