	title = c_baanenitejan
	max_settlements = 5
	culture = teteo
	religion = ludyu
	b_radahim = tribal
220.4.1 = {
	culture = esanepan
}

223.3.1 = {
	religion = nudeo
}

244.4.1 = {
	culture = ketyata
}

246.4.1 = {
	culture = esanepan
}

254.4.1 = {
	culture = ketyata
}

267.3.1 = {
	religion = ludyu
}

271.3.1 = {
	religion = nudeo
}

357.3.1 = {
	religion = erasto
}

359.3.1 = {
	religion = nudeo
}

362.4.1 = {
	culture = tuka
}

367.3.1 = {
	religion = erasto
}

367.3.1 = {
	religion = nudeo
}

368.3.1 = {
	religion = erasto
}

370.3.1 = {
	religion = nudeo
}

372.3.1 = {
	religion = erasto
}

374.3.1 = {
	religion = nudeo
}

394.3.1 = {
	religion = erasto
}

394.3.1 = {
	religion = nudeo
}

400.3.1 = {
	religion = erasto
}

404.3.1 = {
	religion = nudeo
}

411.3.1 = {
	religion = erasto
}

420.3.1 = {
	religion = nudeo
}

422.3.1 = {
	religion = erasto
}

423.3.1 = {
	religion = nudeo
}

428.3.1 = {
	religion = erasto
}

432.3.1 = {
	religion = nudeo
}

437.3.1 = {
	religion = erasto
}

440.3.1 = {
	religion = nudeo
}

443.3.1 = {
	religion = erasto
}

444.3.1 = {
	religion = nudeo
}

540.4.1 = {
	b_radahim = castle
}

637.3.1 = {
	religion = sanata
}

641.3.1 = {
	religion = nudeo
}

643.3.1 = {
	religion = sanata
}

644.3.1 = {
	religion = nudeo
}

644.3.1 = {
	religion = sanata
}

646.3.1 = {
	religion = nudeo
}

647.3.1 = {
	religion = sanata
}

649.3.1 = {
	religion = nudeo
}

650.4.1 = {
	b_wadogay = temple
}

651.3.1 = {
	religion = sanata
}

654.3.1 = {
	religion = nudeo
}

655.3.1 = {
	religion = sanata
}

656.3.1 = {
	religion = nudeo
}

657.3.1 = {
	religion = sanata
}

660.3.1 = {
	religion = nudeo
}

661.3.1 = {
	religion = sanata
}

664.3.1 = {
	religion = nudeo
}

667.3.1 = {
	religion = sanata
}

669.3.1 = {
	religion = nudeo
}

670.3.1 = {
	religion = sanata
}

682.3.1 = {
	religion = nudeo
}

686.3.1 = {
	religion = sanata
}

687.3.1 = {
	religion = nudeo
}

690.3.1 = {
	religion = sanata
}

696.3.1 = {
	religion = nudeo
}

696.3.1 = {
	religion = sanata
}

701.3.1 = {
	religion = nudeo
}

703.3.1 = {
	religion = sanata
}

707.3.1 = {
	religion = nudeo
}

709.3.1 = {
	religion = sanata
}

830.4.1 = {
	b_lald = city
}

927.4.1 = {
	b_tikyi = castle
}

