	title = c_tikatha
	max_settlements = 4
	culture = bezosta
	religion = bedesa
	b_tyevolun = tribal
232.4.1 = {
	culture = nezuel
}

725.4.1 = {
	b_tyevolun = castle
}

821.4.1 = {
	b_wanand = city
}

896.4.1 = {
	b_rehato = temple
}

