	title = c_tacatahib
	max_settlements = 2
	culture = laahib
	religion = ecatorgo
	b_akunah = tribal
200.3.1 = {
	religion = kevelc
}

217.3.1 = {
	religion = ecatorgo
}

221.3.1 = {
	religion = kevelc
}

228.3.1 = {
	religion = ecatorgo
}

234.3.1 = {
	religion = kevelc
}

239.3.1 = {
	religion = ecatorgo
}

240.3.1 = {
	religion = kevelc
}

246.3.1 = {
	religion = ecatorgo
}

247.3.1 = {
	religion = kevelc
}

247.3.1 = {
	religion = ecatorgo
}

253.3.1 = {
	religion = kevelc
}

259.3.1 = {
	religion = ecatorgo
}

262.3.1 = {
	religion = kevelc
}

263.3.1 = {
	religion = ecatorgo
}

264.3.1 = {
	religion = kevelc
}

267.4.1 = {
	culture = nodai
}

268.3.1 = {
	religion = ecatorgo
}

592.4.1 = {
	culture = temeir
}

630.4.1 = {
	culture = nodai
}

835.4.1 = {
	b_akunah = castle
}

902.4.1 = {
	b_abanrdanr = city
}

