	title = c_emanargo
	max_settlements = 2
	culture = barelc
	religion = ecatorgo
	b_tebnnemn = tribal
206.3.1 = {
	religion = kevelc
}

212.3.1 = {
	religion = ecatorgo
}

212.3.1 = {
	religion = kevelc
}

216.3.1 = {
	religion = ecatorgo
}

216.4.1 = {
	culture = raraon
}

232.3.1 = {
	religion = kevelc
}

232.3.1 = {
	religion = ecatorgo
}

233.3.1 = {
	religion = kevelc
}

239.3.1 = {
	religion = ecatorgo
}

241.4.1 = {
	culture = barelc
}

245.3.1 = {
	religion = kevelc
}

246.3.1 = {
	religion = ecatorgo
}

247.3.1 = {
	religion = kevelc
}

247.3.1 = {
	religion = ecatorgo
}

248.3.1 = {
	religion = kevelc
}

251.3.1 = {
	religion = ecatorgo
}

253.3.1 = {
	religion = kevelc
}

259.3.1 = {
	religion = ecatorgo
}

265.3.1 = {
	religion = kevelc
}

267.4.1 = {
	culture = nodai
}

268.3.1 = {
	religion = ecatorgo
}

270.3.1 = {
	religion = kevelc
}

274.4.1 = {
	culture = raraon
}

277.3.1 = {
	religion = ecatorgo
}

279.3.1 = {
	religion = kevelc
}

286.3.1 = {
	religion = ecatorgo
}

326.4.1 = {
	culture = nodai
}

592.4.1 = {
	culture = temeir
}

593.4.1 = {
	culture = nodai
}

865.4.1 = {
	b_tebnnemn = castle
}

895.4.1 = {
	b_taridai = city
}

