	title = c_rurtas
	max_settlements = 2
	culture = nelida
	religion = ludyu
	b_tadogay = tribal
200.3.1 = {
	religion = apanold
}

201.3.1 = {
	religion = ludyu
}

203.3.1 = {
	religion = apanold
}

205.3.1 = {
	religion = ludyu
}

208.3.1 = {
	religion = apanold
}

211.3.1 = {
	religion = ludyu
}

213.3.1 = {
	religion = apanold
}

216.3.1 = {
	religion = ludyu
}

220.3.1 = {
	religion = apanold
}

231.3.1 = {
	religion = ludyu
}

231.3.1 = {
	religion = apanold
}

239.3.1 = {
	religion = ludyu
}

240.3.1 = {
	religion = apanold
}

248.4.1 = {
	culture = esanepan
}

343.4.1 = {
	culture = ketyata
}

344.3.1 = {
	religion = nudeo
}

344.3.1 = {
	religion = apanold
}

356.3.1 = {
	religion = nudeo
}

366.3.1 = {
	religion = apanold
}

398.4.1 = {
	culture = esanepan
}

406.4.1 = {
	culture = ketyata
}

422.3.1 = {
	religion = nudeo
}

424.3.1 = {
	religion = apanold
}

426.3.1 = {
	religion = nudeo
}

433.3.1 = {
	religion = apanold
}

435.3.1 = {
	religion = nudeo
}

435.3.1 = {
	religion = apanold
}

440.3.1 = {
	religion = nudeo
}

441.3.1 = {
	religion = apanold
}

451.3.1 = {
	religion = nudeo
}

637.3.1 = {
	religion = sanata
}

715.4.1 = {
	b_tadogay = castle
}

807.4.1 = {
	b_bitepan = city
}

830.4.1 = {
	culture = teteo
}

