	title = c_rorrur
	max_settlements = 2
	culture = liro
	religion = erasto
	b_sudold = tribal
240.4.1 = {
	culture = tuka
}

244.4.1 = {
	culture = liro
}

246.3.1 = {
	religion = apanold
}

246.3.1 = {
	religion = erasto
}

247.3.1 = {
	religion = apanold
}

251.3.1 = {
	religion = erasto
}

253.3.1 = {
	religion = apanold
}

261.3.1 = {
	religion = erasto
}

263.3.1 = {
	religion = apanold
}

263.4.1 = {
	culture = teorcuqarrborna
}

264.3.1 = {
	religion = erasto
}

265.3.1 = {
	religion = apanold
}

266.3.1 = {
	religion = erasto
}

271.3.1 = {
	religion = apanold
}

273.3.1 = {
	religion = erasto
}

279.4.1 = {
	culture = tuka
}

520.4.1 = {
	b_sudold = castle
}

598.3.1 = {
	religion = apanold
}

600.4.1 = {
	culture = teteo
}

624.4.1 = {
	culture = tuka
}

867.3.1 = {
	religion = sanata
}

905.4.1 = {
	culture = teteo
}

