	title = c_kudevid
	max_settlements = 3
	culture = tomapur
	religion = qerto
	b_apipade = tribal
1.1.1 = {
	b_belesen = ct_port_1
}

204.4.1 = {
	culture = dairmai
}

253.4.1 = {
	culture = tomapur
}

276.4.1 = {
	culture = dairmai
}

441.4.1 = {
	culture = qona
}

444.4.1 = {
	culture = dairmai
}

680.4.1 = {
	b_apipade = castle
}

809.4.1 = {
	b_belesen = city
}

900.4.1 = {
	b_agomesen = temple
}

