	title = c_satete
	max_settlements = 4
	culture = dairmai
	religion = qerto
	b_lalipac = tribal
253.4.1 = {
	culture = tomapur
}

276.4.1 = {
	culture = dairmai
}

441.4.1 = {
	culture = qona
}

444.4.1 = {
	culture = dairmai
}

680.4.1 = {
	b_lalipac = castle
}

808.4.1 = {
	b_lamilavid = city
}

898.4.1 = {
	b_tabalevid = temple
}

