	title = c_nyi
	max_settlements = 2
	culture = nelida
	religion = ludyu
	b_kapyi = tribal
1.1.1 = {
	b_wagre = ct_port_1
}

215.4.1 = {
	culture = nabuma
}

221.4.1 = {
	culture = ketyata
}

223.3.1 = {
	religion = nudeo
}

267.3.1 = {
	religion = ludyu
}

271.3.1 = {
	religion = nudeo
}

595.4.1 = {
	b_kapyi = castle
}

637.3.1 = {
	religion = sanata
}

642.3.1 = {
	religion = nudeo
}

643.3.1 = {
	religion = sanata
}

649.4.1 = {
	culture = nalold
}

730.4.1 = {
	b_wagre = city
}

766.4.1 = {
	culture = ketyata
}

846.4.1 = {
	culture = tuka
}

917.4.1 = {
	culture = ketyata
}

944.4.1 = {
	culture = teteo
}

