	title = c_byia
	max_settlements = 2
	culture = ronai
	religion = nai
	b_rurad = tribal
204.3.1 = {
	religion = deimati
}

206.3.1 = {
	religion = nai
}

213.3.1 = {
	religion = deimati
}

220.3.1 = {
	religion = nai
}

224.3.1 = {
	religion = deimati
}

227.3.1 = {
	religion = nai
}

231.3.1 = {
	religion = deimati
}

237.3.1 = {
	religion = nai
}

238.3.1 = {
	religion = deimati
}

255.4.1 = {
	culture = behalen
}

280.3.1 = {
	religion = nolena
}

282.3.1 = {
	religion = deimati
}

285.3.1 = {
	religion = nolena
}

290.3.1 = {
	religion = deimati
}

291.3.1 = {
	religion = nolena
}

295.3.1 = {
	religion = deimati
}

305.3.1 = {
	religion = nolena
}

307.3.1 = {
	religion = deimati
}

312.3.1 = {
	religion = nolena
}

316.3.1 = {
	religion = deimati
}

328.3.1 = {
	religion = nolena
}

330.3.1 = {
	religion = deimati
}

335.3.1 = {
	religion = nolena
}

340.3.1 = {
	religion = deimati
}

341.3.1 = {
	religion = nolena
}

354.3.1 = {
	religion = deimati
}

355.3.1 = {
	religion = nolena
}

355.3.1 = {
	religion = deimati
}

359.3.1 = {
	religion = nolena
}

368.3.1 = {
	religion = deimati
}

369.3.1 = {
	religion = nolena
}

369.3.1 = {
	religion = deimati
}

373.3.1 = {
	religion = nolena
}

379.3.1 = {
	religion = deimati
}

391.3.1 = {
	religion = nolena
}

392.3.1 = {
	religion = deimati
}

407.3.1 = {
	religion = nolena
}

408.3.1 = {
	religion = deimati
}

409.3.1 = {
	religion = nolena
}

412.3.1 = {
	religion = deimati
}

440.4.1 = {
	culture = ronai
}

511.4.1 = {
	culture = behalen
}

568.4.1 = {
	culture = ronai
}

605.4.1 = {
	culture = behalen
}

817.4.1 = {
	b_rurad = castle
}

857.4.1 = {
	b_watvarar = temple
}

