	title = c_bemantin
	max_settlements = 4
	culture = raraon
	religion = ecatorgo
	b_estoan = tribal
229.4.1 = {
	culture = barelc
}

373.4.1 = {
	culture = temeir
}

605.4.1 = {
	culture = nodai
}

715.4.1 = {
	culture = temeir
}

755.4.1 = {
	culture = nodai
}

780.4.1 = {
	culture = temeir
}

873.4.1 = {
	culture = nodai
}

