	title = c_kaposes
	max_settlements = 5
	culture = kelach
	religion = ekeleda
	b_erakina = tribal
575.4.1 = {
	b_erakina = castle
}

720.4.1 = {
	b_diledda = city
}

898.4.1 = {
	b_telaid = temple
}

