	title = c_titehal
	max_settlements = 4
	culture = lonimir
	religion = erasto
	b_dapojan = tribal
202.3.1 = {
	religion = atinaike
}

205.3.1 = {
	religion = erasto
}

209.3.1 = {
	religion = atinaike
}

217.3.1 = {
	religion = erasto
}

220.3.1 = {
	religion = atinaike
}

224.3.1 = {
	religion = erasto
}

228.3.1 = {
	religion = atinaike
}

228.3.1 = {
	religion = erasto
}

231.3.1 = {
	religion = atinaike
}

231.3.1 = {
	religion = erasto
}

240.4.1 = {
	culture = tuka
}

243.3.1 = {
	religion = atinaike
}

244.4.1 = {
	culture = lonimir
}

246.3.1 = {
	religion = erasto
}

249.3.1 = {
	religion = atinaike
}

251.3.1 = {
	religion = erasto
}

254.3.1 = {
	religion = atinaike
}

261.3.1 = {
	religion = erasto
}

267.3.1 = {
	religion = atinaike
}

267.3.1 = {
	religion = erasto
}

269.3.1 = {
	religion = atinaike
}

270.3.1 = {
	religion = erasto
}

284.3.1 = {
	religion = apanold
}

284.3.1 = {
	religion = erasto
}

291.4.1 = {
	culture = tuka
}

430.4.1 = {
	culture = nalejda
}

442.4.1 = {
	culture = teorcuqarrborna
}

463.4.1 = {
	culture = nalejda
}

475.4.1 = {
	culture = teorcuqarrborna
}

539.3.1 = {
	religion = sanata
}

553.4.1 = {
	culture = dateobakn
}

591.4.1 = {
	culture = ketyata
}

812.4.1 = {
	b_dapojan = castle
}

