	title = c_tisavid
	max_settlements = 4
	culture = keykete
	religion = bedesa
	b_lanasmig = tribal
1.1.1 = {
	b_ranulo = ct_port_1
}

254.4.1 = {
	culture = nezuel
}

725.4.1 = {
	b_lanasmig = castle
}

807.4.1 = {
	b_n = temple
}

868.4.1 = {
	b_ranulo = city
}

