	title = c_tolun
	max_settlements = 6
	culture = bezosta
	religion = bedesa
	b_lulo = tribal
207.4.1 = {
	culture = kajorte
}

214.3.1 = {
	religion = qogato
}

222.3.1 = {
	religion = bedesa
}

228.3.1 = {
	religion = qogato
}

233.3.1 = {
	religion = bedesa
}

236.3.1 = {
	religion = qogato
}

237.3.1 = {
	religion = bedesa
}

239.3.1 = {
	religion = qogato
}

241.3.1 = {
	religion = bedesa
}

256.3.1 = {
	religion = qogato
}

263.3.1 = {
	religion = bedesa
}

265.3.1 = {
	religion = qogato
}

323.4.1 = {
	culture = nisid
}

326.4.1 = {
	culture = kajorte
}

354.4.1 = {
	culture = nisid
}

375.4.1 = {
	culture = nezuel
}

422.4.1 = {
	culture = nisid
}

632.4.1 = {
	culture = kajorte
}

646.4.1 = {
	culture = nisid
}

730.4.1 = {
	b_lulo = castle
}

743.4.1 = {
	culture = kajorte
}

843.4.1 = {
	b_qadeles = temple
}

