	title = c_kane
	max_settlements = 7
	culture = busoj
	religion = sanata
	b_kitesan = tribal
570.4.1 = {
	b_kitesan = castle
}

718.4.1 = {
	culture = ketyata
}

750.4.1 = {
	b_qitesus = temple
}

893.4.1 = {
	b_kevoraban = city
}

1006.4.1 = {
	b_kepan = city
}

