	title = c_amukeard
	max_settlements = 5
	culture = resirulay
	religion = nolena
	b_ekar = tribal
206.4.1 = {
	culture = wajafya
}

217.4.1 = {
	culture = resirulay
}

350.3.1 = {
	religion = qeaxasika
}

352.3.1 = {
	religion = nolena
}

352.3.1 = {
	religion = qeaxasika
}

356.3.1 = {
	religion = nolena
}

361.3.1 = {
	religion = qeaxasika
}

362.3.1 = {
	religion = nolena
}

365.3.1 = {
	religion = qeaxasika
}

370.3.1 = {
	religion = nolena
}

377.3.1 = {
	religion = qeaxasika
}

381.3.1 = {
	religion = nolena
}

394.3.1 = {
	religion = qeaxasika
}

451.3.1 = {
	religion = nolena
}

455.3.1 = {
	religion = qeaxasika
}

456.3.1 = {
	religion = nolena
}

875.4.1 = {
	b_ekar = castle
}

