	title = c_tayaapan
	max_settlements = 2
	culture = relakon
	religion = sanata
	b_wimre = tribal
213.4.1 = {
	culture = ketyata
}

220.4.1 = {
	culture = nalold
}

239.3.1 = {
	religion = nudeo
}

241.3.1 = {
	religion = sanata
}

244.3.1 = {
	religion = nudeo
}

247.3.1 = {
	religion = sanata
}

249.3.1 = {
	religion = nudeo
}

250.3.1 = {
	religion = sanata
}

250.3.1 = {
	religion = nudeo
}

253.3.1 = {
	religion = sanata
}

259.3.1 = {
	religion = nudeo
}

266.3.1 = {
	religion = sanata
}

550.4.1 = {
	b_wimre = castle
}

670.4.1 = {
	b_temogay = city
}

754.4.1 = {
	culture = ketyata
}

