	title = c_kilahim
	max_settlements = 4
	culture = relakon
	religion = sanata
	b_wenogay = tribal
202.3.1 = {
	religion = nudeo
}

204.3.1 = {
	religion = sanata
}

205.3.1 = {
	religion = nudeo
}

208.3.1 = {
	religion = sanata
}

221.4.1 = {
	culture = nalold
}

239.3.1 = {
	religion = nudeo
}

241.4.1 = {
	culture = nabuma
}

265.3.1 = {
	religion = sanata
}

314.4.1 = {
	culture = nalold
}

550.4.1 = {
	b_wenogay = castle
}

638.4.1 = {
	culture = dateobakn
}

680.4.1 = {
	b_rayaahal = city
}

682.4.1 = {
	culture = ketyata
}

847.4.1 = {
	b_tahim = temple
}

