	title = c_tolofara
	max_settlements = 4
	culture = qamofara
	religion = quon
	b_kajifon = tribal
203.4.1 = {
	culture = emeres
}

210.3.1 = {
	religion = qeaxasika
}

219.3.1 = {
	religion = quon
}

220.3.1 = {
	religion = qeaxasika
}

223.3.1 = {
	religion = quon
}

227.3.1 = {
	religion = qeaxasika
}

229.3.1 = {
	religion = quon
}

232.3.1 = {
	religion = qeaxasika
}

236.3.1 = {
	religion = lajozar
}

245.3.1 = {
	religion = quon
}

247.3.1 = {
	religion = lajozar
}

258.4.1 = {
	culture = qamofara
}

263.4.1 = {
	culture = ebaudes
}

787.4.1 = {
	culture = rahesi
}

789.3.1 = {
	religion = qeaxasika
}

807.4.1 = {
	culture = ebaudes
}

881.3.1 = {
	religion = lajozar
}

