	title = c_denekel
	max_settlements = 2
	culture = relakon
	religion = sanata
	b_konuhal = tribal
202.3.1 = {
	religion = nudeo
}

204.3.1 = {
	religion = sanata
}

205.3.1 = {
	religion = nudeo
}

208.3.1 = {
	religion = sanata
}

221.4.1 = {
	culture = nalold
}

239.3.1 = {
	religion = nudeo
}

241.4.1 = {
	culture = nabuma
}

265.3.1 = {
	religion = sanata
}

314.4.1 = {
	culture = nalold
}

545.4.1 = {
	b_konuhal = castle
}

638.4.1 = {
	culture = dateobakn
}

675.4.1 = {
	b_worahim = temple
}

682.4.1 = {
	culture = ketyata
}

