	title = c_lirifon
	max_settlements = 4
	culture = qamofara
	religion = quon
	b_lofara = tribal
203.3.1 = {
	religion = lajozar
}

218.4.1 = {
	culture = emeres
}

854.4.1 = {
	b_lofara = castle
}

890.4.1 = {
	b_nulafya = temple
}

