	title = c_tising
	max_settlements = 3
	culture = siluzan
	religion = kaugile
	b_aling = tribal
256.4.1 = {
	culture = etarala
}

327.3.1 = {
	religion = womipac
}

331.4.1 = {
	culture = siluzan
}

340.3.1 = {
	religion = kaugile
}

