	title = c_nemepan
	max_settlements = 5
	culture = esouceko
	religion = erasto
	b_evorepan = tribal
209.3.1 = {
	religion = sanata
}

214.4.1 = {
	culture = busoj
}

240.3.1 = {
	religion = erasto
}

243.3.1 = {
	religion = sanata
}

246.3.1 = {
	religion = erasto
}

246.3.1 = {
	religion = sanata
}

256.3.1 = {
	religion = erasto
}

257.3.1 = {
	religion = sanata
}

258.4.1 = {
	culture = esouceko
}

265.4.1 = {
	culture = busoj
}

595.4.1 = {
	b_evorepan = castle
}

730.4.1 = {
	b_epaban = temple
}

757.4.1 = {
	culture = ketyata
}

866.4.1 = {
	b_abilasan = city
}

944.4.1 = {
	b_abhagre = temple
}

1013.4.1 = {
	b_enasan = city
}

