	title = c_tatatta
	max_settlements = 2
	culture = kelelen
	religion = nai
	b_nutyak = tribal
200.4.1 = {
	culture = samict
}

204.3.1 = {
	religion = deimati
}

275.4.1 = {
	culture = behalen
}

280.3.1 = {
	religion = nolena
}

285.3.1 = {
	religion = deimati
}

285.3.1 = {
	religion = nolena
}

288.3.1 = {
	religion = deimati
}

291.3.1 = {
	religion = nolena
}

293.3.1 = {
	religion = deimati
}

294.3.1 = {
	religion = nolena
}

298.3.1 = {
	religion = deimati
}

305.3.1 = {
	religion = nolena
}

309.3.1 = {
	religion = deimati
}

312.3.1 = {
	religion = nolena
}

315.3.1 = {
	religion = deimati
}

328.3.1 = {
	religion = nolena
}

333.3.1 = {
	religion = deimati
}

335.3.1 = {
	religion = nolena
}

336.3.1 = {
	religion = deimati
}

429.4.1 = {
	culture = ronai
}

447.4.1 = {
	culture = behalen
}

816.4.1 = {
	b_nutyak = castle
}

851.4.1 = {
	b_amaraya = city
}

