	title = c_lakict
	max_settlements = 7
	culture = samict
	religion = deimati
	b_leimoro = tribal
200.3.1 = {
	religion = nai
}

206.3.1 = {
	religion = deimati
}

209.3.1 = {
	religion = nai
}

212.3.1 = {
	religion = deimati
}

220.3.1 = {
	religion = nai
}

224.3.1 = {
	religion = deimati
}

395.4.1 = {
	culture = anugino
}

419.4.1 = {
	culture = samict
}

437.4.1 = {
	culture = anugino
}

447.4.1 = {
	culture = samict
}

468.4.1 = {
	culture = anugino
}

595.4.1 = {
	culture = samict
}

605.4.1 = {
	culture = anugino
}

605.4.1 = {
	b_leimoro = castle
}

607.4.1 = {
	culture = samict
}

724.4.1 = {
	culture = anugino
}

790.4.1 = {
	b_dumerto = temple
}

