	title = c_atittaaboj
	max_settlements = 7
	culture = nabuma
	religion = nudeo
	b_quseo = tribal
1.1.1 = {
	b_etitya = ct_port_1
}

204.3.1 = {
	religion = sanata
}

206.3.1 = {
	religion = nudeo
}

208.3.1 = {
	religion = sanata
}

209.3.1 = {
	religion = nudeo
}

211.3.1 = {
	religion = sanata
}

214.4.1 = {
	culture = nalold
}

215.3.1 = {
	religion = nudeo
}

215.3.1 = {
	religion = sanata
}

218.3.1 = {
	religion = nudeo
}

218.3.1 = {
	religion = sanata
}

239.3.1 = {
	religion = nudeo
}

245.4.1 = {
	culture = nabuma
}

266.3.1 = {
	religion = sanata
}

274.4.1 = {
	culture = nalold
}

661.4.1 = {
	culture = dateobakn
}

691.4.1 = {
	culture = nalold
}

695.4.1 = {
	b_quseo = castle
}

704.4.1 = {
	culture = dateobakn
}

722.4.1 = {
	culture = nalold
}

740.4.1 = {
	culture = dateobakn
}

811.4.1 = {
	b_etitya = city
}

820.4.1 = {
	culture = ketyata
}

