	title = c_risadlun
	max_settlements = 7
	culture = diana
	religion = kaugile
	b_norwi = tribal
335.4.1 = {
	culture = etarala
}

483.4.1 = {
	culture = wai
}

631.4.1 = {
	culture = basodan
}

640.4.1 = {
	culture = wai
}

647.4.1 = {
	culture = basodan
}

688.4.1 = {
	culture = wai
}

