	title = c_karegum
	max_settlements = 5
	culture = bilinaj
	religion = bevargo
	b_qinaj = tribal
218.4.1 = {
	culture = sevique
}

305.4.1 = {
	culture = keraig
}

319.4.1 = {
	culture = sevique
}

345.4.1 = {
	culture = keraig
}

349.4.1 = {
	culture = sevique
}

375.4.1 = {
	culture = keraig
}

845.4.1 = {
	b_qinaj = castle
}

896.4.1 = {
	b_bunaig = temple
}

1025.4.1 = {
	b_egerelc = city
}

