	title = c_niteril
	max_settlements = 5
	culture = busoj
	religion = sanata
	b_bapkelraane = tribal
200.3.1 = {
	religion = erasto
}

204.4.1 = {
	culture = banka
}

211.3.1 = {
	religion = sanata
}

215.3.1 = {
	religion = erasto
}

218.3.1 = {
	religion = sanata
}

228.3.1 = {
	religion = erasto
}

230.3.1 = {
	religion = sanata
}

241.3.1 = {
	religion = erasto
}

243.3.1 = {
	religion = sanata
}

244.4.1 = {
	culture = esouceko
}

246.3.1 = {
	religion = erasto
}

246.3.1 = {
	religion = sanata
}

248.4.1 = {
	culture = busoj
}

254.4.1 = {
	culture = esouceko
}

256.3.1 = {
	religion = erasto
}

257.3.1 = {
	religion = sanata
}

274.4.1 = {
	culture = busoj
}

309.4.1 = {
	culture = esouceko
}

334.4.1 = {
	culture = busoj
}

565.4.1 = {
	b_bapkelraane = castle
}

670.4.1 = {
	b_rirahim = city
}

777.4.1 = {
	culture = ketyata
}

846.4.1 = {
	b_reder = temple
}

924.4.1 = {
	b_kikasan = castle
}

992.4.1 = {
	b_dorahim = city
}

