	title = c_roreni
	max_settlements = 6
	culture = banka
	religion = erasto
	b_keni = tribal
211.3.1 = {
	religion = sanata
}

214.3.1 = {
	religion = erasto
}

218.3.1 = {
	religion = sanata
}

222.3.1 = {
	religion = erasto
}

224.3.1 = {
	religion = sanata
}

227.3.1 = {
	religion = erasto
}

230.3.1 = {
	religion = sanata
}

232.3.1 = {
	religion = erasto
}

232.3.1 = {
	religion = sanata
}

244.3.1 = {
	religion = erasto
}

245.3.1 = {
	religion = sanata
}

247.3.1 = {
	religion = erasto
}

248.4.1 = {
	culture = busoj
}

251.3.1 = {
	religion = sanata
}

253.3.1 = {
	religion = erasto
}

257.3.1 = {
	religion = sanata
}

259.3.1 = {
	religion = erasto
}

264.3.1 = {
	religion = sanata
}

267.4.1 = {
	culture = esouceko
}

334.4.1 = {
	culture = busoj
}

605.4.1 = {
	b_keni = castle
}

730.4.1 = {
	culture = esouceko
}

735.4.1 = {
	b_teni = temple
}

745.3.1 = {
	religion = erasto
}

751.3.1 = {
	religion = sanata
}

763.3.1 = {
	religion = erasto
}

764.3.1 = {
	religion = sanata
}

777.3.1 = {
	religion = erasto
}

777.3.1 = {
	religion = sanata
}

780.3.1 = {
	religion = erasto
}

788.3.1 = {
	religion = sanata
}

800.3.1 = {
	religion = erasto
}

803.3.1 = {
	religion = sanata
}

868.4.1 = {
	b_sorana = city
}

953.4.1 = {
	b_balonso = castle
}

1033.4.1 = {
	b_kana = city
}

