	title = c_buryah
	max_settlements = 3
	culture = dateobakn
	religion = nudeo
	b_enso = tribal
204.3.1 = {
	religion = sanata
}

206.3.1 = {
	religion = nudeo
}

208.3.1 = {
	religion = sanata
}

209.3.1 = {
	religion = nudeo
}

211.3.1 = {
	religion = sanata
}

214.4.1 = {
	culture = nalold
}

215.3.1 = {
	religion = nudeo
}

215.3.1 = {
	religion = sanata
}

218.3.1 = {
	religion = nudeo
}

218.3.1 = {
	religion = sanata
}

239.3.1 = {
	religion = nudeo
}

245.4.1 = {
	culture = nabuma
}

266.3.1 = {
	religion = sanata
}

274.4.1 = {
	culture = nalold
}

600.4.1 = {
	b_enso = castle
}

661.4.1 = {
	culture = dateobakn
}

691.4.1 = {
	culture = nalold
}

704.4.1 = {
	culture = dateobakn
}

722.4.1 = {
	culture = nalold
}

740.4.1 = {
	culture = dateobakn
}

750.4.1 = {
	b_barepan = city
}

820.4.1 = {
	culture = ketyata
}

853.4.1 = {
	b_lorukan = temple
}

