	title = c_akamisam
	max_settlements = 2
	culture = resirulay
	religion = nolena
	b_nolind = tribal
206.4.1 = {
	culture = wajafya
}

218.4.1 = {
	culture = resirulay
}

350.3.1 = {
	religion = qeaxasika
}

367.3.1 = {
	religion = nolena
}

377.3.1 = {
	religion = qeaxasika
}

393.3.1 = {
	religion = nolena
}

394.3.1 = {
	religion = qeaxasika
}

424.3.1 = {
	religion = nolena
}

427.3.1 = {
	religion = qeaxasika
}

429.3.1 = {
	religion = nolena
}

431.3.1 = {
	religion = qeaxasika
}

435.3.1 = {
	religion = nolena
}

435.3.1 = {
	religion = qeaxasika
}

436.3.1 = {
	religion = nolena
}

436.3.1 = {
	religion = qeaxasika
}

439.3.1 = {
	religion = nolena
}

443.3.1 = {
	religion = qeaxasika
}

445.3.1 = {
	religion = nolena
}

876.4.1 = {
	b_nolind = castle
}

