	title = c_kinalk
	max_settlements = 3
	culture = kaniltet
	religion = atinaike
	b_wena = tribal
203.3.1 = {
	religion = erasto
}

206.3.1 = {
	religion = atinaike
}

210.4.1 = {
	culture = erutsar
}

775.4.1 = {
	b_wena = castle
}

811.3.1 = {
	religion = sanata
}

826.3.1 = {
	religion = atinaike
}

828.3.1 = {
	religion = sanata
}

829.3.1 = {
	religion = atinaike
}

832.3.1 = {
	religion = sanata
}

833.3.1 = {
	religion = atinaike
}

836.3.1 = {
	religion = sanata
}

846.3.1 = {
	religion = atinaike
}

848.3.1 = {
	religion = sanata
}

850.3.1 = {
	religion = atinaike
}

859.3.1 = {
	religion = sanata
}

967.4.1 = {
	b_linius = temple
}

1016.4.1 = {
	culture = esouceko
}

1026.4.1 = {
	culture = erutsar
}

1054.4.1 = {
	b_adeilama = city
}

