	title = c_kanilla
	max_settlements = 4
	culture = nezuel
	religion = bedesa
	b_lanund = tribal
214.3.1 = {
	religion = qogato
}

219.3.1 = {
	religion = bedesa
}

219.4.1 = {
	culture = nutiana
}

221.3.1 = {
	religion = qogato
}

232.3.1 = {
	religion = bedesa
}

236.3.1 = {
	religion = qogato
}

241.3.1 = {
	religion = bedesa
}

242.3.1 = {
	religion = qogato
}

250.3.1 = {
	religion = bedesa
}

256.3.1 = {
	religion = qogato
}

323.4.1 = {
	culture = nisid
}

326.3.1 = {
	religion = bedesa
}

331.4.1 = {
	culture = kajorte
}

332.3.1 = {
	religion = qogato
}

338.4.1 = {
	culture = nisid
}

372.4.1 = {
	culture = kajorte
}

384.4.1 = {
	culture = nisid
}

412.4.1 = {
	culture = kajorte
}

487.4.1 = {
	culture = nisid
}

490.4.1 = {
	culture = kajorte
}

668.4.1 = {
	culture = nisid
}

695.4.1 = {
	b_lanund = castle
}

811.4.1 = {
	b_nicilla = temple
}

846.4.1 = {
	culture = kajorte
}

898.4.1 = {
	b_wanese = city
}

