	title = c_wagara
	max_settlements = 2
	culture = erutsar
	religion = atinaike
	b_dirica = tribal
1.1.1 = {
	b_laulicco = ct_port_1
}

203.3.1 = {
	religion = erasto
}

206.3.1 = {
	religion = atinaike
}

811.3.1 = {
	religion = sanata
}

821.3.1 = {
	religion = atinaike
}

824.3.1 = {
	religion = sanata
}

832.3.1 = {
	religion = atinaike
}

832.3.1 = {
	religion = sanata
}

839.3.1 = {
	religion = atinaike
}

839.3.1 = {
	religion = sanata
}

840.3.1 = {
	religion = atinaike
}

848.3.1 = {
	religion = sanata
}

850.3.1 = {
	religion = atinaike
}

859.3.1 = {
	religion = sanata
}

866.3.1 = {
	religion = atinaike
}

867.3.1 = {
	religion = sanata
}

874.3.1 = {
	religion = atinaike
}

874.3.1 = {
	religion = sanata
}

882.3.1 = {
	religion = atinaike
}

888.3.1 = {
	religion = sanata
}

990.4.1 = {
	b_dirica = castle
}

1016.4.1 = {
	culture = esouceko
}

1022.4.1 = {
	culture = erutsar
}

1027.4.1 = {
	b_laulicco = city
}

