	title = c_terumar
	max_settlements = 5
	culture = nalold
	religion = nudeo
	b_tadakon = tribal
1.1.1 = {
	b_reraziz = ct_port_1
}

219.4.1 = {
	culture = dateobakn
}

452.3.1 = {
	religion = sanata
}

464.3.1 = {
	religion = nudeo
}

466.3.1 = {
	religion = sanata
}

469.3.1 = {
	religion = nudeo
}

480.3.1 = {
	religion = sanata
}

485.4.1 = {
	culture = nalold
}

686.4.1 = {
	culture = ketyata
}

815.4.1 = {
	b_tadakon = castle
}

846.4.1 = {
	b_reraziz = city
}

930.4.1 = {
	b_nudoj = temple
}

998.4.1 = {
	b_kanoj = city
}

