	title = c_kalind
	max_settlements = 3
	culture = emeres
	religion = lajozar
	b_rabofara = tribal
206.3.1 = {
	religion = quon
}

210.3.1 = {
	religion = qeaxasika
}

219.3.1 = {
	religion = quon
}

220.3.1 = {
	religion = qeaxasika
}

223.3.1 = {
	religion = quon
}

227.3.1 = {
	religion = qeaxasika
}

229.3.1 = {
	religion = quon
}

232.3.1 = {
	religion = qeaxasika
}

236.3.1 = {
	religion = lajozar
}

245.3.1 = {
	religion = quon
}

247.3.1 = {
	religion = lajozar
}

258.4.1 = {
	culture = qamofara
}

263.4.1 = {
	culture = ebaudes
}

787.4.1 = {
	culture = rahesi
}

789.3.1 = {
	religion = qeaxasika
}

807.4.1 = {
	culture = ebaudes
}

881.3.1 = {
	religion = lajozar
}

