	title = c_kategga
	max_settlements = 3
	culture = erutsar
	religion = atinaike
	b_katoard = tribal
203.3.1 = {
	religion = erasto
}

206.3.1 = {
	religion = atinaike
}

225.3.1 = {
	religion = dello
}

228.3.1 = {
	religion = atinaike
}

229.3.1 = {
	religion = dello
}

233.4.1 = {
	culture = kaniltet
}

233.3.1 = {
	religion = atinaike
}

252.4.1 = {
	culture = erutsar
}

317.4.1 = {
	culture = kaniltet
}

356.4.1 = {
	culture = erutsar
}

811.3.1 = {
	religion = sanata
}

845.3.1 = {
	religion = atinaike
}

848.4.1 = {
	culture = rinrasalas
}

848.3.1 = {
	religion = sanata
}

849.3.1 = {
	religion = dello
}

859.3.1 = {
	religion = sanata
}

865.3.1 = {
	religion = dello
}

867.3.1 = {
	religion = sanata
}

869.3.1 = {
	religion = dello
}

874.3.1 = {
	religion = sanata
}

880.3.1 = {
	religion = dello
}

880.3.1 = {
	religion = sanata
}

885.3.1 = {
	religion = dello
}

888.3.1 = {
	religion = sanata
}

889.3.1 = {
	religion = dello
}

891.3.1 = {
	religion = sanata
}

898.3.1 = {
	religion = dello
}

916.3.1 = {
	religion = sanata
}

924.3.1 = {
	religion = dello
}

927.3.1 = {
	religion = sanata
}

928.3.1 = {
	religion = dello
}

929.4.1 = {
	b_katoard = castle
}

935.3.1 = {
	religion = sanata
}

937.3.1 = {
	religion = dello
}

943.3.1 = {
	religion = sanata
}

950.3.1 = {
	religion = dello
}

953.3.1 = {
	religion = sanata
}

960.3.1 = {
	religion = dello
}

960.3.1 = {
	religion = sanata
}

962.3.1 = {
	religion = dello
}

964.3.1 = {
	religion = sanata
}

965.3.1 = {
	religion = dello
}

974.3.1 = {
	religion = sanata
}

980.3.1 = {
	religion = dello
}

980.3.1 = {
	religion = sanata
}

994.4.1 = {
	b_qatilla = temple
}

1013.4.1 = {
	culture = esouceko
}

1017.4.1 = {
	culture = rinrasalas
}

1027.3.1 = {
	religion = dello
}

1029.3.1 = {
	religion = sanata
}

1034.3.1 = {
	religion = dello
}

1035.3.1 = {
	religion = sanata
}

1037.3.1 = {
	religion = dello
}

1037.3.1 = {
	religion = sanata
}

1041.3.1 = {
	religion = dello
}

1041.3.1 = {
	religion = sanata
}

1044.3.1 = {
	religion = dello
}

1044.3.1 = {
	religion = sanata
}

1046.3.1 = {
	religion = dello
}

1050.3.1 = {
	religion = sanata
}

1051.3.1 = {
	religion = dello
}

1051.3.1 = {
	religion = sanata
}

1065.3.1 = {
	religion = dello
}

