	title = c_enilappa
	max_settlements = 3
	culture = kaniltet
	religion = kello
	b_wipenda = tribal
201.3.1 = {
	religion = erasto
}

202.3.1 = {
	religion = kello
}

203.3.1 = {
	religion = erasto
}

204.3.1 = {
	religion = kello
}

206.3.1 = {
	religion = erasto
}

209.3.1 = {
	religion = kello
}

213.3.1 = {
	religion = erasto
}

222.3.1 = {
	religion = kello
}

222.3.1 = {
	religion = erasto
}

231.4.1 = {
	culture = esouceko
}

637.3.1 = {
	religion = sanata
}

649.3.1 = {
	religion = erasto
}

680.4.1 = {
	b_wipenda = castle
}

717.3.1 = {
	religion = sanata
}

734.3.1 = {
	religion = erasto
}

755.3.1 = {
	religion = sanata
}

776.4.1 = {
	b_raybalk = city
}

784.3.1 = {
	religion = erasto
}

791.3.1 = {
	religion = sanata
}

840.4.1 = {
	b_kideva = temple
}

