	title = c_etupavka
	max_settlements = 2
	culture = kitehal
	religion = kello
	b_qonso = tribal
201.3.1 = {
	religion = erasto
}

211.3.1 = {
	religion = kello
}

213.3.1 = {
	religion = erasto
}

242.4.1 = {
	culture = esouceko
}

290.4.1 = {
	culture = kaniltet
}

333.4.1 = {
	culture = esouceko
}

341.4.1 = {
	culture = kaniltet
}

360.4.1 = {
	culture = esouceko
}

364.4.1 = {
	culture = kaniltet
}

383.4.1 = {
	culture = esouceko
}

432.3.1 = {
	religion = sanata
}

433.3.1 = {
	religion = erasto
}

435.4.1 = {
	culture = busoj
}

446.3.1 = {
	religion = sanata
}

450.3.1 = {
	religion = erasto
}

457.3.1 = {
	religion = sanata
}

460.3.1 = {
	religion = erasto
}

461.3.1 = {
	religion = sanata
}

465.3.1 = {
	religion = erasto
}

511.3.1 = {
	religion = sanata
}

511.3.1 = {
	religion = erasto
}

514.3.1 = {
	religion = sanata
}

515.3.1 = {
	religion = erasto
}

517.3.1 = {
	religion = sanata
}

520.3.1 = {
	religion = erasto
}

521.3.1 = {
	religion = sanata
}

522.3.1 = {
	religion = erasto
}

526.3.1 = {
	religion = sanata
}

527.3.1 = {
	religion = erasto
}

530.3.1 = {
	religion = sanata
}

533.3.1 = {
	religion = erasto
}

538.3.1 = {
	religion = sanata
}

541.3.1 = {
	religion = erasto
}

544.3.1 = {
	religion = sanata
}

544.3.1 = {
	religion = erasto
}

550.3.1 = {
	religion = sanata
}

557.3.1 = {
	religion = erasto
}

560.3.1 = {
	religion = sanata
}

577.3.1 = {
	religion = erasto
}

585.3.1 = {
	religion = sanata
}

586.3.1 = {
	religion = erasto
}

588.3.1 = {
	religion = sanata
}

598.3.1 = {
	religion = erasto
}

599.3.1 = {
	religion = sanata
}

604.3.1 = {
	religion = erasto
}

607.3.1 = {
	religion = sanata
}

608.3.1 = {
	religion = erasto
}

611.3.1 = {
	religion = sanata
}

611.3.1 = {
	religion = erasto
}

612.3.1 = {
	religion = sanata
}

612.3.1 = {
	religion = erasto
}

615.3.1 = {
	religion = sanata
}

615.3.1 = {
	religion = erasto
}

619.3.1 = {
	religion = sanata
}

619.3.1 = {
	religion = erasto
}

624.3.1 = {
	religion = sanata
}

627.3.1 = {
	religion = erasto
}

632.3.1 = {
	religion = sanata
}

635.3.1 = {
	religion = erasto
}

637.3.1 = {
	religion = sanata
}

649.3.1 = {
	religion = erasto
}

652.3.1 = {
	religion = sanata
}

654.3.1 = {
	religion = erasto
}

657.3.1 = {
	religion = sanata
}

676.3.1 = {
	religion = erasto
}

679.3.1 = {
	religion = sanata
}

685.3.1 = {
	religion = erasto
}

690.3.1 = {
	religion = sanata
}

690.3.1 = {
	religion = erasto
}

697.3.1 = {
	religion = sanata
}

697.3.1 = {
	religion = erasto
}

698.3.1 = {
	religion = sanata
}

707.3.1 = {
	religion = erasto
}

708.3.1 = {
	religion = sanata
}

734.3.1 = {
	religion = erasto
}

738.3.1 = {
	religion = sanata
}

745.3.1 = {
	religion = erasto
}

747.3.1 = {
	religion = sanata
}

752.3.1 = {
	religion = erasto
}

755.3.1 = {
	religion = sanata
}

775.4.1 = {
	culture = ketyata
}

784.3.1 = {
	religion = erasto
}

788.3.1 = {
	religion = sanata
}

790.4.1 = {
	b_qonso = castle
}

853.4.1 = {
	b_wurartn = temple
}

