	title = c_dakanakabani
	max_settlements = 2
	culture = kanyata
	religion = sanata
	b_kakobakaq = tribal
225.4.1 = {
	culture = busoj
}

560.4.1 = {
	b_kakobakaq = castle
}

660.4.1 = {
	b_ececeni = temple
}

718.4.1 = {
	culture = ketyata
}

