	title = c_rezavid
	max_settlements = 3
	culture = namict
	religion = qerto
	b_lipeda = tribal
1.1.1 = {
	b_kezalie = ct_port_1
}

366.4.1 = {
	culture = dairmai
}

441.4.1 = {
	culture = qona
}

444.4.1 = {
	culture = dairmai
}

680.4.1 = {
	b_lipeda = castle
}

809.4.1 = {
	b_qatavid = temple
}

900.4.1 = {
	b_kezalie = city
}

