	title = c_bilald
	max_settlements = 2
	culture = kanyata
	religion = sanata
	b_tilogay = tribal
225.4.1 = {
	culture = busoj
}

565.4.1 = {
	b_tilogay = castle
}

650.4.1 = {
	b_nilepan = temple
}

718.4.1 = {
	culture = ketyata
}

