	title = c_womalie
	max_settlements = 2
	culture = qona
	religion = qerto
	b_ripach = tribal
338.4.1 = {
	culture = namict
}

428.4.1 = {
	culture = dairmai
}

441.4.1 = {
	culture = qona
}

446.4.1 = {
	culture = dairmai
}

503.4.1 = {
	culture = namict
}

518.4.1 = {
	culture = dairmai
}

547.4.1 = {
	culture = namict
}

577.4.1 = {
	culture = dairmai
}

745.4.1 = {
	b_ripach = castle
}

820.4.1 = {
	b_lilete = city
}

