	title = c_redius
	max_settlements = 2
	culture = kaniltet
	religion = atinaike
	b_aludius = tribal
203.3.1 = {
	religion = erasto
}

206.3.1 = {
	religion = atinaike
}

211.3.1 = {
	religion = dello
}

214.3.1 = {
	religion = atinaike
}

215.3.1 = {
	religion = dello
}

215.3.1 = {
	religion = atinaike
}

232.3.1 = {
	religion = dello
}

233.3.1 = {
	religion = atinaike
}

253.3.1 = {
	religion = dello
}

262.3.1 = {
	religion = atinaike
}

264.3.1 = {
	religion = dello
}

272.3.1 = {
	religion = atinaike
}

277.4.1 = {
	culture = erutsar
}

284.4.1 = {
	culture = kaniltet
}

297.3.1 = {
	religion = dello
}

300.3.1 = {
	religion = atinaike
}

301.3.1 = {
	religion = dello
}

302.3.1 = {
	religion = atinaike
}

303.3.1 = {
	religion = dello
}

304.3.1 = {
	religion = atinaike
}

409.4.1 = {
	culture = erutsar
}

680.4.1 = {
	b_aludius = castle
}

787.4.1 = {
	culture = esouceko
}

791.3.1 = {
	religion = sanata
}

794.3.1 = {
	religion = atinaike
}

807.3.1 = {
	religion = sanata
}

809.3.1 = {
	religion = atinaike
}

809.4.1 = {
	b_bideva = temple
}

810.3.1 = {
	religion = sanata
}

993.4.1 = {
	culture = erutsar
}

1016.4.1 = {
	culture = esouceko
}

1064.4.1 = {
	culture = erutsar
}

