	title = c_qudicco
	max_settlements = 3
	culture = elyasalk
	religion = dello
	b_sinod = tribal
203.3.1 = {
	religion = erasto
}

206.3.1 = {
	religion = atinaike
}

207.3.1 = {
	religion = dello
}

214.3.1 = {
	religion = atinaike
}

224.3.1 = {
	religion = dello
}

224.3.1 = {
	religion = atinaike
}

235.4.1 = {
	culture = erutsar
}

237.3.1 = {
	religion = dello
}

239.3.1 = {
	religion = atinaike
}

242.3.1 = {
	religion = dello
}

242.3.1 = {
	religion = atinaike
}

243.3.1 = {
	religion = dello
}

262.3.1 = {
	religion = atinaike
}

268.4.1 = {
	culture = elyasalk
}

274.4.1 = {
	culture = erutsar
}

770.4.1 = {
	b_sinod = castle
}

811.3.1 = {
	religion = sanata
}

813.3.1 = {
	religion = atinaike
}

816.3.1 = {
	religion = sanata
}

818.3.1 = {
	religion = atinaike
}

818.3.1 = {
	religion = sanata
}

820.3.1 = {
	religion = atinaike
}

824.3.1 = {
	religion = sanata
}

825.3.1 = {
	religion = atinaike
}

828.3.1 = {
	religion = sanata
}

829.3.1 = {
	religion = atinaike
}

832.3.1 = {
	religion = sanata
}

833.3.1 = {
	religion = atinaike
}

836.3.1 = {
	religion = sanata
}

838.3.1 = {
	religion = atinaike
}

839.3.1 = {
	religion = sanata
}

849.3.1 = {
	religion = atinaike
}

859.3.1 = {
	religion = sanata
}

861.3.1 = {
	religion = atinaike
}

867.3.1 = {
	religion = sanata
}

868.3.1 = {
	religion = atinaike
}

868.3.1 = {
	religion = sanata
}

871.3.1 = {
	religion = atinaike
}

874.3.1 = {
	religion = sanata
}

876.3.1 = {
	religion = atinaike
}

880.3.1 = {
	religion = sanata
}

883.3.1 = {
	religion = atinaike
}

888.3.1 = {
	religion = sanata
}

890.3.1 = {
	religion = atinaike
}

891.3.1 = {
	religion = sanata
}

892.3.1 = {
	religion = atinaike
}

894.3.1 = {
	religion = sanata
}

899.3.1 = {
	religion = atinaike
}

916.3.1 = {
	religion = sanata
}

938.4.1 = {
	culture = esouceko
}

983.4.1 = {
	b_asineco = city
}

997.4.1 = {
	culture = erutsar
}

1016.4.1 = {
	culture = esouceko
}

1062.4.1 = {
	culture = erutsar
}

