	title = c_banka
	max_settlements = 4
	culture = dateobakn
	religion = nudeo
	b_aprana = tribal
205.3.1 = {
	religion = sanata
}

206.3.1 = {
	religion = nudeo
}

220.3.1 = {
	religion = sanata
}

233.3.1 = {
	religion = nudeo
}

235.3.1 = {
	religion = sanata
}

249.4.1 = {
	culture = ketyata
}

294.4.1 = {
	culture = dateobakn
}

615.4.1 = {
	b_aprana = castle
}

623.4.1 = {
	culture = ketyata
}

760.4.1 = {
	b_rupuka = city
}

863.4.1 = {
	b_bana = temple
}

928.4.1 = {
	b_leni = temple
}

