	title = c_kakoj
	max_settlements = 2
	culture = nalold
	religion = ludyu
	b_arusida = tribal
1.1.1 = {
	b_tafakon = ct_port_1
}

202.3.1 = {
	religion = nudeo
}

205.3.1 = {
	religion = ludyu
}

211.3.1 = {
	religion = nudeo
}

215.3.1 = {
	religion = ludyu
}

215.3.1 = {
	religion = nudeo
}

227.3.1 = {
	religion = ludyu
}

235.3.1 = {
	religion = nudeo
}

238.3.1 = {
	religion = ludyu
}

240.3.1 = {
	religion = nudeo
}

243.3.1 = {
	religion = ludyu
}

246.3.1 = {
	religion = nudeo
}

254.3.1 = {
	religion = ludyu
}

255.3.1 = {
	religion = nudeo
}

256.4.1 = {
	culture = kanyata
}

314.4.1 = {
	culture = dateobakn
}

452.3.1 = {
	religion = sanata
}

464.3.1 = {
	religion = nudeo
}

466.3.1 = {
	religion = sanata
}

484.3.1 = {
	religion = nudeo
}

494.3.1 = {
	religion = sanata
}

496.4.1 = {
	culture = nalold
}

681.4.1 = {
	culture = ketyata
}

868.4.1 = {
	b_arusida = castle
}

895.4.1 = {
	b_tafakon = city
}

