	title = c_lalc
	max_settlements = 5
	culture = kelelen
	religion = nai
	b_rutatta = tribal
204.3.1 = {
	religion = deimati
}

206.3.1 = {
	religion = nai
}

213.3.1 = {
	religion = deimati
}

217.3.1 = {
	religion = nai
}

224.3.1 = {
	religion = deimati
}

227.3.1 = {
	religion = nai
}

231.3.1 = {
	religion = deimati
}

236.3.1 = {
	religion = nai
}

238.3.1 = {
	religion = deimati
}

240.3.1 = {
	religion = nai
}

240.3.1 = {
	religion = deimati
}

243.3.1 = {
	religion = nai
}

244.3.1 = {
	religion = deimati
}

247.3.1 = {
	religion = nai
}

250.3.1 = {
	religion = deimati
}

257.3.1 = {
	religion = nai
}

261.3.1 = {
	religion = deimati
}

270.3.1 = {
	religion = nai
}

280.3.1 = {
	religion = nolena
}

285.4.1 = {
	culture = behalen
}

295.3.1 = {
	religion = deimati
}

305.3.1 = {
	religion = nolena
}

306.3.1 = {
	religion = deimati
}

312.3.1 = {
	religion = nolena
}

324.3.1 = {
	religion = deimati
}

328.3.1 = {
	religion = nolena
}

333.3.1 = {
	religion = deimati
}

335.3.1 = {
	religion = nolena
}

350.3.1 = {
	religion = deimati
}

396.4.1 = {
	culture = ronai
}

546.4.1 = {
	culture = behalen
}

554.4.1 = {
	culture = ronai
}

709.4.1 = {
	culture = behalen
}

818.4.1 = {
	b_rutatta = castle
}

852.4.1 = {
	b_roganu = temple
}

