	title = c_kasama
	max_settlements = 5
	culture = kaniltet
	religion = kello
	b_kyinius = tribal
202.3.1 = {
	religion = dello
}

203.3.1 = {
	religion = erasto
}

205.3.1 = {
	religion = dello
}

206.3.1 = {
	religion = atinaike
}

207.3.1 = {
	religion = dello
}

214.3.1 = {
	religion = atinaike
}

220.3.1 = {
	religion = dello
}

223.3.1 = {
	religion = atinaike
}

246.4.1 = {
	culture = erutsar
}

675.4.1 = {
	b_kyinius = castle
}

806.4.1 = {
	b_tyasius = temple
}

811.3.1 = {
	religion = sanata
}

812.3.1 = {
	religion = atinaike
}

816.3.1 = {
	religion = sanata
}

833.3.1 = {
	religion = atinaike
}

836.3.1 = {
	religion = sanata
}

847.3.1 = {
	religion = atinaike
}

848.3.1 = {
	religion = sanata
}

857.3.1 = {
	religion = atinaike
}

859.3.1 = {
	religion = sanata
}

1016.4.1 = {
	culture = esouceko
}

1020.4.1 = {
	culture = erutsar
}

1020.4.1 = {
	b_nedilas = city
}

1061.4.1 = {
	culture = esouceko
}

