	title = c_rohocic
	max_settlements = 6
	culture = etarala
	religion = kaugile
	b_tocic = tribal
203.3.1 = {
	religion = womipac
}

215.3.1 = {
	religion = kaugile
}

217.3.1 = {
	religion = womipac
}

222.3.1 = {
	religion = kaugile
}

224.3.1 = {
	religion = womipac
}

247.3.1 = {
	religion = kaugile
}

260.3.1 = {
	religion = womipac
}

261.3.1 = {
	religion = kaugile
}

270.3.1 = {
	religion = ekeleda
}

270.3.1 = {
	religion = kaugile
}

271.3.1 = {
	religion = ekeleda
}

273.3.1 = {
	religion = kaugile
}

274.3.1 = {
	religion = ekeleda
}

278.3.1 = {
	religion = kaugile
}

280.3.1 = {
	religion = ekeleda
}

280.3.1 = {
	religion = kaugile
}

281.3.1 = {
	religion = ekeleda
}

293.3.1 = {
	religion = kaugile
}

299.3.1 = {
	religion = ekeleda
}

301.3.1 = {
	religion = kaugile
}

308.3.1 = {
	religion = ekeleda
}

332.3.1 = {
	religion = kaugile
}

333.3.1 = {
	religion = ekeleda
}

333.3.1 = {
	religion = kaugile
}

335.3.1 = {
	religion = ekeleda
}

335.3.1 = {
	religion = kaugile
}

336.3.1 = {
	religion = ekeleda
}

337.3.1 = {
	religion = kaugile
}

340.3.1 = {
	religion = ekeleda
}

340.3.1 = {
	religion = kaugile
}

341.3.1 = {
	religion = ekeleda
}

349.3.1 = {
	religion = kaugile
}

637.4.1 = {
	culture = siluzan
}

655.4.1 = {
	culture = etarala
}

692.4.1 = {
	culture = siluzan
}

700.4.1 = {
	b_tocic = castle
}

853.4.1 = {
	b_loruyu = city
}

