	title = c_sena
	max_settlements = 3
	culture = kaniltet
	religion = dello
	b_livius = tribal
203.3.1 = {
	religion = erasto
}

205.3.1 = {
	religion = dello
}

206.3.1 = {
	religion = atinaike
}

212.3.1 = {
	religion = dello
}

214.3.1 = {
	religion = atinaike
}

218.3.1 = {
	religion = dello
}

219.3.1 = {
	religion = atinaike
}

220.3.1 = {
	religion = dello
}

223.3.1 = {
	religion = atinaike
}

225.3.1 = {
	religion = dello
}

228.3.1 = {
	religion = atinaike
}

229.3.1 = {
	religion = dello
}

233.3.1 = {
	religion = atinaike
}

325.4.1 = {
	culture = erutsar
}

775.4.1 = {
	b_livius = castle
}

811.3.1 = {
	religion = sanata
}

815.3.1 = {
	religion = atinaike
}

816.3.1 = {
	religion = sanata
}

823.3.1 = {
	religion = atinaike
}

824.3.1 = {
	religion = sanata
}

825.3.1 = {
	religion = atinaike
}

828.3.1 = {
	religion = sanata
}

832.3.1 = {
	religion = atinaike
}

832.3.1 = {
	religion = sanata
}

834.3.1 = {
	religion = atinaike
}

836.3.1 = {
	religion = sanata
}

837.3.1 = {
	religion = atinaike
}

839.3.1 = {
	religion = sanata
}

882.3.1 = {
	religion = atinaike
}

888.3.1 = {
	religion = sanata
}

893.3.1 = {
	religion = atinaike
}

894.3.1 = {
	religion = sanata
}

910.3.1 = {
	religion = atinaike
}

916.3.1 = {
	religion = sanata
}

921.3.1 = {
	religion = atinaike
}

927.3.1 = {
	religion = sanata
}

979.4.1 = {
	b_rius = temple
}

1016.4.1 = {
	culture = esouceko
}

1027.4.1 = {
	culture = erutsar
}

1065.4.1 = {
	culture = esouceko
}

