	title = c_walena
	max_settlements = 4
	culture = kaniltet
	religion = dello
	b_wilama = tribal
203.3.1 = {
	religion = erasto
}

204.3.1 = {
	religion = dello
}

206.3.1 = {
	religion = atinaike
}

208.3.1 = {
	religion = dello
}

214.3.1 = {
	religion = atinaike
}

215.3.1 = {
	religion = dello
}

215.3.1 = {
	religion = atinaike
}

232.3.1 = {
	religion = dello
}

233.3.1 = {
	religion = atinaike
}

253.3.1 = {
	religion = dello
}

262.3.1 = {
	religion = atinaike
}

264.3.1 = {
	religion = dello
}

265.4.1 = {
	culture = erutsar
}

272.3.1 = {
	religion = atinaike
}

273.3.1 = {
	religion = dello
}

274.3.1 = {
	religion = atinaike
}

278.3.1 = {
	religion = dello
}

279.3.1 = {
	religion = atinaike
}

284.3.1 = {
	religion = dello
}

284.3.1 = {
	religion = atinaike
}

288.3.1 = {
	religion = dello
}

291.3.1 = {
	religion = atinaike
}

293.3.1 = {
	religion = dello
}

300.3.1 = {
	religion = atinaike
}

680.4.1 = {
	b_wilama = castle
}

702.3.1 = {
	religion = erasto
}

703.4.1 = {
	culture = esouceko
}

707.3.1 = {
	religion = atinaike
}

712.3.1 = {
	religion = erasto
}

713.3.1 = {
	religion = atinaike
}

721.3.1 = {
	religion = erasto
}

721.3.1 = {
	religion = atinaike
}

726.3.1 = {
	religion = erasto
}

733.3.1 = {
	religion = atinaike
}

734.3.1 = {
	religion = erasto
}

743.3.1 = {
	religion = atinaike
}

745.3.1 = {
	religion = erasto
}

748.3.1 = {
	religion = atinaike
}

752.3.1 = {
	religion = erasto
}

755.3.1 = {
	religion = sanata
}

764.3.1 = {
	religion = atinaike
}

769.3.1 = {
	religion = sanata
}

777.3.1 = {
	religion = atinaike
}

782.3.1 = {
	religion = sanata
}

783.3.1 = {
	religion = atinaike
}

784.3.1 = {
	religion = erasto
}

784.3.1 = {
	religion = atinaike
}

792.3.1 = {
	religion = erasto
}

794.3.1 = {
	religion = atinaike
}

802.3.1 = {
	religion = erasto
}

803.3.1 = {
	religion = atinaike
}

806.4.1 = {
	b_sivideva = city
}

808.3.1 = {
	religion = erasto
}

809.3.1 = {
	religion = atinaike
}

811.3.1 = {
	religion = sanata
}

815.3.1 = {
	religion = erasto
}

816.3.1 = {
	religion = sanata
}

819.3.1 = {
	religion = erasto
}

824.3.1 = {
	religion = sanata
}

828.3.1 = {
	religion = erasto
}

828.3.1 = {
	religion = sanata
}

894.4.1 = {
	culture = erutsar
}

1016.4.1 = {
	culture = esouceko
}

1027.4.1 = {
	b_abaybena = temple
}

1037.4.1 = {
	culture = erutsar
}

1046.4.1 = {
	culture = esouceko
}

