	title = c_erasozar
	max_settlements = 4
	culture = emeres
	religion = lajozar
	b_koloard = tribal
210.3.1 = {
	religion = qeaxasika
}

215.3.1 = {
	religion = lajozar
}

218.3.1 = {
	religion = qeaxasika
}

227.3.1 = {
	religion = lajozar
}

227.3.1 = {
	religion = qeaxasika
}

236.3.1 = {
	religion = lajozar
}

289.4.1 = {
	culture = ebaudes
}

723.3.1 = {
	religion = qeaxasika
}

748.3.1 = {
	religion = lajozar
}

759.3.1 = {
	religion = qeaxasika
}

861.3.1 = {
	religion = lajozar
}

