	title = c_ranomas
	max_settlements = 4
	culture = kajorte
	religion = bedesa
	b_lesato = tribal
1.1.1 = {
	b_tancalel = ct_port_1
}

214.3.1 = {
	religion = qogato
}

216.3.1 = {
	religion = bedesa
}

221.3.1 = {
	religion = qogato
}

223.3.1 = {
	religion = bedesa
}

228.3.1 = {
	religion = qogato
}

229.3.1 = {
	religion = bedesa
}

229.3.1 = {
	religion = qogato
}

230.3.1 = {
	religion = bedesa
}

236.3.1 = {
	religion = qogato
}

241.3.1 = {
	religion = bedesa
}

256.3.1 = {
	religion = qogato
}

323.4.1 = {
	culture = nisid
}

324.4.1 = {
	culture = kajorte
}

390.4.1 = {
	culture = nisid
}

398.4.1 = {
	culture = kajorte
}

487.4.1 = {
	culture = nisid
}

490.4.1 = {
	culture = kajorte
}

589.4.1 = {
	culture = nisid
}

625.4.1 = {
	b_lesato = castle
}

632.4.1 = {
	culture = kajorte
}

639.4.1 = {
	culture = nisid
}

719.4.1 = {
	culture = kajorte
}

770.4.1 = {
	b_bahulo = temple
}

883.4.1 = {
	b_tancalel = city
}

