	title = c_leluma
	max_settlements = 2
	culture = dateobakn
	religion = nudeo
	b_koseo = tribal
239.4.1 = {
	culture = kanyata
}

315.4.1 = {
	culture = dateobakn
}

449.3.1 = {
	religion = sanata
}

455.4.1 = {
	culture = nalold
}

678.4.1 = {
	culture = ketyata
}

802.4.1 = {
	b_koseo = castle
}

825.4.1 = {
	b_teturad = city
}

