	title = c_eganna
	max_settlements = 3
	culture = dateobakn
	religion = nudeo
	b_qetoj = tribal
1.1.1 = {
	b_luboj = ct_port_1
}

239.4.1 = {
	culture = kanyata
}

315.4.1 = {
	culture = dateobakn
}

449.3.1 = {
	religion = sanata
}

455.4.1 = {
	culture = nalold
}

678.4.1 = {
	culture = ketyata
}

802.4.1 = {
	b_qetoj = castle
}

840.4.1 = {
	b_bosava = temple
}

928.4.1 = {
	b_luboj = city
}

