	title = c_demisam
	max_settlements = 2
	culture = ronai
	religion = nai
	b_agisasan = tribal
201.3.1 = {
	religion = nolena
}

351.4.1 = {
	culture = resirulay
}

414.3.1 = {
	religion = qeaxasika
}

465.3.1 = {
	religion = nolena
}

