	title = c_kello
	max_settlements = 5
	culture = rinrasalas
	religion = dello
	b_rukalk = tribal
203.3.1 = {
	religion = erasto
}

206.3.1 = {
	religion = atinaike
}

207.3.1 = {
	religion = dello
}

214.3.1 = {
	religion = atinaike
}

219.4.1 = {
	culture = sinoerd
}

222.3.1 = {
	religion = dello
}

223.3.1 = {
	religion = atinaike
}

237.3.1 = {
	religion = dello
}

239.3.1 = {
	religion = atinaike
}

242.3.1 = {
	religion = dello
}

242.3.1 = {
	religion = atinaike
}

243.3.1 = {
	religion = dello
}

244.4.1 = {
	culture = erutsar
}

262.3.1 = {
	religion = atinaike
}

303.4.1 = {
	culture = kaniltet
}

325.4.1 = {
	culture = erutsar
}

770.4.1 = {
	b_rukalk = castle
}

811.3.1 = {
	religion = sanata
}

816.3.1 = {
	religion = atinaike
}

816.3.1 = {
	religion = sanata
}

817.3.1 = {
	religion = atinaike
}

818.3.1 = {
	religion = sanata
}

821.3.1 = {
	religion = atinaike
}

824.3.1 = {
	religion = sanata
}

826.3.1 = {
	religion = atinaike
}

828.3.1 = {
	religion = sanata
}

829.3.1 = {
	religion = atinaike
}

832.3.1 = {
	religion = sanata
}

835.3.1 = {
	religion = atinaike
}

836.3.1 = {
	religion = sanata
}

837.3.1 = {
	religion = atinaike
}

839.3.1 = {
	religion = sanata
}

843.3.1 = {
	religion = atinaike
}

848.3.1 = {
	religion = sanata
}

853.3.1 = {
	religion = atinaike
}

859.3.1 = {
	religion = sanata
}

865.3.1 = {
	religion = atinaike
}

867.3.1 = {
	religion = sanata
}

872.3.1 = {
	religion = atinaike
}

874.3.1 = {
	religion = sanata
}

899.4.1 = {
	culture = esouceko
}

977.4.1 = {
	b_riroerd = temple
}

986.4.1 = {
	culture = erutsar
}

1016.4.1 = {
	culture = esouceko
}

1029.4.1 = {
	culture = erutsar
}

