	title = c_raliro
	max_settlements = 4
	culture = kiro
	religion = kello
	b_anolonso = tribal
204.3.1 = {
	religion = sanata
}

227.4.1 = {
	culture = banka
}

231.3.1 = {
	religion = kello
}

236.3.1 = {
	religion = sanata
}

239.4.1 = {
	culture = kiro
}

250.3.1 = {
	religion = kello
}

252.4.1 = {
	culture = banka
}

256.3.1 = {
	religion = sanata
}

280.3.1 = {
	religion = kello
}

281.3.1 = {
	religion = sanata
}

309.3.1 = {
	religion = kello
}

309.3.1 = {
	religion = sanata
}

311.4.1 = {
	culture = kiro
}

313.3.1 = {
	religion = kello
}

313.3.1 = {
	religion = sanata
}

356.4.1 = {
	culture = banka
}

635.4.1 = {
	b_anolonso = castle
}

765.4.1 = {
	b_nonso = temple
}

872.3.1 = {
	religion = kello
}

875.3.1 = {
	religion = sanata
}

876.3.1 = {
	religion = kello
}

878.3.1 = {
	religion = sanata
}

883.3.1 = {
	religion = kello
}

887.3.1 = {
	religion = sanata
}

888.3.1 = {
	religion = kello
}

898.3.1 = {
	religion = sanata
}

904.3.1 = {
	religion = kello
}

974.3.1 = {
	religion = sanata
}

974.4.1 = {
	b_rairoresh = city
}

984.3.1 = {
	religion = kello
}

986.3.1 = {
	religion = sanata
}

987.3.1 = {
	religion = kello
}

989.3.1 = {
	religion = sanata
}

990.3.1 = {
	religion = kello
}

992.3.1 = {
	religion = sanata
}

994.3.1 = {
	religion = kello
}

999.3.1 = {
	religion = sanata
}

1004.3.1 = {
	religion = kello
}

1006.3.1 = {
	religion = sanata
}

1007.3.1 = {
	religion = kello
}

1007.3.1 = {
	religion = sanata
}

1011.3.1 = {
	religion = kello
}

1011.3.1 = {
	religion = sanata
}

1013.4.1 = {
	culture = nodicco
}

1043.4.1 = {
	b_wolepan = temple
}

