	title = c_ropaig
	max_settlements = 3
	culture = aremishan
	religion = bevargo
	b_wilenda = tribal
230.4.1 = {
	culture = keraig
}

841.4.1 = {
	b_wilenda = castle
}

879.4.1 = {
	b_arodar = temple
}

978.4.1 = {
	b_nopudh = city
}

