	title = c_tezuym
	max_settlements = 4
	culture = datosta
	religion = ekeleda
	b_wutuel = tribal
203.3.1 = {
	religion = toudapa
}

210.4.1 = {
	culture = keya
}

219.4.1 = {
	culture = datosta
}

281.4.1 = {
	culture = keya
}

320.4.1 = {
	culture = bekava
}

705.4.1 = {
	b_wutuel = castle
}

802.4.1 = {
	b_tatoman = temple
}

862.4.1 = {
	b_edoman = city
}

