	title = c_karnkurn
	max_settlements = 5
	culture = nodai
	religion = ecatorgo
	b_ranunah = tribal
206.3.1 = {
	religion = kevelc
}

217.3.1 = {
	religion = ecatorgo
}

350.4.1 = {
	culture = temeir
}

371.4.1 = {
	culture = nodai
}

375.4.1 = {
	culture = temeir
}

408.4.1 = {
	culture = nodai
}

510.4.1 = {
	culture = temeir
}

757.4.1 = {
	culture = nodai
}

765.4.1 = {
	culture = temeir
}

822.4.1 = {
	culture = nodai
}

827.4.1 = {
	culture = temeir
}

836.4.1 = {
	b_ranunah = castle
}

871.4.1 = {
	b_qabold = temple
}

874.4.1 = {
	culture = nodai
}

943.4.1 = {
	culture = temeir
}

1016.4.1 = {
	b_demegum = city
}

