	title = c_kyinena
	max_settlements = 2
	culture = nodicco
	religion = dello
	b_qedalk = tribal
200.3.1 = {
	religion = kello
}

204.3.1 = {
	religion = dello
}

207.3.1 = {
	religion = kello
}

209.3.1 = {
	religion = dello
}

212.3.1 = {
	religion = kello
}

221.3.1 = {
	religion = dello
}

221.3.1 = {
	religion = kello
}

234.3.1 = {
	religion = dello
}

234.3.1 = {
	religion = kello
}

237.3.1 = {
	religion = dello
}

237.3.1 = {
	religion = kello
}

240.3.1 = {
	religion = dello
}

243.3.1 = {
	religion = kello
}

790.4.1 = {
	b_qedalk = castle
}

896.4.1 = {
	b_weilius = city
}

974.3.1 = {
	religion = sanata
}

975.3.1 = {
	religion = kello
}

977.3.1 = {
	religion = sanata
}

983.3.1 = {
	religion = kello
}

986.3.1 = {
	religion = sanata
}

988.3.1 = {
	religion = kello
}

989.3.1 = {
	religion = sanata
}

990.3.1 = {
	religion = kello
}

992.3.1 = {
	religion = sanata
}

998.3.1 = {
	religion = kello
}

1003.3.1 = {
	religion = sanata
}

1015.4.1 = {
	culture = esouceko
}

1036.3.1 = {
	religion = kello
}

1036.3.1 = {
	religion = sanata
}

1041.3.1 = {
	religion = kello
}

1041.3.1 = {
	religion = sanata
}

1042.4.1 = {
	culture = nodicco
}

1043.3.1 = {
	religion = kello
}

1054.3.1 = {
	religion = sanata
}

1058.3.1 = {
	religion = kello
}

1060.3.1 = {
	religion = sanata
}

1063.3.1 = {
	religion = kello
}

