	title = c_tatissa
	max_settlements = 3
	culture = bekava
	religion = ekeleda
	b_katanos = tribal
203.3.1 = {
	religion = toudapa
}

213.3.1 = {
	religion = ekeleda
}

214.3.1 = {
	religion = toudapa
}

216.3.1 = {
	religion = ekeleda
}

219.3.1 = {
	religion = toudapa
}

223.3.1 = {
	religion = ekeleda
}

223.3.1 = {
	religion = toudapa
}

227.3.1 = {
	religion = ekeleda
}

237.3.1 = {
	religion = toudapa
}

238.3.1 = {
	religion = ekeleda
}

248.3.1 = {
	religion = toudapa
}

249.3.1 = {
	religion = ekeleda
}

249.3.1 = {
	religion = toudapa
}

254.3.1 = {
	religion = ekeleda
}

255.3.1 = {
	religion = toudapa
}

256.3.1 = {
	religion = ekeleda
}

265.3.1 = {
	religion = toudapa
}

705.4.1 = {
	b_katanos = castle
}

813.4.1 = {
	b_watyo = temple
}

