	title = c_linukan
	max_settlements = 2
	culture = kiro
	religion = kello
	b_nipena = tribal
202.4.1 = {
	culture = banka
}

204.3.1 = {
	religion = sanata
}

231.3.1 = {
	religion = kello
}

236.3.1 = {
	religion = sanata
}

241.4.1 = {
	culture = kiro
}

250.3.1 = {
	religion = kello
}

268.3.1 = {
	religion = sanata
}

268.4.1 = {
	culture = banka
}

487.3.1 = {
	religion = kello
}

492.4.1 = {
	culture = nodicco
}

492.3.1 = {
	religion = sanata
}

495.3.1 = {
	religion = kello
}

500.3.1 = {
	religion = sanata
}

501.3.1 = {
	religion = kello
}

503.3.1 = {
	religion = sanata
}

506.3.1 = {
	religion = kello
}

506.3.1 = {
	religion = sanata
}

513.3.1 = {
	religion = kello
}

515.3.1 = {
	religion = sanata
}

519.3.1 = {
	religion = kello
}

523.3.1 = {
	religion = sanata
}

528.3.1 = {
	religion = kello
}

532.3.1 = {
	religion = sanata
}

539.3.1 = {
	religion = kello
}

539.3.1 = {
	religion = sanata
}

550.3.1 = {
	religion = kello
}

554.4.1 = {
	culture = banka
}

560.3.1 = {
	religion = sanata
}

561.4.1 = {
	culture = nodicco
}

570.3.1 = {
	religion = kello
}

571.3.1 = {
	religion = sanata
}

577.3.1 = {
	religion = kello
}

577.3.1 = {
	religion = sanata
}

586.3.1 = {
	religion = kello
}

587.3.1 = {
	religion = sanata
}

590.3.1 = {
	religion = kello
}

591.3.1 = {
	religion = sanata
}

591.3.1 = {
	religion = kello
}

596.3.1 = {
	religion = sanata
}

600.3.1 = {
	religion = kello
}

609.3.1 = {
	religion = sanata
}

612.3.1 = {
	religion = kello
}

621.3.1 = {
	religion = sanata
}

627.3.1 = {
	religion = kello
}

631.3.1 = {
	religion = sanata
}

632.3.1 = {
	religion = kello
}

632.3.1 = {
	religion = sanata
}

638.3.1 = {
	religion = kello
}

645.4.1 = {
	culture = banka
}

647.3.1 = {
	religion = sanata
}

656.4.1 = {
	culture = nodicco
}

666.3.1 = {
	religion = kello
}

666.3.1 = {
	religion = sanata
}

667.3.1 = {
	religion = kello
}

671.3.1 = {
	religion = sanata
}

677.3.1 = {
	religion = kello
}

686.3.1 = {
	religion = sanata
}

691.3.1 = {
	religion = kello
}

692.3.1 = {
	religion = sanata
}

693.3.1 = {
	religion = kello
}

693.3.1 = {
	religion = sanata
}

698.3.1 = {
	religion = kello
}

699.3.1 = {
	religion = sanata
}

705.4.1 = {
	b_nipena = castle
}

707.3.1 = {
	religion = kello
}

710.3.1 = {
	religion = sanata
}

712.3.1 = {
	religion = kello
}

715.3.1 = {
	religion = sanata
}

721.3.1 = {
	religion = kello
}

723.3.1 = {
	religion = sanata
}

725.3.1 = {
	religion = kello
}

729.3.1 = {
	religion = sanata
}

730.3.1 = {
	religion = kello
}

732.3.1 = {
	religion = sanata
}

752.3.1 = {
	religion = kello
}

758.3.1 = {
	religion = sanata
}

777.3.1 = {
	religion = kello
}

781.3.1 = {
	religion = sanata
}

794.3.1 = {
	religion = kello
}

794.3.1 = {
	religion = sanata
}

804.3.1 = {
	religion = kello
}

809.3.1 = {
	religion = sanata
}

813.3.1 = {
	religion = kello
}

813.3.1 = {
	religion = sanata
}

814.3.1 = {
	religion = kello
}

814.4.1 = {
	b_balena = city
}

817.3.1 = {
	religion = sanata
}

823.3.1 = {
	religion = kello
}

824.3.1 = {
	religion = sanata
}

828.3.1 = {
	religion = kello
}

835.3.1 = {
	religion = sanata
}

836.3.1 = {
	religion = kello
}

847.3.1 = {
	religion = sanata
}

851.3.1 = {
	religion = kello
}

852.3.1 = {
	religion = sanata
}

856.3.1 = {
	religion = kello
}

974.3.1 = {
	religion = sanata
}

976.3.1 = {
	religion = kello
}

977.3.1 = {
	religion = sanata
}

979.4.1 = {
	culture = esouceko
}

1036.4.1 = {
	culture = nodicco
}

1056.4.1 = {
	culture = esouceko
}

