	title = c_dahine
	max_settlements = 2
	culture = kaloard
	religion = lajozar
	b_buhofan = tribal
203.3.1 = {
	religion = qeaxasika
}

207.3.1 = {
	religion = lajozar
}

210.3.1 = {
	religion = qeaxasika
}

212.3.1 = {
	religion = lajozar
}

216.3.1 = {
	religion = qeaxasika
}

218.3.1 = {
	religion = lajozar
}

219.3.1 = {
	religion = qeaxasika
}

223.3.1 = {
	religion = lajozar
}

228.3.1 = {
	religion = qeaxasika
}

233.3.1 = {
	religion = lajozar
}

237.3.1 = {
	religion = qeaxasika
}

238.3.1 = {
	religion = lajozar
}

239.3.1 = {
	religion = qeaxasika
}

245.3.1 = {
	religion = lajozar
}

339.3.1 = {
	religion = qeaxasika
}

352.3.1 = {
	religion = lajozar
}

352.3.1 = {
	religion = qeaxasika
}

356.3.1 = {
	religion = lajozar
}

361.3.1 = {
	religion = qeaxasika
}

366.4.1 = {
	culture = qameard
}

448.4.1 = {
	culture = ebaudes
}

471.3.1 = {
	religion = lajozar
}

474.3.1 = {
	religion = qeaxasika
}

478.4.1 = {
	culture = qameard
}

506.4.1 = {
	culture = ebaudes
}

510.4.1 = {
	culture = qameard
}

524.4.1 = {
	culture = ebaudes
}

563.4.1 = {
	culture = qameard
}

578.4.1 = {
	culture = rahesi
}

613.4.1 = {
	culture = qameard
}

652.4.1 = {
	culture = rahesi
}

