	title = c_ricalan
	max_settlements = 4
	culture = keykete
	religion = bedesa
	b_qicund = tribal
255.3.1 = {
	religion = tapa
}

261.3.1 = {
	religion = bedesa
}

272.3.1 = {
	religion = tapa
}

275.3.1 = {
	religion = bedesa
}

279.3.1 = {
	religion = tapa
}

280.3.1 = {
	religion = bedesa
}

283.3.1 = {
	religion = tapa
}

284.4.1 = {
	culture = kanugr
}

293.3.1 = {
	religion = bedesa
}

309.3.1 = {
	religion = tapa
}

384.4.1 = {
	culture = qahula
}

399.4.1 = {
	culture = kanugr
}

476.4.1 = {
	culture = qahula
}

492.4.1 = {
	culture = kanugr
}

508.4.1 = {
	culture = qahula
}

720.4.1 = {
	b_qicund = castle
}

811.4.1 = {
	b_tucadmut = city
}

864.3.1 = {
	religion = sadapa
}

877.3.1 = {
	religion = tapa
}

878.3.1 = {
	religion = sadapa
}

887.3.1 = {
	religion = tapa
}

890.3.1 = {
	religion = sadapa
}

894.3.1 = {
	religion = tapa
}

898.3.1 = {
	religion = sadapa
}

898.4.1 = {
	culture = doudula
}

