	title = c_kinappa
	max_settlements = 3
	culture = nodicco
	religion = dello
	b_lipenda = tribal
200.3.1 = {
	religion = kello
}

800.4.1 = {
	b_lipenda = castle
}

825.4.1 = {
	b_neises = temple
}

886.4.1 = {
	b_wivappa = city
}

974.3.1 = {
	religion = sanata
}

975.3.1 = {
	religion = kello
}

977.3.1 = {
	religion = sanata
}

980.3.1 = {
	religion = kello
}

982.3.1 = {
	religion = sanata
}

987.3.1 = {
	religion = kello
}

989.3.1 = {
	religion = sanata
}

992.3.1 = {
	religion = kello
}

992.3.1 = {
	religion = sanata
}

993.3.1 = {
	religion = kello
}

1006.3.1 = {
	religion = sanata
}

1007.3.1 = {
	religion = kello
}

1008.3.1 = {
	religion = sanata
}

1020.3.1 = {
	religion = kello
}

1029.3.1 = {
	religion = sanata
}

1033.3.1 = {
	religion = kello
}

1036.3.1 = {
	religion = sanata
}

1041.3.1 = {
	religion = kello
}

1041.3.1 = {
	religion = sanata
}

1044.3.1 = {
	religion = kello
}

1054.3.1 = {
	religion = sanata
}

