	title = c_tudampa
	max_settlements = 4
	culture = nodicco
	religion = kello
	b_wassqals = tribal
211.4.1 = {
	culture = kiro
}

238.4.1 = {
	culture = nodicco
}

239.3.1 = {
	religion = dello
}

243.3.1 = {
	religion = kello
}

249.3.1 = {
	religion = dello
}

250.3.1 = {
	religion = kello
}

256.3.1 = {
	religion = dello
}

256.3.1 = {
	religion = kello
}

259.3.1 = {
	religion = dello
}

261.3.1 = {
	religion = kello
}

264.3.1 = {
	religion = dello
}

265.3.1 = {
	religion = kello
}

268.3.1 = {
	religion = dello
}

270.3.1 = {
	religion = kello
}

275.3.1 = {
	religion = dello
}

275.3.1 = {
	religion = kello
}

730.4.1 = {
	b_wassqals = castle
}

815.4.1 = {
	b_divampa = temple
}

893.4.1 = {
	b_ratama = city
}

947.4.1 = {
	b_tappa = city
}

974.3.1 = {
	religion = sanata
}

975.3.1 = {
	religion = kello
}

977.3.1 = {
	religion = sanata
}

1007.4.1 = {
	culture = esouceko
}

1063.3.1 = {
	religion = kello
}

