	title = c_ledesa
	max_settlements = 4
	culture = datosta
	religion = ekeleda
	b_sadiane = tribal
1.1.1 = {
	b_rututlu = ct_port_1
}

203.3.1 = {
	religion = toudapa
}

210.4.1 = {
	culture = keya
}

219.4.1 = {
	culture = datosta
}

281.4.1 = {
	culture = keya
}

320.4.1 = {
	culture = bekava
}

705.4.1 = {
	b_sadiane = castle
}

803.4.1 = {
	b_rututlu = city
}

854.4.1 = {
	b_rihoman = temple
}

