	title = c_kyasicco
	max_settlements = 5
	culture = sinoerd
	religion = dello
	b_tutod = tribal
286.4.1 = {
	culture = kasoerd
}

305.4.1 = {
	culture = sasicco
}

488.4.1 = {
	culture = rinrasalas
}

734.4.1 = {
	culture = kasoerd
}

743.4.1 = {
	culture = rinrasalas
}

769.4.1 = {
	culture = sasicco
}

839.4.1 = {
	culture = kasoerd
}

856.4.1 = {
	culture = rinrasalas
}

860.4.1 = {
	b_tutod = castle
}

866.4.1 = {
	culture = kasoerd
}

953.4.1 = {
	b_byasoerd = temple
}

