	title = c_renda
	max_settlements = 3
	culture = sinoerd
	religion = dello
	b_tiunius = tribal
200.4.1 = {
	culture = rinrasalas
}

210.4.1 = {
	culture = kasoerd
}

434.4.1 = {
	culture = elyasalk
}

478.4.1 = {
	culture = sasicco
}

575.4.1 = {
	culture = kasoerd
}

592.4.1 = {
	culture = sasicco
}

672.4.1 = {
	culture = kasoerd
}

856.4.1 = {
	culture = rinrasalas
}

867.4.1 = {
	culture = kasoerd
}

906.4.1 = {
	b_tiunius = castle
}

