	title = c_bitika
	max_settlements = 7
	culture = lahra
	religion = lajozar
	b_quehika = tribal
203.3.1 = {
	religion = qeaxasika
}

206.4.1 = {
	culture = emeres
}

211.4.1 = {
	culture = lahra
}

213.3.1 = {
	religion = lajozar
}

216.3.1 = {
	religion = qeaxasika
}

217.3.1 = {
	religion = lajozar
}

217.3.1 = {
	religion = qeaxasika
}

229.3.1 = {
	religion = lajozar
}

230.3.1 = {
	religion = qeaxasika
}

255.3.1 = {
	religion = lajozar
}

260.3.1 = {
	religion = qeaxasika
}

260.3.1 = {
	religion = lajozar
}

267.3.1 = {
	religion = qeaxasika
}

267.3.1 = {
	religion = lajozar
}

268.3.1 = {
	religion = qeaxasika
}

271.3.1 = {
	religion = lajozar
}

279.3.1 = {
	religion = qeaxasika
}

282.3.1 = {
	religion = lajozar
}

285.3.1 = {
	religion = qeaxasika
}

287.3.1 = {
	religion = lajozar
}

339.3.1 = {
	religion = qeaxasika
}

342.3.1 = {
	religion = lajozar
}

350.3.1 = {
	religion = qeaxasika
}

351.3.1 = {
	religion = lajozar
}

352.3.1 = {
	religion = qeaxasika
}

356.3.1 = {
	religion = lajozar
}

361.3.1 = {
	religion = qeaxasika
}

369.3.1 = {
	religion = lajozar
}

369.3.1 = {
	religion = qeaxasika
}

377.3.1 = {
	religion = lajozar
}

377.3.1 = {
	religion = qeaxasika
}

382.3.1 = {
	religion = lajozar
}

382.3.1 = {
	religion = qeaxasika
}

385.3.1 = {
	religion = lajozar
}

390.3.1 = {
	religion = qeaxasika
}

393.3.1 = {
	religion = lajozar
}

394.3.1 = {
	religion = qeaxasika
}

397.3.1 = {
	religion = lajozar
}

398.3.1 = {
	religion = qeaxasika
}

401.3.1 = {
	religion = lajozar
}

404.3.1 = {
	religion = qeaxasika
}

406.3.1 = {
	religion = lajozar
}

408.3.1 = {
	religion = qeaxasika
}

412.3.1 = {
	religion = lajozar
}

418.3.1 = {
	religion = qeaxasika
}

425.3.1 = {
	religion = lajozar
}

426.3.1 = {
	religion = qeaxasika
}

428.3.1 = {
	religion = lajozar
}

431.3.1 = {
	religion = qeaxasika
}

456.4.1 = {
	culture = rahesi
}

471.3.1 = {
	religion = lajozar
}

473.3.1 = {
	religion = qeaxasika
}

473.3.1 = {
	religion = lajozar
}

475.3.1 = {
	religion = qeaxasika
}

510.4.1 = {
	culture = qameard
}

513.4.1 = {
	culture = rahesi
}

682.4.1 = {
	culture = qameard
}

724.4.1 = {
	culture = rahesi
}

726.4.1 = {
	culture = qameard
}

762.4.1 = {
	culture = rahesi
}

805.4.1 = {
	culture = qameard
}

826.4.1 = {
	culture = rahesi
}

