	title = c_nadapa
	max_settlements = 2
	culture = kanugr
	religion = tapa
	b_keganeva = tribal
206.3.1 = {
	religion = bedesa
}

207.3.1 = {
	religion = tapa
}

207.3.1 = {
	religion = bedesa
}

209.3.1 = {
	religion = tapa
}

215.3.1 = {
	religion = bedesa
}

216.3.1 = {
	religion = tapa
}

221.3.1 = {
	religion = bedesa
}

222.3.1 = {
	religion = tapa
}

224.3.1 = {
	religion = bedesa
}

228.3.1 = {
	religion = tapa
}

229.3.1 = {
	religion = bedesa
}

230.3.1 = {
	religion = tapa
}

230.3.1 = {
	religion = bedesa
}

236.4.1 = {
	culture = keykete
}

255.3.1 = {
	religion = tapa
}

257.3.1 = {
	religion = bedesa
}

272.3.1 = {
	religion = tapa
}

292.3.1 = {
	religion = bedesa
}

311.3.1 = {
	religion = tapa
}

378.4.1 = {
	culture = qahula
}

804.4.1 = {
	b_keganeva = castle
}

864.3.1 = {
	religion = sadapa
}

868.4.1 = {
	culture = doudula
}

884.4.1 = {
	culture = qahula
}

887.3.1 = {
	religion = tapa
}

890.3.1 = {
	religion = sadapa
}

895.3.1 = {
	religion = tapa
}

