	title = c_akahugr
	max_settlements = 3
	culture = kanugr
	religion = tapa
	b_retolati = tribal
206.3.1 = {
	religion = bedesa
}

216.4.1 = {
	culture = keykete
}

255.3.1 = {
	religion = tapa
}

257.3.1 = {
	religion = bedesa
}

272.3.1 = {
	religion = tapa
}

292.3.1 = {
	religion = bedesa
}

311.3.1 = {
	religion = tapa
}

531.4.1 = {
	culture = qahula
}

695.4.1 = {
	b_retolati = castle
}

807.4.1 = {
	b_ekahani = temple
}

864.3.1 = {
	religion = sadapa
}

874.3.1 = {
	religion = tapa
}

875.3.1 = {
	religion = sadapa
}

879.3.1 = {
	religion = tapa
}

879.3.1 = {
	religion = sadapa
}

886.3.1 = {
	religion = tapa
}

890.3.1 = {
	religion = sadapa
}

894.3.1 = {
	religion = tapa
}

