	title = c_eluteco
	max_settlements = 2
	culture = kinoerd
	religion = dello
	b_taneltet = tribal
245.4.1 = {
	culture = elyasalk
}

432.4.1 = {
	culture = kasoerd
}

458.4.1 = {
	culture = sasicco
}

466.4.1 = {
	culture = kasoerd
}

473.4.1 = {
	culture = sasicco
}

671.4.1 = {
	culture = kasoerd
}

856.4.1 = {
	culture = rinrasalas
}

861.4.1 = {
	culture = kasoerd
}

