	title = c_raoan
	max_settlements = 4
	culture = laahib
	religion = ecatorgo
	b_rudis = tribal
1.1.1 = {
	b_qevadis = ct_port_1
}

205.4.1 = {
	culture = nodai
}

206.3.1 = {
	religion = kevelc
}

211.3.1 = {
	religion = ecatorgo
}

211.3.1 = {
	religion = kevelc
}

217.3.1 = {
	religion = ecatorgo
}

417.4.1 = {
	culture = temeir
}

467.4.1 = {
	culture = nodai
}

518.4.1 = {
	culture = temeir
}

634.4.1 = {
	culture = nodai
}

679.4.1 = {
	culture = temeir
}

757.4.1 = {
	culture = nodai
}

759.4.1 = {
	culture = temeir
}

822.4.1 = {
	culture = nodai
}

823.4.1 = {
	culture = temeir
}

828.4.1 = {
	culture = nodai
}

835.4.1 = {
	b_rudis = castle
}

871.4.1 = {
	b_dodai = temple
}

964.4.1 = {
	b_qevadis = city
}

1045.4.1 = {
	b_semegum = castle
}

