	title = c_lutena
	max_settlements = 2
	culture = kinoerd
	religion = dello
	b_todod = tribal
221.4.1 = {
	culture = elyasalk
}

442.4.1 = {
	culture = kasoerd
}

453.4.1 = {
	culture = sasicco
}

455.4.1 = {
	culture = kasoerd
}

533.4.1 = {
	culture = sasicco
}

596.3.1 = {
	religion = atinaike
}

598.4.1 = {
	culture = erutsar
}

605.3.1 = {
	religion = dello
}

613.3.1 = {
	religion = atinaike
}

613.3.1 = {
	religion = dello
}

617.3.1 = {
	religion = atinaike
}

625.3.1 = {
	religion = dello
}

628.3.1 = {
	religion = atinaike
}

632.3.1 = {
	religion = dello
}

644.3.1 = {
	religion = atinaike
}

646.4.1 = {
	culture = sasicco
}

647.3.1 = {
	religion = dello
}

650.3.1 = {
	religion = atinaike
}

670.3.1 = {
	religion = dello
}

676.3.1 = {
	religion = atinaike
}

677.4.1 = {
	culture = erutsar
}

678.3.1 = {
	religion = dello
}

679.3.1 = {
	religion = atinaike
}

680.3.1 = {
	religion = dello
}

687.3.1 = {
	religion = atinaike
}

692.3.1 = {
	religion = dello
}

704.4.1 = {
	culture = sasicco
}

734.4.1 = {
	culture = kasoerd
}

736.4.1 = {
	culture = sasicco
}

745.4.1 = {
	culture = erutsar
}

768.4.1 = {
	culture = sasicco
}

811.4.1 = {
	culture = erutsar
}

823.3.1 = {
	religion = atinaike
}

825.3.1 = {
	religion = dello
}

827.3.1 = {
	religion = atinaike
}

828.3.1 = {
	religion = dello
}

832.3.1 = {
	religion = atinaike
}

832.3.1 = {
	religion = dello
}

834.3.1 = {
	religion = atinaike
}

834.3.1 = {
	religion = dello
}

837.3.1 = {
	religion = atinaike
}

837.3.1 = {
	religion = dello
}

848.3.1 = {
	religion = sanata
}

850.3.1 = {
	religion = dello
}

855.3.1 = {
	religion = sanata
}

855.3.1 = {
	religion = dello
}

856.4.1 = {
	culture = rinrasalas
}

861.4.1 = {
	culture = erutsar
}

867.3.1 = {
	religion = sanata
}

868.3.1 = {
	religion = dello
}

879.3.1 = {
	religion = sanata
}

882.3.1 = {
	religion = atinaike
}

890.3.1 = {
	religion = dello
}

893.3.1 = {
	religion = atinaike
}

895.3.1 = {
	religion = dello
}

910.3.1 = {
	religion = atinaike
}

914.3.1 = {
	religion = dello
}

918.3.1 = {
	religion = atinaike
}

927.3.1 = {
	religion = dello
}

928.3.1 = {
	religion = atinaike
}

928.3.1 = {
	religion = dello
}

930.3.1 = {
	religion = atinaike
}

935.3.1 = {
	religion = dello
}

951.3.1 = {
	religion = atinaike
}

953.3.1 = {
	religion = dello
}

955.3.1 = {
	religion = atinaike
}

957.3.1 = {
	religion = dello
}

959.3.1 = {
	religion = atinaike
}

961.3.1 = {
	religion = dello
}

964.3.1 = {
	religion = atinaike
}

964.3.1 = {
	religion = dello
}

1018.3.1 = {
	religion = sanata
}

1022.3.1 = {
	religion = dello
}

1026.3.1 = {
	religion = sanata
}

1028.3.1 = {
	religion = dello
}

1033.3.1 = {
	religion = sanata
}

1035.3.1 = {
	religion = dello
}

1038.3.1 = {
	religion = sanata
}

1039.3.1 = {
	religion = dello
}

1040.3.1 = {
	religion = sanata
}

1040.3.1 = {
	religion = dello
}

1043.3.1 = {
	religion = sanata
}

1047.3.1 = {
	religion = dello
}

1048.3.1 = {
	religion = sanata
}

1050.3.1 = {
	religion = dello
}

1055.3.1 = {
	religion = sanata
}

1056.3.1 = {
	religion = dello
}

1059.3.1 = {
	religion = sanata
}

1059.3.1 = {
	religion = dello
}

1064.4.1 = {
	culture = esouceko
}

