	title = c_qolelen
	max_settlements = 2
	culture = ticolio
	religion = avicadar
	b_kamolio = tribal
200.3.1 = {
	religion = sadapa
}

214.3.1 = {
	religion = qogato
}

219.3.1 = {
	religion = sadapa
}

221.3.1 = {
	religion = qogato
}

225.3.1 = {
	religion = sadapa
}

228.3.1 = {
	religion = qogato
}

229.3.1 = {
	religion = sadapa
}

229.3.1 = {
	religion = qogato
}

232.3.1 = {
	religion = sadapa
}

236.3.1 = {
	religion = qogato
}

241.3.1 = {
	religion = bedesa
}

249.3.1 = {
	religion = sadapa
}

250.3.1 = {
	religion = bedesa
}

253.3.1 = {
	religion = sadapa
}

256.3.1 = {
	religion = qogato
}

267.3.1 = {
	religion = sadapa
}

268.3.1 = {
	religion = qogato
}

269.3.1 = {
	religion = sadapa
}

277.3.1 = {
	religion = qogato
}

286.3.1 = {
	religion = sadapa
}

303.3.1 = {
	religion = qogato
}

323.4.1 = {
	culture = nisid
}

334.4.1 = {
	culture = ticolio
}

336.3.1 = {
	religion = sadapa
}

337.3.1 = {
	religion = qogato
}

487.4.1 = {
	culture = nisid
}

492.4.1 = {
	culture = ticolio
}

632.4.1 = {
	culture = kajorte
}

638.4.1 = {
	culture = ticolio
}

670.4.1 = {
	b_kamolio = castle
}

681.4.1 = {
	culture = kajorte
}

721.4.1 = {
	culture = nisid
}

753.4.1 = {
	culture = kajorte
}

780.4.1 = {
	culture = nisid
}

805.4.1 = {
	b_ticato = temple
}

825.4.1 = {
	culture = kajorte
}

