	title = c_nugr
	max_settlements = 7
	culture = sakoman
	religion = ekeleda
	b_wafolun = tribal
200.3.1 = {
	religion = tapa
}

348.4.1 = {
	culture = lareya
}

574.4.1 = {
	culture = sakoman
}

580.4.1 = {
	culture = lareya
}

638.4.1 = {
	culture = sakoman
}

829.4.1 = {
	b_wafolun = castle
}

890.4.1 = {
	culture = lareya
}

