	title = c_wanaru
	max_settlements = 3
	culture = kinoerd
	religion = dello
	b_bonaqar = tribal
258.4.1 = {
	culture = elyasalk
}

695.4.1 = {
	culture = sasicco
}

738.4.1 = {
	culture = kasoerd
}

761.4.1 = {
	culture = sasicco
}

819.4.1 = {
	culture = kasoerd
}

