	title = c_tipolun
	max_settlements = 3
	culture = sakoman
	religion = ekeleda
	b_loleya = tribal
200.3.1 = {
	religion = tapa
}

209.3.1 = {
	religion = ekeleda
}

211.3.1 = {
	religion = tapa
}

216.3.1 = {
	religion = ekeleda
}

216.3.1 = {
	religion = tapa
}

217.3.1 = {
	religion = ekeleda
}

218.3.1 = {
	religion = tapa
}

227.3.1 = {
	religion = ekeleda
}

227.3.1 = {
	religion = tapa
}

232.3.1 = {
	religion = ekeleda
}

237.3.1 = {
	religion = tapa
}

275.4.1 = {
	culture = lareya
}

321.4.1 = {
	culture = sakoman
}

468.4.1 = {
	culture = lareya
}

574.4.1 = {
	culture = sakoman
}

577.4.1 = {
	culture = lareya
}

605.4.1 = {
	culture = sakoman
}

867.4.1 = {
	culture = lareya
}

