	title = c_qanekel
	max_settlements = 2
	culture = kinoerd
	religion = dello
	b_koreke = tribal
265.4.1 = {
	culture = kasoerd
}

459.4.1 = {
	culture = sasicco
}

666.4.1 = {
	culture = kasoerd
}

753.4.1 = {
	culture = rinrasalas
}

