	title = c_qalilla
	max_settlements = 7
	culture = nisid
	religion = qogato
	b_boner = tribal
241.3.1 = {
	religion = bedesa
}

256.3.1 = {
	religion = qogato
}

272.3.1 = {
	religion = bedesa
}

277.3.1 = {
	religion = qogato
}

283.3.1 = {
	religion = bedesa
}

310.3.1 = {
	religion = qogato
}

316.3.1 = {
	religion = bedesa
}

316.3.1 = {
	religion = qogato
}

324.3.1 = {
	religion = bedesa
}

325.3.1 = {
	religion = qogato
}

337.4.1 = {
	culture = kajorte
}

341.4.1 = {
	culture = nisid
}

417.4.1 = {
	culture = kajorte
}

446.4.1 = {
	culture = nisid
}

496.4.1 = {
	culture = kajorte
}

537.4.1 = {
	culture = nisid
}

586.4.1 = {
	culture = kajorte
}

604.4.1 = {
	culture = nisid
}

605.4.1 = {
	b_boner = castle
}

632.4.1 = {
	culture = kajorte
}

635.4.1 = {
	culture = nisid
}

642.4.1 = {
	culture = kajorte
}

661.4.1 = {
	culture = nisid
}

750.4.1 = {
	b_toladar = city
}

861.4.1 = {
	culture = kajorte
}

874.4.1 = {
	b_ronese = temple
}

