	title = c_lamord
	max_settlements = 4
	culture = kanugr
	religion = tapa
	b_repererer = tribal
206.3.1 = {
	religion = bedesa
}

209.4.1 = {
	culture = etolira
}

250.4.1 = {
	culture = qahula
}

255.3.1 = {
	religion = tapa
}

650.4.1 = {
	b_repererer = castle
}

785.4.1 = {
	b_saconalan = city
}

864.3.1 = {
	religion = sadapa
}

874.3.1 = {
	religion = tapa
}

875.3.1 = {
	religion = sadapa
}

879.3.1 = {
	religion = tapa
}

879.3.1 = {
	religion = sadapa
}

887.3.1 = {
	religion = tapa
}

890.3.1 = {
	religion = sadapa
}

891.3.1 = {
	religion = tapa
}

891.3.1 = {
	religion = sadapa
}

896.3.1 = {
	religion = tapa
}

