	title = c_sayna
	max_settlements = 2
	culture = qameard
	religion = lajozar
	b_qulika = tribal
203.3.1 = {
	religion = qeaxasika
}

205.3.1 = {
	religion = lajozar
}

206.3.1 = {
	religion = qeaxasika
}

211.3.1 = {
	religion = lajozar
}

216.3.1 = {
	religion = qeaxasika
}

220.3.1 = {
	religion = lajozar
}

228.3.1 = {
	religion = qeaxasika
}

229.3.1 = {
	religion = lajozar
}

230.3.1 = {
	religion = qeaxasika
}

245.3.1 = {
	religion = lajozar
}

339.3.1 = {
	religion = qeaxasika
}

349.3.1 = {
	religion = lajozar
}

350.3.1 = {
	religion = qeaxasika
}

356.3.1 = {
	religion = lajozar
}

361.3.1 = {
	religion = qeaxasika
}

362.3.1 = {
	religion = lajozar
}

365.3.1 = {
	religion = qeaxasika
}

369.3.1 = {
	religion = lajozar
}

369.3.1 = {
	religion = qeaxasika
}

373.3.1 = {
	religion = lajozar
}

373.3.1 = {
	religion = qeaxasika
}

374.3.1 = {
	religion = lajozar
}

374.3.1 = {
	religion = qeaxasika
}

378.3.1 = {
	religion = lajozar
}

381.3.1 = {
	religion = qeaxasika
}

384.3.1 = {
	religion = lajozar
}

390.3.1 = {
	religion = qeaxasika
}

393.3.1 = {
	religion = lajozar
}

394.3.1 = {
	religion = qeaxasika
}

398.3.1 = {
	religion = lajozar
}

398.3.1 = {
	religion = qeaxasika
}

403.3.1 = {
	religion = lajozar
}

404.3.1 = {
	religion = qeaxasika
}

418.3.1 = {
	religion = lajozar
}

418.3.1 = {
	religion = qeaxasika
}

441.4.1 = {
	culture = rahesi
}

471.3.1 = {
	religion = lajozar
}

476.3.1 = {
	religion = qeaxasika
}

510.4.1 = {
	culture = qameard
}

517.4.1 = {
	culture = rahesi
}

