	title = c_qucidue
	max_settlements = 7
	culture = nisid
	religion = qogato
	b_rerilla = tribal
1.1.1 = {
	b_eganund = ct_port_1
}

241.3.1 = {
	religion = bedesa
}

244.3.1 = {
	religion = qogato
}

250.3.1 = {
	religion = bedesa
}

252.4.1 = {
	culture = kopalan
}

253.3.1 = {
	religion = qogato
}

323.4.1 = {
	culture = nisid
}

332.4.1 = {
	culture = kopalan
}

487.4.1 = {
	culture = nisid
}

489.4.1 = {
	culture = kopalan
}

538.4.1 = {
	culture = nisid
}

615.4.1 = {
	b_rerilla = castle
}

632.4.1 = {
	culture = kajorte
}

633.4.1 = {
	culture = nisid
}

760.4.1 = {
	b_eganund = city
}

778.4.1 = {
	culture = kajorte
}

877.4.1 = {
	b_nilolio = temple
}

