	title = c_qyasalk
	max_settlements = 2
	culture = elyasalk
	religion = dello
	b_rinern = tribal
234.4.1 = {
	culture = kinoerd
}

255.4.1 = {
	culture = kasoerd
}

313.4.1 = {
	culture = sasicco
}

510.4.1 = {
	culture = kasoerd
}

856.4.1 = {
	culture = rinrasalas
}

858.4.1 = {
	culture = kasoerd
}

