	title = c_qazcacic
	max_settlements = 5
	culture = qameard
	religion = lajozar
	b_rera = tribal
203.3.1 = {
	religion = qeaxasika
}

207.4.1 = {
	culture = walahra
}

211.3.1 = {
	religion = lajozar
}

212.4.1 = {
	culture = qameard
}

216.3.1 = {
	religion = qeaxasika
}

220.3.1 = {
	religion = lajozar
}

228.3.1 = {
	religion = qeaxasika
}

229.3.1 = {
	religion = lajozar
}

230.3.1 = {
	religion = qeaxasika
}

245.3.1 = {
	religion = lajozar
}

339.3.1 = {
	religion = qeaxasika
}

345.3.1 = {
	religion = lajozar
}

350.4.1 = {
	culture = ebaudes
}

350.3.1 = {
	religion = qeaxasika
}

355.3.1 = {
	religion = lajozar
}

361.3.1 = {
	religion = qeaxasika
}

364.3.1 = {
	religion = lajozar
}

365.3.1 = {
	religion = qeaxasika
}

366.4.1 = {
	culture = qameard
}

375.3.1 = {
	religion = lajozar
}

376.3.1 = {
	religion = qeaxasika
}

387.3.1 = {
	religion = lajozar
}

387.4.1 = {
	culture = ebaudes
}

390.3.1 = {
	religion = qeaxasika
}

402.4.1 = {
	culture = qameard
}

447.4.1 = {
	culture = ebaudes
}

471.3.1 = {
	religion = lajozar
}

474.3.1 = {
	religion = qeaxasika
}

510.4.1 = {
	culture = qameard
}

534.4.1 = {
	culture = ebaudes
}

564.4.1 = {
	culture = qameard
}

584.4.1 = {
	culture = rahesi
}

615.4.1 = {
	culture = qameard
}

636.4.1 = {
	culture = rahesi
}

