	title = c_edelgui
	max_settlements = 5
	culture = etolira
	religion = ekeleda
	b_wisuiba = tribal
1.1.1 = {
	b_niviuge = ct_port_1
}

201.4.1 = {
	culture = etarala
}

203.3.1 = {
	religion = womipac
}

205.3.1 = {
	religion = ekeleda
}

206.3.1 = {
	religion = womipac
}

211.3.1 = {
	religion = ekeleda
}

212.3.1 = {
	religion = womipac
}

213.3.1 = {
	religion = ekeleda
}

217.3.1 = {
	religion = womipac
}

221.3.1 = {
	religion = ekeleda
}

224.3.1 = {
	religion = womipac
}

230.3.1 = {
	religion = ekeleda
}

231.3.1 = {
	religion = womipac
}

233.3.1 = {
	religion = ekeleda
}

235.3.1 = {
	religion = womipac
}

239.3.1 = {
	religion = ekeleda
}

239.3.1 = {
	religion = womipac
}

241.3.1 = {
	religion = ekeleda
}

248.3.1 = {
	religion = kaugile
}

257.3.1 = {
	religion = ekeleda
}

261.3.1 = {
	religion = kaugile
}

262.3.1 = {
	religion = ekeleda
}

262.3.1 = {
	religion = kaugile
}

263.3.1 = {
	religion = ekeleda
}

270.3.1 = {
	religion = kaugile
}

272.3.1 = {
	religion = ekeleda
}

273.3.1 = {
	religion = kaugile
}

287.3.1 = {
	religion = ekeleda
}

293.3.1 = {
	religion = kaugile
}

549.4.1 = {
	culture = siluzan
}

670.4.1 = {
	b_wisuiba = castle
}

806.4.1 = {
	b_niviuge = city
}

891.4.1 = {
	b_kelage = temple
}

