	title = c_qarira
	max_settlements = 5
	culture = wonepan
	religion = erasto
	b_tacudra = tribal
201.3.1 = {
	religion = apanold
}

205.3.1 = {
	religion = erasto
}

213.3.1 = {
	religion = apanold
}

217.4.1 = {
	culture = teorcuqarrborna
}

217.3.1 = {
	religion = erasto
}

220.3.1 = {
	religion = apanold
}

224.3.1 = {
	religion = erasto
}

225.3.1 = {
	religion = apanold
}

226.3.1 = {
	religion = erasto
}

232.3.1 = {
	religion = apanold
}

240.3.1 = {
	religion = erasto
}

240.4.1 = {
	culture = tuka
}

577.4.1 = {
	culture = teteo
}

581.3.1 = {
	religion = apanold
}

835.3.1 = {
	religion = sanata
}

