	title = c_wyalku
	max_settlements = 4
	culture = ebaudes
	religion = lajozar
	b_rulika = tribal
203.3.1 = {
	religion = qeaxasika
}

255.3.1 = {
	religion = lajozar
}

260.3.1 = {
	religion = qeaxasika
}

260.3.1 = {
	religion = lajozar
}

262.3.1 = {
	religion = qeaxasika
}

267.3.1 = {
	religion = lajozar
}

280.4.1 = {
	culture = walahra
}

287.3.1 = {
	religion = qeaxasika
}

287.3.1 = {
	religion = lajozar
}

288.3.1 = {
	religion = qeaxasika
}

293.3.1 = {
	religion = lajozar
}

296.3.1 = {
	religion = qeaxasika
}

300.3.1 = {
	religion = lajozar
}

302.3.1 = {
	religion = qeaxasika
}

306.3.1 = {
	religion = lajozar
}

307.3.1 = {
	religion = qeaxasika
}

307.3.1 = {
	religion = lajozar
}

316.4.1 = {
	culture = ebaudes
}

320.4.1 = {
	culture = qameard
}

339.3.1 = {
	religion = qeaxasika
}

349.3.1 = {
	religion = lajozar
}

350.3.1 = {
	religion = qeaxasika
}

356.3.1 = {
	religion = lajozar
}

361.3.1 = {
	religion = qeaxasika
}

366.3.1 = {
	religion = lajozar
}

369.3.1 = {
	religion = qeaxasika
}

372.3.1 = {
	religion = lajozar
}

373.3.1 = {
	religion = qeaxasika
}

379.3.1 = {
	religion = lajozar
}

381.3.1 = {
	religion = qeaxasika
}

384.3.1 = {
	religion = lajozar
}

390.3.1 = {
	religion = qeaxasika
}

391.3.1 = {
	religion = lajozar
}

394.3.1 = {
	religion = qeaxasika
}

398.3.1 = {
	religion = lajozar
}

398.3.1 = {
	religion = qeaxasika
}

403.3.1 = {
	religion = lajozar
}

404.3.1 = {
	religion = qeaxasika
}

406.3.1 = {
	religion = lajozar
}

408.3.1 = {
	religion = qeaxasika
}

412.3.1 = {
	religion = lajozar
}

418.3.1 = {
	religion = qeaxasika
}

431.3.1 = {
	religion = lajozar
}

431.3.1 = {
	religion = qeaxasika
}

435.3.1 = {
	religion = lajozar
}

435.3.1 = {
	religion = qeaxasika
}

441.3.1 = {
	religion = lajozar
}

441.3.1 = {
	religion = qeaxasika
}

442.3.1 = {
	religion = lajozar
}

443.3.1 = {
	religion = qeaxasika
}

452.4.1 = {
	culture = rahesi
}

471.3.1 = {
	religion = lajozar
}

479.3.1 = {
	religion = qeaxasika
}

494.3.1 = {
	religion = lajozar
}

501.3.1 = {
	religion = qeaxasika
}

503.3.1 = {
	religion = lajozar
}

509.3.1 = {
	religion = qeaxasika
}

510.3.1 = {
	religion = lajozar
}

510.4.1 = {
	culture = qameard
}

517.3.1 = {
	religion = qeaxasika
}

527.4.1 = {
	culture = rahesi
}

614.4.1 = {
	culture = qameard
}

697.4.1 = {
	culture = rahesi
}

