	title = c_tanudra
	max_settlements = 5
	culture = liro
	religion = erasto
	b_qorarsa = tribal
206.4.1 = {
	culture = solyah
}

222.4.1 = {
	culture = tuka
}

461.4.1 = {
	culture = teorcuqarrborna
}

518.3.1 = {
	religion = apanold
}

524.3.1 = {
	religion = erasto
}

537.4.1 = {
	culture = teteo
}

540.3.1 = {
	religion = apanold
}

704.3.1 = {
	religion = sanata
}

