	title = c_qopalan
	max_settlements = 6
	culture = kanugr
	religion = tapa
	b_relalan = tribal
201.3.1 = {
	religion = sadapa
}

207.3.1 = {
	religion = tapa
}

212.3.1 = {
	religion = sadapa
}

213.3.1 = {
	religion = tapa
}

215.3.1 = {
	religion = sadapa
}

216.3.1 = {
	religion = tapa
}

223.3.1 = {
	religion = sadapa
}

234.4.1 = {
	culture = doudula
}

650.4.1 = {
	b_relalan = castle
}

795.4.1 = {
	b_ramolio = temple
}

887.4.1 = {
	b_ataner = city
}

