	title = c_leya
	max_settlements = 2
	culture = kanugr
	religion = tapa
	b_apahapa = tribal
201.4.1 = {
	culture = lareya
}

574.4.1 = {
	culture = sakoman
}

578.4.1 = {
	culture = lareya
}

675.4.1 = {
	b_apahapa = castle
}

691.4.1 = {
	culture = sakoman
}

692.4.1 = {
	culture = lareya
}

833.4.1 = {
	culture = bamererid
}

856.4.1 = {
	culture = sakoman
}

885.4.1 = {
	culture = lareya
}

