	title = c_billa
	max_settlements = 5
	culture = kopalan
	religion = qogato
	b_acelen = tribal
1.1.1 = {
	b_bucalan = ct_port_1
}

211.4.1 = {
	culture = nisid
}

241.3.1 = {
	religion = bedesa
}

244.3.1 = {
	religion = qogato
}

250.3.1 = {
	religion = bedesa
}

252.4.1 = {
	culture = kopalan
}

253.3.1 = {
	religion = qogato
}

323.4.1 = {
	culture = nisid
}

332.4.1 = {
	culture = kopalan
}

487.4.1 = {
	culture = nisid
}

489.4.1 = {
	culture = kopalan
}

538.4.1 = {
	culture = nisid
}

610.4.1 = {
	b_acelen = castle
}

632.4.1 = {
	culture = kajorte
}

633.4.1 = {
	culture = nisid
}

745.4.1 = {
	b_bucalan = city
}

778.4.1 = {
	culture = kajorte
}

870.4.1 = {
	b_qopilla = temple
}

