	title = c_atugappa
	max_settlements = 3
	culture = rinrasalas
	religion = dello
	b_deltet = tribal
223.3.1 = {
	religion = atinaike
}

255.4.1 = {
	culture = kaniltet
}

263.4.1 = {
	culture = rinrasalas
}

330.4.1 = {
	culture = erutsar
}

933.3.1 = {
	religion = sanata
}

