	title = c_teupulo
	max_settlements = 6
	culture = diana
	religion = kaugile
	b_tehatha = tribal
336.4.1 = {
	culture = etarala
}

531.4.1 = {
	culture = wai
}

663.3.1 = {
	religion = qogato
}

669.4.1 = {
	culture = nisid
}

669.3.1 = {
	religion = kaugile
}

681.3.1 = {
	religion = qogato
}

684.3.1 = {
	religion = kaugile
}

690.3.1 = {
	religion = qogato
}

695.4.1 = {
	culture = kajorte
}

696.3.1 = {
	religion = kaugile
}

698.3.1 = {
	religion = qogato
}

699.3.1 = {
	religion = kaugile
}

706.3.1 = {
	religion = qogato
}

707.3.1 = {
	religion = kaugile
}

711.3.1 = {
	religion = qogato
}

712.3.1 = {
	religion = kaugile
}

713.3.1 = {
	religion = qogato
}

714.3.1 = {
	religion = kaugile
}

719.3.1 = {
	religion = qogato
}

719.3.1 = {
	religion = kaugile
}

723.4.1 = {
	culture = nisid
}

725.3.1 = {
	religion = qogato
}

725.3.1 = {
	religion = kaugile
}

726.3.1 = {
	religion = qogato
}

729.3.1 = {
	religion = kaugile
}

735.3.1 = {
	religion = qogato
}

739.3.1 = {
	religion = kaugile
}

741.3.1 = {
	religion = qogato
}

744.3.1 = {
	religion = kaugile
}

746.3.1 = {
	religion = qogato
}

750.3.1 = {
	religion = kaugile
}

751.3.1 = {
	religion = qogato
}

752.3.1 = {
	religion = kaugile
}

754.3.1 = {
	religion = qogato
}

754.3.1 = {
	religion = kaugile
}

759.3.1 = {
	religion = qogato
}

765.3.1 = {
	religion = kaugile
}

767.3.1 = {
	religion = qogato
}

770.3.1 = {
	religion = kaugile
}

771.3.1 = {
	religion = qogato
}

779.3.1 = {
	religion = kaugile
}

781.3.1 = {
	religion = qogato
}

781.3.1 = {
	religion = kaugile
}

788.3.1 = {
	religion = qogato
}

796.3.1 = {
	religion = kaugile
}

857.3.1 = {
	religion = qogato
}

869.3.1 = {
	religion = kaugile
}

869.4.1 = {
	culture = wai
}

872.4.1 = {
	culture = nisid
}

873.3.1 = {
	religion = qogato
}

875.3.1 = {
	religion = kaugile
}

878.3.1 = {
	religion = qogato
}

883.3.1 = {
	religion = kaugile
}

884.3.1 = {
	religion = qogato
}

885.3.1 = {
	religion = kaugile
}

893.3.1 = {
	religion = qogato
}

894.3.1 = {
	religion = kaugile
}

899.3.1 = {
	religion = qogato
}

