	title = c_bapa
	max_settlements = 3
	culture = keya
	religion = toudapa
	b_epani = tribal
200.3.1 = {
	religion = tapa
}

201.3.1 = {
	religion = toudapa
}

211.3.1 = {
	religion = tapa
}

214.3.1 = {
	religion = toudapa
}

216.3.1 = {
	religion = tapa
}

230.3.1 = {
	religion = toudapa
}

237.3.1 = {
	religion = tapa
}

241.4.1 = {
	culture = etolira
}

245.3.1 = {
	religion = toudapa
}

246.3.1 = {
	religion = tapa
}

253.3.1 = {
	religion = toudapa
}

253.3.1 = {
	religion = tapa
}

256.3.1 = {
	religion = toudapa
}

257.3.1 = {
	religion = tapa
}

260.3.1 = {
	religion = toudapa
}

266.3.1 = {
	religion = tapa
}

269.3.1 = {
	religion = toudapa
}

272.3.1 = {
	religion = tapa
}

282.4.1 = {
	culture = lareya
}

522.4.1 = {
	culture = sakoman
}

547.4.1 = {
	culture = lareya
}

574.4.1 = {
	culture = sakoman
}

582.4.1 = {
	culture = lareya
}

625.4.1 = {
	culture = sakoman
}

646.4.1 = {
	culture = lareya
}

680.4.1 = {
	culture = sakoman
}

869.4.1 = {
	culture = lareya
}

888.4.1 = {
	culture = sakoman
}

