	title = c_deksen
	max_settlements = 2
	culture = keya
	religion = toudapa
	b_ruani = tribal
200.3.1 = {
	religion = tapa
}

201.3.1 = {
	religion = toudapa
}

205.4.1 = {
	culture = lareya
}

211.3.1 = {
	religion = tapa
}

214.3.1 = {
	religion = toudapa
}

216.3.1 = {
	religion = tapa
}

218.3.1 = {
	religion = toudapa
}

218.3.1 = {
	religion = tapa
}

229.3.1 = {
	religion = toudapa
}

235.3.1 = {
	religion = tapa
}

574.4.1 = {
	culture = sakoman
}

619.4.1 = {
	culture = lareya
}

675.4.1 = {
	b_ruani = castle
}

691.4.1 = {
	culture = sakoman
}

699.4.1 = {
	culture = lareya
}

864.4.1 = {
	culture = sakoman
}

