	title = c_dicato
	max_settlements = 4
	culture = bamererid
	religion = tapa
	b_tolese = tribal
200.4.1 = {
	culture = epeya
}

201.3.1 = {
	religion = sadapa
}

202.3.1 = {
	religion = tapa
}

212.3.1 = {
	religion = sadapa
}

216.3.1 = {
	religion = tapa
}

223.3.1 = {
	religion = sadapa
}

225.3.1 = {
	religion = tapa
}

225.3.1 = {
	religion = sadapa
}

232.3.1 = {
	religion = tapa
}

234.3.1 = {
	religion = sadapa
}

266.4.1 = {
	culture = doudula
}

680.4.1 = {
	b_tolese = castle
}

808.4.1 = {
	b_wanalan = city
}

