	title = c_wezedey
	max_settlements = 4
	culture = lahra
	religion = lajozar
	b_kagerben = tribal
203.3.1 = {
	religion = qeaxasika
}

223.4.1 = {
	culture = welika
}

339.4.1 = {
	culture = wityeju
}

398.4.1 = {
	culture = rahesi
}

478.4.1 = {
	culture = welika
}

583.4.1 = {
	culture = rahesi
}

