	title = c_weperei
	max_settlements = 7
	culture = epeya
	religion = tapa
	b_rord = tribal
201.3.1 = {
	religion = sadapa
}

202.3.1 = {
	religion = tapa
}

212.3.1 = {
	religion = sadapa
}

216.3.1 = {
	religion = tapa
}

223.3.1 = {
	religion = sadapa
}

225.3.1 = {
	religion = tapa
}

225.3.1 = {
	religion = sadapa
}

232.3.1 = {
	religion = tapa
}

234.3.1 = {
	religion = sadapa
}

266.4.1 = {
	culture = doudula
}

655.4.1 = {
	b_rord = castle
}

801.4.1 = {
	b_telilla = temple
}

891.4.1 = {
	b_qicelen = city
}

