	title = c_agutava
	max_settlements = 2
	culture = kenepin
	religion = banocc
	b_korumar = tribal
204.4.1 = {
	culture = katatli
}

221.3.1 = {
	religion = adonsaepsa
}

224.4.1 = {
	culture = tepsaka
}

352.4.1 = {
	culture = kekepin
}

361.4.1 = {
	culture = kenepin
}

452.4.1 = {
	culture = kekepin
}

491.4.1 = {
	culture = kenepin
}

518.4.1 = {
	culture = kekepin
}

534.4.1 = {
	culture = kenepin
}

942.3.1 = {
	religion = lemolcu
}

1042.4.1 = {
	culture = rerilia
}

