	title = c_nopid
	max_settlements = 6
	culture = epeya
	religion = tapa
	b_sord = tribal
201.3.1 = {
	religion = sadapa
}

204.3.1 = {
	religion = tapa
}

212.3.1 = {
	religion = sadapa
}

216.3.1 = {
	religion = tapa
}

223.3.1 = {
	religion = sadapa
}

224.3.1 = {
	religion = tapa
}

225.3.1 = {
	religion = sadapa
}

229.3.1 = {
	religion = tapa
}

230.3.1 = {
	religion = sadapa
}

233.3.1 = {
	religion = tapa
}

234.3.1 = {
	religion = sadapa
}

237.3.1 = {
	religion = tapa
}

244.3.1 = {
	religion = sadapa
}

247.3.1 = {
	religion = tapa
}

248.3.1 = {
	religion = sadapa
}

274.4.1 = {
	culture = doudula
}

640.4.1 = {
	b_sord = castle
}

765.4.1 = {
	b_togund = temple
}

848.4.1 = {
	b_qelolio = city
}

