	title = c_tilinik
	max_settlements = 6
	culture = nermatta
	religion = banocc
	b_tiloch = tribal
268.4.1 = {
	culture = amerith
}

325.4.1 = {
	culture = nahap
}

333.4.1 = {
	culture = amerith
}

343.4.1 = {
	culture = nahap
}

350.4.1 = {
	culture = amerith
}

367.4.1 = {
	culture = nahap
}

398.4.1 = {
	culture = amerith
}

477.4.1 = {
	culture = lisene
}

522.4.1 = {
	culture = amerith
}

680.4.1 = {
	b_tiloch = castle
}

808.4.1 = {
	b_ropiisa = city
}

900.4.1 = {
	b_topelia = temple
}

1050.3.1 = {
	religion = lemolcu
}

1050.4.1 = {
	culture = rerilia
}

