	title = c_karanah
	max_settlements = 6
	culture = temeir
	religion = kevelc
	b_seir = tribal
214.4.1 = {
	culture = nodai
}

217.3.1 = {
	religion = ecatorgo
}

223.4.1 = {
	culture = temeir
}

226.3.1 = {
	religion = kevelc
}

228.3.1 = {
	religion = ecatorgo
}

230.3.1 = {
	religion = kevelc
}

231.3.1 = {
	religion = ecatorgo
}

245.3.1 = {
	religion = kevelc
}

246.3.1 = {
	religion = ecatorgo
}

267.4.1 = {
	culture = nodai
}

268.4.1 = {
	culture = temeir
}

346.4.1 = {
	culture = nodai
}

359.4.1 = {
	culture = temeir
}

382.4.1 = {
	culture = nodai
}

417.4.1 = {
	culture = temeir
}

441.4.1 = {
	culture = nodai
}

556.4.1 = {
	culture = temeir
}

597.4.1 = {
	culture = nodai
}

651.4.1 = {
	culture = temeir
}

757.4.1 = {
	culture = nodai
}

780.4.1 = {
	culture = temeir
}

822.4.1 = {
	culture = nodai
}

842.4.1 = {
	b_seir = castle
}

876.4.1 = {
	b_rogon = temple
}

973.4.1 = {
	b_rabeir = city
}

1060.4.1 = {
	b_bamon = castle
}

