	title = c_qinusa
	max_settlements = 2
	culture = sertk
	religion = banocc
	b_nedeviyah = tribal
201.3.1 = {
	religion = adonsaepsa
}

202.3.1 = {
	religion = banocc
}

205.3.1 = {
	religion = adonsaepsa
}

211.3.1 = {
	religion = banocc
}

214.3.1 = {
	religion = adonsaepsa
}

217.3.1 = {
	religion = banocc
}

222.3.1 = {
	religion = adonsaepsa
}

227.3.1 = {
	religion = banocc
}

233.3.1 = {
	religion = adonsaepsa
}

235.3.1 = {
	religion = banocc
}

238.3.1 = {
	religion = adonsaepsa
}

239.3.1 = {
	religion = banocc
}

243.3.1 = {
	religion = adonsaepsa
}

245.3.1 = {
	religion = banocc
}

245.3.1 = {
	religion = adonsaepsa
}

245.4.1 = {
	culture = kekepin
}

246.3.1 = {
	religion = banocc
}

247.3.1 = {
	religion = adonsaepsa
}

513.4.1 = {
	culture = kenepin
}

537.4.1 = {
	culture = kekepin
}

546.4.1 = {
	culture = kenepin
}

665.4.1 = {
	b_nedeviyah = castle
}

732.3.1 = {
	religion = lemolcu
}

733.3.1 = {
	religion = adonsaepsa
}

736.3.1 = {
	religion = lemolcu
}

740.3.1 = {
	religion = adonsaepsa
}

741.3.1 = {
	religion = lemolcu
}

743.3.1 = {
	religion = adonsaepsa
}

750.3.1 = {
	religion = lemolcu
}

755.3.1 = {
	religion = adonsaepsa
}

756.3.1 = {
	religion = lemolcu
}

769.3.1 = {
	religion = adonsaepsa
}

780.3.1 = {
	religion = lemolcu
}

783.4.1 = {
	culture = rerilia
}

859.4.1 = {
	culture = kenepin
}

915.4.1 = {
	culture = rerilia
}

952.4.1 = {
	b_tezilva = temple
}

958.4.1 = {
	culture = kenepin
}

973.4.1 = {
	culture = rerilia
}

981.4.1 = {
	culture = kenepin
}

1003.4.1 = {
	culture = rerilia
}

1039.4.1 = {
	culture = kenepin
}

