	title = c_epara
	max_settlements = 4
	culture = amerith
	religion = banocc
	b_natertk = tribal
229.4.1 = {
	culture = nermatta
}

268.4.1 = {
	culture = amerith
}

325.4.1 = {
	culture = nahap
}

333.4.1 = {
	culture = amerith
}

343.4.1 = {
	culture = nahap
}

350.4.1 = {
	culture = amerith
}

367.4.1 = {
	culture = nahap
}

398.4.1 = {
	culture = amerith
}

477.4.1 = {
	culture = lisene
}

522.4.1 = {
	culture = amerith
}

660.4.1 = {
	b_natertk = castle
}

800.4.1 = {
	b_tevoch = city
}

876.4.1 = {
	b_nonliarilla = temple
}

949.4.1 = {
	b_wenertk = castle
}

1050.3.1 = {
	religion = lemolcu
}

1050.4.1 = {
	culture = rerilia
}

