	title = c_esocic
	max_settlements = 3
	culture = etarala
	religion = kaugile
	b_torokal = tribal
203.3.1 = {
	religion = womipac
}

248.3.1 = {
	religion = kaugile
}

260.3.1 = {
	religion = womipac
}

261.3.1 = {
	religion = kaugile
}

263.3.1 = {
	religion = womipac
}

270.3.1 = {
	religion = kaugile
}

283.3.1 = {
	religion = womipac
}

293.3.1 = {
	religion = kaugile
}

298.3.1 = {
	religion = womipac
}

298.3.1 = {
	religion = kaugile
}

299.3.1 = {
	religion = womipac
}

301.3.1 = {
	religion = kaugile
}

307.3.1 = {
	religion = womipac
}

332.3.1 = {
	religion = kaugile
}

541.4.1 = {
	culture = siluzan
}

675.4.1 = {
	b_torokal = castle
}

821.4.1 = {
	b_bikohar = city
}

