	title = c_kaelia
	max_settlements = 3
	culture = ludalay
	religion = banocc
	b_lodorut = tribal
200.4.1 = {
	culture = nahap
}

333.4.1 = {
	culture = amerith
}

336.4.1 = {
	culture = nahap
}

368.4.1 = {
	culture = amerith
}

516.4.1 = {
	culture = nahap
}

555.4.1 = {
	b_lodorut = castle
}

730.4.1 = {
	b_kodorut = temple
}

742.4.1 = {
	culture = amerith
}

780.4.1 = {
	culture = ludalay
}

786.3.1 = {
	religion = qiryata
}

791.3.1 = {
	religion = banocc
}

792.3.1 = {
	religion = qiryata
}

795.3.1 = {
	religion = banocc
}

796.3.1 = {
	religion = qiryata
}

799.3.1 = {
	religion = banocc
}

802.4.1 = {
	culture = amerith
}

803.4.1 = {
	culture = ludalay
}

805.3.1 = {
	religion = qiryata
}

808.3.1 = {
	religion = banocc
}

809.3.1 = {
	religion = qiryata
}

812.3.1 = {
	religion = banocc
}

828.3.1 = {
	religion = qiryata
}

832.3.1 = {
	religion = banocc
}

834.3.1 = {
	religion = qiryata
}

842.3.1 = {
	religion = banocc
}

843.3.1 = {
	religion = qiryata
}

843.3.1 = {
	religion = banocc
}

844.3.1 = {
	religion = qiryata
}

855.3.1 = {
	religion = banocc
}

865.4.1 = {
	b_qasuta = city
}

872.3.1 = {
	religion = qiryata
}

875.3.1 = {
	religion = banocc
}

892.3.1 = {
	religion = qiryata
}

893.3.1 = {
	religion = banocc
}

894.3.1 = {
	religion = qiryata
}

897.3.1 = {
	religion = banocc
}

901.3.1 = {
	religion = qiryata
}

907.3.1 = {
	religion = banocc
}

914.3.1 = {
	religion = qiryata
}

920.3.1 = {
	religion = banocc
}

930.3.1 = {
	religion = qiryata
}

932.3.1 = {
	religion = banocc
}

935.3.1 = {
	religion = qiryata
}

936.3.1 = {
	religion = banocc
}

943.3.1 = {
	religion = qiryata
}

944.3.1 = {
	religion = banocc
}

946.3.1 = {
	religion = qiryata
}

947.3.1 = {
	religion = banocc
}

947.3.1 = {
	religion = qiryata
}

950.3.1 = {
	religion = banocc
}

962.3.1 = {
	religion = qiryata
}

