	title = c_tajoch
	max_settlements = 4
	culture = ludalay
	religion = qiryata
	b_kais = tribal
201.3.1 = {
	religion = banocc
}

206.3.1 = {
	religion = qiryata
}

206.3.1 = {
	religion = banocc
}

207.3.1 = {
	religion = qiryata
}

210.3.1 = {
	religion = banocc
}

218.3.1 = {
	religion = qiryata
}

223.3.1 = {
	religion = banocc
}

224.3.1 = {
	religion = qiryata
}

224.3.1 = {
	religion = banocc
}

229.3.1 = {
	religion = qiryata
}

230.3.1 = {
	religion = banocc
}

235.3.1 = {
	religion = qiryata
}

237.3.1 = {
	religion = banocc
}

247.3.1 = {
	religion = qiryata
}

257.3.1 = {
	religion = banocc
}

258.3.1 = {
	religion = qiryata
}

262.3.1 = {
	religion = banocc
}

279.3.1 = {
	religion = qiryata
}

286.3.1 = {
	religion = banocc
}

305.4.1 = {
	culture = amerith
}

324.4.1 = {
	culture = lisene
}

333.4.1 = {
	culture = amerith
}

334.4.1 = {
	culture = lisene
}

395.4.1 = {
	culture = nahap
}

412.4.1 = {
	culture = lisene
}

456.4.1 = {
	culture = amerith
}

459.4.1 = {
	culture = lisene
}

525.4.1 = {
	b_kais = castle
}

595.3.1 = {
	religion = qiryata
}

596.4.1 = {
	culture = ludalay
}

598.3.1 = {
	religion = banocc
}

603.3.1 = {
	religion = qiryata
}

603.3.1 = {
	religion = banocc
}

611.3.1 = {
	religion = qiryata
}

613.3.1 = {
	religion = banocc
}

614.3.1 = {
	religion = qiryata
}

623.3.1 = {
	religion = banocc
}

624.3.1 = {
	religion = qiryata
}

630.3.1 = {
	religion = banocc
}

636.3.1 = {
	religion = qiryata
}

643.3.1 = {
	religion = banocc
}

650.4.1 = {
	b_dajert = temple
}

802.4.1 = {
	culture = amerith
}

844.4.1 = {
	b_ens = city
}

878.3.1 = {
	religion = qiryata
}

879.4.1 = {
	culture = ludalay
}

880.3.1 = {
	religion = banocc
}

901.3.1 = {
	religion = qiryata
}

907.3.1 = {
	religion = banocc
}

908.3.1 = {
	religion = qiryata
}

908.3.1 = {
	religion = banocc
}

912.4.1 = {
	b_daoch = temple
}

913.3.1 = {
	religion = qiryata
}

920.3.1 = {
	religion = banocc
}

938.3.1 = {
	religion = qiryata
}

944.3.1 = {
	religion = banocc
}

950.3.1 = {
	religion = qiryata
}

950.3.1 = {
	religion = banocc
}

955.3.1 = {
	religion = qiryata
}

960.3.1 = {
	religion = banocc
}

972.3.1 = {
	religion = qiryata
}

