	title = c_qucilla
	max_settlements = 5
	culture = lareya
	religion = toudapa
	b_lucidoe = tribal
200.3.1 = {
	religion = tapa
}

207.3.1 = {
	religion = sadapa
}

211.3.1 = {
	religion = tapa
}

216.3.1 = {
	religion = sadapa
}

216.3.1 = {
	religion = tapa
}

218.3.1 = {
	religion = sadapa
}

218.3.1 = {
	religion = tapa
}

234.3.1 = {
	religion = sadapa
}

237.3.1 = {
	religion = tapa
}

298.4.1 = {
	culture = keya
}

331.4.1 = {
	culture = lareya
}

531.4.1 = {
	culture = sakoman
}

548.4.1 = {
	culture = lareya
}

574.4.1 = {
	culture = sakoman
}

606.4.1 = {
	culture = lareya
}

649.4.1 = {
	culture = sakoman
}

675.4.1 = {
	b_lucidoe = castle
}

818.4.1 = {
	culture = bamererid
}

865.4.1 = {
	culture = sakoman
}

891.4.1 = {
	culture = bamererid
}

