	title = c_eproimir
	max_settlements = 4
	culture = sertk
	religion = banocc
	b_ekunadr = tribal
1.1.1 = {
	b_rezima = ct_port_1
}

276.4.1 = {
	culture = nakepin
}

750.4.1 = {
	b_ekunadr = castle
}

816.4.1 = {
	b_kinima = temple
}

882.4.1 = {
	b_rezima = city
}

952.4.1 = {
	b_kunusa = temple
}

1006.4.1 = {
	culture = rerilia
}

