	title = c_doan
	max_settlements = 6
	culture = aremishan
	religion = bevargo
	b_dudis = tribal
200.3.1 = {
	religion = kevelc
}

202.4.1 = {
	culture = nilahib
}

204.3.1 = {
	religion = bevargo
}

206.3.1 = {
	religion = kevelc
}

207.3.1 = {
	religion = bevargo
}

211.3.1 = {
	religion = kevelc
}

211.3.1 = {
	religion = bevargo
}

214.3.1 = {
	religion = kevelc
}

221.3.1 = {
	religion = bevargo
}

222.3.1 = {
	religion = kevelc
}

225.3.1 = {
	religion = bevargo
}

237.3.1 = {
	religion = kevelc
}

237.3.1 = {
	religion = bevargo
}

245.3.1 = {
	religion = kevelc
}

250.3.1 = {
	religion = bevargo
}

263.3.1 = {
	religion = kevelc
}

263.3.1 = {
	religion = bevargo
}

274.3.1 = {
	religion = kevelc
}

274.3.1 = {
	religion = bevargo
}

305.4.1 = {
	culture = keraig
}

320.4.1 = {
	culture = nilahib
}

345.4.1 = {
	culture = keraig
}

352.4.1 = {
	culture = nilahib
}

393.4.1 = {
	culture = keraig
}

841.4.1 = {
	b_dudis = castle
}

878.4.1 = {
	b_lanagum = city
}

950.4.1 = {
	culture = temeir
}

960.4.1 = {
	culture = keraig
}

964.4.1 = {
	culture = temeir
}

983.4.1 = {
	culture = keraig
}

1028.4.1 = {
	b_kaold = temple
}

