	title = c_kizera
	max_settlements = 2
	culture = walahra
	religion = lajozar
	b_kitonqui = tribal
201.3.1 = {
	religion = qeaxasika
}

255.3.1 = {
	religion = lajozar
}

264.3.1 = {
	religion = qeaxasika
}

267.3.1 = {
	religion = lajozar
}

270.3.1 = {
	religion = qeaxasika
}

271.3.1 = {
	religion = lajozar
}

274.3.1 = {
	religion = qeaxasika
}

275.3.1 = {
	religion = lajozar
}

278.3.1 = {
	religion = qeaxasika
}

282.3.1 = {
	religion = lajozar
}

287.3.1 = {
	religion = qeaxasika
}

287.3.1 = {
	religion = lajozar
}

289.4.1 = {
	culture = qameard
}

339.3.1 = {
	religion = qeaxasika
}

342.3.1 = {
	religion = lajozar
}

350.3.1 = {
	religion = qeaxasika
}

355.3.1 = {
	religion = lajozar
}

361.3.1 = {
	religion = qeaxasika
}

366.3.1 = {
	religion = lajozar
}

369.3.1 = {
	religion = qeaxasika
}

372.3.1 = {
	religion = lajozar
}

373.3.1 = {
	religion = qeaxasika
}

375.3.1 = {
	religion = lajozar
}

376.3.1 = {
	religion = qeaxasika
}

471.3.1 = {
	religion = lajozar
}

479.3.1 = {
	religion = qeaxasika
}

573.4.1 = {
	culture = rahesi
}

621.4.1 = {
	culture = qameard
}

654.4.1 = {
	culture = rahesi
}

686.4.1 = {
	culture = qameard
}

702.4.1 = {
	culture = rahesi
}

729.4.1 = {
	culture = qameard
}

771.4.1 = {
	culture = rahesi
}

