	title = c_esratta
	max_settlements = 2
	culture = lisene
	religion = qiryata
	b_nermilay = tribal
520.4.1 = {
	b_nermilay = castle
}

647.4.1 = {
	culture = ludalay
}

650.4.1 = {
	b_tanava = city
}

702.4.1 = {
	culture = lisene
}

722.4.1 = {
	culture = ludalay
}

1033.4.1 = {
	culture = taryata
}

