	title = c_aqonsasatsa
	max_settlements = 5
	culture = tamith
	religion = banocc
	b_ekipepin = tribal
333.4.1 = {
	culture = amerith
}

605.4.1 = {
	b_ekipepin = castle
}

780.4.1 = {
	b_batelia = temple
}

875.4.1 = {
	b_akipinik = city
}

959.4.1 = {
	b_nopeke = city
}

1064.3.1 = {
	religion = lemolcu
}

