	title = c_dasoch
	max_settlements = 2
	culture = ludalay
	religion = qiryata
	b_bistot = tribal
201.3.1 = {
	religion = banocc
}

204.3.1 = {
	religion = qiryata
}

206.3.1 = {
	religion = banocc
}

215.4.1 = {
	culture = nermatta
}

271.4.1 = {
	culture = amerith
}

550.4.1 = {
	b_bistot = castle
}

640.4.1 = {
	b_lukene = city
}

793.4.1 = {
	culture = nahap
}

802.4.1 = {
	culture = amerith
}

982.4.1 = {
	culture = ludalay
}

992.3.1 = {
	religion = qiryata
}

