	title = c_kord
	max_settlements = 2
	culture = epeya
	religion = tapa
	b_larepin = tribal
201.3.1 = {
	religion = sadapa
}

202.3.1 = {
	religion = tapa
}

212.3.1 = {
	religion = sadapa
}

221.3.1 = {
	religion = tapa
}

223.3.1 = {
	religion = sadapa
}

232.3.1 = {
	religion = tapa
}

234.3.1 = {
	religion = sadapa
}

246.3.1 = {
	religion = tapa
}

250.3.1 = {
	religion = sadapa
}

261.3.1 = {
	religion = tapa
}

261.3.1 = {
	religion = sadapa
}

262.3.1 = {
	religion = tapa
}

263.3.1 = {
	religion = sadapa
}

265.3.1 = {
	religion = tapa
}

267.3.1 = {
	religion = sadapa
}

327.4.1 = {
	culture = qahula
}

353.4.1 = {
	culture = doudula
}

375.4.1 = {
	culture = qahula
}

382.4.1 = {
	culture = doudula
}

600.4.1 = {
	b_larepin = castle
}

740.4.1 = {
	b_banadar = city
}

