	title = c_balorut
	max_settlements = 3
	culture = loehua
	religion = banocc
	b_ramait = tribal
263.4.1 = {
	culture = amerith
}

640.4.1 = {
	b_ramait = castle
}

819.4.1 = {
	b_wins = temple
}

938.4.1 = {
	b_qimelia = city
}

1053.3.1 = {
	religion = lemolcu
}

1058.4.1 = {
	culture = rerilia
}

