	title = c_taarnas
	max_settlements = 6
	culture = loehua
	religion = banocc
	b_kamorut = tribal
1.1.1 = {
	b_rasins = ct_port_1
}

207.4.1 = {
	culture = tamith
}

333.4.1 = {
	culture = amerith
}

635.4.1 = {
	b_kamorut = castle
}

790.4.1 = {
	b_tujorut = temple
}

885.4.1 = {
	b_rasins = city
}

967.4.1 = {
	b_nanorut = temple
}

1064.3.1 = {
	religion = lemolcu
}

