	title = c_konelia
	max_settlements = 7
	culture = nermatta
	religion = banocc
	b_laepepin = tribal
333.4.1 = {
	culture = amerith
}

342.4.1 = {
	culture = nermatta
}

385.4.1 = {
	culture = nahap
}

407.4.1 = {
	culture = nermatta
}

439.4.1 = {
	culture = nahap
}

485.4.1 = {
	culture = nermatta
}

508.4.1 = {
	culture = nahap
}

575.4.1 = {
	b_laepepin = castle
}

576.4.1 = {
	culture = amerith
}

705.4.1 = {
	b_keviisa = temple
}

855.4.1 = {
	b_amalelia = city
}

925.4.1 = {
	b_wenoch = temple
}

974.3.1 = {
	religion = qiryata
}

976.3.1 = {
	religion = banocc
}

976.3.1 = {
	religion = qiryata
}

976.4.1 = {
	culture = ludalay
}

977.3.1 = {
	religion = banocc
}

977.3.1 = {
	religion = qiryata
}

991.3.1 = {
	religion = banocc
}

996.4.1 = {
	culture = amerith
}

1007.3.1 = {
	religion = qiryata
}

1007.4.1 = {
	culture = ludalay
}

