	title = c_kaydon
	max_settlements = 2
	culture = sigoccn
	religion = qeaxasika
	b_lizith = tribal
243.4.1 = {
	culture = buochi
}

251.4.1 = {
	culture = welika
}

389.4.1 = {
	culture = wityeju
}

434.4.1 = {
	culture = rahesi
}

488.4.1 = {
	culture = welika
}

515.4.1 = {
	culture = rahesi
}

537.4.1 = {
	culture = welika
}

607.4.1 = {
	culture = rahesi
}

