	title = c_konsakipsa
	max_settlements = 2
	culture = tamith
	religion = banocc
	b_natepin = tribal
226.4.1 = {
	culture = lisene
}

249.4.1 = {
	culture = amerith
}

275.4.1 = {
	culture = lisene
}

333.4.1 = {
	culture = amerith
}

334.4.1 = {
	culture = lisene
}

398.4.1 = {
	culture = amerith
}

605.4.1 = {
	b_natepin = castle
}

755.4.1 = {
	b_kekeke = city
}

