	title = c_qerer
	max_settlements = 2
	culture = epeya
	religion = sadapa
	b_relolio = tribal
201.3.1 = {
	religion = qahati
}

204.3.1 = {
	religion = tonals
}

205.3.1 = {
	religion = qahati
}

205.3.1 = {
	religion = tonals
}

210.3.1 = {
	religion = qahati
}

246.3.1 = {
	religion = sadapa
}

248.3.1 = {
	religion = qahati
}

271.4.1 = {
	culture = apaholun
}

287.4.1 = {
	culture = baheya
}

325.4.1 = {
	culture = taepinik
}

332.4.1 = {
	culture = baheya
}

356.4.1 = {
	culture = taepinik
}

429.4.1 = {
	culture = baheya
}

460.4.1 = {
	culture = taepinik
}

541.4.1 = {
	culture = baheya
}

548.4.1 = {
	culture = taepinik
}

555.4.1 = {
	culture = baheya
}

558.4.1 = {
	culture = taepinik
}

690.4.1 = {
	b_relolio = castle
}

692.4.1 = {
	culture = baheya
}

701.4.1 = {
	culture = taepinik
}

