	title = c_welelen
	max_settlements = 2
	culture = doudula
	religion = qahati
	b_kicund = tribal
204.3.1 = {
	religion = tonals
}

206.3.1 = {
	religion = qahati
}

258.4.1 = {
	culture = apaholun
}

325.4.1 = {
	culture = taepinik
}

345.4.1 = {
	culture = apaholun
}

379.4.1 = {
	culture = taepinik
}

541.4.1 = {
	culture = baheya
}

548.4.1 = {
	culture = taepinik
}

555.4.1 = {
	culture = baheya
}

558.4.1 = {
	culture = taepinik
}

585.4.1 = {
	b_kicund = castle
}

693.4.1 = {
	culture = baheya
}

694.4.1 = {
	culture = taepinik
}

720.4.1 = {
	b_walan = temple
}

825.4.1 = {
	culture = taepeke
}

828.3.1 = {
	religion = raksaensa
}

