	title = c_ramord
	max_settlements = 5
	culture = epeya
	religion = tapa
	b_bopund = tribal
201.3.1 = {
	religion = sadapa
}

202.3.1 = {
	religion = tapa
}

212.3.1 = {
	religion = sadapa
}

216.3.1 = {
	religion = tapa
}

223.3.1 = {
	religion = sadapa
}

227.3.1 = {
	religion = tapa
}

227.3.1 = {
	religion = sadapa
}

231.3.1 = {
	religion = tapa
}

234.3.1 = {
	religion = sadapa
}

235.3.1 = {
	religion = tapa
}

235.3.1 = {
	religion = sadapa
}

236.3.1 = {
	religion = tapa
}

244.3.1 = {
	religion = sadapa
}

248.3.1 = {
	religion = tapa
}

250.3.1 = {
	religion = sadapa
}

281.4.1 = {
	culture = qahula
}

313.4.1 = {
	culture = doudula
}

595.4.1 = {
	b_bopund = castle
}

730.4.1 = {
	b_tanid = city
}

868.4.1 = {
	b_ticalan = temple
}

