	title = c_nimtit
	max_settlements = 6
	culture = nahap
	religion = banocc
	b_kansanasa = tribal
249.4.1 = {
	culture = lisene
}

315.4.1 = {
	culture = amerith
}

384.4.1 = {
	culture = lisene
}

408.4.1 = {
	culture = nermatta
}

438.4.1 = {
	culture = nahap
}

463.4.1 = {
	culture = nermatta
}

492.4.1 = {
	culture = nahap
}

535.4.1 = {
	b_kansanasa = castle
}

562.4.1 = {
	culture = amerith
}

665.4.1 = {
	b_silelia = temple
}

862.4.1 = {
	b_kamiisa = city
}

919.4.1 = {
	b_anarnas = city
}

956.4.1 = {
	b_seta = city
}

