	title = c_werinia
	max_settlements = 3
	culture = taryata
	religion = qiryata
	b_qamatta = tribal
204.4.1 = {
	culture = nahap
}

210.3.1 = {
	religion = banocc
}

234.3.1 = {
	religion = qiryata
}

245.4.1 = {
	culture = taryata
}

520.4.1 = {
	b_qamatta = castle
}

650.4.1 = {
	b_sudumb = city
}

847.4.1 = {
	b_ramatta = temple
}

1056.4.1 = {
	culture = ludalay
}

