	title = c_dolusha
	max_settlements = 2
	culture = sileda
	religion = sadapa
	b_rareem = tribal
201.3.1 = {
	religion = womipac
}

209.3.1 = {
	religion = sadapa
}

209.3.1 = {
	religion = womipac
}

220.3.1 = {
	religion = sadapa
}

242.3.1 = {
	religion = womipac
}

625.4.1 = {
	b_rareem = castle
}

806.4.1 = {
	b_delmarrr = temple
}

