	title = c_kamava
	max_settlements = 2
	culture = lisene
	religion = qiryata
	b_ranolcu = tribal
404.4.1 = {
	culture = ludalay
}

482.4.1 = {
	culture = lisene
}

600.4.1 = {
	b_ranolcu = castle
}

651.4.1 = {
	culture = ludalay
}

702.4.1 = {
	culture = lisene
}

716.4.1 = {
	culture = ludalay
}

740.4.1 = {
	b_kidith = temple
}

