	title = c_kukelia
	max_settlements = 3
	culture = tamith
	religion = banocc
	b_wasrut = tribal
210.4.1 = {
	culture = nermatta
}

319.4.1 = {
	culture = amerith
}

350.4.1 = {
	culture = nermatta
}

359.4.1 = {
	culture = amerith
}

365.4.1 = {
	culture = nahap
}

383.4.1 = {
	culture = amerith
}

580.4.1 = {
	b_wasrut = castle
}

675.4.1 = {
	b_qujait = temple
}

850.4.1 = {
	b_dasuta = city
}

967.3.1 = {
	religion = qiryata
}

972.4.1 = {
	culture = ludalay
}

