	title = c_warahap
	max_settlements = 2
	culture = taryata
	religion = qiryata
	b_rebenar = tribal
426.4.1 = {
	culture = ludalay
}

500.4.1 = {
	b_rebenar = castle
}

595.4.1 = {
	b_qarinia = temple
}

