	title = c_nahilay
	max_settlements = 7
	culture = rerith
	religion = qiryata
	b_rabahap = tribal
254.4.1 = {
	culture = lisene
}

346.4.1 = {
	culture = ludalay
}

368.4.1 = {
	culture = lisene
}

504.4.1 = {
	culture = ludalay
}

590.4.1 = {
	b_rabahap = castle
}

725.4.1 = {
	b_nudilay = city
}

860.4.1 = {
	b_adumb = temple
}

933.4.1 = {
	b_tenda = temple
}

1002.4.1 = {
	b_banilay = castle
}

1044.4.1 = {
	b_narinia = temple
}

