	title = c_belomas
	max_settlements = 2
	culture = tulyalku
	religion = qeaxasika
	b_werben = tribal
212.4.1 = {
	culture = wityeju
}

269.4.1 = {
	culture = rahesi
}

549.4.1 = {
	culture = reanika
}

571.4.1 = {
	culture = rahesi
}

