	title = c_ranaria
	max_settlements = 6
	culture = kekepin
	religion = adonsaepsa
	b_sigertk = tribal
494.4.1 = {
	culture = kenepin
}

534.4.1 = {
	culture = kekepin
}

607.4.1 = {
	culture = kenepin
}

709.4.1 = {
	culture = nakepin
}

712.3.1 = {
	religion = banocc
}

714.3.1 = {
	religion = adonsaepsa
}

715.3.1 = {
	religion = banocc
}

721.3.1 = {
	religion = adonsaepsa
}

722.3.1 = {
	religion = banocc
}

723.3.1 = {
	religion = adonsaepsa
}

724.3.1 = {
	religion = banocc
}

724.3.1 = {
	religion = adonsaepsa
}

732.3.1 = {
	religion = lemolcu
}

736.3.1 = {
	religion = banocc
}

736.3.1 = {
	religion = lemolcu
}

749.3.1 = {
	religion = banocc
}

750.3.1 = {
	religion = lemolcu
}

773.3.1 = {
	religion = banocc
}

780.3.1 = {
	religion = lemolcu
}

782.3.1 = {
	religion = banocc
}

783.3.1 = {
	religion = lemolcu
}

805.3.1 = {
	religion = banocc
}

811.3.1 = {
	religion = lemolcu
}

902.4.1 = {
	b_sigertk = castle
}

915.4.1 = {
	culture = rerilia
}

934.4.1 = {
	culture = nakepin
}

944.4.1 = {
	culture = rerilia
}

992.3.1 = {
	religion = banocc
}

994.3.1 = {
	religion = lemolcu
}

999.3.1 = {
	religion = banocc
}

1003.3.1 = {
	religion = lemolcu
}

1011.3.1 = {
	religion = banocc
}

1015.3.1 = {
	religion = lemolcu
}

1018.3.1 = {
	religion = banocc
}

1018.3.1 = {
	religion = lemolcu
}

1020.3.1 = {
	religion = banocc
}

1030.3.1 = {
	religion = lemolcu
}

1034.3.1 = {
	religion = banocc
}

1036.3.1 = {
	religion = lemolcu
}

1038.3.1 = {
	religion = banocc
}

1039.3.1 = {
	religion = lemolcu
}

1056.3.1 = {
	religion = banocc
}

1062.3.1 = {
	religion = lemolcu
}

