	title = c_rohumb
	max_settlements = 3
	culture = rerith
	religion = qiryata
	b_akusilay = tribal
254.4.1 = {
	culture = lisene
}

346.4.1 = {
	culture = ludalay
}

368.4.1 = {
	culture = lisene
}

504.4.1 = {
	culture = ludalay
}

590.4.1 = {
	b_akusilay = castle
}

775.4.1 = {
	b_apalohas = city
}

882.4.1 = {
	b_tagohas = temple
}

