	title = c_risiuge
	max_settlements = 5
	culture = etarala
	religion = kaugile
	b_tolbanoh = tribal
203.3.1 = {
	religion = womipac
}

248.3.1 = {
	religion = kaugile
}

253.3.1 = {
	religion = womipac
}

261.3.1 = {
	religion = kaugile
}

272.3.1 = {
	religion = ekeleda
}

273.3.1 = {
	religion = kaugile
}

287.3.1 = {
	religion = ekeleda
}

293.3.1 = {
	religion = kaugile
}

589.4.1 = {
	culture = siluzan
}

680.4.1 = {
	b_tolbanoh = castle
}

810.4.1 = {
	b_tehamur = city
}

900.4.1 = {
	b_tohohar = temple
}

