	title = c_naduero
	max_settlements = 4
	culture = tepsaka
	religion = adonsaepsa
	b_wanabel = tribal
201.3.1 = {
	religion = lemolcu
}

210.3.1 = {
	religion = adonsaepsa
}

212.3.1 = {
	religion = lemolcu
}

213.3.1 = {
	religion = adonsaepsa
}

226.4.1 = {
	culture = tatepin
}

239.4.1 = {
	culture = rerilia
}

242.3.1 = {
	religion = lemolcu
}

670.4.1 = {
	b_wanabel = castle
}

760.4.1 = {
	b_kelajka = city
}

849.4.1 = {
	b_kuero = temple
}

904.4.1 = {
	b_belilla = temple
}

