	title = c_kaepeke
	max_settlements = 5
	culture = apaholun
	religion = qahati
	b_billag = tribal
204.3.1 = {
	religion = tonals
}

210.3.1 = {
	religion = qahati
}

322.4.1 = {
	culture = baheya
}

325.4.1 = {
	culture = taepinik
}

346.4.1 = {
	culture = baheya
}

362.4.1 = {
	culture = taepinik
}

376.4.1 = {
	culture = baheya
}

414.4.1 = {
	culture = taepinik
}

541.4.1 = {
	culture = baheya
}

550.4.1 = {
	b_billag = castle
}

551.4.1 = {
	culture = taepinik
}

555.4.1 = {
	culture = baheya
}

623.4.1 = {
	culture = taepinik
}

685.4.1 = {
	b_tatoch = temple
}

786.3.1 = {
	religion = raksaensa
}

786.4.1 = {
	culture = taepeke
}

