	title = c_ebernan
	max_settlements = 2
	culture = tatepin
	religion = lemolcu
	b_kohahap = tribal
213.4.1 = {
	culture = lanalk
}

254.4.1 = {
	culture = loetay
}

292.4.1 = {
	culture = lanalk
}

499.4.1 = {
	culture = loetay
}

622.4.1 = {
	culture = lanalk
}

650.4.1 = {
	culture = loetay
}

670.4.1 = {
	b_kohahap = castle
}

805.4.1 = {
	b_kanan = temple
}

1030.4.1 = {
	culture = lanalk
}

