	title = c_ewolega
	max_settlements = 2
	culture = emorav
	religion = womipac
	b_bazava = tribal
319.4.1 = {
	culture = sileda
}

371.3.1 = {
	religion = nai
}

372.3.1 = {
	religion = womipac
}

376.3.1 = {
	religion = nai
}

385.3.1 = {
	religion = womipac
}

396.3.1 = {
	religion = nai
}

397.3.1 = {
	religion = womipac
}

406.3.1 = {
	religion = nai
}

407.3.1 = {
	religion = womipac
}

414.3.1 = {
	religion = nai
}

436.4.1 = {
	culture = selavkudav
}

439.4.1 = {
	culture = sileda
}

530.4.1 = {
	culture = selavkudav
}

810.4.1 = {
	culture = sileda
}

