	title = c_sajka
	max_settlements = 2
	culture = ronahua
	religion = adonsaepsa
	b_sugajka = tribal
245.4.1 = {
	culture = kekepin
}

255.4.1 = {
	culture = ronahua
}

332.4.1 = {
	culture = kenepin
}

359.4.1 = {
	culture = kekepin
}

362.4.1 = {
	culture = kenepin
}

732.3.1 = {
	religion = lemolcu
}

740.4.1 = {
	culture = rerilia
}

863.4.1 = {
	b_sugajka = castle
}

1042.4.1 = {
	b_tobanje = city
}

