	title = c_apeke
	max_settlements = 3
	culture = baheya
	religion = qahati
	b_wonatli = tribal
204.3.1 = {
	religion = tonals
}

210.3.1 = {
	religion = qahati
}

292.4.1 = {
	culture = apaholun
}

325.4.1 = {
	culture = taepinik
}

342.4.1 = {
	culture = baheya
}

439.4.1 = {
	culture = taepinik
}

471.4.1 = {
	culture = baheya
}

640.4.1 = {
	b_wonatli = castle
}

