	title = c_qakoehua
	max_settlements = 5
	culture = alopilla
	religion = tonals
	b_nakoehua = tribal
200.4.1 = {
	culture = apaholun
}

210.3.1 = {
	religion = qahati
}

237.3.1 = {
	religion = avicadar
}

237.3.1 = {
	religion = qahati
}

325.4.1 = {
	culture = taepinik
}

328.4.1 = {
	culture = baheya
}

435.4.1 = {
	culture = taepinik
}

465.4.1 = {
	culture = baheya
}

550.4.1 = {
	b_nakoehua = castle
}

552.4.1 = {
	culture = taepinik
}

555.4.1 = {
	culture = baheya
}

563.4.1 = {
	culture = taepinik
}

705.4.1 = {
	b_wopahua = city
}

817.3.1 = {
	religion = raksaensa
}

848.4.1 = {
	culture = taepeke
}

