	title = c_sadar
	max_settlements = 2
	culture = tepsaka
	religion = adonsaepsa
	b_karica = tribal
201.3.1 = {
	religion = lemolcu
}

210.3.1 = {
	religion = adonsaepsa
}

212.3.1 = {
	religion = lemolcu
}

213.3.1 = {
	religion = adonsaepsa
}

226.4.1 = {
	culture = tatepin
}

239.4.1 = {
	culture = rerilia
}

242.3.1 = {
	religion = lemolcu
}

755.4.1 = {
	b_karica = castle
}

820.4.1 = {
	b_neganje = temple
}

