	title = c_lileksen
	max_settlements = 2
	culture = reanika
	religion = qeaxasika
	b_salasa = tribal
210.4.1 = {
	culture = rahesi
}

242.4.1 = {
	culture = reanika
}

268.4.1 = {
	culture = rahesi
}

