	title = c_qonillag
	max_settlements = 6
	culture = dejaseja
	religion = tonals
	b_wipertk = tribal
1.1.1 = {
	b_bilepin = ct_port_1
}

211.3.1 = {
	religion = raksaensa
}

219.4.1 = {
	culture = taepeke
}

505.4.1 = {
	b_wipertk = castle
}

620.4.1 = {
	b_neveke = temple
}

835.4.1 = {
	b_bilepin = city
}

