	title = c_randefa
	max_settlements = 2
	culture = rerilia
	religion = adonsaepsa
	b_roetefa = tribal
201.3.1 = {
	religion = lemolcu
}

203.4.1 = {
	culture = loetay
}

249.4.1 = {
	culture = rerilia
}

685.4.1 = {
	b_roetefa = castle
}

804.4.1 = {
	b_berezhay = temple
}

