	title = c_agomire
	max_settlements = 6
	culture = loetay
	religion = lemolcu
	b_agyata = tribal
208.3.1 = {
	religion = adonsaepsa
}

208.3.1 = {
	religion = lemolcu
}

215.3.1 = {
	religion = adonsaepsa
}

216.4.1 = {
	culture = tepsaka
}

222.3.1 = {
	religion = lemolcu
}

225.3.1 = {
	religion = adonsaepsa
}

228.3.1 = {
	religion = lemolcu
}

235.3.1 = {
	religion = adonsaepsa
}

238.3.1 = {
	religion = lemolcu
}

240.3.1 = {
	religion = adonsaepsa
}

241.3.1 = {
	religion = lemolcu
}

243.3.1 = {
	religion = adonsaepsa
}

244.3.1 = {
	religion = lemolcu
}

249.4.1 = {
	culture = tatepin
}

292.4.1 = {
	culture = lanalk
}

301.4.1 = {
	culture = tatepin
}

327.4.1 = {
	culture = lanalk
}

361.4.1 = {
	culture = loetay
}

391.4.1 = {
	culture = lanalk
}

415.4.1 = {
	culture = loetay
}

444.4.1 = {
	culture = lanalk
}

685.4.1 = {
	b_agyata = castle
}

808.4.1 = {
	b_ewililay = temple
}

897.4.1 = {
	b_wianan = city
}

978.4.1 = {
	b_qusumb = castle
}

1053.4.1 = {
	b_tohinia = temple
}

