	title = c_karaer
	max_settlements = 4
	culture = raboan
	religion = kevelc
	b_estunah = tribal
1.1.1 = {
	b_laboan = ct_port_1
}

204.3.1 = {
	religion = bevargo
}

212.3.1 = {
	religion = kevelc
}

215.3.1 = {
	religion = bevargo
}

217.4.1 = {
	culture = aremishan
}

305.4.1 = {
	culture = keraig
}

700.3.1 = {
	religion = kevelc
}

700.3.1 = {
	religion = bevargo
}

704.4.1 = {
	culture = raboan
}

707.3.1 = {
	religion = kevelc
}

707.3.1 = {
	religion = bevargo
}

708.3.1 = {
	religion = kevelc
}

710.3.1 = {
	religion = bevargo
}

716.3.1 = {
	religion = kevelc
}

716.3.1 = {
	religion = bevargo
}

716.3.1 = {
	religion = kevelc
}

720.3.1 = {
	religion = bevargo
}

723.3.1 = {
	religion = kevelc
}

736.3.1 = {
	religion = bevargo
}

742.3.1 = {
	religion = kevelc
}

748.3.1 = {
	religion = bevargo
}

756.3.1 = {
	religion = kevelc
}

758.3.1 = {
	religion = bevargo
}

762.3.1 = {
	religion = kevelc
}

766.3.1 = {
	religion = bevargo
}

775.3.1 = {
	religion = kevelc
}

779.3.1 = {
	religion = bevargo
}

786.3.1 = {
	religion = kevelc
}

786.3.1 = {
	religion = bevargo
}

787.3.1 = {
	religion = kevelc
}

791.3.1 = {
	religion = bevargo
}

793.3.1 = {
	religion = kevelc
}

793.3.1 = {
	religion = bevargo
}

794.3.1 = {
	religion = kevelc
}

794.3.1 = {
	religion = bevargo
}

801.3.1 = {
	religion = kevelc
}

804.3.1 = {
	religion = bevargo
}

813.3.1 = {
	religion = kevelc
}

815.3.1 = {
	religion = bevargo
}

819.3.1 = {
	religion = kevelc
}

823.3.1 = {
	religion = bevargo
}

827.3.1 = {
	religion = kevelc
}

845.3.1 = {
	religion = bevargo
}

846.3.1 = {
	religion = kevelc
}

848.3.1 = {
	religion = bevargo
}

851.3.1 = {
	religion = kevelc
}

852.4.1 = {
	b_estunah = castle
}

859.3.1 = {
	religion = bevargo
}

868.3.1 = {
	religion = kevelc
}

874.3.1 = {
	religion = bevargo
}

875.3.1 = {
	religion = kevelc
}

878.3.1 = {
	religion = bevargo
}

879.3.1 = {
	religion = kevelc
}

884.3.1 = {
	religion = bevargo
}

885.3.1 = {
	religion = kevelc
}

887.3.1 = {
	religion = bevargo
}

890.3.1 = {
	religion = kevelc
}

891.4.1 = {
	b_laboan = city
}

898.3.1 = {
	religion = bevargo
}

901.3.1 = {
	religion = kevelc
}

904.3.1 = {
	religion = bevargo
}

912.3.1 = {
	religion = kevelc
}

919.3.1 = {
	religion = bevargo
}

922.3.1 = {
	religion = kevelc
}

924.4.1 = {
	culture = keraig
}

926.3.1 = {
	religion = bevargo
}

926.3.1 = {
	religion = kevelc
}

927.3.1 = {
	religion = bevargo
}

929.3.1 = {
	religion = kevelc
}

938.3.1 = {
	religion = bevargo
}

938.3.1 = {
	religion = kevelc
}

939.3.1 = {
	religion = bevargo
}

939.4.1 = {
	culture = raboan
}

942.3.1 = {
	religion = kevelc
}

944.3.1 = {
	religion = bevargo
}

945.3.1 = {
	religion = kevelc
}

948.3.1 = {
	religion = bevargo
}

950.3.1 = {
	religion = kevelc
}

954.3.1 = {
	religion = bevargo
}

955.3.1 = {
	religion = kevelc
}

956.3.1 = {
	religion = bevargo
}

957.3.1 = {
	religion = kevelc
}

959.3.1 = {
	religion = bevargo
}

960.4.1 = {
	culture = keraig
}

962.3.1 = {
	religion = kevelc
}

962.3.1 = {
	religion = bevargo
}

972.4.1 = {
	culture = raboan
}

973.3.1 = {
	religion = kevelc
}

973.3.1 = {
	religion = bevargo
}

975.3.1 = {
	religion = kevelc
}

975.3.1 = {
	religion = bevargo
}

979.3.1 = {
	religion = kevelc
}

980.3.1 = {
	religion = bevargo
}

981.3.1 = {
	religion = kevelc
}

984.3.1 = {
	religion = bevargo
}

987.3.1 = {
	religion = kevelc
}

990.3.1 = {
	religion = bevargo
}

992.3.1 = {
	religion = kevelc
}

993.3.1 = {
	religion = bevargo
}

996.3.1 = {
	religion = kevelc
}

996.4.1 = {
	b_agurunah = temple
}

1003.3.1 = {
	religion = bevargo
}

1005.3.1 = {
	religion = kevelc
}

1007.3.1 = {
	religion = bevargo
}

