	title = c_silipac
	max_settlements = 3
	culture = taepinik
	religion = tonals
	b_doehua = tribal
203.4.1 = {
	culture = alopilla
}

210.3.1 = {
	religion = qahati
}

215.4.1 = {
	culture = apaholun
}

320.4.1 = {
	culture = taepinik
}

510.4.1 = {
	b_doehua = castle
}

541.4.1 = {
	culture = baheya
}

580.4.1 = {
	culture = taepinik
}

635.4.1 = {
	b_kevritib = temple
}

867.3.1 = {
	religion = raksaensa
}

