	title = c_lahen
	max_settlements = 3
	culture = neanera
	religion = qeaxasika
	b_tatesi = tribal
206.4.1 = {
	culture = wityeju
}

221.4.1 = {
	culture = rahesi
}

223.3.1 = {
	religion = quon
}

231.3.1 = {
	religion = qeaxasika
}

240.3.1 = {
	religion = quon
}

245.3.1 = {
	religion = qeaxasika
}

248.3.1 = {
	religion = quon
}

261.3.1 = {
	religion = qeaxasika
}

264.3.1 = {
	religion = quon
}

265.3.1 = {
	religion = qeaxasika
}

275.3.1 = {
	religion = quon
}

278.3.1 = {
	religion = qeaxasika
}

279.3.1 = {
	religion = quon
}

281.3.1 = {
	religion = qeaxasika
}

287.3.1 = {
	religion = quon
}

293.3.1 = {
	religion = qeaxasika
}

295.3.1 = {
	religion = quon
}

297.3.1 = {
	religion = qeaxasika
}

310.3.1 = {
	religion = quon
}

313.4.1 = {
	culture = neanera
}

313.3.1 = {
	religion = qeaxasika
}

326.4.1 = {
	culture = rahesi
}

