	title = c_agomeus
	max_settlements = 3
	culture = loetay
	religion = lemolcu
	b_toetay = tribal
1.1.1 = {
	b_romalk = ct_port_1
}

246.4.1 = {
	culture = lanalk
}

257.4.1 = {
	culture = loetay
}

292.4.1 = {
	culture = lanalk
}

293.4.1 = {
	culture = loetay
}

327.4.1 = {
	culture = lanalk
}

346.4.1 = {
	culture = loetay
}

366.4.1 = {
	culture = lanalk
}

384.4.1 = {
	culture = loetay
}

414.4.1 = {
	culture = lanalk
}

820.4.1 = {
	b_toetay = castle
}

858.4.1 = {
	b_romalk = city
}

955.4.1 = {
	b_batalk = temple
}

