	title = c_rensaetsa
	max_settlements = 3
	culture = taepinik
	religion = tonals
	b_rillag = tribal
210.3.1 = {
	religion = qahati
}

222.3.1 = {
	religion = tonals
}

225.3.1 = {
	religion = qahati
}

226.3.1 = {
	religion = tonals
}

230.3.1 = {
	religion = qahati
}

243.4.1 = {
	culture = apaholun
}

297.4.1 = {
	culture = taepinik
}

335.4.1 = {
	culture = apaholun
}

373.4.1 = {
	culture = taepinik
}

445.4.1 = {
	culture = baheya
}

479.4.1 = {
	culture = taepinik
}

515.4.1 = {
	b_rillag = castle
}

541.4.1 = {
	culture = baheya
}

542.4.1 = {
	culture = taepinik
}

555.4.1 = {
	culture = baheya
}

569.4.1 = {
	culture = taepinik
}

650.4.1 = {
	b_sipiisa = city
}

827.3.1 = {
	religion = raksaensa
}

830.4.1 = {
	culture = taepeke
}

