	title = c_balan
	max_settlements = 3
	culture = loetay
	religion = lemolcu
	b_dohan = tribal
214.4.1 = {
	culture = keinohas
}

240.4.1 = {
	culture = loetay
}

292.4.1 = {
	culture = lanalk
}

297.4.1 = {
	culture = loetay
}

327.4.1 = {
	culture = lanalk
}

350.4.1 = {
	culture = loetay
}

414.4.1 = {
	culture = lanalk
}

423.4.1 = {
	culture = loetay
}

554.4.1 = {
	culture = lanalk
}

720.4.1 = {
	b_dohan = castle
}

743.4.1 = {
	culture = loetay
}

819.4.1 = {
	b_ebern = temple
}

830.4.1 = {
	culture = lanalk
}

916.4.1 = {
	b_rusyata = city
}

