	title = c_derieter
	max_settlements = 7
	culture = loetay
	religion = lemolcu
	b_lolier = tribal
1.1.1 = {
	b_ranilia = ct_port_1
}

246.4.1 = {
	culture = lanalk
}

257.4.1 = {
	culture = loetay
}

292.4.1 = {
	culture = lanalk
}

293.4.1 = {
	culture = loetay
}

327.4.1 = {
	culture = lanalk
}

346.4.1 = {
	culture = loetay
}

366.4.1 = {
	culture = lanalk
}

384.4.1 = {
	culture = loetay
}

414.4.1 = {
	culture = lanalk
}

790.4.1 = {
	b_lolier = castle
}

832.4.1 = {
	b_talene = temple
}

944.4.1 = {
	b_ranilia = city
}

1041.4.1 = {
	b_realay = city
}

