	title = c_delia
	max_settlements = 7
	culture = taepinik
	religion = raksaensa
	b_apatli = tribal
204.3.1 = {
	religion = tonals
}

206.3.1 = {
	religion = raksaensa
}

210.3.1 = {
	religion = qahati
}

219.3.1 = {
	religion = raksaensa
}

220.3.1 = {
	religion = qahati
}

224.3.1 = {
	religion = raksaensa
}

225.3.1 = {
	religion = qahati
}

228.3.1 = {
	religion = raksaensa
}

230.3.1 = {
	religion = qahati
}

232.3.1 = {
	religion = raksaensa
}

232.3.1 = {
	religion = qahati
}

235.3.1 = {
	religion = raksaensa
}

235.3.1 = {
	religion = qahati
}

241.3.1 = {
	religion = raksaensa
}

244.3.1 = {
	religion = qahati
}

247.3.1 = {
	religion = raksaensa
}

248.3.1 = {
	religion = qahati
}

255.3.1 = {
	religion = raksaensa
}

257.3.1 = {
	religion = qahati
}

540.4.1 = {
	b_apatli = castle
}

541.4.1 = {
	culture = baheya
}

544.4.1 = {
	culture = taepinik
}

555.4.1 = {
	culture = baheya
}

578.4.1 = {
	culture = taepinik
}

637.4.1 = {
	culture = baheya
}

675.4.1 = {
	b_wonepin = temple
}

862.3.1 = {
	religion = tapa
}

862.4.1 = {
	culture = bamererid
}

