	title = c_kalorgo
	max_settlements = 4
	culture = nilahib
	religion = kevelc
	b_naridai = tribal
207.4.1 = {
	culture = temeir
}

217.3.1 = {
	religion = ecatorgo
}

222.3.1 = {
	religion = kevelc
}

228.3.1 = {
	religion = ecatorgo
}

239.3.1 = {
	religion = kevelc
}

239.3.1 = {
	religion = ecatorgo
}

242.3.1 = {
	religion = kevelc
}

246.3.1 = {
	religion = ecatorgo
}

254.3.1 = {
	religion = kevelc
}

259.3.1 = {
	religion = ecatorgo
}

264.3.1 = {
	religion = kevelc
}

267.4.1 = {
	culture = nodai
}

268.3.1 = {
	religion = ecatorgo
}

272.4.1 = {
	culture = temeir
}

282.3.1 = {
	religion = kevelc
}

286.3.1 = {
	religion = ecatorgo
}

291.3.1 = {
	religion = kevelc
}

296.3.1 = {
	religion = ecatorgo
}

300.3.1 = {
	religion = kevelc
}

302.3.1 = {
	religion = ecatorgo
}

303.3.1 = {
	religion = kevelc
}

304.3.1 = {
	religion = ecatorgo
}

330.4.1 = {
	culture = nodai
}

592.4.1 = {
	culture = temeir
}

613.4.1 = {
	culture = nodai
}

616.4.1 = {
	culture = temeir
}

650.4.1 = {
	culture = nodai
}

786.4.1 = {
	culture = temeir
}

822.4.1 = {
	culture = nodai
}

847.4.1 = {
	b_naridai = castle
}

887.4.1 = {
	b_bevargo = city
}

967.4.1 = {
	culture = keraig
}

978.3.1 = {
	religion = bevargo
}

980.3.1 = {
	religion = ecatorgo
}

989.4.1 = {
	b_talodai = temple
}

