	title = c_sealyata
	max_settlements = 4
	culture = loetay
	religion = lemolcu
	b_kanyata = tribal
200.4.1 = {
	culture = keinohas
}

265.4.1 = {
	culture = derieter
}

956.4.1 = {
	b_kanyata = castle
}

968.4.1 = {
	culture = lanalk
}

