	title = c_diparn
	max_settlements = 3
	culture = rahesi
	religion = quon
	b_nipircea = tribal
201.3.1 = {
	religion = qeaxasika
}

202.3.1 = {
	religion = quon
}

204.3.1 = {
	religion = qeaxasika
}

211.3.1 = {
	religion = quon
}

216.3.1 = {
	religion = qeaxasika
}

223.3.1 = {
	religion = quon
}

231.3.1 = {
	religion = qeaxasika
}

240.3.1 = {
	religion = quon
}

245.3.1 = {
	religion = qeaxasika
}

248.3.1 = {
	religion = quon
}

261.3.1 = {
	religion = qeaxasika
}

262.3.1 = {
	religion = quon
}

265.3.1 = {
	religion = qeaxasika
}

267.3.1 = {
	religion = quon
}

269.3.1 = {
	religion = qeaxasika
}

270.3.1 = {
	religion = quon
}

270.3.1 = {
	religion = qeaxasika
}

271.3.1 = {
	religion = quon
}

272.3.1 = {
	religion = qeaxasika
}

282.3.1 = {
	religion = quon
}

283.3.1 = {
	religion = qeaxasika
}

291.3.1 = {
	religion = quon
}

293.3.1 = {
	religion = qeaxasika
}

299.3.1 = {
	religion = quon
}

301.3.1 = {
	religion = qeaxasika
}

303.3.1 = {
	religion = quon
}

313.3.1 = {
	religion = qeaxasika
}

315.4.1 = {
	culture = neanera
}

380.4.1 = {
	culture = rahesi
}

664.4.1 = {
	culture = reanika
}

698.4.1 = {
	culture = rahesi
}

