	title = c_lopoch
	max_settlements = 4
	culture = dejaseja
	religion = tonals
	b_qekepin = tribal
207.3.1 = {
	religion = raksaensa
}

210.4.1 = {
	culture = taepinik
}

236.4.1 = {
	culture = taepeke
}

505.4.1 = {
	b_qekepin = castle
}

625.4.1 = {
	b_satsaqatsa = city
}

831.4.1 = {
	b_kalipac = temple
}

895.4.1 = {
	b_akara = castle
}

