	title = c_sopatli
	max_settlements = 2
	culture = taepinik
	religion = raksaensa
	b_nakillag = tribal
204.3.1 = {
	religion = tonals
}

206.3.1 = {
	religion = raksaensa
}

210.3.1 = {
	religion = qahati
}

213.3.1 = {
	religion = raksaensa
}

215.3.1 = {
	religion = qahati
}

220.3.1 = {
	religion = raksaensa
}

220.3.1 = {
	religion = qahati
}

225.3.1 = {
	religion = raksaensa
}

225.3.1 = {
	religion = qahati
}

230.3.1 = {
	religion = raksaensa
}

230.3.1 = {
	religion = qahati
}

234.3.1 = {
	religion = raksaensa
}

235.3.1 = {
	religion = qahati
}

238.3.1 = {
	religion = raksaensa
}

238.3.1 = {
	religion = qahati
}

239.3.1 = {
	religion = raksaensa
}

239.3.1 = {
	religion = qahati
}

242.3.1 = {
	religion = raksaensa
}

244.3.1 = {
	religion = qahati
}

250.3.1 = {
	religion = raksaensa
}

253.3.1 = {
	religion = qahati
}

255.3.1 = {
	religion = raksaensa
}

260.3.1 = {
	religion = qahati
}

262.3.1 = {
	religion = raksaensa
}

262.3.1 = {
	religion = qahati
}

525.4.1 = {
	b_nakillag = castle
}

541.4.1 = {
	culture = baheya
}

557.4.1 = {
	culture = taepinik
}

655.4.1 = {
	b_tipepin = city
}

764.3.1 = {
	religion = raksaensa
}

766.4.1 = {
	culture = taepeke
}

