	title = c_karanai
	max_settlements = 3
	culture = nilahib
	religion = kevelc
	b_kanaon = tribal
204.3.1 = {
	religion = bevargo
}

214.3.1 = {
	religion = kevelc
}

221.3.1 = {
	religion = bevargo
}

223.3.1 = {
	religion = kevelc
}

225.3.1 = {
	religion = bevargo
}

228.4.1 = {
	culture = aremishan
}

257.4.1 = {
	culture = keraig
}

855.4.1 = {
	b_kanaon = castle
}

875.3.1 = {
	religion = ecatorgo
}

876.4.1 = {
	culture = nodai
}

878.3.1 = {
	religion = bevargo
}

884.3.1 = {
	religion = ecatorgo
}

884.3.1 = {
	religion = bevargo
}

885.3.1 = {
	religion = ecatorgo
}

887.3.1 = {
	religion = bevargo
}

888.3.1 = {
	religion = ecatorgo
}

898.3.1 = {
	religion = bevargo
}

898.4.1 = {
	b_ranadai = temple
}

900.3.1 = {
	religion = ecatorgo
}

904.3.1 = {
	religion = bevargo
}

907.3.1 = {
	religion = ecatorgo
}

907.3.1 = {
	religion = bevargo
}

909.3.1 = {
	religion = ecatorgo
}

919.3.1 = {
	religion = bevargo
}

924.4.1 = {
	culture = keraig
}

927.4.1 = {
	culture = nodai
}

928.3.1 = {
	religion = ecatorgo
}

938.3.1 = {
	religion = bevargo
}

953.3.1 = {
	religion = ecatorgo
}

954.3.1 = {
	religion = bevargo
}

960.4.1 = {
	culture = keraig
}

974.3.1 = {
	religion = ecatorgo
}

974.3.1 = {
	religion = bevargo
}

980.4.1 = {
	culture = nodai
}

982.3.1 = {
	religion = ecatorgo
}

984.3.1 = {
	religion = bevargo
}

991.3.1 = {
	religion = ecatorgo
}

993.3.1 = {
	religion = bevargo
}

995.3.1 = {
	religion = ecatorgo
}

1003.3.1 = {
	religion = bevargo
}

1005.3.1 = {
	religion = ecatorgo
}

1007.3.1 = {
	religion = bevargo
}

1008.3.1 = {
	religion = ecatorgo
}

1010.3.1 = {
	religion = bevargo
}

1018.3.1 = {
	religion = ecatorgo
}

1021.3.1 = {
	religion = bevargo
}

1027.3.1 = {
	religion = ecatorgo
}

1033.3.1 = {
	religion = bevargo
}

1035.4.1 = {
	b_azuhahib = city
}

1037.3.1 = {
	religion = ecatorgo
}

1045.3.1 = {
	religion = bevargo
}

1061.3.1 = {
	religion = ecatorgo
}

