	title = c_worez
	max_settlements = 4
	culture = noetu
	religion = lemolcu
	b_bealez = tribal
210.4.1 = {
	culture = derieter
}

250.4.1 = {
	culture = enarayalebah
}

261.4.1 = {
	culture = derieter
}

813.4.1 = {
	b_bealez = castle
}

883.4.1 = {
	b_rerier = city
}

964.4.1 = {
	culture = enarayalebah
}

1019.4.1 = {
	b_taratin = temple
}

