	title = c_lahilia
	max_settlements = 6
	culture = enarayalebah
	religion = lemolcu
	b_qolu = tribal
1.1.1 = {
	b_narin = ct_port_1
}

202.4.1 = {
	culture = noetu
}

214.4.1 = {
	culture = derieter
}

502.4.1 = {
	culture = enarayalebah
}

533.4.1 = {
	culture = derieter
}

549.4.1 = {
	culture = enarayalebah
}

756.4.1 = {
	culture = derieter
}

757.4.1 = {
	culture = enarayalebah
}

799.4.1 = {
	culture = derieter
}

835.4.1 = {
	culture = enarayalebah
}

854.4.1 = {
	culture = derieter
}

862.4.1 = {
	culture = enarayalebah
}

883.4.1 = {
	b_qolu = castle
}

929.4.1 = {
	b_narin = city
}

