	title = c_deltakasin
	max_settlements = 2
	culture = enarayalebah
	religion = lemolcu
	b_rudilia = tribal
200.4.1 = {
	culture = noetu
}

217.4.1 = {
	culture = derieter
}

905.4.1 = {
	b_rudilia = castle
}

955.4.1 = {
	b_danyata = temple
}

966.4.1 = {
	culture = enarayalebah
}

