	title = c_raksota
	max_settlements = 2
	culture = enarayalebah
	religion = lemolcu
	b_katye = tribal
736.4.1 = {
	culture = derieter
}

738.4.1 = {
	culture = enarayalebah
}

756.4.1 = {
	culture = derieter
}

1001.4.1 = {
	culture = enarayalebah
}

