	title = c_balasa
	max_settlements = 2
	culture = kalay
	religion = quon
	b_agotutlu = tribal
201.4.1 = {
	culture = risyia
}

252.4.1 = {
	culture = daveel
}

328.4.1 = {
	culture = legeta
}

346.4.1 = {
	culture = daveel
}

404.4.1 = {
	culture = elutimir
}

487.4.1 = {
	culture = daveel
}

849.4.1 = {
	b_agotutlu = castle
}

894.4.1 = {
	b_lilaytipay = temple
}

