	title = c_elutaka
	max_settlements = 2
	culture = ratay
	religion = quon
	b_ekiana = tribal
266.4.1 = {
	culture = daveel
}

269.4.1 = {
	culture = ratay
}

343.4.1 = {
	culture = daveel
}

839.4.1 = {
	b_ekiana = castle
}

873.4.1 = {
	b_kuuryia = temple
}

