	title = c_byellluurmir
	max_settlements = 2
	culture = risyia
	religion = quon
	b_qakeja = tribal
214.4.1 = {
	culture = ratay
}

250.4.1 = {
	culture = daveel
}

290.4.1 = {
	culture = legeta
}

300.4.1 = {
	culture = kalay
}

373.4.1 = {
	culture = daveel
}

839.4.1 = {
	b_qakeja = castle
}

870.4.1 = {
	b_komita = city
}

