	title = c_wyelimir
	max_settlements = 7
	culture = elutimir
	religion = quon
	b_dutyia = tribal
202.4.1 = {
	culture = daveel
}

251.4.1 = {
	culture = kalay
}

266.4.1 = {
	culture = daveel
}

270.4.1 = {
	culture = kalay
}

369.4.1 = {
	culture = daveel
}

840.4.1 = {
	b_dutyia = castle
}

