	title = c_basiunega
	max_settlements = 2
	culture = daveel
	religion = quon
	b_duudp = tribal
203.4.1 = {
	culture = elutimir
}

266.4.1 = {
	culture = daveel
}

268.4.1 = {
	culture = elutimir
}

302.4.1 = {
	culture = daveel
}

333.4.1 = {
	culture = elutimir
}

483.4.1 = {
	culture = daveel
}

840.4.1 = {
	b_duudp = castle
}

