	title = c_egro
	max_settlements = 2
	culture = tatepin
	religion = lemolcu
	b_nagyata = tribal
313.4.1 = {
	culture = loetay
}

666.4.1 = {
	culture = lanalk
}

796.4.1 = {
	culture = loetay
}

824.4.1 = {
	culture = lanalk
}

852.4.1 = {
	culture = loetay
}

914.4.1 = {
	culture = lanalk
}

