	title = c_dorael
	max_settlements = 3
	culture = sibipac
	religion = womipac
	b_rameda = tribal
250.4.1 = {
	culture = emorav
}

275.4.1 = {
	culture = sibipac
}

292.4.1 = {
	culture = emorav
}

317.4.1 = {
	culture = sibipac
}

321.4.1 = {
	culture = sileda
}

351.4.1 = {
	culture = emorav
}

360.4.1 = {
	culture = sileda
}

371.3.1 = {
	religion = nai
}

374.3.1 = {
	religion = womipac
}

376.3.1 = {
	religion = nai
}

389.3.1 = {
	religion = womipac
}

396.3.1 = {
	religion = nai
}

397.3.1 = {
	religion = womipac
}

406.3.1 = {
	religion = nai
}

436.4.1 = {
	culture = selavkudav
}

453.4.1 = {
	culture = sileda
}

477.4.1 = {
	culture = selavkudav
}

506.4.1 = {
	culture = sileda
}

554.4.1 = {
	culture = selavkudav
}

571.4.1 = {
	culture = emorav
}

608.4.1 = {
	culture = selavkudav
}

625.4.1 = {
	culture = emorav
}

729.4.1 = {
	culture = selavkudav
}

734.4.1 = {
	culture = emorav
}

762.4.1 = {
	culture = selavkudav
}

828.4.1 = {
	culture = emorav
}

862.4.1 = {
	culture = sileda
}

