	title = c_davltarlrarl
	max_settlements = 5
	culture = tutyia
	religion = quon
	b_tataka = tribal
206.4.1 = {
	culture = daveel
}

841.4.1 = {
	b_tataka = castle
}

879.4.1 = {
	b_ebilyia = temple
}

