	title = c_ragyia
	max_settlements = 3
	culture = sakentiy
	religion = quon
	b_lomimir = tribal
205.4.1 = {
	culture = legeta
}

244.4.1 = {
	culture = sakentiy
}

266.4.1 = {
	culture = daveel
}

281.4.1 = {
	culture = legeta
}

310.4.1 = {
	culture = daveel
}

333.4.1 = {
	culture = legeta
}

335.4.1 = {
	culture = daveel
}

850.4.1 = {
	b_lomimir = castle
}

888.4.1 = {
	b_butyia = temple
}

