	title = c_barjuzan
	max_settlements = 4
	culture = qamari
	religion = kaugile
	b_ewamorte = tribal
364.4.1 = {
	culture = reylart
}

400.4.1 = {
	culture = qamari
}

425.4.1 = {
	culture = reylart
}

457.4.1 = {
	culture = qamari
}

705.4.1 = {
	culture = reylart
}

711.4.1 = {
	culture = qamari
}

721.4.1 = {
	culture = reylart
}

731.4.1 = {
	culture = qamari
}

751.4.1 = {
	culture = reylart
}

767.4.1 = {
	culture = qamari
}

797.4.1 = {
	culture = reylart
}

800.4.1 = {
	culture = qamari
}

830.4.1 = {
	culture = reylart
}

844.4.1 = {
	b_ewamorte = castle
}

871.4.1 = {
	b_nudala = city
}

