	title = c_soan
	max_settlements = 3
	culture = temeir
	religion = kevelc
	b_sanunah = tribal
217.3.1 = {
	religion = ecatorgo
}

222.3.1 = {
	religion = kevelc
}

228.3.1 = {
	religion = ecatorgo
}

239.3.1 = {
	religion = kevelc
}

239.3.1 = {
	religion = ecatorgo
}

242.3.1 = {
	religion = kevelc
}

246.3.1 = {
	religion = ecatorgo
}

254.3.1 = {
	religion = kevelc
}

259.3.1 = {
	religion = ecatorgo
}

264.3.1 = {
	religion = kevelc
}

267.4.1 = {
	culture = nodai
}

268.3.1 = {
	religion = ecatorgo
}

272.4.1 = {
	culture = temeir
}

282.3.1 = {
	religion = kevelc
}

286.3.1 = {
	religion = ecatorgo
}

291.3.1 = {
	religion = kevelc
}

296.3.1 = {
	religion = ecatorgo
}

300.3.1 = {
	religion = kevelc
}

302.3.1 = {
	religion = ecatorgo
}

303.3.1 = {
	religion = kevelc
}

304.3.1 = {
	religion = ecatorgo
}

330.4.1 = {
	culture = nodai
}

592.4.1 = {
	culture = temeir
}

613.4.1 = {
	culture = nodai
}

616.4.1 = {
	culture = temeir
}

650.4.1 = {
	culture = nodai
}

786.4.1 = {
	culture = temeir
}

822.4.1 = {
	culture = nodai
}

841.4.1 = {
	b_sanunah = castle
}

875.4.1 = {
	b_qurodai = temple
}

967.4.1 = {
	culture = keraig
}

978.3.1 = {
	religion = bevargo
}

980.3.1 = {
	religion = ecatorgo
}

980.4.1 = {
	b_loan = city
}

