	title = c_qyana
	max_settlements = 3
	culture = sibipac
	religion = ekeleda
	b_devael = tribal
200.3.1 = {
	religion = womipac
}

204.3.1 = {
	religion = ekeleda
}

204.3.1 = {
	religion = womipac
}

213.3.1 = {
	religion = ekeleda
}

214.3.1 = {
	religion = womipac
}

219.3.1 = {
	religion = ekeleda
}

223.4.1 = {
	culture = selavkudav
}

231.3.1 = {
	religion = womipac
}

233.3.1 = {
	religion = ekeleda
}

234.3.1 = {
	religion = nai
}

243.4.1 = {
	culture = emorav
}

250.4.1 = {
	culture = selavkudav
}

554.4.1 = {
	culture = tomapur
}

567.4.1 = {
	culture = selavkudav
}

