	title = c_adezahab
	max_settlements = 2
	culture = wajafya
	religion = nolena
	b_tinahab = tribal
1.1.1 = {
	b_qezohn = ct_port_1
}

204.3.1 = {
	religion = nai
}

211.3.1 = {
	religion = nolena
}

217.3.1 = {
	religion = nai
}

218.3.1 = {
	religion = nolena
}

233.3.1 = {
	religion = nai
}

243.3.1 = {
	religion = nolena
}

243.3.1 = {
	religion = nai
}

244.3.1 = {
	religion = nolena
}

247.3.1 = {
	religion = nai
}

252.3.1 = {
	religion = nolena
}

258.3.1 = {
	religion = nai
}

262.4.1 = {
	culture = behalen
}

298.3.1 = {
	religion = nolena
}

299.3.1 = {
	religion = nai
}

300.3.1 = {
	religion = nolena
}

302.4.1 = {
	culture = wajafya
}

309.3.1 = {
	religion = nai
}

311.3.1 = {
	religion = nolena
}

311.3.1 = {
	religion = nai
}

313.3.1 = {
	religion = nolena
}

318.3.1 = {
	religion = nai
}

319.3.1 = {
	religion = nolena
}

325.3.1 = {
	religion = nai
}

328.4.1 = {
	culture = behalen
}

390.4.1 = {
	culture = wajafya
}

410.4.1 = {
	culture = behalen
}

427.4.1 = {
	culture = wajafya
}

487.4.1 = {
	culture = behalen
}

832.4.1 = {
	b_tinahab = castle
}

863.4.1 = {
	b_qezohn = city
}

