	title = c_kityalku
	max_settlements = 5
	culture = lahra
	religion = lajozar
	b_wuoj = tribal
203.3.1 = {
	religion = qeaxasika
}

212.4.1 = {
	culture = ebaudes
}

253.4.1 = {
	culture = lahra
}

255.3.1 = {
	religion = lajozar
}

270.4.1 = {
	culture = qameard
}

292.4.1 = {
	culture = ebaudes
}

339.3.1 = {
	religion = qeaxasika
}

341.3.1 = {
	religion = lajozar
}

350.3.1 = {
	religion = qeaxasika
}

356.3.1 = {
	religion = lajozar
}

361.3.1 = {
	religion = qeaxasika
}

365.3.1 = {
	religion = lajozar
}

365.3.1 = {
	religion = qeaxasika
}

371.3.1 = {
	religion = lajozar
}

371.3.1 = {
	religion = qeaxasika
}

378.3.1 = {
	religion = lajozar
}

381.3.1 = {
	religion = qeaxasika
}

384.3.1 = {
	religion = lajozar
}

390.3.1 = {
	religion = qeaxasika
}

416.4.1 = {
	culture = rahesi
}

471.3.1 = {
	religion = lajozar
}

476.3.1 = {
	religion = qeaxasika
}

510.4.1 = {
	culture = qameard
}

531.4.1 = {
	culture = rahesi
}

593.4.1 = {
	culture = qameard
}

693.4.1 = {
	culture = rahesi
}

