	title = c_seledey
	max_settlements = 7
	culture = tulyalku
	religion = qeaxasika
	b_sonire = tribal
207.4.1 = {
	culture = welika
}

351.4.1 = {
	culture = wityeju
}

361.4.1 = {
	culture = welika
}

437.4.1 = {
	culture = rahesi
}

474.4.1 = {
	culture = welika
}

513.4.1 = {
	culture = rahesi
}

