	title = c_tulesi
	max_settlements = 2
	culture = wuozz
	religion = qeaxasika
	b_nahutlu = tribal
220.4.1 = {
	culture = rahesi
}

229.4.1 = {
	culture = reanika
}

255.3.1 = {
	religion = quon
}

267.4.1 = {
	culture = rahesi
}

370.3.1 = {
	religion = qeaxasika
}

371.4.1 = {
	culture = neanera
}

582.4.1 = {
	culture = rahesi
}

