	title = c_kevadai
	max_settlements = 3
	culture = temeir
	religion = kevelc
	b_kureir = tribal
204.4.1 = {
	culture = kuhudis
}

217.3.1 = {
	religion = ecatorgo
}

221.3.1 = {
	religion = kevelc
}

228.3.1 = {
	religion = ecatorgo
}

229.3.1 = {
	religion = kevelc
}

231.4.1 = {
	culture = barelc
}

231.3.1 = {
	religion = ecatorgo
}

235.3.1 = {
	religion = kevelc
}

239.3.1 = {
	religion = ecatorgo
}

243.3.1 = {
	religion = kevelc
}

246.3.1 = {
	religion = ecatorgo
}

257.3.1 = {
	religion = kevelc
}

259.3.1 = {
	religion = ecatorgo
}

265.3.1 = {
	religion = kevelc
}

267.4.1 = {
	culture = nodai
}

268.3.1 = {
	religion = ecatorgo
}

291.4.1 = {
	culture = barelc
}

338.4.1 = {
	culture = temeir
}

375.4.1 = {
	culture = barelc
}

397.4.1 = {
	culture = temeir
}

524.4.1 = {
	culture = nodai
}

583.4.1 = {
	culture = temeir
}

606.4.1 = {
	culture = nodai
}

688.4.1 = {
	culture = temeir
}

757.4.1 = {
	culture = nodai
}

760.4.1 = {
	culture = temeir
}

822.4.1 = {
	culture = nodai
}

833.4.1 = {
	culture = temeir
}

841.4.1 = {
	b_kureir = castle
}

875.4.1 = {
	b_epaegum = temple
}

979.4.1 = {
	b_raraold = city
}

