	title = c_qeja
	max_settlements = 2
	culture = ratay
	religion = quon
	b_takyia = tribal
250.4.1 = {
	culture = daveel
}

290.4.1 = {
	culture = legeta
}

300.4.1 = {
	culture = kalay
}

373.4.1 = {
	culture = daveel
}

840.4.1 = {
	b_takyia = castle
}

872.4.1 = {
	b_sareta = temple
}

