	title = c_erislav
	max_settlements = 3
	culture = elutimir
	religion = quon
	b_biuneja = tribal
266.4.1 = {
	culture = daveel
}

268.4.1 = {
	culture = elutimir
}

302.4.1 = {
	culture = daveel
}

333.4.1 = {
	culture = elutimir
}

483.4.1 = {
	culture = daveel
}

877.4.1 = {
	b_biuneja = castle
}

