	title = c_necralar
	max_settlements = 2
	culture = emorav
	religion = womipac
	b_bavbolm = tribal
371.3.1 = {
	religion = nai
}

378.3.1 = {
	religion = womipac
}

378.3.1 = {
	religion = nai
}

379.3.1 = {
	religion = womipac
}

382.3.1 = {
	religion = nai
}

392.3.1 = {
	religion = womipac
}

396.3.1 = {
	religion = nai
}

397.3.1 = {
	religion = womipac
}

406.3.1 = {
	religion = nai
}

436.4.1 = {
	culture = selavkudav
}

446.4.1 = {
	culture = emorav
}

608.4.1 = {
	culture = selavkudav
}

612.4.1 = {
	culture = emorav
}

725.4.1 = {
	culture = selavkudav
}

729.4.1 = {
	culture = emorav
}

754.4.1 = {
	culture = selavkudav
}

