	title = c_nansasersa
	max_settlements = 4
	culture = kematru
	religion = rerus
	b_nanalli = tribal
240.4.1 = {
	culture = kavantas
}

309.4.1 = {
	culture = kukaldis
}

396.4.1 = {
	culture = kavantas
}

618.4.1 = {
	culture = kukaldis
}

649.4.1 = {
	culture = kavantas
}

690.4.1 = {
	culture = kukaldis
}

833.4.1 = {
	b_nanalli = castle
}

874.4.1 = {
	b_dovantas = temple
}

