	title = c_kovantas
	max_settlements = 4
	culture = kematru
	religion = rerus
	b_ekamba = tribal
244.4.1 = {
	culture = kavantas
}

309.4.1 = {
	culture = kukaldis
}

312.4.1 = {
	culture = kavantas
}

588.4.1 = {
	culture = kukaldis
}

833.4.1 = {
	b_ekamba = castle
}

