	title = c_tazhilasa
	max_settlements = 3
	culture = kukaldis
	religion = rerus
	b_tajedatru = tribal
338.4.1 = {
	culture = kavantas
}

349.4.1 = {
	culture = kukaldis
}

373.4.1 = {
	culture = kavantas
}

523.4.1 = {
	culture = kukaldis
}

873.4.1 = {
	b_tajedatru = castle
}

