	title = c_qunaga
	max_settlements = 3
	culture = kavantas
	religion = rerus
	b_baksaeksa = tribal
232.4.1 = {
	culture = kukaldis
}

438.4.1 = {
	culture = kavantas
}

475.4.1 = {
	culture = kukaldis
}

558.4.1 = {
	culture = kavantas
}

573.4.1 = {
	culture = kukaldis
}

802.4.1 = {
	b_baksaeksa = castle
}

833.4.1 = {
	b_wyoukasd = temple
}

