	title = c_tanalli
	max_settlements = 4
	culture = arante
	religion = rerus
	b_daldis = tribal
1.1.1 = {
	b_akasd = ct_port_1
}

208.4.1 = {
	culture = telovyas
}

216.4.1 = {
	culture = kakilasa
}

818.4.1 = {
	b_daldis = castle
}

845.4.1 = {
	b_akasd = city
}

